<svg width="145" height="146" viewBox="0 0 145 146" fill="none" xmlns="http://www.w3.org/2000/svg">
<path d="M88.234 115.336C88.8541 118.943 90.1507 122.044 91.5036 125.144C92.4619 127.287 93.6457 128.414 96.3516 128.301C100.58 128.076 103.962 131.176 104.582 135.179C105.258 139.688 102.947 143.353 98.6629 144.762C97.6482 145.1 96.6335 145.156 95.6188 145.156C80.511 145.156 65.4033 145.156 50.2955 145.156C44.9402 145.156 41.1633 141.549 41.2196 136.588C41.276 131.684 44.9402 128.188 50.1828 128.301C52.1558 128.358 53.1705 127.681 54.0161 125.934C55.5945 122.608 56.9475 119.282 57.6803 115.448C52.7195 115.448 47.8715 115.448 43.0235 115.448C35.4133 115.448 27.803 115.505 20.1928 115.448C8.97475 115.223 0.800781 107.049 0.800781 95.8872C0.800781 70.7452 0.800781 45.6033 0.800781 20.4049C0.800781 9.18683 9.08749 0.84375 20.2492 0.84375C55.369 0.84375 90.4889 0.84375 125.552 0.84375C136.601 0.84375 144.944 9.18683 145.001 20.1794C145.001 45.4341 145.001 70.6889 145.001 95.9436C145.001 107.049 136.827 115.223 125.665 115.279C113.263 115.336 100.918 115.336 88.234 115.336ZM85.7536 131.007C85.81 130.105 85.5281 128.809 86.5992 128.527C88.4595 128.076 87.8394 127.23 87.3321 126.215C85.9228 123.284 84.7953 120.184 84.1752 116.97C83.9497 115.674 83.386 115.223 82.1458 115.279C75.9449 115.336 69.8003 115.279 63.5994 115.279C62.8102 115.279 61.9646 115.279 61.7955 116.238C61.119 120.409 59.3151 124.13 57.7367 128.188C64.7832 128.188 71.4915 128.245 78.2561 128.188C79.9473 128.188 81.2439 128.527 81.413 130.443C80.962 132.473 79.3836 132.304 77.8615 132.304C68.7856 132.304 59.7097 132.304 50.5774 132.304C47.3078 132.304 45.3348 133.938 45.2784 136.475C45.222 139.012 47.1951 140.703 50.4083 140.703C65.4033 140.703 80.3983 140.703 95.3933 140.703C98.4374 140.703 100.354 139.068 100.41 136.644C100.467 134.108 98.4937 132.36 95.2805 132.304C93.0256 132.247 90.7708 132.304 88.5159 132.304C87.4448 132.304 86.3174 132.247 85.7536 131.007ZM49.3372 5.35352C39.9794 5.29715 30.5653 5.46627 21.2075 5.12803C11.7934 4.7898 4.91595 11.8363 5.02869 21.1941C5.31055 45.8287 5.31055 70.407 5.02869 94.9853C4.91595 104.456 11.6806 111.277 21.433 111.22C55.7636 111.108 90.1507 111.22 124.481 111.164C125.609 111.164 126.736 111.446 127.751 110.769C135.474 110.149 140.604 103.948 140.66 95.1544C140.716 70.4634 140.66 45.7724 140.66 21.0814C140.66 19.3338 140.66 17.5299 140.096 15.7824C138.011 8.96134 132.768 5.24078 124.82 5.18441C101.143 5.18441 77.5233 5.18441 53.847 5.18441C52.3249 5.18441 50.8029 5.29715 49.3372 5.35352Z" fill="#0E0C17"/>
<path d="M49.3347 5.35353C50.8567 5.29716 52.3224 5.18442 53.8445 5.18442C77.5208 5.18442 101.141 5.18442 124.817 5.18442C132.765 5.18442 138.064 8.96135 140.15 15.7824C140.658 17.5299 140.714 19.2775 140.714 21.0814C140.714 45.7724 140.77 70.4634 140.714 95.1544C140.714 103.948 135.528 110.149 127.805 110.769C126.677 110.713 125.55 110.657 124.422 110.657C100.408 110.657 76.3933 110.657 52.3788 110.657C50.8004 110.657 49.1656 110.713 47.869 109.529C45.3886 107.331 43.472 104.794 42.3445 101.581C41.2735 98.4804 41.3862 95.3235 41.3862 92.1667C41.3862 88.1642 41.3862 88.1642 45.2195 88.1642C70.6434 88.1642 96.0672 88.1642 121.491 88.1642C122.562 88.1642 123.746 88.5025 124.761 87.7133C130.905 86.7549 134.344 82.8089 134.344 76.6079C134.344 58.5689 134.344 40.5861 134.344 22.547C134.344 16.2897 130.962 12.4001 124.761 11.4417C123.746 10.6525 122.619 10.9908 121.491 10.9908C96.9692 10.9908 72.3909 10.9908 47.869 10.9908C47.1926 10.9908 46.5725 10.9344 45.896 10.9908C44.3176 11.1035 44.2612 10.2579 45.1068 9.35596C46.4033 7.94665 47.9254 6.70647 49.3347 5.35353ZM49.6729 97.9166C49.6729 99.3259 50.2367 100.284 51.3641 100.51C52.5479 100.735 53.4499 100.059 53.7317 98.9877C54.0136 97.8039 54.2954 96.7328 55.7048 96.6764C57.1141 96.6764 57.1141 97.8603 57.4523 98.8186C57.8469 100.002 58.6925 100.792 59.989 100.397C61.1729 100.059 61.7366 99.1004 61.6802 97.8039C61.5111 94.9289 58.6361 92.2794 55.6484 92.223C52.5479 92.2794 49.7293 94.9853 49.6729 97.9166ZM96.18 98.0857C96.2363 95.2108 93.4741 92.4485 90.43 92.3358C87.3859 92.223 84.2854 95.098 84.2291 98.0294C84.2291 99.3259 84.7928 100.228 86.033 100.51C87.3859 100.792 88.1188 99.946 88.5134 98.7622C88.7952 97.7475 88.9643 96.6201 90.3736 96.7328C91.6138 96.8456 91.9521 97.7475 92.1775 98.875C92.403 100.002 93.2486 100.679 94.4324 100.566C95.6162 100.284 96.2363 99.3823 96.18 98.0857ZM72.8983 106.823C75.2095 106.936 77.0698 106.034 78.5355 104.343C79.3247 103.441 79.3811 102.483 78.5919 101.581C77.8026 100.735 76.8443 100.397 75.886 101.243C73.8566 102.99 71.9399 103.047 69.9105 101.243C69.0086 100.453 67.9939 100.679 67.2047 101.581C66.4155 102.483 66.4718 103.441 67.2047 104.343C68.7267 105.978 70.587 106.936 72.8983 106.823Z" fill="#A29BCB"/>
<path d="M49.3372 5.35353C47.9279 6.70646 46.4059 7.94665 45.1093 9.35596C44.2637 10.2579 44.3201 11.0471 45.8985 10.9907C46.575 10.9344 47.1951 10.9907 47.8716 10.9907C72.3934 10.9907 96.9717 10.9907 121.494 10.9907C122.565 10.9907 123.748 10.6525 124.763 11.4417C123.805 11.4417 122.903 11.4981 121.945 11.4981C88.9105 11.4981 55.8764 11.4981 22.8423 11.4981C15.6267 11.4981 11.5115 15.6696 11.5115 22.8289C11.5115 40.5861 11.6806 58.3434 11.3988 76.0442C11.286 82.3015 15.9649 87.8824 23.1242 87.7133C40.9378 87.4314 58.8078 87.6005 76.6214 87.6005C92.6874 87.6005 108.697 87.6569 124.763 87.6569C123.748 88.4461 122.621 88.1079 121.494 88.1079C96.0698 88.1079 70.6459 88.1079 45.2221 88.1079C41.3888 88.1079 41.3324 88.1079 41.3888 92.1103C41.3888 95.2671 41.276 98.424 42.3471 101.524C43.4182 104.738 45.3912 107.274 47.8716 109.473C49.2245 110.657 50.8029 110.6 52.3813 110.6C76.3959 110.6 100.41 110.6 124.425 110.6C125.552 110.6 126.68 110.657 127.807 110.713C126.793 111.39 125.609 111.108 124.538 111.108C90.2071 111.108 55.82 111.051 21.4894 111.164C11.737 111.22 4.97234 104.399 5.08508 94.9289C5.31057 70.407 5.31057 45.8287 5.02871 21.1941C4.91597 11.8363 11.7934 4.78981 21.2075 5.12804C30.5653 5.46628 39.9795 5.29716 49.3372 5.35353Z" fill="#817BB7"/>
<path d="M85.7543 131.007C86.318 132.247 87.4454 132.304 88.6293 132.304C90.8841 132.304 93.139 132.247 95.3939 132.304C98.6071 132.36 100.58 134.108 100.524 136.644C100.467 139.068 98.5508 140.703 95.5067 140.703C80.5117 140.703 65.5167 140.703 50.5217 140.703C47.3085 140.703 45.3354 139.012 45.3918 136.475C45.4482 133.938 47.4212 132.304 50.6908 132.304C59.7667 132.247 68.8426 132.304 77.9749 132.304C79.497 132.304 81.0754 132.416 81.5264 130.443C82.9357 130.105 84.5141 129.147 85.7543 131.007Z" fill="#9F98C7"/>
<path d="M85.7536 131.007C84.5134 129.147 82.935 130.105 81.4693 130.443C81.2438 128.47 80.0036 128.132 78.3124 128.188C71.5478 128.245 64.8395 128.188 57.793 128.188C59.3714 124.186 61.1753 120.409 61.8518 116.238C62.0209 115.336 62.8665 115.279 63.6557 115.279C69.8566 115.279 76.0012 115.279 82.2021 115.279C83.4423 115.279 84.006 115.73 84.2315 116.97C84.8516 120.184 85.9791 123.228 87.3884 126.215C87.8957 127.23 88.5158 128.076 86.6555 128.527C85.5281 128.809 85.8099 130.049 85.7536 131.007Z" fill="#817BB7"/>
<path d="M124.765 87.7133C108.699 87.7133 92.6891 87.6569 76.623 87.6569C58.8094 87.6569 40.9394 87.4878 23.1258 87.7696C15.9666 87.8824 11.2877 82.3015 11.4004 76.1006C11.6823 58.3434 11.5132 40.5861 11.5132 22.8289C11.5132 15.6696 15.6283 11.4981 22.844 11.4981C55.8781 11.4981 88.9121 11.4981 121.946 11.4981C122.905 11.4981 123.807 11.4417 124.765 11.4417C130.966 12.4 134.348 16.2897 134.348 22.547C134.348 40.5861 134.348 58.5688 134.348 76.6079C134.348 82.8652 130.909 86.7549 124.765 87.7133ZM125.329 16.0642C124.314 15.275 123.186 15.6133 122.059 15.6133C89.3068 15.6133 56.5545 15.6133 23.8587 15.6133C17.996 15.6133 15.6283 17.9809 15.6283 23.7308C15.6283 40.9807 15.6283 58.287 15.6283 75.5369C15.6283 81.2305 17.996 83.5981 23.6332 83.6545C56.5545 83.6545 89.4759 83.6545 122.397 83.6545C123.412 83.6545 124.483 83.9363 125.385 83.2035C128.598 82.3015 130.233 80.3849 130.289 76.9462C130.346 58.738 130.346 40.5298 130.289 22.3779C130.177 18.8265 128.542 16.9662 125.329 16.0642Z" fill="#020305"/>
<path d="M49.6754 97.9166C49.7318 94.9853 52.5504 92.2794 55.5945 92.2794C58.5822 92.2794 61.4572 94.9853 61.6263 97.8603C61.6827 99.1568 61.1753 100.115 59.9352 100.453C58.6386 100.848 57.793 100.059 57.3984 98.875C57.0602 97.9166 57.0602 96.7328 55.6509 96.7328C54.2416 96.7892 54.0161 97.8603 53.6778 99.0441C53.396 100.115 52.5504 100.735 51.3102 100.566C50.2391 100.284 49.619 99.3259 49.6754 97.9166Z" fill="#0E0C17"/>
<path d="M96.1847 98.0294C96.2411 99.3259 95.621 100.284 94.3245 100.453C93.197 100.622 92.3514 99.8896 92.0696 98.7622C91.8441 97.6911 91.5058 96.7328 90.2657 96.6201C88.8564 96.5073 88.7436 97.6348 88.4054 98.6495C88.0671 99.8333 87.2779 100.679 85.925 100.397C84.6848 100.115 84.1211 99.2132 84.1211 97.9166C84.1775 94.9853 87.2779 92.1103 90.322 92.223C93.4789 92.3921 96.2411 95.1544 96.1847 98.0294Z" fill="#0E0C17"/>
<path d="M72.9028 106.823C70.5915 106.936 68.7312 105.978 67.2656 104.287C66.4764 103.385 66.42 102.426 67.2656 101.524C68.0548 100.679 69.0695 100.397 69.9714 101.186C72.0008 102.99 73.9175 102.934 75.9469 101.186C76.9052 100.397 77.8635 100.679 78.6528 101.524C79.442 102.426 79.3856 103.385 78.5964 104.287C77.0743 105.978 75.214 106.936 72.9028 106.823Z" fill="#0E0C17"/>
<path d="M125.326 16.0642C128.539 16.9662 130.23 18.8828 130.23 22.3215C130.287 40.5298 130.287 58.738 130.23 76.8898C130.23 80.3285 128.539 82.2452 125.326 83.1471C98.6056 83.1471 71.8288 83.1471 45.1084 83.0907C44.2629 83.0907 43.4173 83.0907 42.5717 83.0344C41.557 82.978 41.3879 82.3015 41.3879 81.5123C41.3879 80.6104 41.4442 79.7648 42.6281 79.7648C43.3609 79.7648 44.1501 79.7648 44.883 79.7648C63.9931 79.7648 83.1597 79.7648 102.27 79.7648C103.341 79.7648 104.525 80.1594 105.539 79.3138C109.316 78.1864 111.515 75.4241 111.064 72.3237C110.613 69.0541 108.189 66.7428 104.75 66.7428C88.6841 66.6864 72.6744 66.7428 56.6084 66.6864C54.9172 66.6864 53.9025 67.3065 53.6206 68.9977C52.155 68.885 50.5202 69.5614 49.3364 68.0394C49.1109 67.4193 48.6599 67.0247 48.0398 66.7428C46.4614 65.7845 44.7702 66.461 43.1354 66.2918C42.2898 66.1791 41.3315 66.2355 41.3315 65.0517C41.4443 61.5566 40.8805 58.0051 41.6697 54.5101C45.0521 58.9635 48.829 59.3017 52.6623 55.1865C54.1844 53.5517 54.9736 53.0444 56.8902 55.0174C66.5299 64.9953 79.1009 64.9389 88.7969 55.0174C90.4317 53.3262 91.4464 53.1008 92.7429 55.0738C92.9684 55.3556 93.2503 55.6375 93.5321 55.863C96.3507 58.5125 100.071 58.6816 102.608 56.314C105.201 53.89 105.201 49.8875 102.608 46.9562C101.368 45.5469 100.184 44.0812 98.9439 42.7283C98.0419 41.7136 98.0419 40.8116 98.9439 39.7969C100.24 38.3312 101.537 36.8656 102.834 35.3435C105.99 31.6793 104.637 26.0421 100.24 24.8019C97.1963 23.9563 94.6596 25.0274 92.7993 27.4514C91.39 29.3117 90.488 29.199 88.7969 27.4514C79.1009 17.5299 66.5299 17.4735 56.8902 27.4514C54.9736 29.4244 54.2407 28.9171 52.6623 27.2823C48.7726 23.1671 44.9957 23.5054 41.6697 27.9588C40.8242 25.422 41.3879 22.7725 41.3315 20.1794C41.2751 16.4588 41.6134 16.177 45.2776 16.177C71.998 16.0642 98.662 16.0642 125.326 16.0642ZM111.177 50.7331C111.233 54.8483 114.672 58.2306 118.674 58.1179C122.677 58.0051 125.89 54.6792 125.89 50.6768C125.89 46.5616 122.564 43.1229 118.505 43.1229C114.39 43.1793 111.12 46.5616 111.177 50.7331ZM111.177 29.3681C111.177 33.596 114.446 36.9219 118.561 36.8656C122.62 36.8092 125.833 33.596 125.89 29.5372C125.946 25.2529 122.733 22.0397 118.449 22.0961C114.333 22.1524 111.177 25.2529 111.177 29.3681Z" fill="#89D2F1"/>
<path d="M41.7834 54.3973C40.9378 57.8924 41.5579 61.4438 41.4451 64.9389C41.3888 66.1227 42.3471 66.0663 43.249 66.1791C44.8838 66.3482 46.575 65.6717 48.1534 66.6301C45.7294 66.6301 43.249 66.6301 40.825 66.6864C38.1756 66.7428 36.3716 68.0957 35.3006 70.407C33.2712 74.8604 36.428 79.2011 41.6706 79.2574C62.9793 79.3138 84.288 79.3138 105.54 79.3138C104.526 80.103 103.398 79.7648 102.271 79.7648C83.1605 79.7648 63.994 79.7648 44.8838 79.7648C44.151 79.7648 43.3618 79.7648 42.6289 79.7648C41.4451 79.8211 41.3888 80.6104 41.3888 81.5123C41.3888 82.3579 41.6143 83.0344 42.5726 83.0344C43.4182 83.0344 44.2637 83.0907 45.1093 83.0907C71.8297 83.0907 98.6065 83.0907 125.327 83.1471C124.425 83.8799 123.354 83.5981 122.339 83.5981C89.4179 83.5981 56.4965 83.5981 23.5752 83.5981C17.9379 83.5981 15.5703 81.1741 15.5703 75.4805C15.5703 58.2306 15.5703 40.9244 15.5703 23.6745C15.5703 17.8681 17.9379 15.5569 23.8006 15.5569C56.5529 15.5569 89.3051 15.5569 122.001 15.5569C123.072 15.5569 124.256 15.275 125.271 16.0079C98.6065 16.0079 71.9988 16.0079 45.3348 16.0642C41.6706 16.0642 41.3324 16.3461 41.3888 20.0667C41.4451 22.6598 40.8814 25.3093 41.727 27.846C40.8814 29.9318 40.9942 32.0176 41.8961 34.1033C40.9942 38.7822 40.9942 43.4611 41.8961 48.14C40.9942 50.2258 40.9378 52.3115 41.7834 54.3973ZM34.6241 50.6204C34.6241 46.5052 31.4109 43.2356 27.3521 43.1792C23.3497 43.1229 19.911 46.5616 19.9673 50.7331C19.9673 54.7355 23.2933 58.0615 27.2394 58.1742C31.3545 58.1742 34.6805 54.7919 34.6241 50.6204ZM34.6241 29.5372C34.6241 25.3656 31.58 22.2088 27.4648 22.0961C23.1806 22.0397 19.911 25.1965 19.911 29.4244C19.911 33.6523 23.1806 36.9219 27.3521 36.9219C31.4673 36.8656 34.6241 33.596 34.6241 29.5372Z" fill="#49BFE7"/>
<path d="M41.782 54.3973C40.9365 52.3115 41.0492 50.2258 41.9512 48.14C43.9242 45.8851 47.1938 44.0248 47.3065 41.2626C47.4193 38.2749 43.9242 36.4146 41.9512 34.1033C41.1056 32.0176 40.9365 29.9882 41.782 27.846C45.1644 23.3926 48.8849 23.1108 52.7746 27.1696C54.2967 28.8044 55.0859 29.3117 57.0025 27.3387C66.6422 17.3608 79.2132 17.4172 88.9092 27.3387C90.544 29.0298 91.4459 29.199 92.9116 27.3387C94.7719 24.9147 97.3086 23.7872 100.353 24.6892C104.75 25.9294 106.103 31.5666 102.946 35.2308C101.649 36.6965 100.409 38.2185 99.0562 39.6842C98.1542 40.6989 98.1542 41.6008 99.0562 42.6155C100.296 44.0248 101.48 45.4905 102.72 46.8434C105.313 49.7184 105.313 53.7209 102.72 56.2012C100.184 58.5689 96.4631 58.3997 93.6444 55.7503C93.3626 55.4684 93.0807 55.2429 92.8552 54.961C91.5587 52.988 90.544 53.2135 88.9092 54.9047C79.2132 64.8262 66.6422 64.8825 57.0025 54.9047C55.0859 52.9316 54.353 53.439 52.7746 55.0738C48.8849 59.189 45.108 58.9071 41.782 54.3973ZM59.8775 36.6401C61.1177 35.2308 62.076 33.9906 63.2035 32.9195C69.2353 27.0005 75.9436 26.8877 82.0881 32.6377C85.0759 35.3999 87.3308 38.7259 89.1347 42.39C91.0513 46.1106 93.2498 49.4929 96.2376 52.4243C97.3086 53.4954 98.4924 54.3409 99.8454 52.9316C101.029 51.6351 100.353 50.564 99.2817 49.5493C96.4067 46.7871 94.3209 43.4611 92.517 39.966C90.6003 36.3019 88.4018 32.8632 85.4141 29.9318C77.6911 22.4343 68.2206 22.3779 60.4412 29.8754C57.3971 32.7504 57.3971 32.7504 59.8775 36.6401ZM72.7867 58.0051C78.5367 57.9488 82.7646 54.961 86.7107 51.0714C88.7964 49.042 87.4435 47.4635 86.2597 46.3925C84.9631 45.2087 84.5122 47.2944 83.8357 48.0273C77.2401 55.6939 69.0098 55.8066 62.2451 48.1964C59.9903 45.6596 58.13 42.841 56.6079 39.8533C54.7477 36.1327 52.4928 32.7504 49.4487 29.8191C48.434 28.8044 47.3065 28.1279 46.0663 29.3117C44.8262 30.5519 45.4462 31.6793 46.5173 32.694C49.5614 35.569 51.6472 39.1205 53.5638 42.7847C55.6496 46.8435 58.1864 50.5076 61.6814 53.4954C64.8383 56.314 68.5025 58.0051 72.7867 58.0051ZM70.5882 49.1547C70.5882 43.6866 70.5882 38.5567 70.5882 33.0886C66.7549 34.6671 64.5 37.542 62.4706 40.6989C62.1324 41.2062 62.4706 41.5445 62.6961 41.9391C64.6692 44.8704 66.8113 47.6327 70.5882 49.1547ZM75.2107 49.1547C79.0441 47.5763 81.2989 44.7013 83.3283 41.6008C83.5538 41.2062 83.4975 40.9244 83.272 40.5861C81.2426 37.4857 79.0441 34.5543 75.2107 33.145C75.2107 38.6131 75.2107 43.743 75.2107 49.1547ZM95.843 36.5273C97.1959 35.118 98.4925 33.7087 99.789 32.2431C100.691 31.2284 100.691 30.2137 99.7326 29.2553C98.8871 28.4098 97.9287 28.5789 96.9704 29.199C93.5881 31.5102 93.3062 33.0323 95.843 36.5273ZM50.0124 45.716C48.6595 47.1253 47.3629 48.591 46.0663 50.0003C45.1644 50.9586 45.108 52.0297 46.0663 52.988C47.0247 53.9463 48.0394 53.6645 49.0541 52.9316C52.38 50.3949 52.5491 49.3802 50.0124 45.716Z" fill="#100F0D"/>
<path d="M105.541 79.2574C84.2318 79.2574 62.9232 79.2011 41.6709 79.2011C36.4282 79.2011 33.2714 74.804 35.3008 70.3506C36.3719 68.0394 38.1758 66.6864 40.8253 66.6301C43.2493 66.5737 45.7297 66.6301 48.1537 66.5737C48.7174 66.8556 49.1684 67.2502 49.4502 67.8703C49.7321 70.0124 48.7174 70.7452 46.688 70.6889C44.8841 70.6325 43.1365 70.6325 41.3326 70.7452C40.0924 70.8016 39.1905 71.4217 39.1341 72.831C39.0777 74.2403 40.0361 74.804 41.2199 74.9732C41.84 75.0859 42.5164 75.0295 43.1929 75.0295C62.9795 75.0295 82.7662 75.0295 102.553 75.0295C103.286 75.0295 104.075 75.0859 104.808 74.9732C105.879 74.7477 106.724 74.1839 106.724 72.9438C106.724 71.6472 105.935 71.0271 104.864 70.8016C104.075 70.6325 103.173 70.6889 102.327 70.6889C87.3887 70.6889 72.5064 70.6889 57.5678 70.6889C55.933 70.6889 54.2982 70.7452 53.6218 68.8286C53.9036 67.1374 54.9183 66.5173 56.6095 66.5173C72.6756 66.5737 88.6852 66.5173 104.751 66.5737C108.19 66.5737 110.614 68.885 111.065 72.1546C111.516 75.4241 109.317 78.13 105.541 79.2574Z" fill="#020305"/>
<path d="M53.6777 68.9413C54.3541 70.858 55.9889 70.8016 57.6237 70.8016C72.5623 70.8016 87.4446 70.8016 102.383 70.8016C103.229 70.8016 104.074 70.7452 104.92 70.9144C105.991 71.1398 106.78 71.7599 106.78 73.0565C106.78 74.3531 105.935 74.9168 104.864 75.0859C104.131 75.1986 103.342 75.1423 102.609 75.1423C82.8221 75.1423 63.0354 75.1423 43.2488 75.1423C42.5723 75.1423 41.9522 75.1986 41.2758 75.0859C40.0356 74.9168 39.1336 74.3531 39.19 72.9438C39.2464 71.5344 40.2047 70.9144 41.3885 70.858C43.1924 70.7452 44.94 70.7452 46.7439 70.8016C48.7733 70.858 49.788 70.0688 49.5061 67.983C50.5208 69.4487 52.212 68.8286 53.6777 68.9413Z" fill="#6377A1"/>
<path d="M111.176 50.7331C111.12 46.5616 114.39 43.1793 118.505 43.1793C122.564 43.1793 125.89 46.5616 125.89 50.7331C125.89 54.7356 122.676 58.0615 118.674 58.1743C114.615 58.287 111.176 54.9047 111.176 50.7331ZM118.336 47.5763C116.419 47.689 115.348 48.9292 115.404 50.7895C115.461 52.537 116.532 53.7209 118.449 53.7772C120.478 53.8336 121.605 52.5934 121.662 50.6768C121.605 48.8165 120.478 47.6327 118.336 47.5763Z" fill="#0E0E11"/>
<path d="M111.176 29.3681C111.176 25.2529 114.333 22.0961 118.449 22.0961C122.676 22.0961 125.89 25.3093 125.89 29.5372C125.833 33.596 122.62 36.8656 118.561 36.8656C114.39 36.9219 111.12 33.596 111.176 29.3681ZM121.605 29.4808C121.436 27.5078 120.365 26.3804 118.561 26.324C116.588 26.2676 115.348 27.5642 115.404 29.5372C115.461 31.4538 116.645 32.6377 118.73 32.5249C120.647 32.4122 121.436 31.172 121.605 29.4808Z" fill="#0E0E11"/>
<path d="M34.6233 50.6204C34.6233 54.7919 31.2973 58.2306 27.1822 58.1742C23.1797 58.1179 19.9102 54.7919 19.9102 50.7331C19.9102 46.5616 23.2925 43.1229 27.3513 43.1792C31.4101 43.2356 34.6233 46.5052 34.6233 50.6204ZM27.2949 47.5763C25.5474 47.6326 24.3636 48.591 24.2508 50.4513C24.1381 52.4243 25.2091 53.7208 27.1822 53.8336C29.2116 53.9463 30.3954 52.5934 30.3954 50.7331C30.3954 48.9292 29.3807 47.689 27.2949 47.5763Z" fill="#0E0E11"/>
<path d="M34.6262 29.5372C34.6262 33.596 31.413 36.8656 27.3542 36.9219C23.239 36.9219 19.9131 33.6523 19.9695 29.4244C19.9695 25.1965 23.239 22.0397 27.5233 22.096C31.6385 22.2088 34.6826 25.3656 34.6262 29.5372ZM27.2978 32.5249C29.3836 32.4685 30.4547 31.2283 30.4547 29.3681C30.4547 27.5641 29.2145 26.324 27.4106 26.324C25.4376 26.324 24.2537 27.5641 24.3101 29.5372C24.3101 31.3411 25.3248 32.4685 27.2978 32.5249Z" fill="#0E0E11"/>
<path d="M41.8977 34.1033C43.8143 36.471 47.3094 38.3312 47.253 41.2626C47.1967 44.0248 43.8707 45.9415 41.8977 48.14C41.0521 43.4611 40.9957 38.7822 41.8977 34.1033Z" fill="#89D2F1"/>
<path d="M59.8791 36.6401C57.3987 32.7504 57.3987 32.7504 60.4992 29.819C68.2785 22.3215 77.7491 22.3779 85.472 29.8754C88.4598 32.8068 90.7147 36.2455 92.5749 39.9097C94.3789 43.4047 96.4082 46.7871 99.3396 49.4929C100.411 50.5076 101.087 51.6351 99.9033 52.8753C98.5504 54.2846 97.3666 53.439 96.2955 52.3679C93.3641 49.4366 91.1093 45.9979 89.1926 42.3337C87.3323 38.7258 85.0774 35.3999 82.1461 32.5813C76.0015 26.8313 69.2932 26.9441 63.2614 32.8631C62.0776 33.9906 61.1193 35.2308 59.8791 36.6401Z" fill="#F3E475"/>
<path d="M72.7885 58.0051C68.4478 57.9488 64.7836 56.2576 61.5704 53.4954C58.1317 50.5076 55.5386 46.8434 53.4528 42.7847C51.5925 39.1205 49.4504 35.569 46.4063 32.694C45.3352 31.6793 44.7151 30.5519 45.9553 29.3117C47.1955 28.1279 48.3229 28.8044 49.3376 29.8191C52.3254 32.694 54.5803 36.1327 56.4969 39.8533C58.019 42.8974 59.8792 45.6596 62.1341 48.1964C68.8988 55.8066 77.1291 55.6939 83.8374 48.0273C84.4575 47.2944 84.9085 45.2087 86.2614 46.3925C87.4452 47.4635 88.7982 49.042 86.7124 51.0714C82.8227 54.961 78.5948 57.9488 72.7885 58.0051Z" fill="#EA5B6E"/>
<path d="M70.5888 49.1547C66.8119 47.689 64.6697 44.8704 62.6967 41.9391C62.4712 41.5444 62.133 41.2062 62.4712 40.6989C64.5006 37.542 66.7555 34.667 70.5888 33.0886C70.5888 38.5567 70.5888 43.6302 70.5888 49.1547Z" fill="#89D2F1"/>
<path d="M75.2109 49.1547C75.2109 43.743 75.2109 38.6131 75.2109 33.145C79.0442 34.5543 81.2428 37.4856 83.2722 40.5861C83.4976 40.9243 83.554 41.2062 83.3285 41.6008C81.2991 44.7577 79.0442 47.6326 75.2109 49.1547Z" fill="#89D2F1"/>
<path d="M95.8437 36.5273C93.307 33.0886 93.5888 31.5102 96.9711 29.2553C97.9295 28.6352 98.8878 28.4661 99.7334 29.3117C100.692 30.2136 100.692 31.2847 99.7898 32.2994C98.4932 33.6523 97.1403 35.0616 95.8437 36.5273Z" fill="#E6596B"/>
<path d="M50.0127 45.716C52.5494 49.3802 52.3803 50.3949 48.998 52.8753C47.9833 53.6081 46.9686 53.89 46.0103 52.9316C45.0519 51.9733 45.1083 50.9586 46.0103 49.9439C47.3632 48.591 48.6598 47.1817 50.0127 45.716Z" fill="#F2C568"/>
<path d="M118.335 47.5763C120.478 47.6326 121.605 48.8165 121.605 50.7331C121.605 52.6498 120.421 53.8899 118.392 53.8336C116.531 53.7772 115.404 52.5934 115.348 50.8458C115.348 48.9292 116.419 47.689 118.335 47.5763Z" fill="#F3E475"/>
<path d="M121.605 29.4808C121.436 31.172 120.647 32.4122 118.73 32.5249C116.644 32.6377 115.461 31.4538 115.404 29.5372C115.348 27.6205 116.588 26.324 118.561 26.324C120.365 26.324 121.436 27.5078 121.605 29.4808Z" fill="#E88392"/>
<path d="M27.2951 47.5763C29.3809 47.689 30.452 48.9292 30.3956 50.6767C30.3956 52.5934 29.2118 53.8899 27.1824 53.7772C25.2094 53.6645 24.0819 52.4243 24.251 50.3949C24.3638 48.591 25.5476 47.6326 27.2951 47.5763Z" fill="#E6596B"/>
<path d="M27.2959 32.5249C25.3793 32.4685 24.3082 31.3411 24.2518 29.5372C24.1955 27.5642 25.4357 26.324 27.3523 26.324C29.2126 26.324 30.3964 27.5642 30.3964 29.3681C30.4528 31.2284 29.3817 32.4685 27.2959 32.5249Z" fill="#F2C568"/>
</svg>
