<svg width="311" height="266" viewBox="0 0 311 266" fill="none" xmlns="http://www.w3.org/2000/svg">
<g clip-path="url(#clip0_441_17472)">
<g filter="url(#filter0_d_441_17472)">
<path d="M182.817 260.05C182.817 256.764 180.152 254.1 176.864 254.1C173.575 254.1 170.91 256.764 170.91 260.05C170.91 263.336 173.575 266 176.863 266C180.152 266 182.817 263.336 182.817 260.05Z" fill="#CCD0FF" fill-opacity="0.5"/>
<path d="M182.817 217.7C182.817 214.414 180.152 211.75 176.864 211.75C173.575 211.75 170.91 214.414 170.91 217.7C170.91 220.986 173.575 223.65 176.863 223.65C180.152 223.65 182.817 220.986 182.817 217.7Z" fill="#CCD0FF" fill-opacity="0.5"/>
<path d="M182.817 175.35C182.817 172.064 180.152 169.4 176.864 169.4C173.575 169.4 170.91 172.064 170.91 175.35C170.91 178.636 173.575 181.3 176.863 181.3C180.152 181.3 182.817 178.636 182.817 175.35Z" fill="#CCD0FF" fill-opacity="0.5"/>
<path d="M170.91 133C170.91 136.325 173.536 138.95 176.863 138.95C180.191 138.95 182.817 136.325 182.817 133C182.817 129.675 180.191 127.05 176.864 127.05C173.536 127.05 170.91 129.675 170.91 133Z" fill="#CCD0FF" fill-opacity="0.5"/>
<path d="M170.91 90.6498C170.91 93.9748 173.536 96.5998 176.863 96.5998C180.191 96.5998 182.817 93.9748 182.817 90.6498C182.817 87.3248 180.191 84.6998 176.864 84.6998C173.536 84.6998 170.91 87.3248 170.91 90.6498Z" fill="#CCD0FF" fill-opacity="0.5"/>
<path d="M170.91 48.2998C170.91 51.6248 173.536 54.2498 176.863 54.2498C180.191 54.2498 182.817 51.6248 182.817 48.2998C182.817 44.9748 180.191 42.3498 176.864 42.3498C173.536 42.3498 170.91 44.9748 170.91 48.2998Z" fill="#CCD0FF" fill-opacity="0.5"/>
<path d="M170.91 5.94983C170.91 9.27483 173.536 11.8998 176.863 11.8998C180.191 11.8998 182.817 9.27483 182.817 5.94983C182.817 2.62483 180.191 -0.000163626 176.864 -0.000163772C173.536 -0.000163917 170.91 2.62483 170.91 5.94983Z" fill="#CCD0FF" fill-opacity="0.5"/>
<path d="M225.545 260.05C225.545 256.764 222.879 254.1 219.591 254.1C216.303 254.1 213.637 256.764 213.637 260.05C213.637 263.336 216.303 266 219.591 266C222.879 266 225.545 263.336 225.545 260.05Z" fill="#CCD0FF" fill-opacity="0.5"/>
<path d="M225.545 217.7C225.545 214.414 222.879 211.75 219.591 211.75C216.303 211.75 213.637 214.414 213.637 217.7C213.637 220.986 216.303 223.65 219.591 223.65C222.879 223.65 225.545 220.986 225.545 217.7Z" fill="#CCD0FF" fill-opacity="0.5"/>
<path d="M225.545 175.35C225.545 172.064 222.879 169.4 219.591 169.4C216.303 169.4 213.637 172.064 213.637 175.35C213.637 178.636 216.303 181.3 219.591 181.3C222.879 181.3 225.545 178.636 225.545 175.35Z" fill="#CCD0FF" fill-opacity="0.5"/>
<path d="M213.637 133C213.637 136.325 216.264 138.95 219.591 138.95C222.918 138.95 225.545 136.325 225.545 133C225.545 129.675 222.918 127.05 219.591 127.05C216.264 127.05 213.637 129.675 213.637 133Z" fill="#CCD0FF" fill-opacity="0.5"/>
<path d="M213.637 90.6498C213.637 93.9748 216.264 96.5998 219.591 96.5998C222.918 96.5998 225.545 93.9748 225.545 90.6498C225.545 87.3248 222.918 84.6998 219.591 84.6998C216.264 84.6998 213.637 87.3248 213.637 90.6498Z" fill="#CCD0FF" fill-opacity="0.5"/>
<path d="M213.637 48.2998C213.637 51.6248 216.264 54.2498 219.591 54.2498C222.918 54.2498 225.545 51.6248 225.545 48.2998C225.545 44.9748 222.918 42.3498 219.591 42.3498C216.264 42.3498 213.637 44.9748 213.637 48.2998Z" fill="#CCD0FF" fill-opacity="0.5"/>
<path d="M213.637 5.94983C213.637 9.27483 216.264 11.8998 219.591 11.8998C222.918 11.8998 225.545 9.27483 225.545 5.94983C225.545 2.62483 222.918 -0.000163626 219.591 -0.000163772C216.264 -0.000163917 213.637 2.62483 213.637 5.94983Z" fill="#CCD0FF" fill-opacity="0.5"/>
<path d="M268.272 260.05C268.272 256.764 265.607 254.1 262.319 254.1C259.03 254.1 256.365 256.764 256.365 260.05C256.365 263.336 259.03 266 262.319 266C265.607 266 268.272 263.336 268.272 260.05Z" fill="#CCD0FF" fill-opacity="0.5"/>
<path d="M268.272 217.7C268.272 214.414 265.607 211.75 262.319 211.75C259.03 211.75 256.365 214.414 256.365 217.7C256.365 220.986 259.03 223.65 262.319 223.65C265.607 223.65 268.272 220.986 268.272 217.7Z" fill="#CCD0FF" fill-opacity="0.5"/>
<path d="M268.272 175.35C268.272 172.064 265.607 169.4 262.319 169.4C259.03 169.4 256.365 172.064 256.365 175.35C256.365 178.636 259.03 181.3 262.319 181.3C265.607 181.3 268.272 178.636 268.272 175.35Z" fill="#CCD0FF" fill-opacity="0.5"/>
<path d="M256.365 133C256.365 136.325 258.991 138.95 262.319 138.95C265.646 138.95 268.272 136.325 268.272 133C268.272 129.675 265.646 127.05 262.319 127.05C258.991 127.05 256.365 129.675 256.365 133Z" fill="#CCD0FF" fill-opacity="0.5"/>
<path d="M256.365 90.6498C256.365 93.9748 258.991 96.5998 262.319 96.5998C265.646 96.5998 268.272 93.9748 268.272 90.6498C268.272 87.3248 265.646 84.6998 262.319 84.6998C258.991 84.6998 256.365 87.3248 256.365 90.6498Z" fill="#CCD0FF" fill-opacity="0.5"/>
<path d="M256.365 48.2998C256.365 51.6248 258.991 54.2498 262.319 54.2498C265.646 54.2498 268.272 51.6248 268.272 48.2998C268.272 44.9748 265.646 42.3498 262.319 42.3498C258.991 42.3498 256.365 44.9748 256.365 48.2998Z" fill="#CCD0FF" fill-opacity="0.5"/>
<path d="M256.365 5.94983C256.365 9.27483 258.991 11.8998 262.319 11.8998C265.646 11.8998 268.272 9.27483 268.272 5.94983C268.272 2.62483 265.646 -0.000163626 262.319 -0.000163772C258.991 -0.000163917 256.365 2.62483 256.365 5.94983Z" fill="#CCD0FF" fill-opacity="0.5"/>
<path d="M311 260.05C311 256.764 308.334 254.1 305.046 254.1C301.758 254.1 299.092 256.764 299.092 260.05C299.092 263.336 301.758 266 305.046 266C308.334 266 311 263.336 311 260.05Z" fill="#CCD0FF" fill-opacity="0.5"/>
<path d="M311 217.7C311 214.414 308.334 211.75 305.046 211.75C301.758 211.75 299.092 214.414 299.092 217.7C299.092 220.986 301.758 223.65 305.046 223.65C308.334 223.65 311 220.986 311 217.7Z" fill="#CCD0FF" fill-opacity="0.5"/>
<path d="M311 175.35C311 172.064 308.334 169.4 305.046 169.4C301.758 169.4 299.092 172.064 299.092 175.35C299.092 178.636 301.758 181.3 305.046 181.3C308.334 181.3 311 178.636 311 175.35Z" fill="#CCD0FF" fill-opacity="0.5"/>
<path d="M299.268 133C299.268 136.325 301.894 138.95 305.221 138.95C308.549 138.95 311.175 136.325 311.175 133C311.175 129.675 308.549 127.05 305.221 127.05C301.894 127.05 299.268 129.675 299.268 133Z" fill="#CCD0FF" fill-opacity="0.5"/>
<path d="M299.268 90.6498C299.268 93.9748 301.894 96.5998 305.221 96.5998C308.549 96.5998 311.175 93.9748 311.175 90.6498C311.175 87.3248 308.549 84.6998 305.221 84.6998C301.894 84.6998 299.268 87.3248 299.268 90.6498Z" fill="#CCD0FF" fill-opacity="0.5"/>
<path d="M299.268 48.2998C299.268 51.6248 301.894 54.2498 305.221 54.2498C308.549 54.2498 311.175 51.6248 311.175 48.2998C311.175 44.9748 308.549 42.3498 305.221 42.3498C301.894 42.3498 299.268 44.9748 299.268 48.2998Z" fill="#CCD0FF" fill-opacity="0.5"/>
<path d="M299.268 5.94983C299.268 9.27483 301.894 11.8998 305.221 11.8998C308.549 11.8998 311.175 9.27483 311.175 5.94983C311.175 2.62483 308.549 -0.000163626 305.221 -0.000163772C301.894 -0.000163917 299.268 2.62483 299.268 5.94983Z" fill="#CCD0FF" fill-opacity="0.5"/>
<path d="M11.9077 260.05C11.9077 256.764 9.24204 254.1 5.95383 254.1C2.66562 254.1 4.03723e-07 256.764 2.60083e-07 260.05C1.16443e-07 263.336 2.66562 266 5.95383 266C9.24204 266 11.9077 263.336 11.9077 260.05Z" fill="#CCD0FF" fill-opacity="0.5"/>
<path d="M11.9077 217.7C11.9077 214.414 9.24204 211.75 5.95383 211.75C2.66562 211.75 4.03723e-07 214.414 2.60083e-07 217.7C1.16443e-07 220.986 2.66562 223.65 5.95383 223.65C9.24204 223.65 11.9077 220.986 11.9077 217.7Z" fill="#CCD0FF" fill-opacity="0.5"/>
<path d="M11.9077 175.35C11.9077 172.064 9.24204 169.4 5.95383 169.4C2.66562 169.4 4.03722e-07 172.064 2.60083e-07 175.35C1.16443e-07 178.636 2.66562 181.3 5.95383 181.3C9.24204 181.3 11.9077 178.636 11.9077 175.35Z" fill="#CCD0FF" fill-opacity="0.5"/>
<path d="M2.60083e-07 133C1.14743e-07 136.325 2.62669 138.95 5.95383 138.95C9.28097 138.95 11.9077 136.325 11.9077 133C11.9077 129.675 9.28097 127.05 5.95383 127.05C2.62669 127.05 4.05423e-07 129.675 2.60083e-07 133Z" fill="#CCD0FF" fill-opacity="0.5"/>
<path d="M2.60082e-07 90.6498C1.14742e-07 93.9748 2.62669 96.5998 5.95383 96.5998C9.28097 96.5998 11.9077 93.9748 11.9077 90.6498C11.9077 87.3248 9.28097 84.6998 5.95383 84.6998C2.62669 84.6998 4.05423e-07 87.3248 2.60082e-07 90.6498Z" fill="#CCD0FF" fill-opacity="0.5"/>
<path d="M2.60083e-07 48.2998C1.14743e-07 51.6248 2.62669 54.2498 5.95383 54.2498C9.28097 54.2498 11.9077 51.6248 11.9077 48.2998C11.9077 44.9748 9.28097 42.3498 5.95383 42.3498C2.62669 42.3498 4.05423e-07 44.9748 2.60083e-07 48.2998Z" fill="#CCD0FF" fill-opacity="0.5"/>
<path d="M11.9077 5.94983C11.9077 2.62483 9.28097 -0.000163626 5.95383 -0.000163772C2.62669 -0.000163917 4.05424e-07 2.62483 2.60083e-07 5.94983C1.14743e-07 9.27483 2.62669 11.8998 5.95383 11.8998C9.28097 11.8998 11.9077 9.27483 11.9077 5.94983Z" fill="#CCD0FF" fill-opacity="0.5"/>
<path d="M54.6352 260.05C54.6352 256.764 51.9696 254.1 48.6814 254.1C45.3932 254.1 42.7275 256.764 42.7275 260.05C42.7275 263.336 45.3932 266 48.6814 266C51.9696 266 54.6352 263.336 54.6352 260.05Z" fill="#CCD0FF" fill-opacity="0.5"/>
<path d="M54.6352 217.7C54.6352 214.414 51.9696 211.75 48.6814 211.75C45.3932 211.75 42.7275 214.414 42.7275 217.7C42.7275 220.986 45.3932 223.65 48.6814 223.65C51.9696 223.65 54.6352 220.986 54.6352 217.7Z" fill="#CCD0FF" fill-opacity="0.5"/>
<path d="M54.6352 175.35C54.6352 172.064 51.9696 169.4 48.6814 169.4C45.3932 169.4 42.7275 172.064 42.7275 175.35C42.7275 178.636 45.3932 181.3 48.6814 181.3C51.9696 181.3 54.6352 178.636 54.6352 175.35Z" fill="#CCD0FF" fill-opacity="0.5"/>
<path d="M42.7275 133C42.7275 136.325 45.3542 138.95 48.6814 138.95C52.0085 138.95 54.6352 136.325 54.6352 133C54.6352 129.675 52.0085 127.05 48.6814 127.05C45.3542 127.05 42.7275 129.675 42.7275 133Z" fill="#CCD0FF" fill-opacity="0.5"/>
<path d="M42.7275 90.6498C42.7275 93.9748 45.3542 96.5998 48.6814 96.5998C52.0085 96.5998 54.6352 93.9748 54.6352 90.6498C54.6352 87.3248 52.0085 84.6998 48.6814 84.6998C45.3542 84.6998 42.7275 87.3248 42.7275 90.6498Z" fill="#CCD0FF" fill-opacity="0.5"/>
<path d="M42.7275 48.2998C42.7275 51.6248 45.3542 54.2498 48.6814 54.2498C52.0085 54.2498 54.6352 51.6248 54.6352 48.2998C54.6352 44.9748 52.0085 42.3498 48.6814 42.3498C45.3542 42.3498 42.7275 44.9748 42.7275 48.2998Z" fill="#CCD0FF" fill-opacity="0.5"/>
<path d="M42.7275 5.94983C42.7275 9.27483 45.3542 11.8998 48.6814 11.8998C52.0085 11.8998 54.6352 9.27483 54.6352 5.94983C54.6352 2.62483 52.0085 -0.000163626 48.6814 -0.000163772C45.3542 -0.000163917 42.7275 2.62483 42.7275 5.94983Z" fill="#CCD0FF" fill-opacity="0.5"/>
<path d="M97.3627 260.05C97.3627 256.764 94.6971 254.1 91.4089 254.1C88.1207 254.1 85.4551 256.764 85.4551 260.05C85.4551 263.336 88.1207 266 91.4089 266C94.6971 266 97.3627 263.336 97.3627 260.05Z" fill="#CCD0FF" fill-opacity="0.5"/>
<path d="M97.3627 217.7C97.3627 214.414 94.6971 211.75 91.4089 211.75C88.1207 211.75 85.4551 214.414 85.4551 217.7C85.4551 220.986 88.1207 223.65 91.4089 223.65C94.6971 223.65 97.3627 220.986 97.3627 217.7Z" fill="#CCD0FF" fill-opacity="0.5"/>
<path d="M97.3627 175.35C97.3627 172.064 94.6971 169.4 91.4089 169.4C88.1207 169.4 85.4551 172.064 85.4551 175.35C85.4551 178.636 88.1207 181.3 91.4089 181.3C94.6971 181.3 97.3627 178.636 97.3627 175.35Z" fill="#CCD0FF" fill-opacity="0.5"/>
<path d="M85.4551 133C85.4551 136.325 88.0818 138.95 91.4089 138.95C94.736 138.95 97.3627 136.325 97.3627 133C97.3627 129.675 94.736 127.05 91.4089 127.05C88.0818 127.05 85.4551 129.675 85.4551 133Z" fill="#CCD0FF" fill-opacity="0.5"/>
<path d="M85.4551 90.6498C85.4551 93.9748 88.0818 96.5998 91.4089 96.5998C94.736 96.5998 97.3627 93.9748 97.3627 90.6498C97.3627 87.3248 94.736 84.6998 91.4089 84.6998C88.0818 84.6998 85.4551 87.3248 85.4551 90.6498Z" fill="#CCD0FF" fill-opacity="0.5"/>
<path d="M85.4551 48.2998C85.4551 51.6248 88.0818 54.2498 91.4089 54.2498C94.736 54.2498 97.3627 51.6248 97.3627 48.2998C97.3627 44.9748 94.736 42.3498 91.4089 42.3498C88.0818 42.3498 85.4551 44.9748 85.4551 48.2998Z" fill="#CCD0FF" fill-opacity="0.5"/>
<path d="M85.4551 5.94983C85.4551 9.27483 88.0818 11.8998 91.4089 11.8998C94.736 11.8998 97.3627 9.27483 97.3627 5.94983C97.3627 2.62483 94.736 -0.000163626 91.4089 -0.000163772C88.0818 -0.000163917 85.4551 2.62483 85.4551 5.94983Z" fill="#CCD0FF" fill-opacity="0.5"/>
<path d="M140.09 260.05C140.09 256.764 137.425 254.1 134.136 254.1C130.848 254.1 128.183 256.764 128.183 260.05C128.183 263.336 130.848 266 134.136 266C137.425 266 140.09 263.336 140.09 260.05Z" fill="#CCD0FF" fill-opacity="0.5"/>
<path d="M140.09 217.7C140.09 214.414 137.425 211.75 134.136 211.75C130.848 211.75 128.183 214.414 128.183 217.7C128.183 220.986 130.848 223.65 134.136 223.65C137.425 223.65 140.09 220.986 140.09 217.7Z" fill="#CCD0FF" fill-opacity="0.5"/>
<path d="M140.09 175.35C140.09 172.064 137.425 169.4 134.136 169.4C130.848 169.4 128.183 172.064 128.183 175.35C128.183 178.636 130.848 181.3 134.136 181.3C137.425 181.3 140.09 178.636 140.09 175.35Z" fill="#CCD0FF" fill-opacity="0.5"/>
<path d="M128.183 133C128.183 136.325 130.809 138.95 134.136 138.95C137.464 138.95 140.09 136.325 140.09 133C140.09 129.675 137.464 127.05 134.136 127.05C130.809 127.05 128.183 129.675 128.183 133Z" fill="#CCD0FF" fill-opacity="0.5"/>
<path d="M128.183 90.6498C128.183 93.9748 130.809 96.5998 134.136 96.5998C137.464 96.5998 140.09 93.9748 140.09 90.6498C140.09 87.3248 137.464 84.6998 134.136 84.6998C130.809 84.6998 128.183 87.3248 128.183 90.6498Z" fill="#CCD0FF" fill-opacity="0.5"/>
<path d="M128.183 48.2998C128.183 51.6248 130.809 54.2498 134.136 54.2498C137.464 54.2498 140.09 51.6248 140.09 48.2998C140.09 44.9748 137.464 42.3498 134.136 42.3498C130.809 42.3498 128.183 44.9748 128.183 48.2998Z" fill="#CCD0FF" fill-opacity="0.5"/>
<path d="M128.183 5.94983C128.183 9.27483 130.809 11.8998 134.136 11.8998C137.464 11.8998 140.09 9.27483 140.09 5.94983C140.09 2.62483 137.464 -0.000163626 134.136 -0.000163772C130.809 -0.000163917 128.183 2.62483 128.183 5.94983Z" fill="#CCD0FF" fill-opacity="0.5"/>
</g>
</g>
<defs>
<filter id="filter0_d_441_17472" x="-40" y="-40.0002" width="411.175" height="366" filterUnits="userSpaceOnUse" color-interpolation-filters="sRGB">
<feFlood flood-opacity="0" result="BackgroundImageFix"/>
<feColorMatrix in="SourceAlpha" type="matrix" values="0 0 0 0 0 0 0 0 0 0 0 0 0 0 0 0 0 0 127 0" result="hardAlpha"/>
<feOffset dx="10" dy="10"/>
<feGaussianBlur stdDeviation="25"/>
<feComposite in2="hardAlpha" operator="out"/>
<feColorMatrix type="matrix" values="0 0 0 0 0 0 0 0 0 0 0 0 0 0 0 0 0 0 0.25 0"/>
<feBlend mode="normal" in2="BackgroundImageFix" result="effect1_dropShadow_441_17472"/>
<feBlend mode="normal" in="SourceGraphic" in2="effect1_dropShadow_441_17472" result="shape"/>
</filter>
<clipPath id="clip0_441_17472">
<rect width="266" height="311" fill="white" transform="translate(0 266) rotate(-90)"/>
</clipPath>
</defs>
</svg>
