<svg width="295" height="282" viewBox="0 0 295 282" fill="none" xmlns="http://www.w3.org/2000/svg">
<rect y="281.939" width="281.94" height="294.547" rx="20" transform="rotate(-90 0 281.939)" fill="#0200FF" fill-opacity="0.2"/>
</svg>
