<svg width="218" height="218" viewBox="0 0 218 218" fill="none" xmlns="http://www.w3.org/2000/svg">
<g filter="url(#filter0_d_982_11173)">
<rect x="193.516" y="16" width="177.52" height="177.516" rx="20" transform="rotate(90 193.516 16)" fill="url(#paint0_linear_982_11173)" fill-opacity="0.5"/>
<rect x="184" y="26" width="158" height="158" rx="20" transform="rotate(90 184 26)" fill="white" fill-opacity="0.75"/>
<path d="M68.4443 134.293C84.7804 134.293 98.0234 121.05 98.0234 104.714C98.0234 88.3782 84.7804 75.1352 68.4443 75.1352C52.1082 75.1352 38.8652 88.3782 38.8652 104.714C38.8652 121.05 52.1082 134.293 68.4443 134.293Z" fill="#FECC38"/>
<path d="M140.464 98.5693C156.8 98.5693 170.043 85.3263 170.043 68.9902C170.043 52.6542 156.8 39.4112 140.464 39.4112C124.128 39.4112 110.885 52.6542 110.885 68.9902C110.885 85.3263 124.128 98.5693 140.464 98.5693Z" fill="#F175A6"/>
<path d="M140.464 170.226C156.8 170.226 170.043 156.983 170.043 140.647C170.043 124.311 156.8 111.068 140.464 111.068C124.128 111.068 110.885 124.311 110.885 140.647C110.885 156.983 124.128 170.226 140.464 170.226Z" fill="#76CEF0"/>
<path d="M68.8601 131.273C82.8164 131.273 93.7524 121.587 95.4188 107.058C96.7207 95.3927 89.4821 82.6341 75.5779 78.9367C74.7447 78.7284 73.8594 78.5722 73.0782 78.3118C71.8805 77.9473 71.0473 77.1141 71.3597 75.8122C71.6722 74.4061 72.7658 73.8333 74.1198 74.0937C77.1402 74.6144 80.0043 75.4997 82.7644 76.9058C87.347 79.2492 91.2527 82.3737 94.1169 86.644C95.2626 88.3104 96.252 88.7791 98.1267 87.7376C101.772 85.7587 105.522 83.8839 109.323 82.1654C111.146 81.3322 111.406 80.3428 110.781 78.468C108.334 71.1774 108.802 63.9389 111.771 56.8566C111.927 56.5441 112.031 56.2317 112.187 55.9192C112.864 54.5132 113.697 53.1071 115.52 53.8882C117.343 54.6694 116.978 56.2317 116.301 57.6898C115.208 60.0853 114.479 62.5328 114.062 65.1366C111.927 78.9367 121.3 92.5285 134.892 95.2365C150.151 98.2569 164.523 88.2062 166.867 72.8439C168.481 62.2725 163.117 51.2845 153.744 45.9727C144.11 40.4527 131.924 41.4421 123.488 48.4724C122.811 49.0452 122.186 49.618 121.509 50.1388C120.571 50.8158 119.53 50.9199 118.697 50.0346C117.759 49.0973 117.863 48.0037 118.645 46.9622C119.061 46.4414 119.582 45.9727 120.103 45.504C130.205 36.7553 144.63 35.5575 156.504 42.4316C167.648 48.889 173.533 62.3245 170.929 75.5518C168.481 88.1021 157.858 98.1527 144.891 99.9233C132.757 101.538 122.915 97.2674 115.468 87.6334C113.906 85.6024 112.76 85.3421 110.625 86.5398C107.136 88.5187 103.543 90.2372 99.9494 91.9036C98.283 92.6848 97.9184 93.6221 98.4913 95.3927C100.678 101.746 100.626 108.203 98.4392 114.557C97.8143 116.431 98.3871 117.212 100.001 117.994C103.751 119.764 107.5 121.587 111.146 123.618C113.02 124.659 113.958 124.191 115.156 122.576C121.561 113.88 130.31 109.453 141.089 109.557C148.432 109.609 154.994 112.213 160.618 117.004C161.816 118.046 163.326 119.191 161.92 120.858C160.462 122.628 159.003 121.431 157.702 120.337C142.027 107.735 119.582 114.869 114.635 134.189C111.875 144.969 115.103 154.238 123.592 161.269C131.924 168.195 141.61 169.392 151.4 164.966C161.347 160.488 166.606 152.416 167.023 141.376C167.179 137.105 166.294 133.096 164.523 129.242C164.367 128.93 164.211 128.617 164.107 128.305C163.534 126.951 163.482 125.701 164.992 124.972C166.554 124.243 167.492 125.232 168.117 126.482C171.606 133.148 172.439 140.178 170.825 147.469C167.804 161.425 154.785 172.777 138.069 171.84C124.165 171.059 111.823 159.706 109.635 145.125C108.906 140.386 109.323 135.751 110.833 131.273C111.458 129.398 111.094 128.461 109.323 127.628C105.626 125.909 101.98 124.139 98.3871 122.16C96.4603 121.118 95.4188 121.379 94.1169 123.149C87.9199 131.69 79.3794 136.012 68.9643 136.168C54.7475 136.376 41.989 126.17 38.604 112.265C34.5421 95.5489 45.1135 78.416 61.8819 74.6144C63.6004 74.1978 65.7876 73.3646 66.3605 76.0205C66.8812 78.5201 64.5899 78.5722 62.9755 78.9888C52.0396 81.5405 45.1656 88.3625 42.8222 99.2984C39.2289 115.963 51.8313 131.273 68.8601 131.273Z" fill="black"/>
<path d="M139.996 87.5813C136.506 87.5813 133.069 87.6334 129.58 87.5813C125.518 87.4772 123.852 85.6545 123.644 81.6447C123.383 75.4476 125.154 70.4484 130.882 67.48C132.653 66.5427 131.247 65.5532 130.83 64.72C128.643 60.0853 129.841 54.7214 133.851 51.5969C137.86 48.4723 143.38 48.6286 147.286 51.9614C150.984 55.1381 152.077 60.5539 149.682 64.9283C148.848 66.4385 149.005 67.0114 150.463 67.8446C155.827 71.0212 158.326 77.2182 156.92 83.3111C156.295 85.967 154.577 87.373 151.4 87.4772C147.651 87.6334 143.849 87.5292 139.996 87.5813C139.996 87.5292 139.996 87.5292 139.996 87.5813Z" fill="black"/>
<path d="M140.204 82.8424C143.328 82.8424 146.453 82.8424 149.577 82.8424C149.734 82.8424 149.942 82.8424 150.098 82.8424C151.14 82.7903 152.285 82.7903 152.442 81.3843C152.962 76.8537 151.921 72.4793 146.193 70.9171C143.276 70.1359 140.308 70.5004 137.392 70.5525C131.299 70.6567 128.07 74.302 128.174 80.3428C128.226 82.3217 129.008 82.9466 130.83 82.8945C133.955 82.7903 137.079 82.8424 140.204 82.8424Z" fill="#76CEF0"/>
<path d="M140.464 66.0219C143.797 66.0219 146.609 63.2098 146.609 59.877C146.609 56.5962 143.693 53.732 140.36 53.7841C136.923 53.8362 134.371 56.44 134.371 59.9811C134.371 63.5743 136.871 66.0219 140.464 66.0219Z" fill="#F9CCBF"/>
<path d="M140.308 159.029C136.662 159.029 133.017 159.081 129.372 159.029C125.622 158.977 123.904 157.155 123.643 153.457C123.279 147.26 124.945 142.157 130.778 139.084C132.548 138.147 131.246 137.158 130.83 136.272C128.174 130.544 130.621 124.086 136.298 121.743C140.464 120.025 144.89 120.962 147.963 124.243C151.087 127.471 151.921 132.002 149.89 136.012C148.952 137.835 148.952 138.616 150.879 139.709C155.982 142.678 158.586 150.176 156.659 155.697C155.826 158.04 154.108 159.081 151.66 159.081C147.963 159.029 144.161 159.029 140.308 159.029Z" fill="black"/>
<path d="M140.309 154.551C143.59 154.551 146.87 154.551 150.151 154.551C151.089 154.551 152.182 154.655 152.39 153.353C153.172 147.885 151.141 142.834 144.839 142.365C142.444 142.209 139.996 142.313 137.549 142.313C131.143 142.365 128.123 145.542 128.123 151.999C128.123 154.134 128.956 154.655 130.883 154.603C134.06 154.447 137.184 154.551 140.309 154.551Z" fill="#FECC38"/>
<path d="M134.371 131.481C134.371 134.918 136.975 137.626 140.412 137.678C143.589 137.73 146.609 134.814 146.609 131.533C146.661 128.201 143.901 125.493 140.464 125.493C136.871 125.493 134.371 127.94 134.371 131.481Z" fill="#EABB81"/>
<path d="M68.8083 123.097C65.0588 123.097 61.3615 123.149 57.612 123.097C54.0708 123.045 52.3003 121.431 52.092 117.942C51.7274 111.745 53.2376 106.381 59.2784 103.308C60.8407 102.527 60.0596 101.746 59.5909 100.809C56.8309 95.1844 58.6535 89.0915 63.9132 86.3315C67.8189 84.3006 72.7661 84.9255 76.0469 87.8938C79.4318 91.0183 80.5254 95.9656 78.3903 100.288C77.505 102.058 77.6091 102.787 79.3797 103.881C84.5873 107.006 87.139 114.192 85.2643 119.816C84.5352 122.056 82.8688 123.097 80.5254 123.097C76.6197 123.097 72.714 123.097 68.8083 123.097Z" fill="black"/>
<path d="M68.808 118.671C72.0888 118.671 75.3696 118.671 78.7024 118.671C79.7439 118.671 80.7334 118.723 81.0458 117.265C82.2436 111.588 78.3379 106.537 72.5054 106.433C70.3182 106.381 68.1831 106.433 65.9959 106.433C59.6947 106.485 56.5181 109.922 56.7264 116.275C56.7785 118.046 57.4555 118.775 59.2261 118.723C62.4027 118.619 65.5793 118.671 68.808 118.671Z" fill="#F175A6"/>
<path d="M74.8999 95.7572C74.8999 92.164 72.5044 89.7164 68.8591 89.7164C65.4742 89.7164 62.6621 92.4244 62.6621 95.7572C62.6621 99.038 65.5263 101.902 68.8591 101.902C72.2961 101.902 74.8479 99.2984 74.8999 95.7572Z" fill="#EABB81"/>
<rect x="193.516" y="16" width="92" height="177.516" rx="20" transform="rotate(90 193.516 16)" fill="url(#paint1_linear_982_11173)" fill-opacity="0.5"/>
</g>
<defs>
<filter id="filter0_d_982_11173" x="0" y="-3.05176e-05" width="217.516" height="217.52" filterUnits="userSpaceOnUse" color-interpolation-filters="sRGB">
<feFlood flood-opacity="0" result="BackgroundImageFix"/>
<feColorMatrix in="SourceAlpha" type="matrix" values="0 0 0 0 0 0 0 0 0 0 0 0 0 0 0 0 0 0 127 0" result="hardAlpha"/>
<feOffset dx="4" dy="4"/>
<feGaussianBlur stdDeviation="10"/>
<feComposite in2="hardAlpha" operator="out"/>
<feColorMatrix type="matrix" values="0 0 0 0 0 0 0 0 0 0 0 0 0 0 0 0 0 0 0.25 0"/>
<feBlend mode="normal" in2="BackgroundImageFix" result="effect1_dropShadow_982_11173"/>
<feBlend mode="normal" in="SourceGraphic" in2="effect1_dropShadow_982_11173" result="shape"/>
</filter>
<linearGradient id="paint0_linear_982_11173" x1="371.516" y1="98.5156" x2="195.516" y2="100.516" gradientUnits="userSpaceOnUse">
<stop stop-color="#F0F0F0"/>
<stop offset="1" stop-color="white"/>
</linearGradient>
<linearGradient id="paint1_linear_982_11173" x1="193.516" y1="104.516" x2="285.764" y2="104.516" gradientUnits="userSpaceOnUse">
<stop stop-color="white" stop-opacity="0"/>
<stop offset="1" stop-color="white"/>
</linearGradient>
</defs>
</svg>
