<svg width="33" height="35" viewBox="0 0 33 35" fill="none" xmlns="http://www.w3.org/2000/svg">
<g clip-path="url(#clip0_1380_10561)">
<path d="M24.1067 32.1786C23.6781 32.118 22.8329 31.9969 21.9876 31.8637C21.3805 31.7668 20.8686 31.8395 20.4281 32.336C19.8924 32.9295 19.2852 33.4623 18.7138 34.0194C17.3567 35.3274 15.6424 35.3274 14.2972 34.0315C13.7138 33.4744 13.1186 32.9416 12.5829 32.3481C12.1424 31.8516 11.6305 31.7547 11.0233 31.8516C10.2376 31.9848 9.45192 32.0938 8.6662 32.1907C6.86858 32.4087 5.47572 31.3429 5.1543 29.5385C4.99953 28.6907 4.83287 27.8429 4.70192 26.9831C4.63049 26.4865 4.39239 26.1717 3.97572 25.9537C3.20192 25.5419 2.42811 25.1301 1.6662 24.7063C0.142392 23.8343 -0.393323 22.2478 0.297154 20.625C0.630487 19.8256 1.01144 19.0506 1.4162 18.2876C1.70192 17.7547 1.72573 17.2945 1.42811 16.7495C1.03525 16.0229 0.690011 15.272 0.356677 14.5211C-0.417132 12.7772 0.106677 11.1786 1.74953 10.2461C2.47572 9.8343 3.21382 9.44676 3.95192 9.05921C4.39239 8.82911 4.64239 8.50212 4.71382 7.98136C4.83287 7.1215 4.99953 6.27375 5.1662 5.42599C5.48763 3.66994 6.84477 2.62842 8.59477 2.79797C9.38049 2.88274 10.1662 3.00385 10.9519 3.13707C11.5948 3.24606 12.1424 3.16129 12.6186 2.62842C13.1424 2.0471 13.7257 1.52634 14.2852 0.993468C15.6305 -0.31449 17.3448 -0.326601 18.69 0.969247C19.2733 1.52634 19.8686 2.05921 20.4043 2.65264C20.8686 3.1734 21.4043 3.24606 22.0233 3.14918C22.8448 3.01596 23.6662 2.89485 24.4995 2.79797C26.0472 2.62842 27.3805 3.57305 27.7495 5.11112C27.9757 6.06786 28.1424 7.04883 28.2852 8.01769C28.3567 8.51423 28.5948 8.82911 29.0114 9.0471C29.7852 9.45887 30.5591 9.87063 31.321 10.2945C32.8448 11.1665 33.3805 12.7409 32.7019 14.3758C32.3686 15.1751 31.9876 15.9502 31.5948 16.7132C31.321 17.2461 31.2972 17.7184 31.5829 18.2513C31.9638 18.9779 32.321 19.7288 32.6543 20.4796C33.4281 22.2236 32.9043 23.8222 31.2614 24.7426C30.5352 25.1544 29.7972 25.5419 29.0591 25.9295C28.6186 26.1596 28.3805 26.4865 28.3091 27.0073C28.19 27.8793 28.0233 28.7513 27.8448 29.6232C27.4995 31.3066 26.1305 32.3724 24.1067 32.1786ZM24.5591 30.0713C25.2614 30.0955 25.6424 29.8412 25.7495 29.2478C25.9162 28.3516 26.071 27.4675 26.2138 26.5713C26.4043 25.4329 26.9995 24.6094 28.0114 24.0886C28.7376 23.7132 29.4519 23.3135 30.1662 22.926C30.9043 22.5142 31.0591 22.054 30.69 21.2789C30.321 20.4917 29.94 19.7167 29.5591 18.9416C29.0829 17.9727 29.0829 17.0038 29.571 16.035C29.94 15.272 30.3091 14.5211 30.6662 13.7582C31.0472 12.9346 30.9162 12.4865 30.1424 12.0627C29.4281 11.6751 28.7138 11.2755 27.9876 10.9C26.9995 10.3793 26.4162 9.57997 26.2138 8.46579C26.071 7.61804 25.94 6.75817 25.7733 5.91042C25.6067 5.08689 25.2972 4.85679 24.4757 4.94157C23.7138 5.02634 22.94 5.13534 22.1781 5.25644C20.9638 5.45022 19.9043 5.19589 19.0233 4.26336C18.4638 3.66994 17.8686 3.10073 17.2733 2.54364C16.7257 2.02288 16.2614 2.01077 15.7138 2.53153C15.1186 3.10073 14.5233 3.65783 13.9638 4.25125C13.0829 5.18378 12.0352 5.45022 10.8091 5.24433C10.0472 5.12323 9.28525 5.00212 8.51144 4.92945C7.69001 4.84468 7.38049 5.06267 7.20192 5.8862C7.02334 6.73395 6.9043 7.59381 6.76144 8.44156C6.58287 9.56786 5.99953 10.3793 5.01144 10.9C4.27334 11.2876 3.53525 11.6872 2.80906 12.0869C2.09477 12.4744 1.94001 12.9468 2.29715 13.6976C2.6662 14.4848 3.03525 15.2599 3.42811 16.035C3.9162 17.0281 3.9162 18.009 3.4162 19.0021C3.04715 19.7409 2.69001 20.4796 2.34477 21.2305C1.94001 22.0782 2.08287 22.5263 2.88049 22.9623C3.58287 23.3378 4.27334 23.7253 4.98763 24.1007C5.99953 24.6215 6.59477 25.445 6.78525 26.5834C6.92811 27.4312 7.05906 28.291 7.22572 29.1388C7.39239 29.926 7.70192 30.1561 8.48763 30.0713C9.27334 29.9865 10.0591 29.8654 10.8448 29.7443C12.0352 29.5627 13.0829 29.817 13.9519 30.7132C14.5352 31.3187 15.1424 31.9 15.7495 32.4814C16.2733 32.9779 16.7495 32.9779 17.2733 32.4814C17.8686 31.9243 18.4757 31.3551 19.0352 30.7616C19.9281 29.8049 20.9995 29.5385 22.2376 29.7443C23.0352 29.8776 23.8567 29.9744 24.5591 30.0713Z" fill="black"/>
<path d="M9.9988 25.1662C9.58213 25.1783 9.27261 25.0088 9.08213 24.6575C8.87975 24.2942 8.89166 23.9188 9.10594 23.5676C9.21308 23.3859 9.37975 23.2164 9.53451 23.071C13.6774 18.8444 17.8321 14.6299 21.975 10.4153C22.225 10.161 22.4631 9.88246 22.8559 9.83402C23.2845 9.78557 23.6536 9.89457 23.8917 10.2821C24.1178 10.6575 24.1178 11.0572 23.9036 11.4326C23.7964 11.6143 23.6298 11.7838 23.475 11.9292C19.3321 16.1558 15.1774 20.3703 11.0345 24.5849C10.725 24.8876 10.4393 25.2025 9.9988 25.1662Z" fill="black"/>
<path d="M16.1771 12.1231C16.3557 13.8307 14.8081 15.8532 12.5581 15.8895C10.5462 15.9137 8.83191 14.1577 8.84381 12.111C8.85572 10.1006 10.5581 8.38086 12.5462 8.38086C14.57 8.38086 16.1771 10.04 16.1771 12.1231ZM14.0938 12.111C14.0819 11.239 13.4033 10.5366 12.5462 10.5245C11.701 10.5123 10.951 11.2753 10.951 12.1594C10.951 13.0072 11.6771 13.7217 12.5343 13.7217C13.439 13.7217 14.0938 13.0314 14.0938 12.111Z" fill="black"/>
<path d="M16.8095 22.8417C16.8095 20.795 18.4167 19.1358 20.4047 19.1116C22.4047 19.0874 24.1428 20.8313 24.1428 22.8659C24.1428 24.9005 22.4167 26.6687 20.4047 26.6202C18.1071 26.5597 16.6309 24.5251 16.8095 22.8417ZM18.9047 22.9022C18.9167 23.7742 19.6071 24.4766 20.4524 24.4766C21.2976 24.4766 22.0476 23.7137 22.0357 22.8417C22.0238 21.9818 21.3214 21.2915 20.4524 21.2794C19.5476 21.2794 18.8928 21.9576 18.9047 22.9022Z" fill="black"/>
</g>
<defs>
<clipPath id="clip0_1380_10561">
<rect width="33" height="35" fill="white"/>
</clipPath>
</defs>
</svg>
