<svg width="241" height="205" viewBox="0 0 241 205" fill="none" xmlns="http://www.w3.org/2000/svg">
<g clip-path="url(#clip0_808_5502)">
<g filter="url(#filter0_d_808_5502)">
<path d="M99.3311 4.58553C99.3311 7.11804 101.397 9.17105 103.945 9.17105C106.493 9.17105 108.559 7.11804 108.559 4.58553C108.559 2.05301 106.493 -9.02921e-08 103.945 -2.01673e-07C101.397 -3.13054e-07 99.3311 2.05301 99.3311 4.58553Z" fill="#5F5EFF" fill-opacity="0.5"/>
<path d="M99.3311 37.2232C99.3311 39.7557 101.397 41.8087 103.945 41.8087C106.493 41.8087 108.559 39.7557 108.559 37.2232C108.559 34.6907 106.493 32.6377 103.945 32.6377C101.397 32.6377 99.3311 34.6907 99.3311 37.2232Z" fill="#5F5EFF" fill-opacity="0.5"/>
<path d="M99.3311 69.8619C99.3311 72.3944 101.397 74.4474 103.945 74.4474C106.493 74.4474 108.559 72.3944 108.559 69.8619C108.559 67.3294 106.493 65.2764 103.945 65.2764C101.397 65.2764 99.3311 67.3294 99.3311 69.8619Z" fill="#5F5EFF" fill-opacity="0.5"/>
<path d="M108.559 102.5C108.559 99.9371 106.523 97.9141 103.945 97.9141C101.367 97.9141 99.3311 99.9371 99.3311 102.5C99.3311 105.062 101.367 107.085 103.945 107.085C106.523 107.085 108.559 105.062 108.559 102.5Z" fill="#5F5EFF" fill-opacity="0.5"/>
<path d="M108.559 135.138C108.559 132.576 106.523 130.553 103.945 130.553C101.367 130.553 99.3311 132.576 99.3311 135.138C99.3311 137.701 101.367 139.724 103.945 139.724C106.523 139.724 108.559 137.701 108.559 135.138Z" fill="#5F5EFF" fill-opacity="0.5"/>
<path d="M108.559 167.776C108.559 165.213 106.523 163.19 103.945 163.19C101.367 163.19 99.3311 165.213 99.3311 167.776C99.3311 170.338 101.367 172.361 103.945 172.361C106.523 172.361 108.559 170.338 108.559 167.776Z" fill="#5F5EFF" fill-opacity="0.5"/>
<path d="M108.559 200.415C108.559 197.852 106.523 195.829 103.945 195.829C101.367 195.829 99.3311 197.852 99.3311 200.415C99.3311 202.977 101.367 205 103.945 205C106.523 205 108.559 202.977 108.559 200.415Z" fill="#5F5EFF" fill-opacity="0.5"/>
<path d="M66.2208 4.58553C66.2208 7.11804 68.2864 9.17105 70.8345 9.17105C73.3826 9.17105 75.4482 7.11804 75.4482 4.58553C75.4482 2.05301 73.3826 -9.02921e-08 70.8345 -2.01673e-07C68.2864 -3.13054e-07 66.2208 2.05301 66.2208 4.58553Z" fill="#5F5EFF" fill-opacity="0.5"/>
<path d="M66.2208 37.2232C66.2208 39.7557 68.2864 41.8087 70.8345 41.8087C73.3826 41.8087 75.4482 39.7557 75.4482 37.2232C75.4482 34.6907 73.3826 32.6377 70.8345 32.6377C68.2864 32.6377 66.2208 34.6907 66.2208 37.2232Z" fill="#5F5EFF" fill-opacity="0.5"/>
<path d="M66.2208 69.8619C66.2208 72.3944 68.2864 74.4474 70.8345 74.4474C73.3826 74.4474 75.4482 72.3944 75.4482 69.8619C75.4482 67.3294 73.3826 65.2764 70.8345 65.2764C68.2864 65.2764 66.2208 67.3294 66.2208 69.8619Z" fill="#5F5EFF" fill-opacity="0.5"/>
<path d="M75.4482 102.5C75.4482 99.9371 73.4128 97.9141 70.8345 97.9141C68.2562 97.9141 66.2208 99.9371 66.2208 102.5C66.2208 105.062 68.2562 107.085 70.8345 107.085C73.4128 107.085 75.4482 105.062 75.4482 102.5Z" fill="#5F5EFF" fill-opacity="0.5"/>
<path d="M75.4482 135.138C75.4482 132.576 73.4128 130.553 70.8345 130.553C68.2562 130.553 66.2208 132.576 66.2208 135.138C66.2208 137.701 68.2562 139.724 70.8345 139.724C73.4128 139.724 75.4482 137.701 75.4482 135.138Z" fill="#5F5EFF" fill-opacity="0.5"/>
<path d="M75.4482 167.776C75.4482 165.213 73.4128 163.19 70.8345 163.19C68.2562 163.19 66.2208 165.213 66.2208 167.776C66.2208 170.338 68.2562 172.361 70.8345 172.361C73.4128 172.361 75.4482 170.338 75.4482 167.776Z" fill="#5F5EFF" fill-opacity="0.5"/>
<path d="M75.4482 200.415C75.4482 197.852 73.4128 195.829 70.8345 195.829C68.2562 195.829 66.2208 197.852 66.2208 200.415C66.2208 202.977 68.2562 205 70.8345 205C73.4128 205 75.4482 202.977 75.4482 200.415Z" fill="#5F5EFF" fill-opacity="0.5"/>
<path d="M33.1104 4.58553C33.1104 7.11804 35.176 9.17105 37.7241 9.17105C40.2722 9.17105 42.3379 7.11804 42.3379 4.58553C42.3379 2.05301 40.2722 -9.02926e-08 37.7241 -2.01673e-07C35.176 -3.13054e-07 33.1104 2.05301 33.1104 4.58553Z" fill="#5F5EFF" fill-opacity="0.5"/>
<path d="M33.1104 37.2232C33.1104 39.7557 35.176 41.8087 37.7241 41.8087C40.2722 41.8087 42.3379 39.7557 42.3379 37.2232C42.3379 34.6907 40.2722 32.6377 37.7241 32.6377C35.176 32.6377 33.1104 34.6907 33.1104 37.2232Z" fill="#5F5EFF" fill-opacity="0.5"/>
<path d="M33.1104 69.8619C33.1104 72.3944 35.176 74.4474 37.7241 74.4474C40.2722 74.4474 42.3379 72.3944 42.3379 69.8619C42.3379 67.3294 40.2722 65.2764 37.7241 65.2764C35.176 65.2764 33.1104 67.3294 33.1104 69.8619Z" fill="#5F5EFF" fill-opacity="0.5"/>
<path d="M42.3379 102.5C42.3379 99.9371 40.3024 97.9141 37.7241 97.9141C35.1459 97.9141 33.1104 99.9371 33.1104 102.5C33.1104 105.062 35.1459 107.085 37.7241 107.085C40.3024 107.085 42.3379 105.062 42.3379 102.5Z" fill="#5F5EFF" fill-opacity="0.5"/>
<path d="M42.3379 135.138C42.3379 132.576 40.3024 130.553 37.7241 130.553C35.1459 130.553 33.1104 132.576 33.1104 135.138C33.1104 137.701 35.1459 139.724 37.7241 139.724C40.3024 139.724 42.3379 137.701 42.3379 135.138Z" fill="#5F5EFF" fill-opacity="0.5"/>
<path d="M42.3379 167.776C42.3379 165.213 40.3024 163.19 37.7241 163.19C35.1459 163.19 33.1104 165.213 33.1104 167.776C33.1104 170.338 35.1459 172.361 37.7241 172.361C40.3024 172.361 42.3379 170.338 42.3379 167.776Z" fill="#5F5EFF" fill-opacity="0.5"/>
<path d="M42.3379 200.415C42.3379 197.852 40.3024 195.829 37.7241 195.829C35.1459 195.829 33.1104 197.852 33.1104 200.415C33.1104 202.977 35.1459 205 37.7241 205C40.3024 205 42.3379 202.977 42.3379 200.415Z" fill="#5F5EFF" fill-opacity="0.5"/>
<path d="M5.79737e-05 4.58553C5.7863e-05 7.11804 2.06571 9.17105 4.61381 9.17105C7.16191 9.17105 9.22754 7.11804 9.22754 4.58553C9.22754 2.05301 7.16191 -9.02917e-08 4.61381 -2.01673e-07C2.06571 -3.13053e-07 5.80844e-05 2.05301 5.79737e-05 4.58553Z" fill="#5F5EFF" fill-opacity="0.5"/>
<path d="M5.79737e-05 37.2232C5.7863e-05 39.7557 2.06571 41.8087 4.61381 41.8087C7.16191 41.8087 9.22754 39.7557 9.22754 37.2232C9.22754 34.6907 7.16191 32.6377 4.61381 32.6377C2.06571 32.6377 5.80844e-05 34.6907 5.79737e-05 37.2232Z" fill="#5F5EFF" fill-opacity="0.5"/>
<path d="M5.79737e-05 69.8619C5.7863e-05 72.3944 2.06571 74.4474 4.61381 74.4474C7.16191 74.4474 9.22754 72.3944 9.22754 69.8619C9.22754 67.3294 7.16191 65.2764 4.61381 65.2764C2.06571 65.2764 5.80844e-05 67.3294 5.79737e-05 69.8619Z" fill="#5F5EFF" fill-opacity="0.5"/>
<path d="M9.0918 102.5C9.0918 99.9371 7.05631 97.9141 4.47805 97.9141C1.89978 97.9141 -0.135684 99.9371 -0.135684 102.5C-0.135684 105.062 1.89978 107.085 4.47805 107.085C7.05631 107.085 9.0918 105.062 9.0918 102.5Z" fill="#5F5EFF" fill-opacity="0.5"/>
<path d="M9.0918 135.138C9.0918 132.576 7.05631 130.553 4.47805 130.553C1.89978 130.553 -0.135684 132.576 -0.135684 135.138C-0.135684 137.701 1.89978 139.724 4.47805 139.724C7.05631 139.724 9.0918 137.701 9.0918 135.138Z" fill="#5F5EFF" fill-opacity="0.5"/>
<path d="M9.0918 167.776C9.0918 165.213 7.05631 163.19 4.47805 163.19C1.89978 163.19 -0.135684 165.213 -0.135684 167.776C-0.135684 170.338 1.89978 172.361 4.47805 172.361C7.05631 172.361 9.0918 170.338 9.0918 167.776Z" fill="#5F5EFF" fill-opacity="0.5"/>
<path d="M9.0918 200.415C9.0918 197.852 7.05631 195.829 4.47805 195.829C1.89978 195.829 -0.135684 197.852 -0.135684 200.415C-0.135684 202.977 1.89978 205 4.47805 205C7.05631 205 9.0918 202.977 9.0918 200.415Z" fill="#5F5EFF" fill-opacity="0.5"/>
<path d="M231.773 4.58553C231.773 7.11804 233.838 9.17105 236.386 9.17105C238.934 9.17105 241 7.11804 241 4.58553C241 2.05301 238.934 -9.0292e-08 236.386 -2.01673e-07C233.838 -3.13054e-07 231.773 2.05301 231.773 4.58553Z" fill="#5F5EFF" fill-opacity="0.5"/>
<path d="M231.773 37.2232C231.773 39.7557 233.838 41.8087 236.386 41.8087C238.934 41.8087 241 39.7557 241 37.2232C241 34.6907 238.934 32.6377 236.386 32.6377C233.838 32.6377 231.773 34.6907 231.773 37.2232Z" fill="#5F5EFF" fill-opacity="0.5"/>
<path d="M231.773 69.8619C231.773 72.3944 233.838 74.4474 236.386 74.4474C238.934 74.4474 241 72.3944 241 69.8619C241 67.3294 238.934 65.2764 236.386 65.2764C233.838 65.2764 231.773 67.3294 231.773 69.8619Z" fill="#5F5EFF" fill-opacity="0.5"/>
<path d="M241 102.5C241 99.9371 238.965 97.9141 236.386 97.9141C233.808 97.9141 231.773 99.9371 231.773 102.5C231.773 105.062 233.808 107.085 236.386 107.085C238.965 107.085 241 105.062 241 102.5Z" fill="#5F5EFF" fill-opacity="0.5"/>
<path d="M241 135.138C241 132.576 238.965 130.553 236.386 130.553C233.808 130.553 231.773 132.576 231.773 135.138C231.773 137.701 233.808 139.724 236.386 139.724C238.965 139.724 241 137.701 241 135.138Z" fill="#5F5EFF" fill-opacity="0.5"/>
<path d="M241 167.776C241 165.213 238.965 163.19 236.386 163.19C233.808 163.19 231.773 165.213 231.773 167.776C231.773 170.338 233.808 172.361 236.386 172.361C238.965 172.361 241 170.338 241 167.776Z" fill="#5F5EFF" fill-opacity="0.5"/>
<path d="M231.773 200.415C231.773 202.977 233.808 205 236.386 205C238.965 205 241 202.977 241 200.415C241 197.852 238.965 195.829 236.386 195.829C233.808 195.829 231.773 197.852 231.773 200.415Z" fill="#5F5EFF" fill-opacity="0.5"/>
<path d="M198.662 4.58553C198.662 7.11804 200.728 9.17105 203.276 9.17105C205.824 9.17105 207.89 7.11804 207.89 4.58553C207.89 2.05301 205.824 -9.0292e-08 203.276 -2.01673e-07C200.728 -3.13054e-07 198.662 2.05301 198.662 4.58553Z" fill="#5F5EFF" fill-opacity="0.5"/>
<path d="M198.662 37.2232C198.662 39.7557 200.728 41.8087 203.276 41.8087C205.824 41.8087 207.89 39.7557 207.89 37.2232C207.89 34.6907 205.824 32.6377 203.276 32.6377C200.728 32.6377 198.662 34.6907 198.662 37.2232Z" fill="#5F5EFF" fill-opacity="0.5"/>
<path d="M198.662 69.8619C198.662 72.3944 200.728 74.4474 203.276 74.4474C205.824 74.4474 207.89 72.3944 207.89 69.8619C207.89 67.3294 205.824 65.2764 203.276 65.2764C200.728 65.2764 198.662 67.3294 198.662 69.8619Z" fill="#5F5EFF" fill-opacity="0.5"/>
<path d="M207.89 102.5C207.89 99.9371 205.854 97.9141 203.276 97.9141C200.698 97.9141 198.662 99.9371 198.662 102.5C198.662 105.062 200.698 107.085 203.276 107.085C205.854 107.085 207.89 105.062 207.89 102.5Z" fill="#5F5EFF" fill-opacity="0.5"/>
<path d="M207.89 135.138C207.89 132.576 205.854 130.553 203.276 130.553C200.698 130.553 198.662 132.576 198.662 135.138C198.662 137.701 200.698 139.724 203.276 139.724C205.854 139.724 207.89 137.701 207.89 135.138Z" fill="#5F5EFF" fill-opacity="0.5"/>
<path d="M207.89 167.776C207.89 165.213 205.854 163.19 203.276 163.19C200.698 163.19 198.662 165.213 198.662 167.776C198.662 170.338 200.698 172.361 203.276 172.361C205.854 172.361 207.89 170.338 207.89 167.776Z" fill="#5F5EFF" fill-opacity="0.5"/>
<path d="M207.89 200.415C207.89 197.852 205.854 195.829 203.276 195.829C200.698 195.829 198.662 197.852 198.662 200.415C198.662 202.977 200.698 205 203.276 205C205.854 205 207.89 202.977 207.89 200.415Z" fill="#5F5EFF" fill-opacity="0.5"/>
<path d="M165.552 4.58553C165.552 7.11804 167.617 9.17105 170.166 9.17105C172.714 9.17105 174.779 7.11804 174.779 4.58553C174.779 2.05301 172.714 -9.02921e-08 170.166 -2.01673e-07C167.617 -3.13054e-07 165.552 2.05301 165.552 4.58553Z" fill="#5F5EFF" fill-opacity="0.5"/>
<path d="M165.552 37.2232C165.552 39.7557 167.617 41.8087 170.166 41.8087C172.714 41.8087 174.779 39.7557 174.779 37.2232C174.779 34.6907 172.714 32.6377 170.166 32.6377C167.617 32.6377 165.552 34.6907 165.552 37.2232Z" fill="#5F5EFF" fill-opacity="0.5"/>
<path d="M165.552 69.8619C165.552 72.3944 167.617 74.4474 170.166 74.4474C172.714 74.4474 174.779 72.3944 174.779 69.8619C174.779 67.3294 172.714 65.2764 170.166 65.2764C167.617 65.2764 165.552 67.3294 165.552 69.8619Z" fill="#5F5EFF" fill-opacity="0.5"/>
<path d="M174.779 102.5C174.779 99.9371 172.744 97.9141 170.166 97.9141C167.587 97.9141 165.552 99.9371 165.552 102.5C165.552 105.062 167.587 107.085 170.166 107.085C172.744 107.085 174.779 105.062 174.779 102.5Z" fill="#5F5EFF" fill-opacity="0.5"/>
<path d="M174.779 135.138C174.779 132.576 172.744 130.553 170.166 130.553C167.587 130.553 165.552 132.576 165.552 135.138C165.552 137.701 167.587 139.724 170.166 139.724C172.744 139.724 174.779 137.701 174.779 135.138Z" fill="#5F5EFF" fill-opacity="0.5"/>
<path d="M174.779 167.776C174.779 165.213 172.744 163.19 170.166 163.19C167.587 163.19 165.552 165.213 165.552 167.776C165.552 170.338 167.587 172.361 170.166 172.361C172.744 172.361 174.779 170.338 174.779 167.776Z" fill="#5F5EFF" fill-opacity="0.5"/>
<path d="M174.779 200.415C174.779 197.852 172.744 195.829 170.166 195.829C167.587 195.829 165.552 197.852 165.552 200.415C165.552 202.977 167.587 205 170.166 205C172.744 205 174.779 202.977 174.779 200.415Z" fill="#5F5EFF" fill-opacity="0.5"/>
<path d="M132.441 4.58553C132.441 7.11804 134.507 9.17105 137.055 9.17105C139.603 9.17105 141.669 7.11804 141.669 4.58553C141.669 2.05301 139.603 -9.02921e-08 137.055 -2.01673e-07C134.507 -3.13054e-07 132.441 2.05301 132.441 4.58553Z" fill="#5F5EFF" fill-opacity="0.5"/>
<path d="M132.441 37.2232C132.441 39.7557 134.507 41.8087 137.055 41.8087C139.603 41.8087 141.669 39.7557 141.669 37.2232C141.669 34.6907 139.603 32.6377 137.055 32.6377C134.507 32.6377 132.441 34.6907 132.441 37.2232Z" fill="#5F5EFF" fill-opacity="0.5"/>
<path d="M132.441 69.8619C132.441 72.3944 134.507 74.4474 137.055 74.4474C139.603 74.4474 141.669 72.3944 141.669 69.8619C141.669 67.3294 139.603 65.2764 137.055 65.2764C134.507 65.2764 132.441 67.3294 132.441 69.8619Z" fill="#5F5EFF" fill-opacity="0.5"/>
<path d="M141.669 102.5C141.669 99.9371 139.633 97.9141 137.055 97.9141C134.477 97.9141 132.441 99.9371 132.441 102.5C132.441 105.062 134.477 107.085 137.055 107.085C139.633 107.085 141.669 105.062 141.669 102.5Z" fill="#5F5EFF" fill-opacity="0.5"/>
<path d="M141.669 135.138C141.669 132.576 139.633 130.553 137.055 130.553C134.477 130.553 132.441 132.576 132.441 135.138C132.441 137.701 134.477 139.724 137.055 139.724C139.633 139.724 141.669 137.701 141.669 135.138Z" fill="#5F5EFF" fill-opacity="0.5"/>
<path d="M141.669 167.776C141.669 165.213 139.633 163.19 137.055 163.19C134.477 163.19 132.441 165.213 132.441 167.776C132.441 170.338 134.477 172.361 137.055 172.361C139.633 172.361 141.669 170.338 141.669 167.776Z" fill="#5F5EFF" fill-opacity="0.5"/>
<path d="M141.669 200.415C141.669 197.852 139.633 195.829 137.055 195.829C134.477 195.829 132.441 197.852 132.441 200.415C132.441 202.977 134.477 205 137.055 205C139.633 205 141.669 202.977 141.669 200.415Z" fill="#5F5EFF" fill-opacity="0.5"/>
</g>
</g>
<defs>
<filter id="filter0_d_808_5502" x="-40.1357" y="-40" width="341.136" height="305" filterUnits="userSpaceOnUse" color-interpolation-filters="sRGB">
<feFlood flood-opacity="0" result="BackgroundImageFix"/>
<feColorMatrix in="SourceAlpha" type="matrix" values="0 0 0 0 0 0 0 0 0 0 0 0 0 0 0 0 0 0 127 0" result="hardAlpha"/>
<feOffset dx="10" dy="10"/>
<feGaussianBlur stdDeviation="25"/>
<feComposite in2="hardAlpha" operator="out"/>
<feColorMatrix type="matrix" values="0 0 0 0 0 0 0 0 0 0 0 0 0 0 0 0 0 0 0.25 0"/>
<feBlend mode="normal" in2="BackgroundImageFix" result="effect1_dropShadow_808_5502"/>
<feBlend mode="normal" in="SourceGraphic" in2="effect1_dropShadow_808_5502" result="shape"/>
</filter>
<clipPath id="clip0_808_5502">
<rect width="205" height="241" fill="white" transform="translate(241) rotate(90)"/>
</clipPath>
</defs>
</svg>
