<svg width="33" height="32" viewBox="0 0 33 32" fill="none" xmlns="http://www.w3.org/2000/svg">
<path d="M7.21033 14.434C5.38442 14.434 3.55852 14.434 1.71928 14.434C0.653061 14.434 0 13.7943 0 12.7414C0.0133278 9.06289 0.0133278 5.38442 0.0133278 1.71928C0.0133278 0.639733 0.653061 0 1.70596 0C5.38442 0 9.04956 0 12.728 0C13.7943 0 14.4473 0.639733 14.4473 1.69263C14.4473 5.37109 14.4473 9.03623 14.4473 12.7147C14.4473 13.8076 13.8076 14.434 12.7014 14.434C10.8755 14.434 9.04956 14.434 7.21033 14.434Z" fill="#6160FF"/>
<path d="M14.4477 24.2636C14.4477 26.0762 14.4477 27.8888 14.4477 29.7014C14.4477 30.8076 13.8213 31.434 12.715 31.434C9.06323 31.434 5.39809 31.434 1.74628 31.434C0.653405 31.434 0.0136719 30.7943 0.0136719 29.7014C0.0136719 26.0496 0.0136719 22.3844 0.0136719 18.7326C0.0136719 17.6264 0.640077 17 1.74628 17C5.39809 17 9.06323 17 12.715 17C13.8079 17 14.4477 17.6397 14.4477 18.7326C14.4477 20.5718 14.4477 22.4111 14.4477 24.2636Z" fill="#6160FF"/>
<path d="M32.0121 7.26364C32.0121 9.07622 32.0121 10.8888 32.0121 12.7014C32.0121 13.8076 31.3857 14.434 30.2795 14.434C26.6277 14.434 22.9625 14.434 19.3107 14.434C18.2179 14.434 17.5781 13.7943 17.5781 12.7014C17.5781 9.04956 17.5781 5.38442 17.5781 1.73261C17.5781 0.626406 18.2045 0 19.3107 0C22.9625 0 26.6277 0 30.2795 0C31.3724 0 32.0121 0.639733 32.0121 1.73261C32.0121 3.58517 32.0121 5.42441 32.0121 7.26364Z" fill="#6160FF"/>
<path d="M32.0121 24.2103C32.0121 26.0362 32.0121 27.8621 32.0121 29.7014C32.0121 30.8076 31.3857 31.434 30.2795 31.434C26.6277 31.434 22.9625 31.434 19.3107 31.434C18.2179 31.434 17.5781 30.7943 17.5781 29.7014C17.5781 26.0496 17.5781 22.3844 17.5781 18.7326C17.5781 17.6264 18.2045 17 19.3107 17C22.9625 17 26.6277 17 30.2795 17C31.3724 17 32.0121 17.6397 32.0121 18.7326C32.0121 20.5585 32.0121 22.3844 32.0121 24.2103Z" fill="#6160FF"/>
</svg>
