<svg width="46" height="32" viewBox="0 0 46 32" fill="none" xmlns="http://www.w3.org/2000/svg">
<path fill-rule="evenodd" clip-rule="evenodd" d="M1.71928 14.434H7.21033H12.7014C13.8076 14.434 14.4473 13.8076 14.4473 12.7147V1.69263C14.4473 0.639733 13.7943 0 12.728 0H1.70596C0.653061 0 0.0133278 0.639733 0.0133278 1.71928C0.0133278 5.38442 0.0133278 9.06289 0 12.7414C0 13.7943 0.653061 14.434 1.71928 14.434ZM18.5137 1C17.6852 1 17.0137 1.67157 17.0137 2.5C17.0137 3.32843 17.6852 4 18.5137 4H43.5137C44.3421 4 45.0137 3.32843 45.0137 2.5C45.0137 1.67157 44.3421 1 43.5137 1H18.5137ZM18.5137 6C17.6852 6 17.0137 6.67157 17.0137 7.5C17.0137 8.32843 17.6852 9 18.5137 9H43.5137C44.3421 9 45.0137 8.32843 45.0137 7.5C45.0137 6.67157 44.3421 6 43.5137 6H18.5137ZM17.0137 12.5C17.0137 11.6716 17.6852 11 18.5137 11H30.5137C31.3421 11 32.0137 11.6716 32.0137 12.5C32.0137 13.3284 31.3421 14 30.5137 14H18.5137C17.6852 14 17.0137 13.3284 17.0137 12.5Z" fill="#6160FF" fill-opacity="0.5"/>
<path fill-rule="evenodd" clip-rule="evenodd" d="M1.71928 31.434H7.21033H12.7014C13.8076 31.434 14.4473 30.8076 14.4473 29.7147V18.6926C14.4473 17.6397 13.7943 17 12.728 17H1.70596C0.653061 17 0.0133278 17.6397 0.0133278 18.7193C0.0133278 22.3844 0.0133278 26.0629 0 29.7414C0 30.7943 0.653061 31.434 1.71928 31.434ZM18.5137 18C17.6852 18 17.0137 18.6716 17.0137 19.5C17.0137 20.3284 17.6852 21 18.5137 21H43.5137C44.3421 21 45.0137 20.3284 45.0137 19.5C45.0137 18.6716 44.3421 18 43.5137 18H18.5137ZM18.5137 23C17.6852 23 17.0137 23.6716 17.0137 24.5C17.0137 25.3284 17.6852 26 18.5137 26H43.5137C44.3421 26 45.0137 25.3284 45.0137 24.5C45.0137 23.6716 44.3421 23 43.5137 23H18.5137ZM17.0137 29.5C17.0137 28.6716 17.6852 28 18.5137 28H30.5137C31.3421 28 32.0137 28.6716 32.0137 29.5C32.0137 30.3284 31.3421 31 30.5137 31H18.5137C17.6852 31 17.0137 30.3284 17.0137 29.5Z" fill="#6160FF" fill-opacity="0.5"/>
</svg>
