<svg width="58" height="58" viewBox="0 0 58 58" fill="none" xmlns="http://www.w3.org/2000/svg">
<path d="M23.5783 38.5001C22.0383 32.7704 23.2612 27.9467 27.8811 24.4138C29.3305 23.3041 29.7155 22.2624 29.6476 20.6318C29.557 18.7295 29.6249 18.7295 31.482 18.7295C32.5011 18.7295 33.5202 18.7295 34.5393 18.7295C36.351 18.7295 36.4189 18.7974 36.4189 20.5412C36.4189 20.7224 36.4416 20.9262 36.4189 21.1074C36.351 21.583 36.5322 21.7642 37.0078 21.8321C38.3666 21.9906 39.6574 22.353 40.8803 22.9644C41.2427 23.1456 41.605 23.1003 41.99 23.1003C43.9829 23.1003 45.9759 23.1003 47.9914 23.1003C48.6255 23.1003 49.1464 23.2588 49.1464 24.0062C49.1464 24.7535 48.6255 24.9347 47.9914 24.912C46.6779 24.912 45.387 24.912 43.9377 24.912C44.5265 25.5914 45.0473 26.1123 45.4776 26.7238C48.4896 30.9361 48.8746 35.3748 46.6326 40.04C46.3156 40.6741 46.2476 41.0818 46.8591 41.5347C47.3573 41.9197 47.7876 42.4179 48.2405 42.8709C48.4896 43.0973 48.6935 43.3691 49.1011 43.2559C50.0749 43.0294 50.7317 43.5276 51.3884 44.1617C53.2681 46.0188 55.1704 47.8305 57.0501 49.6875C58.2277 50.8425 58.2504 51.8163 57.118 52.994C56.4613 53.6734 55.8272 54.3528 55.1478 55.0095C54.1966 55.9154 53.1775 55.9607 52.249 55.0774C50.1428 53.0845 48.082 51.0463 45.9985 49.0308C45.6135 48.6458 45.2512 48.1928 45.3191 47.6493C45.5456 45.9055 43.8697 45.5432 43.1224 44.5467C42.9412 44.2976 42.7374 44.6147 42.5562 44.6826C40.5633 45.3847 39.8839 46.6982 40.1104 48.8723C40.3595 51.3634 40.1783 53.9225 40.1557 56.4362C40.1557 57.7951 39.9971 57.9536 38.6836 57.9536C37.0983 57.9536 35.5131 57.9536 33.9278 57.9536C32.4784 57.9536 32.3652 57.8403 32.3425 56.4136C32.3425 53.4016 32.3199 50.3896 32.3652 47.3549C32.3652 46.6982 32.2067 46.3585 31.5273 46.1773C30.7799 45.9735 30.0779 45.6111 29.2173 45.2714C29.2173 47.9211 29.2173 50.5028 29.2173 53.0619C29.2173 54.2622 29.1946 55.4851 29.2173 56.6854C29.2399 57.5233 28.9002 57.9536 28.017 57.9309C26.2053 57.9083 24.3935 57.9083 22.5818 57.9309C21.6986 57.9536 21.3589 57.5233 21.3589 56.6854C21.3589 51.0237 21.3589 45.3847 21.3589 39.723C21.3589 38.8851 21.7212 38.4548 22.5818 38.4774C22.8989 38.5227 23.2159 38.5001 23.5783 38.5001ZM46.2023 34.2878C46.2023 28.3543 41.4465 23.5532 35.5357 23.5306C29.6023 23.5079 24.7106 28.3543 24.7106 34.2878C24.7106 40.1986 29.5796 45.045 35.5357 45.045C41.4465 45.0223 46.2023 40.2439 46.2023 34.2878ZM23.2159 48.1023C23.2159 49.6875 23.1933 51.2728 23.2159 52.8354C23.2386 53.8998 22.7177 55.3719 23.4424 55.938C24.1218 56.4815 25.5259 56.0739 26.6129 56.1418C27.2923 56.1871 27.4056 55.9154 27.4056 55.3039C27.3829 51.7257 27.3829 48.1476 27.4056 44.5694C27.4056 44.1844 27.3829 43.8673 27.0432 43.5729C26.1373 42.7803 25.3447 41.8518 24.7559 40.7874C24.4615 40.2665 24.0765 40.2665 23.6236 40.3118C23.0121 40.3797 23.2386 40.878 23.2386 41.195C23.2159 43.505 23.2159 45.7923 23.2159 48.1023ZM38.3213 51.4087C38.3213 50.0499 38.2986 48.6911 38.3213 47.3549C38.3439 46.7435 38.1174 46.5396 37.5286 46.6755C36.6681 46.8793 35.8075 46.902 34.9469 46.834C34.2902 46.7888 34.1316 47.0152 34.1316 47.6493C34.1769 49.4158 34.109 51.1822 34.1543 52.9487C34.1769 53.9904 33.656 55.4398 34.3807 55.938C35.1054 56.4589 36.4869 56.0739 37.5513 56.1192C38.1627 56.1418 38.3213 55.9154 38.2986 55.3266C38.2986 54.0357 38.3213 52.7222 38.3213 51.4087ZM53.6757 53.8772C53.8569 53.7186 53.9928 53.5828 54.1287 53.4695C54.5816 53.0166 54.9892 52.5184 55.4648 52.1107C56.0763 51.5899 56.1442 51.2275 55.4875 50.6387C54.106 49.4158 52.8152 48.1023 51.5016 46.8114C49.4634 44.8411 49.4861 44.8638 47.5611 46.9699C47.1761 47.4002 47.1308 47.6493 47.5611 48.057C49.4408 49.8461 51.2978 51.6578 53.1549 53.4695C53.3134 53.6054 53.4946 53.7186 53.6757 53.8772ZM31.4593 22.3077C32.3878 22.1265 33.2711 21.9453 34.1316 21.7868C34.4487 21.7415 34.6072 21.583 34.5846 21.2659C34.5619 21.0168 34.6978 20.6318 34.3581 20.5865C33.4522 20.5186 32.5011 20.3601 31.6858 20.6092C31.1196 20.813 31.5046 21.6962 31.4593 22.3077ZM47.2894 44.6826C47.3347 44.3882 47.1535 44.275 47.0402 44.1617C46.5647 43.6862 46.0664 43.2332 45.5909 42.735C45.2965 42.4179 45.07 42.3953 44.7529 42.735C44.4585 43.052 44.4585 43.2785 44.7756 43.5729C45.2965 44.0712 45.772 44.592 46.3156 45.0676C46.9044 45.5885 46.995 44.8411 47.2894 44.6826Z" fill="#070505"/>
<path d="M0.00250805 12.7058C0.0251547 5.70795 5.75477 0.000976562 12.7752 0.000976562C19.7731 0.000976562 25.5027 5.75324 25.5027 12.7511C25.5027 19.7489 19.7731 25.4785 12.7752 25.5012C5.73212 25.5238 -0.0201387 19.7489 0.00250805 12.7058ZM11.8241 8.31232C11.8241 5.95706 11.8014 4.34914 11.8467 2.71858C11.8694 2.01653 11.7109 1.83536 10.9635 1.97124C6.61534 2.83181 3.67127 5.3456 2.35776 9.53524C1.02161 13.8155 2.06336 17.6654 5.32448 20.7001C8.58561 23.7347 12.4355 24.3688 16.6478 22.9421C17.4631 22.6703 17.3499 22.3533 16.9875 21.7645C16.127 20.383 15.4249 18.911 14.4964 17.5975C12.3903 14.5855 11.0541 11.3923 11.8241 8.31232ZM13.6358 6.90822C13.6358 8.22173 13.6585 9.53524 13.6132 10.8487C13.5905 11.5508 13.7264 11.8452 14.519 11.8226C17.2366 11.7773 19.9316 11.7773 22.6492 11.8226C23.5551 11.8452 23.623 11.4829 23.4871 10.7582C22.7171 6.29676 18.8219 2.53741 14.3832 1.92595C13.7264 1.83536 13.6132 2.01653 13.6132 2.60535C13.6585 4.05474 13.6358 5.48148 13.6358 6.90822ZM19.0257 13.6343C17.7122 13.6343 16.3987 13.6343 15.0852 13.6116C14.5417 13.6116 14.3832 13.7475 14.7002 14.2458C16.059 16.5331 17.4178 18.843 18.754 21.1303C18.9804 21.5153 19.1616 21.5833 19.5466 21.2889C21.7207 19.4998 23.0795 17.2351 23.5551 14.4496C23.6683 13.7702 23.3965 13.6116 22.7624 13.6116C21.5169 13.6569 20.2713 13.6343 19.0257 13.6343Z" fill="#070707"/>
<path d="M18.3238 44.1618C18.3238 48.1476 18.3238 52.1561 18.3238 56.1419C18.3238 57.863 18.2106 57.9536 16.5574 57.9536C15.1533 57.9536 13.7718 57.9536 12.3677 57.9536C10.5107 57.9536 10.4428 57.8857 10.4428 56.0739C10.4428 48.5326 10.4428 41.0139 10.4428 33.4725C10.4428 32.8384 10.4654 32.1817 10.4428 31.5476C10.3975 30.5285 10.8957 30.1208 11.8695 30.1435C13.4774 30.1661 15.108 30.1435 16.7386 30.1435C18.0974 30.1435 18.3238 30.3699 18.3238 31.7061C18.3238 35.8731 18.3238 40.0174 18.3238 44.1618ZM12.2545 44.1391C12.2545 47.8079 12.2772 51.454 12.2319 55.1228C12.2319 55.8701 12.3677 56.2325 13.2057 56.1419C13.953 56.0739 14.723 56.0513 15.4703 56.1419C16.3536 56.2325 16.5121 55.8928 16.5121 55.0775C16.4894 48.442 16.4894 41.8065 16.4894 35.171C16.4894 34.1519 16.8065 32.8158 16.3083 32.227C15.6968 31.5249 14.3154 32.1137 13.2736 31.9778C12.3677 31.8646 12.2319 32.2496 12.2319 33.0649C12.2772 36.7563 12.2545 40.4477 12.2545 44.1391Z" fill="#070707"/>
<path d="M0.00244141 46.6304C0.00244141 43.4372 0.00244141 40.2214 0.00244141 37.0282C0.00244141 35.6241 0.138322 35.4882 1.58771 35.4882C3.24092 35.4882 4.89413 35.5109 6.56998 35.4882C7.47585 35.4656 7.88349 35.8506 7.88349 36.7565C7.88349 43.3919 7.88349 50.0274 7.88349 56.6629C7.88349 57.6141 7.47585 58.0217 6.50204 57.9991C4.84884 57.9538 3.19563 57.9991 1.51977 57.9764C0.183615 57.9764 0.00244141 57.8179 0.00244141 56.4817C0.00244141 53.1753 0.00244141 49.9142 0.00244141 46.6304ZM5.95852 46.6304C5.95852 44.5469 6.00382 42.4861 5.95852 40.4026C5.93588 39.4061 6.41146 38.0926 5.73206 37.4812C5.0753 36.8923 3.78444 37.3906 2.78799 37.2773C1.9727 37.1868 1.79153 37.4812 1.79153 38.2738C1.83682 43.1428 1.79153 48.0119 1.81418 52.8583C1.81418 53.9 1.36124 55.2815 2.018 55.8929C2.67475 56.5044 4.03355 55.9835 5.0753 56.0967C5.77735 56.1647 5.98117 55.8929 5.95852 55.2135C5.95852 52.36 5.95852 49.4839 5.95852 46.6304Z" fill="#050C09"/>
<path d="M48.2624 2.44754C45.5901 2.44754 42.9178 2.44754 40.2455 2.44754C39.8605 2.44754 39.4981 2.49284 39.1358 2.31166C38.7508 2.10784 38.6149 1.79079 38.6602 1.38315C38.7055 0.998153 38.9093 0.749039 39.2943 0.681099C39.5434 0.635806 39.8152 0.635806 40.087 0.635806C45.5448 0.635806 51.0027 0.635806 56.4605 0.635806C56.5058 0.635806 56.5285 0.635806 56.5738 0.635806C57.2532 0.613159 57.9552 0.658452 57.9326 1.56432C57.9099 2.4249 57.1852 2.47019 56.5058 2.47019C53.7429 2.44754 51.0027 2.44754 48.2624 2.44754Z" fill="#0B0C0C"/>
<path d="M32.9985 0.0010561C33.7232 0.0010561 34.4253 0.0237028 35.15 0.0010561C36.0105 -0.0215906 36.4182 0.363403 36.3955 1.20133C36.3955 2.67337 36.3955 4.1454 36.3955 5.59479C36.3955 6.45537 35.9653 6.79507 35.1273 6.79507C33.7006 6.77242 32.2738 6.77242 30.8245 6.79507C29.9639 6.81771 29.5789 6.45537 29.6015 5.59479C29.6242 4.12276 29.6242 2.65072 29.6015 1.20133C29.5789 0.31811 30.0092 -0.0215906 30.8471 0.0010561C31.5718 0.0237028 32.2965 0.0010561 32.9985 0.0010561ZM31.4359 3.37541C31.4812 4.1907 31.0509 5.18715 32.6588 5.02862C34.5838 4.84745 34.5838 4.98333 34.5838 3.60188C34.5838 1.81279 34.5838 1.81279 33.1797 1.81279C31.4359 1.81279 31.4359 1.81279 31.4359 3.37541Z" fill="#050506"/>
<path d="M29.6244 12.6846C29.6244 12.0052 29.647 11.3258 29.6244 10.6464C29.5791 9.74052 29.9414 9.31023 30.8699 9.33288C32.2967 9.35553 33.7234 9.35553 35.1501 9.33288C36.056 9.33288 36.441 9.76317 36.4184 10.6464C36.3957 12.0278 36.3957 13.4319 36.4184 14.8134C36.441 15.6966 36.0787 16.1269 35.1501 16.1042C33.7234 16.0816 32.2967 16.0816 30.8699 16.1042C29.9414 16.1269 29.5791 15.6966 29.6244 14.7907C29.647 14.134 29.6244 13.4093 29.6244 12.6846ZM34.584 12.5261C34.6519 11.8014 34.7425 11.0087 33.2931 11.122C31.4361 11.2805 31.4134 11.1673 31.4134 12.594C31.4134 14.3152 31.4134 14.3152 32.8628 14.3152C34.584 14.3152 34.584 14.3152 34.584 12.5261Z" fill="#070707"/>
<path d="M48.2176 21.0852C45.4774 21.0852 42.7145 21.0852 39.9742 21.0852C39.3401 21.0852 38.6834 21.0852 38.6607 20.2472C38.6381 19.364 39.2948 19.2734 39.9969 19.2734C45.5227 19.2734 51.0485 19.2734 56.5969 19.2734C57.299 19.2734 57.9557 19.4093 57.9331 20.2699C57.8878 21.0625 57.231 21.1078 56.5969 21.1078C53.7887 21.0852 51.0032 21.0852 48.2176 21.0852Z" fill="#070707"/>
<path d="M48.3308 11.7771C45.5905 11.7771 42.8276 11.7771 40.0874 11.7771C39.4306 11.7771 38.7059 11.7997 38.6606 10.8939C38.638 9.8974 39.408 9.9427 40.11 9.9427C45.5679 9.9427 51.0257 9.9427 56.4836 9.9427C57.163 9.9427 57.8877 9.9427 57.9103 10.8033C57.933 11.7544 57.163 11.7544 56.461 11.7544C53.7433 11.7771 51.0484 11.7771 48.3308 11.7771Z" fill="#050506"/>
<path d="M43.9144 6.18302C42.5556 6.18302 41.1968 6.18302 39.8607 6.18302C39.2492 6.18302 38.6831 6.09243 38.6604 5.32244C38.6378 4.59775 39.136 4.34863 39.7701 4.34863C42.5104 4.34863 45.2506 4.34863 48.0135 4.34863C48.6476 4.34863 49.1685 4.55245 49.1685 5.27715C49.1685 6.04714 48.625 6.16037 47.9909 6.16037C46.632 6.18302 45.2732 6.18302 43.9144 6.18302Z" fill="#0B0C0C"/>
<path d="M44.0279 13.7705C45.3867 13.7705 46.7455 13.7705 48.0817 13.7705C48.6932 13.7705 49.1461 13.9517 49.1461 14.6537C49.1461 15.3331 48.6932 15.5822 48.127 15.6049C45.2961 15.6275 42.488 15.6275 39.6571 15.6049C39.0683 15.6049 38.6154 15.3105 38.638 14.6537C38.6607 13.9743 39.1136 13.7932 39.7251 13.7932C41.1744 13.7705 42.6012 13.7705 44.0279 13.7705Z" fill="#0B0C0C"/>
<path d="M46.2022 34.2885C46.2022 40.2446 41.4464 45.023 35.5356 45.0457C29.5795 45.0683 24.7104 40.2219 24.7104 34.2885C24.7104 28.3551 29.5795 23.5087 35.5356 23.5313C41.4464 23.554 46.2022 28.3551 46.2022 34.2885ZM44.8434 34.3112C44.8434 29.1024 40.6537 24.9128 35.445 24.9128C30.3042 24.9128 26.1145 29.1024 26.0693 34.2432C26.024 39.4067 30.2589 43.6869 35.445 43.6869C40.6537 43.7095 44.8434 39.5199 44.8434 34.3112Z" fill="#E2E5E7"/>
<path d="M23.215 48.1015C23.215 45.8142 23.215 43.5042 23.215 41.2169C23.215 40.8999 23.0111 40.4017 23.6 40.3337C24.0529 40.2884 24.4605 40.2884 24.7323 40.8093C25.3211 41.8737 26.0911 42.8022 27.0196 43.5948C27.3593 43.8892 27.382 44.2063 27.382 44.5913C27.382 48.1695 27.3593 51.7476 27.382 55.3258C27.382 55.9373 27.2687 56.209 26.5893 56.1638C25.5023 56.0958 24.0982 56.5035 23.4188 55.9599C22.6941 55.3938 23.215 53.9217 23.1923 52.8573C23.1923 51.2494 23.215 49.6641 23.215 48.1015Z" fill="#FDDF75"/>
<path d="M38.3206 51.4083C38.3206 52.7218 38.2979 54.0353 38.3206 55.3489C38.3432 55.915 38.1847 56.1641 37.5732 56.1415C36.4862 56.0735 35.1274 56.4812 34.4027 55.9603C33.678 55.4394 34.1989 53.99 34.1762 52.9709C34.1309 51.2045 34.1762 49.4381 34.1536 47.6716C34.1309 47.0375 34.3121 46.811 34.9688 46.8563C35.8294 46.9243 36.69 46.9016 37.5506 46.6978C38.1394 46.5393 38.3659 46.7431 38.3432 47.3772C38.2979 48.6907 38.3206 50.0495 38.3206 51.4083Z" fill="#F75E69"/>
<path d="M53.6755 53.8775C53.4943 53.719 53.3131 53.5831 53.1546 53.4473C51.2976 51.6355 49.4405 49.8238 47.5609 48.0347C47.1306 47.6271 47.1532 47.3779 47.5609 46.9477C49.4858 44.8415 49.4858 44.8415 51.5014 46.7891C52.8149 48.08 54.1058 49.3935 55.4872 50.6164C56.1666 51.2052 56.076 51.5676 55.4646 52.0885C54.9663 52.4961 54.5587 52.9943 54.1284 53.4473C54.0152 53.6058 53.8566 53.719 53.6755 53.8775Z" fill="#EBB681"/>
<path d="M31.4587 22.3078C31.504 21.6964 31.119 20.8134 31.6851 20.6322C32.5003 20.3832 33.4739 20.5417 34.357 20.6096C34.6966 20.6322 34.5608 21.0398 34.5834 21.2889C34.606 21.6059 34.4475 21.7417 34.1305 21.8097C33.2701 21.9455 32.387 22.1267 31.4587 22.3078Z" fill="#F75E69"/>
<path d="M47.2887 44.6825C46.9943 44.841 46.9037 45.5882 46.315 45.0674C45.7716 44.5919 45.2961 44.0711 44.7753 43.573C44.4583 43.2786 44.4583 43.0522 44.7527 42.7352C45.0697 42.4182 45.2961 42.4408 45.5905 42.7352C46.066 43.2333 46.5641 43.6862 47.0396 44.1617C47.1528 44.2749 47.334 44.3881 47.2887 44.6825Z" fill="#7E717E"/>
<path d="M11.8245 8.31246C11.0546 11.3698 12.3907 14.5856 14.5195 17.5976C15.448 18.9111 16.1501 20.3832 17.0106 21.7646C17.373 22.3534 17.4636 22.6478 16.6709 22.9422C12.436 24.369 8.58606 23.7349 5.34758 20.7002C2.06381 17.6656 1.02206 13.8156 2.33557 9.55803C3.62643 5.36839 6.59315 2.85461 10.9413 1.99403C11.6887 1.83551 11.8472 2.03933 11.8245 2.74138C11.8019 4.34929 11.8245 5.97985 11.8245 8.31246Z" fill="#84C5FB"/>
<path d="M13.6361 6.909C13.6361 5.48226 13.6587 4.05552 13.6361 2.62878C13.6361 2.06261 13.7493 1.85879 14.406 1.94937C18.8674 2.56084 22.7627 6.32019 23.51 10.7816C23.6233 11.5063 23.5553 11.8686 22.6721 11.846C19.9545 11.778 17.2595 11.778 14.5419 11.846C13.7493 11.8686 13.6134 11.5742 13.6361 10.8722C13.6587 9.55867 13.6361 8.22251 13.6361 6.909Z" fill="#FADB73"/>
<path d="M19.026 13.6337C20.2716 13.6337 21.5172 13.6563 22.7401 13.6337C23.3742 13.611 23.646 13.7922 23.5327 14.4716C23.0571 17.2571 21.6983 19.5218 19.5243 21.3109C19.1619 21.6053 18.9581 21.5374 18.7316 21.1524C17.3955 18.8651 16.0593 16.5551 14.7005 14.2678C14.4061 13.7469 14.5646 13.6337 15.0855 13.6337C16.399 13.6563 17.7125 13.6337 19.026 13.6337Z" fill="#F75E69"/>
<path d="M12.2541 44.1393C12.2541 40.4479 12.2767 36.7565 12.2314 33.0424C12.2314 32.2271 12.3673 31.8421 13.2732 31.9554C14.3149 32.0912 15.6964 31.5024 16.3079 32.2045C16.8287 32.7933 16.489 34.1294 16.489 35.1486C16.489 41.784 16.489 48.4195 16.5117 55.055C16.5117 55.8703 16.3531 56.2326 15.4699 56.1194C14.7226 56.0288 13.9526 56.0515 13.2053 56.1194C12.3673 56.21 12.2314 55.8476 12.2314 55.1003C12.2767 51.4542 12.2541 47.8081 12.2541 44.1393Z" fill="#84C2F7"/>
<path d="M5.95848 46.6313C5.95848 49.5074 5.93584 52.3609 5.98113 55.2371C5.98113 55.9165 5.79996 56.1882 5.09791 56.1203C4.05616 56.0297 2.69736 56.5506 2.04061 55.9165C1.38385 55.2824 1.83679 53.9236 1.83679 52.8818C1.81414 48.0128 1.83679 43.1437 1.81414 38.2973C1.81414 37.5047 1.99531 37.2103 2.81059 37.3009C3.80705 37.4141 5.09791 36.8932 5.75466 37.5047C6.43407 38.1162 5.95848 39.4297 5.98113 40.4261C6.00378 42.487 5.98113 44.5478 5.95848 46.6313Z" fill="#68F3C0"/>
<path d="M31.4361 3.37467C31.4361 1.83496 31.4361 1.83496 33.1796 1.83496C34.5834 1.83496 34.5834 1.83496 34.5834 3.62374C34.5834 5.00495 34.5608 4.8691 32.6588 5.05024C31.0511 5.1861 31.4587 4.18981 31.4361 3.37467Z" fill="#84C5FB"/>
<path d="M34.5836 12.5251C34.5836 14.3139 34.5836 14.3139 32.8627 14.3139C31.4136 14.3139 31.4136 14.3139 31.4136 12.593C31.4136 11.1665 31.4136 11.2797 33.2929 11.1212C34.7647 11.008 34.6741 11.8005 34.5836 12.5251Z" fill="#FADB73"/>
<path d="M44.8431 34.3106C44.8431 39.5193 40.6308 43.709 35.4447 43.6863C30.2812 43.6637 26.0463 39.3834 26.0689 34.2426C26.1142 29.1245 30.3265 24.9348 35.4447 24.9122C40.6534 24.8896 44.8657 29.1018 44.8431 34.3106ZM29.1489 38.2511C29.8056 37.1188 30.5303 36.0317 31.6627 35.3976C32.3647 34.99 32.5459 34.7409 32.0703 33.9256C30.6436 31.4571 32.4327 28.3545 35.2635 28.2413C36.7808 28.1733 38.0038 28.7621 38.7964 30.053C39.6117 31.3892 39.6117 32.7706 38.819 34.1294C38.6605 34.4238 38.2076 34.7182 38.7964 35.0353C40.1325 35.76 41.0384 36.8923 41.7857 38.1832C43.8692 35.4203 43.2578 31.14 40.4949 28.6263C37.6641 26.0445 33.2479 26.0672 30.4171 28.6942C27.6316 31.2533 27.0654 35.4882 29.1489 38.2511ZM35.49 41.8746C37.0299 41.8519 38.4793 41.399 39.7928 40.5158C40.2684 40.1987 40.4043 39.859 40.2005 39.2929C39.5437 37.4132 37.5735 36.0091 35.5126 35.9864C33.3838 35.9864 31.4362 37.3679 30.7568 39.3382C30.5756 39.859 30.6662 40.1534 31.1192 40.4705C32.41 41.3764 33.8594 41.8519 35.49 41.8746ZM35.4447 34.1973C36.5997 34.22 37.5508 33.3141 37.5735 32.1818C37.5961 31.0268 36.6902 30.0983 35.5353 30.0756C34.3576 30.053 33.4291 30.9136 33.4065 32.0912C33.3838 33.2235 34.267 34.1747 35.4447 34.1973Z" fill="#050506"/>
<path d="M29.1488 38.2513C27.0427 35.4884 27.6315 31.2535 30.3944 28.6944C33.2479 26.0674 37.6413 26.0448 40.4722 28.6265C43.2351 31.1403 43.8465 35.4205 41.763 38.1834C40.993 36.8925 40.1098 35.7602 38.7737 35.0355C38.1848 34.7184 38.6378 34.424 38.7963 34.1296C39.5663 32.7708 39.5889 31.3894 38.7737 30.0532C37.981 28.7624 36.7808 28.1736 35.2408 28.2415C32.4326 28.3547 30.6435 31.4347 32.0476 33.9258C32.5232 34.7411 32.342 34.9902 31.64 35.3979C30.5303 36.0546 29.8282 37.1416 29.1488 38.2513Z" fill="#7E717E"/>
<path d="M35.4901 41.8745C33.8595 41.8518 32.4328 41.3536 31.1193 40.4704C30.6663 40.176 30.5757 39.8816 30.7569 39.338C31.4363 37.3904 33.3839 35.9863 35.5127 35.9863C37.5736 35.9863 39.5212 37.4131 40.2006 39.2927C40.4044 39.8589 40.2685 40.1986 39.793 40.5157C38.4568 41.4215 37.0074 41.8745 35.4901 41.8745Z" fill="#84C5FB"/>
<path d="M35.4443 34.1958C34.2896 34.1732 33.4065 33.2448 33.4291 32.0674C33.4518 30.89 34.3575 30.0296 35.5576 30.0522C36.7123 30.0748 37.6181 31.0258 37.5954 32.158C37.5501 33.3128 36.5765 34.2185 35.4443 34.1958Z" fill="#F0D6C8"/>
</svg>
