<svg width="61" height="65" viewBox="0 0 61 65" fill="none" xmlns="http://www.w3.org/2000/svg">
<path d="M49.7617 20.9298C49.7617 19.5779 49.7617 15.7769 49.7617 13.2004C49.7617 12.8823 49.6822 12.6437 49.4595 12.4211C46.9944 9.98777 44.5293 7.53854 42.08 5.08931C41.9846 4.99388 41.9051 4.85075 41.6824 4.83484C41.6824 6.31392 41.6665 7.74529 41.6824 9.19256C41.6983 10.3058 42.1755 10.783 43.2569 10.7989C43.8931 10.7989 44.5293 10.8148 45.1654 10.7989C45.5789 10.783 45.7857 10.8784 45.7539 11.3555C45.7062 11.9599 45.7062 12.5801 45.7221 13.2004C45.7221 13.5026 45.6267 13.598 45.3245 13.598C44.577 13.5821 43.8454 13.6298 43.0979 13.5821C40.5055 13.439 38.9628 11.769 38.9628 9.17666C38.9628 7.20455 38.9469 5.24835 38.9787 3.27624C38.9787 2.83093 38.8674 2.7196 38.4221 2.7196C27.4324 2.70369 16.4745 2.68779 5.51655 2.70369C4.24422 2.70369 3.7512 3.18082 3.7512 4.45314C3.7512 23.1563 3.7512 41.8596 3.7512 60.5628C3.7512 61.8033 4.22832 62.2963 5.45293 62.2963C19.6553 62.2963 33.8417 62.2963 48.0441 62.2963C49.2528 62.2963 49.7458 61.8033 49.7458 60.6105C49.7458 59.4654 49.7458 57.9863 49.7458 56.8412L52.5131 59.3859L52.4972 60.5309C52.4972 62.8052 51.3203 64.3797 49.2846 64.8887C48.9347 64.9841 48.5689 64.9841 48.219 64.9841C33.8894 64.9841 19.5758 64.9841 5.24618 64.9841C2.81286 64.9841 1.11112 63.3301 0.983887 60.8967C0.983887 60.7854 0.983887 60.69 0.983887 60.5787C0.999791 41.8755 0.999791 23.1563 0.999791 4.42134C0.999791 2.62417 1.71547 1.24052 3.33769 0.381698C3.60806 0.238561 3.95795 0.286274 4.1647 0C16.3472 0 28.5457 0 40.7282 0C41.2053 0.302178 41.6029 0.715684 42.0005 1.11329C45.229 4.34181 48.4576 7.58625 51.702 10.7989C52.2587 11.3555 52.529 11.9599 52.529 12.7551C52.529 16.1586 52.529 20.8344 52.529 24.2537C52.5131 24.2537 51.2885 22.2498 49.7617 20.9298Z" fill="#131524"/>
<path d="M41.6668 4.8348C41.8895 4.8507 41.969 4.99384 42.0644 5.08926C44.5295 7.53849 46.9788 9.98772 49.4439 12.421C49.6825 12.6437 49.7461 12.8823 49.7461 13.2003C49.7461 29.009 49.7461 44.8018 49.7461 60.6104C49.7461 61.8032 49.2371 62.2963 48.0443 62.2963C33.842 62.2963 19.6556 62.2963 5.4532 62.2963C4.22859 62.2963 3.75146 61.8032 3.75146 60.5627C3.75146 41.8595 3.75146 23.1563 3.75146 4.4531C3.75146 3.18077 4.22859 2.70365 5.51682 2.70365C16.4747 2.70365 27.4326 2.70365 38.3906 2.68774C38.8359 2.68774 38.9472 2.79907 38.9472 3.24439C38.9154 5.21649 38.9313 7.1727 38.9313 9.1448C38.9313 11.7372 40.4899 13.3912 43.0664 13.5502C43.798 13.5979 44.5454 13.5502 45.2929 13.5661C45.5951 13.5661 45.7064 13.4707 45.6905 13.1685C45.6746 12.5642 45.6746 11.9439 45.7224 11.3237C45.7542 10.8465 45.5633 10.7511 45.1339 10.767C44.4977 10.7988 43.8616 10.7829 43.2254 10.767C42.1439 10.7511 41.6668 10.2899 41.6509 9.16071C41.6509 7.74524 41.6668 6.31388 41.6668 4.8348Z" fill="#CEEBF4"/>
<path d="M27.7664 23.0926C25.9851 24.1422 24.4424 25.4623 23.3132 27.2276C21.4684 30.1063 20.9753 33.2076 21.6274 36.5315C20.371 36.5474 19.1146 36.5315 17.8581 36.5633C17.4605 36.5792 17.3651 36.4043 17.3651 36.0385C17.3651 35.7522 17.5242 35.4023 17.2061 35.1638C15.5998 35.1638 13.9935 35.1638 12.3871 35.1797C11.9736 35.1797 11.8623 35.0683 11.8623 34.6548C11.8782 31.4104 11.8782 28.1501 11.8623 24.9056C11.8623 24.4603 11.9895 24.349 12.4189 24.3649C15.3771 24.3808 18.3353 24.3808 21.2934 24.3649C21.5638 24.0786 21.4048 23.7287 21.4207 23.4106C21.4366 23.1403 21.4843 22.9653 21.8024 22.9653C23.7268 22.9812 25.6671 22.9812 27.5914 22.9812C27.6551 22.9971 27.7028 23.0608 27.7664 23.0926Z" fill="white"/>
<path d="M50.0479 43.4819C50.3978 43.7682 51.5588 45.0246 51.8927 45.3427C52.2585 45.6926 52.5289 46.2333 53.2287 45.8357C53.4832 45.6926 53.7853 45.8994 54.008 46.122C55.9165 48.0464 57.8409 49.9549 59.7494 51.8793C60.8149 52.929 60.9899 54.9806 60.5923 56.0621C59.5903 58.9407 55.9801 59.9268 53.7694 57.8592C51.7973 55.9984 49.9047 54.0263 47.9962 52.1179C47.6782 51.7998 47.5986 51.4181 47.7895 51.0364C47.9167 50.7819 47.8849 50.6706 47.71 50.4956C47.1533 49.9549 46.0241 48.6349 45.4834 48.0941L50.0479 43.4819Z" fill="#070606"/>
<path d="M59.034 54.726C59.0022 54.0581 58.7795 53.4696 58.3183 53.0084C56.7438 51.418 55.1534 49.8435 53.5789 48.2531C53.3403 48.0145 53.2131 48.0781 53.0222 48.2849C52.068 49.255 51.0978 50.2252 50.1277 51.1794C49.9209 51.3862 49.9368 51.4975 50.1277 51.6884C51.7658 53.3106 53.3562 54.9487 55.0102 56.5391C55.7418 57.2548 56.6802 57.3343 57.6026 56.9208C58.525 56.4914 58.9863 55.7121 59.034 54.726Z" fill="#EC4957"/>
<path d="M49.253 49.4617C49.3325 49.3981 49.3961 49.3504 49.4598 49.2868C50.0323 48.7143 50.6048 48.1417 51.1774 47.5692C51.416 47.3465 51.241 47.2352 51.0979 47.092C50.6207 46.6149 50.1277 46.1537 49.6824 45.6607C49.4598 45.4221 49.3325 45.438 49.1258 45.6766C48.6645 46.2332 48.1556 46.758 47.5831 47.2193C47.3445 47.426 47.3286 47.5533 47.5672 47.76C48.0602 48.2212 48.5214 48.6984 48.9985 49.1755C49.0781 49.3027 49.1576 49.3822 49.253 49.4617Z" fill="#E0CAE0"/>
<path d="M49.0625 46.9949C55.5963 40.461 55.5963 29.8676 49.0625 23.3337C42.5286 16.7999 31.9352 16.7999 25.4014 23.3337C18.8675 29.8676 18.8675 40.461 25.4014 46.9949C31.9352 53.5287 42.5286 53.5287 49.0625 46.9949Z" fill="#070606"/>
<path d="M47.297 45.2293C52.8557 39.6705 52.8557 30.6581 47.297 25.0993C41.7382 19.5406 32.7258 19.5406 27.167 25.0993C21.6083 30.6581 21.6083 39.6705 27.167 45.2293C32.7258 50.788 41.7382 50.788 47.297 45.2293Z" fill="#070606"/>
<path d="M52.4494 35.148C51.7655 35.2594 51.511 35.6729 51.4633 36.3727C50.9862 42.7184 46.0877 48.0622 39.7579 49.1595C32.108 50.4796 24.8876 45.5811 23.2972 38.0267C21.675 30.2178 26.8756 22.552 34.7322 21.1524C42.4457 19.7847 49.7616 24.7627 51.2407 32.4125C51.3679 33.0328 51.686 33.3827 52.338 33.3986C52.8152 33.3986 53.4354 33.335 53.8648 33.335C53.9284 33.7644 53.9603 34.4801 53.9603 35.1162C53.499 35.148 53.0378 35.1639 52.4494 35.148ZM27.9094 40.9848C27.4959 41.462 27.4481 41.9391 27.8616 42.448C30.788 45.9946 34.5573 47.585 39.0899 46.8853C45.8492 45.8356 50.1751 39.5853 48.9346 32.8738C47.7895 26.6553 41.6664 22.3293 35.4479 23.3631C28.2911 24.5559 23.8538 31.4901 25.8259 38.4402C26.0486 39.2195 26.2871 39.3944 27.1301 39.3944C27.3845 39.9352 27.6549 40.46 27.9094 40.9848Z" fill="#E0CAE0"/>
<path d="M27.9097 40.9849C27.6552 40.4601 27.3848 39.9193 27.1304 39.3945C27.7188 39.0605 27.8142 38.5675 27.6234 37.9472C27.1622 36.5159 27.0827 35.0368 27.3212 33.5577C28.2278 28.1026 33.1898 24.6196 38.3268 25.1285C44.0046 25.7011 48.2669 31.2039 47.1854 36.818C46.3743 40.9531 43.9092 43.7681 39.8218 44.8337C35.6868 45.9152 32.1561 44.6588 29.4047 41.3666C28.9593 40.8736 28.514 40.7146 27.9097 40.9849ZM33.7783 32.4603C32.5855 32.4921 31.6789 33.0329 31.1859 34.1303C30.6929 35.2594 30.8678 36.325 31.7107 37.2156C32.5219 38.0745 33.3807 38.8697 34.2236 39.6967C35.48 40.9054 37.1499 40.9054 38.3905 39.649C39.965 38.0745 41.5236 36.4682 43.0663 34.8618C44.1955 33.6849 44.1955 31.9196 43.0822 30.8222C41.953 29.693 40.1717 29.7248 39.0107 30.9017C38.1837 31.7287 37.3567 32.5717 36.5456 33.4305C36.307 33.6849 36.1798 33.6849 35.9412 33.4305C35.3369 32.8261 34.6371 32.4603 33.7783 32.4603Z" fill="#FEE27B"/>
<path d="M27.9097 40.985C28.514 40.6987 28.9593 40.8577 29.3888 41.3826C32.1561 44.6588 35.6709 45.9311 39.8059 44.8496C43.8933 43.7841 46.3584 40.969 47.1695 36.834C48.2669 31.2198 43.9887 25.717 38.311 25.1445C33.1739 24.6196 28.2119 28.1185 27.3053 33.5736C27.0668 35.0527 27.1463 36.5159 27.6075 37.9632C27.7983 38.5834 27.7029 39.0765 27.1145 39.4104C26.2716 39.4263 26.033 39.2514 25.8103 38.4562C23.8382 31.522 28.2755 24.5719 35.4323 23.3791C41.6508 22.3454 47.7739 26.6713 48.919 32.8898C50.1436 39.6013 45.8336 45.8516 39.0743 46.9013C34.5417 47.601 30.7724 46.0106 27.8461 42.464C27.4485 41.9392 27.4962 41.4621 27.9097 40.985Z" fill="#070606"/>
<path d="M33.7782 32.4602C34.6529 32.4443 35.3527 32.826 35.9252 33.4304C36.1638 33.6849 36.291 33.6849 36.5296 33.4304C37.3407 32.5716 38.1677 31.7446 38.9947 30.9016C40.1716 29.7247 41.937 29.7088 43.0662 30.8221C44.1794 31.9195 44.1794 33.6849 43.0502 34.8618C41.5076 36.4681 39.949 38.0585 38.3744 39.6489C37.1339 40.8894 35.464 40.9053 34.2076 39.6966C33.3647 38.8855 32.5058 38.0744 31.6947 37.2156C30.8518 36.3249 30.6769 35.2594 31.1699 34.1302C31.6788 33.0328 32.5695 32.508 33.7782 32.4602ZM42.0324 32.8578C42.0483 32.492 41.9052 32.2217 41.6189 32.0149C41.1895 31.7127 40.6805 31.7923 40.2034 32.2694C39.1219 33.3668 38.0564 34.4801 36.9749 35.5774C36.4978 36.0546 36.0365 36.0705 35.5435 35.6252C35.2095 35.323 34.9074 35.0049 34.5734 34.7027C34.0326 34.1938 33.4442 34.162 33.0307 34.6073C32.6172 35.0526 32.6649 35.6092 33.1738 36.1023C33.9372 36.8657 34.7006 37.6132 35.4799 38.3448C36.0206 38.8537 36.5614 38.8537 37.0703 38.3288C38.613 36.7702 40.1239 35.1957 41.6507 33.6371C41.8893 33.4304 42.0483 33.1918 42.0324 32.8578Z" fill="#070606"/>
<path d="M42.0324 32.858C42.0642 33.1761 41.8893 33.4305 41.6666 33.6532C40.1398 35.2118 38.613 36.7863 37.0862 38.3449C36.5773 38.8697 36.0207 38.8538 35.4958 38.3608C34.7165 37.6292 33.9531 36.8817 33.1897 36.1183C32.6808 35.6094 32.6331 35.0528 33.0466 34.6233C33.4601 34.178 34.0486 34.2098 34.5893 34.7188C34.9074 35.021 35.2255 35.3549 35.5594 35.6412C36.0684 36.0865 36.5296 36.0706 36.9908 35.5935C38.0723 34.4961 39.1379 33.3828 40.2193 32.2854C40.6806 31.8083 41.2054 31.7288 41.6348 32.031C41.9052 32.2218 42.0483 32.5081 42.0324 32.858Z" fill="#9BCC7A"/>
<path d="M9.14265 24.3332C9.14265 28.2615 9.14265 32.1898 9.14265 36.1182C9.14265 37.311 9.60387 37.8994 10.6853 37.9153C12.7529 37.9471 14.8204 37.9153 16.9038 37.9312C17.1742 37.9312 17.2855 37.8517 17.2855 37.5813C17.2537 36.7861 17.3492 35.975 17.2219 35.1798C15.6156 35.1798 14.0093 35.1798 12.403 35.1957C11.9895 35.1957 11.8782 35.0844 11.8782 34.6709C11.8941 31.4264 11.8941 28.1661 11.8782 24.9217C11.8782 24.4764 12.0054 24.365 12.4348 24.3809C15.393 24.3968 18.3511 24.3968 21.3093 24.3809C21.3252 23.6175 21.3093 22.8541 21.3411 22.1067C21.357 21.7727 21.2298 21.6772 20.9117 21.6772C19.9892 21.6932 19.0509 21.6772 18.1285 21.6772C15.6792 21.6772 13.23 21.6772 10.7808 21.6772C9.69929 21.6772 9.20626 22.1703 9.15855 23.2517C9.12674 23.6175 9.14265 23.9674 9.14265 24.3332Z" fill="#131524"/>
<path d="M22.693 8.54049C22.7089 8.22241 22.6135 8.11108 22.2795 8.11108C18.0331 8.12699 13.7867 8.12699 9.54031 8.11108C9.19042 8.11108 9.1109 8.22241 9.1268 8.5564C9.14271 9.12895 9.15861 9.70149 9.1268 10.274C9.095 10.7194 9.23813 10.8466 9.68345 10.8466C11.751 10.8307 13.8185 10.8307 15.886 10.8307C18.0013 10.8307 20.1165 10.8307 22.2159 10.8307C22.5658 10.8307 22.7089 10.7671 22.6771 10.3854C22.6771 9.76511 22.6771 9.16075 22.693 8.54049Z" fill="#131524"/>
<path d="M9.66766 50.1297C11.5284 50.1137 13.3892 50.1137 15.25 50.1137C17.1108 50.1137 18.9715 50.0978 20.8323 50.1137C21.1981 50.1137 21.3731 50.0501 21.3413 49.6366C21.3094 49.0323 21.3254 48.412 21.3413 47.7917C21.3572 47.4737 21.2617 47.3464 20.9118 47.3464C17.1267 47.3623 13.3415 47.3623 9.57223 47.3464C9.22234 47.3464 9.12692 47.4737 9.14282 47.7917C9.15872 48.3802 9.17463 48.9687 9.14282 49.573C9.11101 50.0024 9.23824 50.1297 9.66766 50.1297Z" fill="#131524"/>
<path d="M20.7847 52.8015C18.9398 52.8333 17.1108 52.8174 15.2659 52.8174C13.3893 52.8174 11.4967 52.8333 9.61998 52.8015C9.22238 52.8015 9.11105 52.8969 9.12696 53.2945C9.15876 53.8829 9.15876 54.4714 9.12696 55.0758C9.11105 55.4097 9.22238 55.5211 9.55637 55.5211C13.3415 55.5052 17.1267 55.5052 20.9119 55.5211C21.2618 55.5211 21.3413 55.3938 21.3254 55.0758C21.3095 54.5032 21.2936 53.9307 21.3254 53.3581C21.3731 52.9287 21.2459 52.7856 20.7847 52.8015Z" fill="#131524"/>
<path d="M14.9635 44.6905C15.7269 44.6746 16.4744 44.6905 17.2378 44.6905C18.0171 44.6905 18.7964 44.6746 19.5757 44.6905C19.8938 44.7064 20.021 44.611 20.0051 44.277C19.9733 43.6726 19.9892 43.0524 20.0051 42.448C20.021 42.1459 19.9574 41.9868 19.5916 41.9868C18.033 42.0027 16.4744 42.0027 14.9158 41.9868C14.6295 41.9868 14.55 42.0822 14.5659 42.3526C14.5818 43.0047 14.5818 43.6567 14.5659 44.3088C14.55 44.6269 14.6613 44.6905 14.9635 44.6905Z" fill="#131524"/>
<path d="M10.4626 16.254C11.8781 16.254 11.8781 16.254 11.8781 14.8703C11.8781 13.5662 11.8781 13.5662 10.558 13.5662C9.14258 13.5662 9.14258 13.5662 9.14258 14.9657C9.14258 16.254 9.14258 16.254 10.4626 16.254Z" fill="#131524"/>
<path d="M9.14258 43.3069C9.14258 44.6905 9.14258 44.6905 10.5103 44.6905C11.8781 44.6905 11.8781 44.6905 11.8781 43.45C11.8781 42.0027 11.8781 42.0027 10.4467 42.0027C9.14258 41.9868 9.14258 41.9868 9.14258 43.3069Z" fill="#131524"/>
<path d="M17.2698 14.8544C17.2698 13.5503 17.2698 13.5503 15.9657 13.5503C14.582 13.5503 14.582 13.5503 14.582 14.9499C14.582 16.2381 14.582 16.2381 15.8862 16.2381C17.2698 16.254 17.2698 16.254 17.2698 14.8544Z" fill="#131524"/>
</svg>
