<svg width="62" height="65" viewBox="0 0 62 65" fill="none" xmlns="http://www.w3.org/2000/svg">
<g clipPath="url(#clip0_259_4731)">
<path d="M19.5016 51.8914H54.7064C55.3338 51.8914 55.8256 51.3827 55.8256 50.7722V6.56271C55.8256 5.93526 55.3168 5.44348 54.7064 5.44348H19.5016C18.8741 5.44348 18.3823 5.95222 18.3823 6.56271V50.7722C18.3823 51.3997 18.8741 51.8914 19.5016 51.8914Z" fill="#DFF1F9"/>
<path d="M55.758 14.3125C54.944 14.0751 54.7744 13.8377 54.7575 12.9559C54.7575 10.887 54.7405 8.81815 54.7744 6.73231C54.7744 6.32532 54.6727 6.20662 54.2487 6.20662C42.8021 6.22357 31.3724 6.22357 19.9257 6.20662C19.4509 6.20662 19.3831 6.35924 19.3831 6.78319C19.4 10.1917 19.4 13.6003 19.3831 16.9919C19.3831 17.4159 19.5187 17.6024 19.8918 17.7889C22.4016 19.0269 24.8944 20.2818 27.3873 21.5366C27.8112 21.7571 28.2352 21.8588 28.71 21.8588C34.7809 21.8419 40.8519 21.8588 46.9229 21.8588C47.0246 21.8588 47.1264 21.8588 47.2451 21.8588C48.2117 21.8588 48.6526 22.1641 48.6526 22.8424C48.6526 23.4868 48.2117 23.7751 47.279 23.7751C42.429 23.7751 37.596 23.7751 32.746 23.7751C32.5425 23.7751 32.339 23.7751 32.1525 23.7751C32.1355 23.809 32.1355 23.8429 32.1185 23.8938C32.3729 24.0295 32.6103 24.1482 32.8647 24.2838C33.4921 24.623 33.95 25.0978 34.0687 25.8101C34.1365 26.1831 34.3231 26.251 34.6792 26.251C36.0528 26.234 37.4264 26.234 38.8 26.251C39.5292 26.251 39.9192 26.5732 39.9362 27.1497C39.9531 27.7433 39.5292 28.1503 38.8169 28.1503C37.4433 28.1672 36.0698 28.1842 34.6962 28.1503C34.2213 28.1333 34.1196 28.3029 34.1535 28.7268C34.1874 29.1677 34.1874 29.6256 34.1535 30.0496C34.1026 30.5074 34.2722 30.6092 34.7131 30.5922C38.3082 30.5753 41.9033 30.5753 45.4984 30.5753C46.1258 30.5753 46.7702 30.5753 47.3977 30.5753C48.1947 30.5753 48.6356 30.8975 48.6356 31.5079C48.6356 32.1354 48.1947 32.4746 47.3638 32.4746C43.1921 32.4746 39.0374 32.4915 34.8657 32.4576C34.2892 32.4576 34.0518 32.5933 34.1535 33.1698C34.1705 33.3055 34.1535 33.4581 34.1535 33.6107C34.1365 34.8826 34.1365 34.8826 35.3914 34.8826C39.3257 34.8826 43.2599 34.8826 47.1942 34.8826C47.3977 34.8826 47.6181 34.8656 47.8216 34.8995C48.3473 35.0013 48.7035 35.4422 48.6187 35.9509C48.5339 36.4766 48.2286 36.7819 47.669 36.7819C46.482 36.7819 45.2949 36.7819 44.1248 36.7819C40.9367 36.7819 37.7316 36.7819 34.5435 36.7649C34.1196 36.7649 33.8652 36.8158 33.8822 37.3245C33.8991 37.6128 33.8143 37.9011 33.7635 38.2064C33.5769 39.2238 33.5769 39.2238 34.5774 39.2238C35.0862 39.2238 35.5949 39.2069 36.1037 39.2408C36.765 39.2747 37.1381 39.6478 37.1381 40.2074C37.1381 40.767 36.765 41.1231 36.0867 41.1401C35.2897 41.1571 34.4757 41.174 33.6787 41.1401C33.2039 41.1231 32.9495 41.2249 32.8138 41.7167C32.6951 42.2084 32.4747 42.6663 32.2542 43.1242C32.0677 43.4973 32.1016 43.6329 32.5594 43.616C33.8313 43.582 35.1031 43.599 36.358 43.599C40.0379 43.599 43.7178 43.599 47.3977 43.599C47.8386 43.599 48.2456 43.6499 48.483 44.0738C48.7713 44.5826 48.5508 45.1931 47.9912 45.4305C47.7369 45.5322 47.4994 45.5153 47.2451 45.5153C42.022 45.5153 36.7989 45.5153 31.5759 45.5153C31.1519 45.5153 30.8976 45.617 30.6602 45.9901C29.4222 47.9063 27.8621 49.5343 26.1663 51.0266C26.285 51.2471 26.4715 51.1623 26.6241 51.1623C28.0995 51.1792 29.5918 51.1623 31.0671 51.1792C31.949 51.1962 32.4238 51.8236 32.1185 52.5359C31.8981 53.0446 31.4402 53.1124 30.9484 53.1124C28.8965 53.1124 26.8446 53.1294 24.7927 53.0955C24.2331 53.0785 24.0974 53.2311 24.0974 53.7738C24.1313 55.9275 24.1144 58.0811 24.1144 60.2518C24.1144 60.9809 23.9109 61.5914 23.1986 61.8967C22.4864 62.2019 21.9437 61.8967 21.435 61.4219C20.5023 60.557 19.5357 59.7261 18.62 58.8612C18.3147 58.5729 18.1282 58.539 17.806 58.8442C16.8394 59.76 15.8389 60.6248 14.8383 61.5236C14.3466 61.9645 13.8039 62.185 13.1595 61.8797C12.5321 61.5914 12.2946 61.0657 12.2946 60.4044C12.3116 58.9629 12.2777 57.5215 12.3116 56.097C12.3286 55.5544 12.1929 55.5374 11.7181 55.6731C6.68154 57.2502 1.47544 54.3673 0.237505 49.2291C-0.542563 45.9901 0.322295 43.1242 2.64554 40.7331C2.95078 40.4109 3.08645 40.1735 2.95078 39.7156C2.39117 37.6637 2.23855 35.5609 2.23855 33.4412C2.22159 31.1857 2.25551 28.9134 2.22159 26.658C2.20463 25.437 2.71337 24.64 3.79868 24.0973C8.13993 21.9606 12.4642 19.773 16.8055 17.6363C17.2972 17.3989 17.4329 17.1106 17.4329 16.5849C17.4668 13.0916 17.4668 9.58126 17.4668 6.07095C17.4668 4.76519 17.9077 4.30732 19.2135 4.30732C19.9257 4.30732 20.6549 4.29036 21.3672 4.30732C21.7063 4.32428 21.8081 4.20557 21.7911 3.88337C21.7742 3.22201 21.825 2.57761 21.7742 1.91624C21.7063 1.10226 21.9607 0.457856 22.639 -0.0169678C35.1201 -0.0169678 47.5842 -0.0169678 60.0653 -0.0169678C60.8115 0.356108 61.015 0.983554 61.015 1.78058C60.998 16.8393 60.998 31.881 60.998 46.9397C60.998 48.3642 60.5741 48.7882 59.1496 48.7882C58.4713 48.7882 57.7929 48.8051 57.1146 48.7882C56.7924 48.7712 56.6737 48.8729 56.6737 49.2121C56.6907 49.9074 56.6737 50.6027 56.6737 51.2979C56.6737 52.6376 56.2328 53.0955 54.8931 53.0955C49.9414 53.0955 45.0066 53.0955 40.0549 53.0955C38.7491 53.0955 37.4264 53.0955 36.1206 53.0955C35.8663 53.0955 35.6119 53.0785 35.3745 52.9937C35.0353 52.875 34.7301 52.6546 34.7301 52.2476C34.7301 51.7558 34.8997 51.3149 35.4593 51.1962C35.6967 51.1453 35.968 51.1453 36.2054 51.1453C42.1407 51.1453 48.093 51.1284 54.0283 51.1623C54.5879 51.1623 54.7575 51.0436 54.7575 50.45C54.7405 39.6817 54.7405 28.9303 54.7405 18.162C54.7405 17.2124 54.9101 16.9749 55.741 16.7375C56.555 17.0089 56.6568 17.1615 56.6568 18.0772C56.6568 27.0989 56.6568 36.1375 56.6568 45.1591C56.6568 45.6848 56.4363 46.3632 56.7416 46.6854C57.0807 47.0584 57.776 46.7362 58.3186 46.821C58.9461 46.9058 59.0648 46.6854 59.0648 46.0749C59.0478 31.5758 59.0478 17.0597 59.0648 2.56065C59.0648 2.00103 58.963 1.83145 58.3695 1.83145C47.3807 1.84841 36.375 1.84841 25.3862 1.84841C24.8436 1.84841 24.1313 1.611 23.8091 1.95016C23.4869 2.28932 23.7752 3.00156 23.7074 3.54421C23.6395 4.13774 23.843 4.25645 24.4196 4.25645C34.6114 4.23949 44.8031 4.23949 54.9949 4.23949C56.2328 4.23949 56.6568 4.66344 56.6737 5.91833C56.6737 8.25853 56.6568 10.6157 56.6907 12.9559C56.6907 13.736 56.4533 14.1599 55.758 14.3125ZM25.5728 30.1174C26.4546 29.9648 26.675 30.0835 27.0651 30.8975C28.9304 34.8487 27.9638 39.4104 24.5892 42.4119C24.267 42.7002 24.1313 42.9885 24.1313 43.4294C24.1483 45.4983 24.1483 47.5672 24.1483 49.653C24.1483 49.8226 24.0974 50.0261 24.2331 50.2126C24.9792 49.653 25.6406 49.0256 26.285 48.3981C29.9818 44.803 31.949 40.4448 32.2033 35.2896C32.339 32.3898 32.2372 29.4899 32.2881 26.6071C32.3051 26.1492 32.0337 25.9966 31.6946 25.827C27.3703 23.6734 23.063 21.5197 18.7387 19.3491C18.3826 19.1625 18.1112 19.1625 17.7382 19.3321C13.4139 21.5197 9.07262 23.6903 4.73137 25.844C4.3583 26.0305 4.20568 26.2171 4.20568 26.658C4.22263 29.2186 4.22263 31.7793 4.22263 34.3399C4.22263 35.8153 4.40917 37.2906 4.71442 38.7321C4.79921 39.139 4.91791 39.139 5.25707 38.9864C6.29151 38.5116 7.39378 38.1894 8.54692 38.1894C8.90304 38.1894 8.97087 38.1046 8.86912 37.7315C8.52996 36.5275 8.41126 35.3065 8.52996 34.0347C9.2422 26.9123 17.2633 22.9611 23.3173 26.7428C24.0126 27.1837 24.1144 27.4889 23.8091 28.269C23.3513 28.7268 22.8764 28.7099 22.3338 28.3877C20.8754 27.4889 19.2813 27.1328 17.5686 27.2684C12.4303 27.6754 9.05566 33.0342 10.921 37.8502C11.0737 38.2403 11.2941 38.4438 11.7011 38.5625C13.5495 39.1221 15.1605 40.1396 16.178 41.7845C16.8394 42.8359 17.6703 42.9376 18.6708 42.8868C19.0948 42.8698 19.5018 42.785 19.9257 42.7002C24.9453 41.4793 27.4551 36.324 25.2675 31.6267C24.9792 30.9823 25.0471 30.5244 25.5728 30.1174ZM16.0593 47.1263C16.0424 43.2259 12.9051 40.0717 9.02175 40.0887C5.07053 40.1057 1.95026 43.2259 1.95026 47.1602C1.95026 51.0944 5.08749 54.1978 9.05566 54.1978C12.956 54.1978 16.0763 51.0266 16.0593 47.1263ZM22.1642 59.4378C22.1642 59.2173 22.1642 59.1325 22.1642 59.0477C22.1642 54.2317 22.1642 49.4156 22.1642 44.5995C22.1642 44.1417 22.1133 44.006 21.6215 44.1925C20.5532 44.6165 19.4509 44.8709 18.2978 44.803C17.7721 44.7691 17.7551 44.9387 17.8399 45.3965C18.4504 48.9408 17.382 51.8745 14.6348 54.1978C14.4822 54.3334 14.2957 54.4182 14.2957 54.6895C14.2957 56.2158 14.2957 57.7589 14.2957 59.3869C15.2792 58.5051 16.178 57.7081 17.0598 56.911C17.8908 56.1818 18.5861 56.1988 19.4 56.9449C20.3158 57.7589 21.1976 58.556 22.1642 59.4378Z" fill="#0C0C0A"/>
<path d="M55.7581 14.3125C56.4534 14.1599 56.6908 13.736 56.6908 13.0407C56.6738 10.7005 56.6908 8.34333 56.6738 6.00312C56.6738 4.76519 56.2329 4.32428 54.995 4.32428C44.8032 4.32428 34.6115 4.32428 24.4197 4.34124C23.8431 4.34124 23.6227 4.20557 23.7075 3.629C23.7753 3.08635 23.487 2.37411 23.8092 2.03495C24.1314 1.69579 24.8437 1.9332 25.3863 1.9332C36.3751 1.9332 47.3808 1.9332 58.3696 1.91625C58.9631 1.91625 59.0649 2.08583 59.0649 2.64544C59.0479 17.1445 59.0479 31.6606 59.0649 46.1597C59.0649 46.7701 58.9462 47.0076 58.3187 46.9058C57.793 46.821 57.0808 47.1432 56.7416 46.7701C56.4364 46.431 56.6569 45.7527 56.6569 45.2439C56.6569 36.2223 56.6569 27.1837 56.6569 18.162C56.6569 17.2463 56.5382 17.0937 55.7411 16.8223C55.7581 15.9575 55.7581 15.1265 55.7581 14.3125Z" fill="#FCF0DC"/>
<path d="M51.2982 63.389C51.3491 63.0498 51.3491 62.5919 51.4848 62.168C51.6883 61.5406 51.5017 61.1336 51.0099 60.7605C50.7047 60.5231 50.4503 60.2348 50.196 59.9635C49.789 59.5395 49.6872 59.0477 49.8568 58.5051C50.0433 57.9285 50.4843 57.5215 51.0608 57.5385C52.5192 57.5724 53.3841 56.928 53.825 55.5544C53.9946 54.9948 54.4863 54.7065 55.1138 54.7065C55.7582 54.6895 56.2839 54.9948 56.4535 55.5713C56.8774 56.9789 57.7762 57.5724 59.2176 57.5385C59.7772 57.5215 60.2012 57.9115 60.3877 58.4712C60.5743 59.0308 60.5403 59.6243 60.0486 59.9804C58.8276 60.8453 58.4884 61.9136 58.9463 63.3381C59.1328 63.8977 58.8445 64.4065 58.3528 64.7626C57.8779 65.1017 57.3014 65.1696 56.8605 64.8304C55.6734 63.8977 54.605 64.0503 53.401 64.8304C52.4175 65.407 51.2813 64.6099 51.2982 63.389ZM53.2823 62.6089C54.0285 62.4054 54.4863 61.9136 55.1307 61.9136C55.7921 61.9136 56.25 62.4393 56.8774 62.575C56.8774 61.9306 56.5552 61.354 56.7587 60.7266C56.9622 60.1161 57.5727 59.8278 57.9797 59.2173C56.4704 59.336 55.5717 58.6407 55.1138 57.2332C54.6898 58.7086 53.7402 59.2851 52.2988 59.3191C53.5028 60.15 53.8928 61.1844 53.2823 62.6089Z" fill="#0C0C0A"/>
<path d="M39.5294 63.2534C39.5972 62.9142 39.665 62.4224 39.7668 61.9306C39.8516 61.5237 39.7838 61.2014 39.4446 60.9301C39.0885 60.6418 38.7493 60.3027 38.4441 59.9635C38.0371 59.5396 37.8845 59.0308 38.1049 58.4543C38.3254 57.8777 38.7493 57.5046 39.3259 57.5216C40.7164 57.5555 41.5813 56.9619 42.0052 55.6223C42.1918 55.0118 42.6836 54.6896 43.3619 54.6896C44.0402 54.6896 44.515 55.0287 44.7016 55.6392C45.1086 56.9619 45.9565 57.5385 47.3301 57.5046C47.9405 57.4876 48.4154 57.8777 48.6019 58.4712C48.7884 59.0478 48.7206 59.6583 48.1949 60.0144C46.957 60.8623 46.7704 61.9306 47.1605 63.3042C47.4657 64.3726 46.1769 65.407 45.2612 64.8305C43.9045 63.9656 42.7853 63.9826 41.4287 64.8305C40.5469 65.3901 39.4955 64.5252 39.5294 63.2534ZM43.311 57.1146C42.9379 58.6408 42.0052 59.3191 40.5129 59.3022C41.7678 60.1161 42.0561 61.2014 41.6322 62.609C42.8192 61.6932 43.9385 61.778 45.0916 62.6938C45.0746 61.9306 44.8033 61.3371 44.9899 60.7266C45.1764 60.1161 45.8208 59.8278 46.16 59.2852C43.9893 58.8612 44.3794 59.1156 43.311 57.1146Z" fill="#0C0C0A"/>
<path d="M33.7294 64.9661C33.3224 64.9491 32.8136 64.5421 32.271 64.2369C31.8131 63.9825 31.4231 63.8807 30.9482 64.2199C30.6091 64.4573 30.2191 64.6269 29.829 64.8134C29.2864 65.0678 28.7607 65.0339 28.2858 64.6608C27.828 64.3047 27.6584 63.8299 27.7432 63.2533C27.811 62.7615 27.8789 62.2528 28.0145 61.761C28.0993 61.4218 27.9806 61.2183 27.7432 60.9979C27.3701 60.6587 26.997 60.3026 26.6579 59.9295C26.2678 59.5225 26.1152 59.0307 26.3187 58.4711C26.5222 57.8946 26.9462 57.4876 27.5227 57.5045C28.9811 57.5554 29.846 56.8771 30.2869 55.5204C30.4734 54.9608 30.9482 54.6725 31.5757 54.6725C32.2201 54.6556 32.7288 54.9608 32.9154 55.5374C33.3563 56.928 34.2211 57.5384 35.6795 57.5045C36.2391 57.4876 36.6461 57.8946 36.8496 58.4372C37.0701 59.0138 36.9175 59.5056 36.5105 59.9465C36.4426 60.0313 36.3748 60.1161 36.29 60.1669C35.1199 60.8622 35.0521 61.8797 35.3743 63.0837C35.6626 64.1182 34.9673 64.9661 33.7294 64.9661ZM29.8799 62.5919C31.067 61.6592 32.1692 61.7779 33.3393 62.6089C32.8306 61.1844 33.2715 60.1161 34.4416 59.2342C32.8645 59.353 32.0166 58.5729 31.5757 57.1654C31.1857 58.6407 30.253 59.3021 28.7437 59.2851C29.9647 60.1161 30.3038 61.2014 29.8799 62.5919Z" fill="#0C0C0A"/>
<path d="M37.0365 19.4168C33.6957 19.4168 30.355 19.4168 27.0143 19.4168C26.8277 19.4168 26.6412 19.4168 26.4377 19.4168C25.895 19.3829 25.5389 19.0098 25.522 18.4842C25.522 17.9585 25.8781 17.5854 26.4038 17.5175C26.5225 17.5006 26.6582 17.5175 26.7769 17.5175C33.6279 17.5175 40.462 17.5175 47.313 17.5175C47.5335 17.5175 47.7709 17.4836 47.9913 17.5854C48.4322 17.7889 48.6527 18.1111 48.6018 18.5859C48.5509 19.0438 48.2457 19.349 47.7709 19.3999C47.5843 19.4338 47.3978 19.4168 47.1943 19.4168C43.8536 19.4168 40.445 19.4168 37.0365 19.4168Z" fill="#0C0C0A"/>
<path d="M37.1382 11.2432C39.1393 11.2432 41.1573 11.2432 43.1583 11.2432C43.3449 11.2432 43.5314 11.2432 43.7349 11.2601C44.2606 11.311 44.5319 11.6671 44.5658 12.1419C44.5998 12.5998 44.3454 12.9559 43.8706 13.0746C43.6332 13.1425 43.3788 13.1594 43.1244 13.1594C39.1054 13.1594 35.1033 13.1594 31.0842 13.1594C30.9825 13.1594 30.8807 13.1594 30.762 13.1594C30.0159 13.1255 29.6089 12.7694 29.6089 12.1759C29.6089 11.5823 30.0159 11.2601 30.7959 11.2432C32.9157 11.2432 35.0354 11.2432 37.1382 11.2432Z" fill="#0C0C0A"/>
<path d="M43.6669 41.174C42.3951 41.174 41.1402 41.174 39.8683 41.174C39.1052 41.174 38.6982 40.8348 38.6982 40.2243C38.6982 39.6308 39.1052 39.2577 39.8514 39.2577C42.3781 39.2408 44.9218 39.2408 47.4486 39.2577C48.2456 39.2577 48.6695 39.6308 48.6526 40.2413C48.6356 40.8348 48.2286 41.157 47.4655 41.157C46.1937 41.174 44.9388 41.174 43.6669 41.174Z" fill="#0C0C0A"/>
<path d="M45.159 26.234C45.973 26.234 46.8039 26.217 47.6179 26.234C48.2284 26.2509 48.6184 26.5901 48.6524 27.1158C48.6863 27.6584 48.2962 28.1163 47.6688 28.1333C45.99 28.1672 44.2942 28.1672 42.6153 28.1333C41.9879 28.1163 41.5978 27.6924 41.6148 27.1328C41.6317 26.5731 42.0048 26.234 42.6831 26.234C43.5141 26.234 44.3281 26.234 45.159 26.234Z" fill="#0C0C0A"/>
<path d="M23.809 28.269C24.1143 27.4889 24.0125 27.1837 23.3172 26.7428C17.2632 22.9612 9.24209 26.9293 8.52986 34.0347C8.39419 35.2896 8.52986 36.5276 8.86902 37.7316C8.97076 38.0877 8.90293 38.1894 8.54681 38.1894C7.39367 38.1894 6.2914 38.4947 5.25696 38.9865C4.93476 39.1391 4.7991 39.1391 4.71431 38.7321C4.40906 37.2737 4.22252 35.8153 4.22252 34.34C4.22252 31.7793 4.22252 29.2187 4.20557 26.658C4.20557 26.2341 4.37515 26.0306 4.73126 25.844C9.07251 23.6904 13.4138 21.5197 17.738 19.3322C18.0942 19.1456 18.3825 19.1626 18.7386 19.3491C23.0459 21.5197 27.3702 23.6734 31.6945 25.8271C32.0336 25.9966 32.288 26.1493 32.288 26.6071C32.2202 29.5069 32.3389 32.3898 32.2032 35.2896C31.9488 40.4449 29.9648 44.8031 26.2849 48.3982C25.6405 49.0256 24.9791 49.6531 24.233 50.2127C24.0973 50.0261 24.1482 49.8226 24.1482 49.653C24.1482 47.5842 24.1651 45.5153 24.1312 43.4295C24.1312 42.9886 24.2669 42.7003 24.5891 42.412C27.9637 39.4104 28.9303 34.8487 27.0649 30.8975C26.6749 30.0835 26.4545 29.9648 25.5726 30.1174C24.9961 29.473 24.5552 28.7438 23.809 28.269Z" fill="#E6B722"/>
<path d="M23.809 28.2689C24.5381 28.7438 24.996 29.4899 25.5556 30.1173C25.0299 30.5413 24.9621 30.9992 25.2504 31.6097C27.421 36.307 24.9282 41.4622 19.9086 42.6832C19.5016 42.785 19.0777 42.8528 18.6537 42.8698C17.6532 42.9206 16.8223 42.8189 16.1609 41.7675C15.1434 40.1395 13.5324 39.122 11.684 38.5455C11.277 38.4268 11.0565 38.2233 10.9039 37.8332C9.03854 33.0002 12.3962 27.6415 17.5515 27.2514C19.2812 27.1158 20.8583 27.4719 22.3167 28.3707C22.8763 28.7098 23.3511 28.7268 23.809 28.2689ZM22.7745 33.5429C22.7745 33.102 22.6049 32.7967 22.2488 32.6441C21.8079 32.4406 21.4179 32.5593 21.0957 32.8815C20.0952 33.882 19.0777 34.8825 18.0941 35.8831C17.8397 36.1374 17.7041 36.1374 17.4497 35.8831C16.8562 35.2556 16.2457 34.6451 15.6182 34.0516C15.1604 33.6107 14.5838 33.6277 14.2107 34.0177C13.8037 34.4416 13.8037 34.9334 14.2786 35.4252C15.1773 36.3409 16.0931 37.2567 17.0088 38.1554C17.5345 38.6642 18.0263 38.6642 18.552 38.1385C19.8408 36.8666 21.1296 35.5609 22.4184 34.289C22.6389 34.0686 22.7915 33.8312 22.7745 33.5429Z" fill="#59B947"/>
<path d="M16.0592 47.1263C16.0762 51.0436 12.939 54.1977 9.0556 54.1977C5.08742 54.1977 1.9502 51.0944 1.9502 47.1602C1.9502 43.209 5.05351 40.1056 9.02168 40.0887C12.9051 40.0717 16.0592 43.209 16.0592 47.1263ZM13.8886 46.3801C13.9056 45.5492 13.3799 44.9896 12.3794 44.9387C11.3958 44.8878 10.6836 44.5826 10.4292 43.5651C10.4122 43.5312 10.3953 43.4973 10.3783 43.4464C10.124 42.8359 9.7 42.4119 9.00472 42.395C8.30944 42.395 7.83462 42.785 7.63112 43.4294C7.29196 44.4808 6.6306 44.9726 5.49442 44.9387C4.86697 44.9217 4.35823 45.2609 4.15473 45.9053C3.95124 46.5158 4.12082 47.0754 4.6126 47.4315C5.54529 48.0929 5.86749 48.9068 5.49442 50.0091C5.27396 50.6535 5.47746 51.2131 6.03707 51.6201C6.59669 52.0102 7.19022 51.9423 7.682 51.5693C8.58077 50.9079 9.39476 50.9249 10.2935 51.5862C10.6836 51.8745 11.1753 51.9763 11.6671 51.7558C12.3794 51.4506 12.7016 50.857 12.4302 49.7887C12.1759 48.8051 12.4133 48.1607 13.1933 47.5841C13.6173 47.3128 13.9225 46.9228 13.8886 46.3801Z" fill="#3775B9"/>
<path d="M22.1641 59.4378C21.1974 58.573 20.3156 57.759 19.4169 56.9619C18.6029 56.2158 17.8906 56.1988 17.0767 56.928C16.1779 57.7251 15.2961 58.5221 14.3125 59.4039C14.3125 57.759 14.3125 56.2328 14.3125 54.7065C14.3125 54.4352 14.499 54.3504 14.6517 54.2148C17.3819 51.8915 18.4672 48.9408 17.8567 45.4136C17.7719 44.9726 17.7889 44.8031 18.3146 44.82C19.4677 44.8879 20.587 44.6335 21.6384 44.2095C22.1132 44.023 22.181 44.1587 22.181 44.6165C22.1641 49.4326 22.181 54.2487 22.181 59.0647C22.1641 59.1326 22.1641 59.2174 22.1641 59.4378Z" fill="#E6B722"/>
<path d="M53.2819 62.609C53.8924 61.1675 53.5024 60.1331 52.2983 59.3021C53.7398 59.2852 54.6894 58.6917 55.1134 57.2163C55.5712 58.6069 56.47 59.3191 57.9793 59.2004C57.5723 59.8278 56.9788 60.0992 56.7583 60.7097C56.5378 61.3371 56.86 61.9137 56.877 62.5581C56.2496 62.4394 55.7917 61.9137 55.1303 61.8967C54.4859 61.9137 54.0281 62.4224 53.2819 62.609Z" fill="#E6B722"/>
<path d="M43.3108 57.1145C44.3791 59.0986 43.9891 58.8612 46.1597 59.2851C45.8375 59.8278 45.1761 60.0991 44.9896 60.7266C44.8031 61.337 45.0744 61.9306 45.0914 62.6937C43.9382 61.778 42.819 61.6932 41.6319 62.6089C42.0559 61.2014 41.7506 60.1161 40.5127 59.3021C42.005 59.319 42.9377 58.6407 43.3108 57.1145Z" fill="#E6B722"/>
<path d="M29.8803 62.592C30.3043 61.1845 29.9651 60.1161 28.7441 59.2852C30.2534 59.3021 31.1861 58.6408 31.5761 57.1654C32.034 58.5729 32.8649 59.353 34.442 59.2343C33.255 60.1161 32.831 61.1675 33.3398 62.6089C32.1697 61.7949 31.0674 61.6593 29.8803 62.592Z" fill="#E6B722"/>
<path d="M22.7746 33.543C22.7916 33.8313 22.622 34.0687 22.4185 34.2722C21.1297 35.561 19.8578 36.8498 18.5521 38.1216C18.0264 38.6473 17.5346 38.6473 17.0089 38.1386C16.0932 37.2398 15.1774 36.3241 14.2787 35.4083C13.8038 34.9335 13.8038 34.4248 14.2108 34.0008C14.5839 33.6108 15.1605 33.6108 15.6183 34.0347C16.2458 34.6283 16.8563 35.2388 17.4498 35.8662C17.6872 36.1206 17.8398 36.1375 18.0942 35.8662C19.0778 34.8487 20.0953 33.8482 21.0958 32.8646C21.418 32.5424 21.825 32.4237 22.2489 32.6272C22.605 32.8138 22.7916 33.1021 22.7746 33.543Z" fill="#0C0C0A"/>
<path d="M13.8886 46.3802C13.9225 46.9228 13.6173 47.3128 13.2103 47.6011C12.4302 48.1777 12.1928 48.8221 12.4472 49.8057C12.7355 50.874 12.3963 51.4676 11.6841 51.7728C11.1753 51.9933 10.7005 51.8915 10.3105 51.6032C9.42866 50.9419 8.59772 50.9249 7.69895 51.5863C7.19021 51.9593 6.59668 52.0272 6.05402 51.6371C5.47745 51.2301 5.29091 50.6705 5.51137 50.0261C5.88444 48.9239 5.56224 48.1268 4.62955 47.4485C4.12081 47.0924 3.96819 46.5328 4.17169 45.9223C4.37518 45.2779 4.88392 44.9387 5.51137 44.9557C6.63059 44.9896 7.30891 44.4978 7.64807 43.4464C7.85157 42.802 8.32639 42.412 9.02167 42.412C9.71695 42.412 10.1409 42.8359 10.3953 43.4634C10.4122 43.4973 10.4461 43.5312 10.4461 43.5821C10.7005 44.6165 11.4127 44.9048 12.3963 44.9557C13.3968 44.9896 13.9056 45.5492 13.8886 46.3802ZM9.00471 44.837C8.63164 46.1597 7.88549 46.7363 6.64755 46.7363C7.69895 47.4146 7.88549 48.3473 7.58024 49.4835C8.56381 48.6695 9.4965 48.856 10.497 49.4496C10.0392 48.2795 10.4631 47.4146 11.5315 46.6345C10.107 46.7532 9.39475 46.1427 9.00471 44.837Z" fill="#0C0C0A"/>
<path d="M9.00498 44.8369C9.37805 46.1427 10.1072 46.7532 11.5148 46.6345C10.4464 47.4315 10.0225 48.2794 10.4803 49.4495C9.49676 48.856 8.54711 48.6694 7.56355 49.4834C7.86879 48.3472 7.68226 47.3976 6.63086 46.7362C7.90271 46.7362 8.6319 46.1596 9.00498 44.8369Z" fill="#E6B722"/>
</g>
<defs>
<clipPath id="clip0_259_4731">
<rect width="61.0149" height="65" fill="white"/>
</clipPath>
</defs>
</svg>
