<svg width="61" height="65" viewBox="0 0 61 65" fill="none" xmlns="http://www.w3.org/2000/svg">
<g clipPath="url(#clip0_259_4795)">
<path d="M53.1035 20.9298C53.1035 19.578 53.1035 15.7769 53.1035 13.2004C53.1035 12.8823 53.024 12.6438 52.8013 12.4211C50.3362 9.9878 47.8711 7.53857 45.4218 5.08934C45.3264 4.99392 45.2469 4.85078 45.0242 4.83488C45.0242 6.31396 45.0083 7.74532 45.0242 9.1926C45.0401 10.3059 45.5173 10.783 46.5987 10.7989C47.2349 10.7989 47.8711 10.8148 48.5072 10.7989C48.9207 10.783 49.1275 10.8784 49.0957 11.3556C49.048 11.9599 49.048 12.5802 49.0639 13.2004C49.0639 13.5026 48.9684 13.598 48.6663 13.598C47.9188 13.5821 47.1872 13.6298 46.4397 13.5821C43.8473 13.439 42.3046 11.7691 42.3046 9.17669C42.3046 7.20459 42.2887 5.24838 42.3205 3.27628C42.3205 2.83096 42.2092 2.71963 41.7639 2.71963C30.7742 2.70373 19.8163 2.68783 8.85835 2.70373C7.58602 2.70373 7.09299 3.18085 7.09299 4.45318C7.09299 23.1564 7.09299 41.8596 7.09299 60.5628C7.09299 61.8033 7.57012 62.2963 8.79473 62.2963C22.9971 62.2963 37.1835 62.2963 51.3859 62.2963C52.5946 62.2963 53.0876 61.8033 53.0876 60.6105C53.0876 59.4654 53.0876 57.9863 53.0876 56.8412L55.8549 59.3859L55.839 60.531C55.839 62.8053 54.6621 64.3798 52.6264 64.8887C52.2765 64.9841 51.9107 64.9841 51.5608 64.9841C37.2312 64.9841 22.9176 64.9841 8.58798 64.9841C6.15465 64.9841 4.45292 63.3301 4.32568 60.8968C4.32568 60.7854 4.32568 60.69 4.32568 60.5787C4.32568 41.8596 4.32568 23.1405 4.32568 4.40547C4.32568 2.6083 5.04137 1.22465 6.66358 0.365829C6.93395 0.222692 7.28384 0.270404 7.4906 -0.0158691C19.6731 -0.0158691 31.8716 -0.0158691 44.0541 -0.0158691C44.5312 0.286308 44.9288 0.699815 45.3264 1.09742C48.5549 4.32595 51.7835 7.57038 55.0279 10.783C55.5845 11.3396 55.8549 11.944 55.8549 12.7392C55.8549 16.1427 55.8549 20.8185 55.8549 24.2379C55.8549 24.2538 54.6303 22.2499 53.1035 20.9298Z" fill="#131524"/>
<path d="M45.0242 4.8348C45.2469 4.8507 45.3264 4.99384 45.4218 5.08926C47.8711 7.53849 50.3362 9.98772 52.8013 12.421C53.0399 12.6437 53.1035 12.8823 53.1035 13.2003C53.1035 29.009 53.1035 44.8018 53.1035 60.6104C53.1035 61.8032 52.5946 62.2963 51.4018 62.2963C37.1994 62.2963 23.013 62.2963 8.81062 62.2963C7.58601 62.2963 7.10889 61.8032 7.10889 60.5627C7.10889 41.8595 7.10889 23.1563 7.10889 4.4531C7.10889 3.18077 7.58601 2.70365 8.87424 2.70365C19.8322 2.70365 30.7901 2.70365 41.748 2.68774C42.1933 2.68774 42.3046 2.79907 42.3046 3.24439C42.2728 5.21649 42.2887 7.1727 42.2887 9.1448C42.2887 11.7372 43.8473 13.3912 46.4238 13.5502C47.1554 13.5979 47.9029 13.5502 48.6504 13.5661C48.9525 13.5661 49.0639 13.4707 49.048 13.1685C49.0321 12.5642 49.0321 11.9439 49.0798 11.3237C49.1116 10.8465 48.9207 10.7511 48.4913 10.767C47.8552 10.7988 47.219 10.7829 46.5828 10.767C45.5013 10.7511 45.0242 10.2899 45.0083 9.16071C45.0083 7.74524 45.0242 6.31388 45.0242 4.8348Z" fill="#CEEBF4"/>
<path d="M10.1309 62.9802C10.1786 61.9305 10.2263 60.8967 10.2422 59.8471C10.2422 59.4972 10.3058 59.3699 10.7034 59.3858C11.6895 59.4176 11.6736 59.4017 11.6895 60.3878C11.7054 61.2466 11.5781 62.1213 11.6895 62.9802C11.1487 62.9802 10.6398 62.9802 10.1309 62.9802Z" fill="#0F0C0B"/>
<path d="M37.3904 62.837C36.0227 62.8848 36.0068 62.8848 35.9909 61.5329C35.9432 59.0996 35.9272 56.6504 35.8954 54.217C35.8795 53.4536 36.1022 53.1992 36.8815 53.231C37.3268 53.2469 37.3904 53.0878 37.3745 52.6902C37.3427 51.6565 37.3427 50.6227 37.3268 49.6048C37.3268 49.2231 37.3109 48.7937 37.629 48.5552C38.0743 48.2212 37.8994 47.9508 37.6926 47.6009C37.2791 46.9489 37.0087 46.2173 36.8815 45.4539C36.8338 45.104 36.7543 44.8972 36.3408 45.1199C35.9431 45.3266 35.5137 45.4539 35.2116 45.8356C35.0048 46.1059 34.6708 46.2173 34.3686 46.3604C31.8558 47.4896 29.3271 48.6188 26.8142 49.748C26.3212 49.9706 25.8441 50.1297 25.3987 49.6844C24.9852 49.2709 25.1125 48.7937 25.3033 48.3166C26.0985 46.2809 25.1125 44.102 23.1086 43.3863C21.0887 42.6707 18.9258 43.784 18.3055 45.8515C17.9556 47.0602 18.1465 48.1576 18.9735 49.1277C19.4506 49.7003 20.0073 50.1615 20.5957 50.6068C21.4704 51.2748 21.375 52.1813 20.3731 52.6425C17.3036 54.0262 14.2182 55.3939 11.1487 56.7935C10.7829 56.9525 10.6716 56.8571 10.5443 56.5549C7.10905 48.9369 3.70557 41.3347 0.302097 33.7167C-0.429491 32.0785 0.190769 30.4404 1.84479 29.7247C2.36963 29.5021 2.54457 29.2794 2.29011 28.7546C1.97203 28.1025 2.01974 27.4505 2.22649 26.7507C2.83085 24.6354 3.38749 22.4884 3.92823 20.3413C4.10317 19.6575 4.42126 19.0531 4.80295 18.4805C4.94609 18.2738 5.02561 18.1148 4.78705 17.8762C4.48487 17.5899 4.43716 17.1764 4.43716 16.7788C4.43716 15.745 4.40535 14.7113 4.42126 13.6934C4.42126 13.3594 4.38945 13.2004 3.99185 13.2163C3.0535 13.2322 2.89446 13.0414 2.87856 12.1189C2.84675 8.98581 2.81494 5.85271 2.75133 2.7196C2.73542 2.19477 2.84675 1.9562 3.4193 2.03572C3.67376 2.08344 3.92823 2.05163 4.18269 2.05163C4.23041 5.12112 4.27812 8.19061 4.29402 11.276C4.29402 11.6895 4.37354 11.8485 4.80295 11.8008C5.3596 11.7372 5.90033 11.7213 6.45698 11.7213C11.7689 11.7054 17.0809 11.6736 22.3929 11.6895C23.029 11.6895 23.1245 11.5146 23.1245 10.9261C23.0608 7.96795 23.0608 5.02569 23.029 2.06753C24.4286 2.01982 24.4445 2.01982 24.4604 3.37167C24.5081 6.28212 24.5399 9.20847 24.5558 12.1189C24.5558 12.8346 24.3491 13.0732 23.6016 13.0732C23.1881 13.0732 23.0608 13.1686 23.0767 13.598C23.1086 14.6318 23.0927 15.6655 23.1086 16.6834C23.1245 17.1923 23.029 17.6376 22.6155 17.9557C22.3929 18.1307 22.4565 18.242 22.5837 18.4328C22.8382 18.8304 23.0926 19.2439 23.2199 19.7052C23.3312 20.1187 23.6175 20.1187 23.9038 19.9755C26.4802 18.7032 29.1998 17.7331 31.824 16.588C32.317 16.3812 32.81 16.1745 33.3508 15.9359C32.1898 15.2202 31.3787 14.266 30.9652 12.9936C30.5517 11.7054 30.6471 10.449 31.2196 9.24027C32.2375 7.07732 34.6072 5.88451 36.9292 6.37754C38.3447 6.67972 39.458 7.45902 40.2532 8.68363C41.0643 9.92415 40.9847 11.3237 40.9529 12.7869C42.273 12.2302 43.5612 11.6895 44.8494 11.1647C46.5035 10.4808 48.1734 9.79692 49.8115 9.08123C50.2091 8.90629 50.3363 8.98581 50.4954 9.3516C53.6126 16.8583 56.7616 24.3492 59.8947 31.84C60.6899 33.7326 60.0856 35.2435 58.2089 36.0546C57.8272 36.2136 57.7795 36.3726 57.9385 36.7066C58.5429 37.9631 58.4633 39.2036 58.0339 40.5236C57.4614 42.3049 57.032 44.1338 56.5708 45.9469C56.3958 46.6467 56.0618 47.2669 55.6801 47.8713C55.5529 48.0621 55.4734 48.2053 55.696 48.412C55.9982 48.6983 56.0618 49.0959 56.0618 49.5094C56.0618 50.5591 56.0777 51.6088 56.0777 52.6584C56.0777 53.0083 56.1572 53.1356 56.5389 53.1196C57.4773 53.0878 57.6204 53.2628 57.6363 54.217C57.6681 56.873 57.6999 59.529 57.7636 62.185C57.7795 62.6939 57.684 62.9643 57.1115 62.8689C56.857 62.837 56.6026 62.853 56.3481 62.853C56.3004 60.2765 56.2527 57.7 56.2368 55.1236C56.2368 54.6146 56.0777 54.5192 55.6006 54.5192C49.7002 54.6146 43.7998 54.6942 37.8834 54.6464C37.4381 54.6464 37.3745 54.8055 37.3904 55.1872C37.4381 57.5092 37.4699 59.8312 37.5018 62.1373C37.454 62.3758 37.5177 62.6144 37.3904 62.837ZM7.95196 17.0015C12.4051 17.081 16.8582 16.906 21.3273 16.9219C21.6454 16.9219 21.6772 16.7629 21.6613 16.5243C21.6454 15.5542 21.6295 14.584 21.6613 13.6139C21.6772 13.2004 21.5659 13.0891 21.1364 13.0891C18.9894 13.1209 16.8582 13.105 14.7112 13.1209C12.4528 13.1527 10.1944 13.0891 7.93606 13.2322C7.34761 13.2163 6.74325 13.2322 6.1548 13.2004C5.90034 13.1845 5.82081 13.2799 5.82081 13.5503C5.83672 14.584 5.85262 15.6178 5.85262 16.6516C5.85262 16.9697 5.99576 17.0651 6.28203 17.0492C6.85458 17.0174 7.41122 17.0174 7.95196 17.0015ZM52.5152 53.0719C52.9923 53.0878 53.4695 53.056 53.9307 53.1037C54.4714 53.1674 54.7259 53.0242 54.6464 52.4199C54.5827 52.0064 54.6623 51.5929 54.6145 51.1793C54.5509 50.5591 54.9008 49.7003 54.4237 49.3504C53.9784 49.0323 53.1673 49.2391 52.5152 49.3027C48.0621 49.255 43.6089 49.3027 39.1558 49.3663C38.8536 49.3663 38.79 49.4935 38.8059 49.7639C38.8218 50.7499 38.8536 51.7519 38.8218 52.738C38.8059 53.1515 38.9808 53.2151 39.3307 53.2151C40.285 53.1992 41.2392 53.2151 42.1776 53.1992C45.6287 53.1674 49.064 53.1197 52.5152 53.0719ZM32.3806 36.2454C32.4443 36.4204 32.492 36.5476 32.5397 36.6748C33.478 38.9173 34.4323 41.1439 35.3547 43.4023C35.5456 43.8476 35.7205 43.8794 36.134 43.7044C39.951 42.0822 43.7839 40.5077 47.6167 38.8855C48.6664 38.4402 49.7797 38.1062 50.734 37.47C50.9566 37.311 51.0361 37.1838 50.9884 36.8975C50.7021 35.2276 50.4159 33.5417 50.1932 31.8559C50.0024 30.4245 50.2568 29.0727 51.3383 28.023C52.8333 26.5757 54.8372 27.1006 55.4734 29.0568C56.03 30.8221 56.6026 32.5875 57.1592 34.3528C57.2705 34.7186 57.3978 34.814 57.7795 34.6391C58.7496 34.1938 59.02 33.4145 58.5429 32.2694C55.6483 25.3352 52.7379 18.3851 49.8433 11.4509C49.5252 10.7035 49.5252 10.7035 48.7937 11.0056C46.249 12.0712 43.6884 13.1209 41.1438 14.2024C40.6826 14.3932 40.2691 14.4568 39.8715 14.1387C39.4739 13.8207 39.3943 13.4071 39.4898 12.9141C39.6011 12.2939 39.5693 11.6418 39.5375 11.0215C39.4739 8.954 37.5813 7.52263 35.6728 7.68167C32.985 7.90433 31.9671 10.2263 32.1898 11.8167C32.4124 13.3276 33.2236 14.3932 34.6867 14.9339C35.466 15.2202 35.7364 15.9518 35.307 16.5243C35.1479 16.747 34.9094 16.8265 34.6708 16.9379C31.9353 18.0829 29.2157 19.2439 26.4802 20.3572C25.9236 20.5799 25.9077 20.7866 26.1303 21.2797C27.1005 23.5221 28.0229 25.7964 28.9772 28.0548C29.0567 28.2298 29.0726 28.4683 29.2793 28.5955C31.1401 25.7805 34.1301 25.6533 36.0386 26.5916C38.2492 27.689 39.4102 30.2019 38.7264 32.5875C37.9948 34.9095 36.0863 36.643 32.3806 36.2454ZM26.9573 48.0622C26.9892 48.0622 27.0369 48.094 27.0687 48.0781C29.4066 47.0443 31.7286 45.9946 34.0506 44.9609C34.4005 44.8018 34.3686 44.611 34.2414 44.3088C33.1281 41.6846 32.0307 39.0604 30.9493 36.4204C30.5199 35.4025 31.1401 34.5119 32.2375 34.5437C32.8896 34.5596 33.5257 34.6391 34.1937 34.5755C35.8636 34.4005 37.0723 33.4145 37.4222 31.8241C37.7403 30.3927 36.9928 28.7546 35.6569 27.9753C33.6371 26.7984 31.156 27.689 30.2654 29.9156C29.9791 30.6313 29.6292 30.8539 29.0249 30.7426C28.5478 30.6472 28.3728 30.2814 28.2138 29.8838C27.1005 27.3073 25.9713 24.7309 24.8421 22.1703C24.4763 21.3274 24.2855 21.2638 23.4266 21.6455C19.8005 23.2677 16.1744 24.8899 12.5323 26.4962C12.0711 26.703 11.6894 26.9415 11.3713 27.3709C10.9737 27.9276 10.4489 28.4206 9.84455 28.7705C9.51056 28.9613 9.47875 29.1999 9.52647 29.5021C9.62189 30.0905 9.74912 30.6631 9.82864 31.2515C10.0036 32.6352 10.433 34.0029 10.3535 35.4184C10.2899 36.5317 9.97178 37.5655 9.09706 38.3448C7.93606 39.3785 5.64587 39.5535 5.00971 37.2633C4.45306 35.2435 3.73738 33.2713 3.13302 31.2674C3.00579 30.8221 2.83085 30.8062 2.46505 30.9812C1.54262 31.4265 1.24044 32.2217 1.66985 33.1918C4.85067 40.3328 8.06329 47.4578 11.2441 54.5987C11.4191 54.9804 11.5781 55.0281 11.9598 54.8691C13.6297 54.1057 15.3156 53.3582 16.9855 52.6107C17.7648 52.2608 18.56 51.9109 19.3711 51.5292C16.3175 49.1118 16.2221 46.599 17.3831 44.4201C18.4805 42.3685 20.9456 41.3347 23.2199 41.9391C25.8122 42.623 27.0846 44.7223 26.9573 48.0622ZM48.2529 40.301C48.1734 40.2691 48.1575 40.2532 48.1416 40.2532C44.9131 41.5892 41.7004 42.941 38.4719 44.277C38.1856 44.3883 38.1856 44.5633 38.2174 44.7859C38.3765 45.7561 38.7105 46.6467 39.2989 47.4578C39.5693 47.8236 39.8715 47.9985 40.3486 47.9508C40.8416 47.9031 41.3346 47.919 41.8277 47.919C45.7083 47.8872 49.6048 47.8713 53.4854 47.8395C53.6921 47.8395 53.9307 47.9031 54.0738 47.6646C54.4555 47.0443 54.9008 46.4558 55.0917 45.7402C55.696 43.4977 56.2845 41.2393 56.9047 38.9968C56.9843 38.7105 56.9684 38.472 56.8729 38.2016C55.9187 35.2594 54.9803 32.3012 54.0261 29.3589C53.8193 28.7228 53.4854 28.5319 52.8651 28.7387C52.4834 28.8659 52.1653 29.1045 51.9745 29.4703C51.6087 30.1701 51.4337 30.9175 51.561 31.7127C51.879 33.7167 52.2289 35.7365 52.547 37.7404C52.5788 37.9472 52.6424 38.138 52.3403 38.2652C50.8294 38.8537 49.891 40.0306 49.2708 41.4779C49.0799 41.9232 48.8732 42.0027 48.4438 41.7641C47.7281 41.3824 47.7122 41.3983 48.0621 40.6508C48.1416 40.5395 48.1893 40.4282 48.2529 40.301ZM13.6933 18.3533C13.6933 18.3851 13.6933 18.4328 13.6933 18.4646C11.4509 18.4646 9.20838 18.4646 6.96591 18.4646C6.75916 18.4646 6.5365 18.3692 6.37746 18.6237C6.01166 19.228 5.55045 19.8006 5.3755 20.5004C4.77115 22.7906 4.16679 25.0807 3.54653 27.355C3.48291 27.6095 3.49882 27.8003 3.56243 28.0389C4.51668 31.0289 5.47093 34.0029 6.42517 36.9929C6.63192 37.6291 6.96591 37.7881 7.60207 37.5655C8.03148 37.4064 8.36547 37.1519 8.54041 36.7225C8.8585 35.975 9.00163 35.2276 8.8585 34.4164C8.50861 32.4443 8.20643 30.4881 7.87244 28.516C7.84063 28.357 7.79292 28.1661 8.03148 28.0707C9.6696 27.4664 10.6079 26.1622 11.2759 24.6354C11.4031 24.3333 11.5463 24.3492 11.8008 24.4605C12.1665 24.6036 12.4687 24.9535 12.9458 24.7309C15.8563 23.4108 18.7826 22.1067 21.6931 20.8184C21.9635 20.7071 22.043 20.5958 21.9157 20.2777C21.6931 19.7529 21.4227 19.2598 21.0887 18.7827C20.882 18.4805 20.6434 18.3533 20.2617 18.3533C18.0988 18.3692 15.8881 18.3533 13.6933 18.3533Z" fill="#0F0C0B"/>
<path d="M23.029 2.05158C23.0608 5.00974 23.0767 7.952 23.1244 10.9102C23.1403 11.4827 23.029 11.6736 22.3928 11.6736C17.0808 11.6577 11.7689 11.6895 6.4569 11.7054C5.90026 11.7054 5.34362 11.7372 4.80288 11.7849C4.37347 11.8326 4.29395 11.6736 4.29395 11.26C4.27804 8.19056 4.23033 5.12107 4.18262 2.03568C9.31964 2.03568 14.4567 2.03568 19.5778 2.01978C20.7229 2.05158 21.868 2.05158 23.029 2.05158Z" fill="#25BFD5"/>
<path d="M37.3902 62.837C37.5015 62.6144 37.4538 62.3758 37.4538 62.1372C37.422 59.8152 37.3902 57.4932 37.3425 55.1872C37.3266 54.8055 37.3902 54.6305 37.8355 54.6464C43.7359 54.6941 49.6522 54.6305 55.5527 54.5192C56.0298 54.5033 56.1888 54.5987 56.1888 55.1235C56.2047 57.7 56.2524 60.2765 56.3001 62.8529C53.9304 62.8529 51.5448 62.8688 49.1751 62.8688C45.2468 62.8529 41.3185 62.837 37.3902 62.837Z" fill="#FBB025"/>
<path d="M51.6246 3.9441C51.6087 4.35761 51.5451 4.77111 51.5769 5.18462C51.6087 5.69355 51.4178 5.80488 50.9407 5.75717C50.1137 5.69355 50.1137 5.72536 50.1296 4.88244C50.1455 4.11904 50.2091 3.33974 50.2091 2.57635C50.2091 2.22646 50.3364 2.16284 50.6544 2.16284C51.6564 2.17875 51.6564 2.16284 51.6405 3.1648C51.6405 3.41926 51.6405 3.67373 51.6246 3.9441Z" fill="#0F0C0B"/>
<path d="M46.1217 7.82465C45.9149 7.85646 45.9149 7.66561 45.8513 7.57018C45.406 6.71136 44.9766 5.85254 44.5154 4.99372C44.4041 4.77106 44.4041 4.67564 44.6426 4.54841C45.6287 3.97586 45.6128 3.95996 46.1376 4.97782C46.4557 5.61398 46.7738 6.25014 47.1078 6.8704C47.2509 7.12487 47.2509 7.28391 46.9487 7.41114C46.6783 7.52247 46.408 7.68151 46.1217 7.82465Z" fill="#0F0C0B"/>
<path d="M15.697 57.3501C15.872 57.366 15.9038 57.4932 15.9515 57.5887C16.3968 58.4475 16.8262 59.3063 17.2875 60.1651C17.3988 60.3878 17.3988 60.4832 17.1602 60.6263C16.1901 61.1989 16.206 61.2148 15.697 60.2128C15.4267 59.688 15.1563 59.1632 14.8859 58.6383C14.536 57.9545 14.536 57.9385 15.2517 57.5728C15.3949 57.5091 15.5539 57.4296 15.697 57.3501Z" fill="#0F0C0B"/>
<path d="M56.2526 4.07129C56.6025 4.26214 56.9683 4.43708 57.3182 4.64384C57.4455 4.72336 57.3341 4.85059 57.2864 4.94601C56.8411 5.82074 56.3799 6.69546 55.9505 7.57019C55.8391 7.80875 55.7278 7.80875 55.5052 7.69742C54.5032 7.2362 54.4873 7.2362 55.0121 6.23424C55.3302 5.59808 55.6483 4.97782 55.9823 4.34166C56.03 4.26214 56.03 4.08719 56.2526 4.07129Z" fill="#0F0C0B"/>
<path d="M7.26798 57.9861C7.20436 58.1134 7.17256 58.1929 7.12484 58.2883C6.69543 59.1153 6.25012 59.9264 5.85252 60.7694C5.69348 61.0874 5.56624 61.0874 5.27997 60.9443C4.37344 60.4831 4.37344 60.499 4.85056 59.5766C5.16864 58.9563 5.51853 58.3678 5.7889 57.7317C5.96385 57.3182 6.1706 57.3023 6.48868 57.5249C6.72724 57.684 7.06123 57.7476 7.26798 57.9861Z" fill="#0F0C0B"/>
<path d="M32.3807 36.2453C36.0864 36.6429 37.9949 34.9253 38.6787 32.5555C39.3626 30.1699 38.2016 27.6571 35.991 26.5597C34.0825 25.6214 31.1084 25.7486 29.2317 28.5636C29.025 28.4364 29.0091 28.2137 28.9295 28.0229C27.9753 25.7645 27.0529 23.5061 26.0827 21.2477C25.876 20.7547 25.8919 20.548 26.4326 20.3253C29.184 19.212 31.9036 18.051 34.6232 16.9059C34.8618 16.8105 35.1003 16.7151 35.2594 16.4924C35.6888 15.9199 35.4184 15.1883 34.6391 14.902C33.1759 14.3613 32.3648 13.2957 32.1422 11.7848C31.9195 10.1944 32.9374 7.8724 35.6252 7.64975C37.5336 7.4907 39.4262 8.92207 39.4899 10.9896C39.5058 11.6258 39.5535 12.2619 39.4421 12.8822C39.3467 13.3752 39.4262 13.7887 39.8238 14.1068C40.2214 14.4249 40.6508 14.3772 41.0962 14.1704C43.6408 13.0889 46.2014 12.0393 48.746 10.9737C49.4776 10.6715 49.4776 10.6556 49.7957 11.419C52.6902 18.3532 55.6007 25.3033 58.4952 32.2375C58.9724 33.3826 58.7179 34.1619 57.7318 34.6072C57.3501 34.7821 57.2229 34.6708 57.1116 34.3209C56.5549 32.5555 55.9824 30.7902 55.4257 29.0248C54.8055 27.0527 52.8016 26.5279 51.2907 27.9911C50.2092 29.0407 49.9547 30.3926 50.1456 31.824C50.3682 33.5098 50.6545 35.1797 50.9408 36.8656C50.9885 37.1518 50.9249 37.2791 50.6863 37.4381C49.7162 38.0743 48.6188 38.4082 47.5691 38.8536C43.7521 40.4758 39.9193 42.0503 36.0864 43.6725C35.6729 43.8474 35.4979 43.8156 35.3071 43.3703C34.3846 41.1119 33.4304 38.8854 32.4921 36.6429C32.4921 36.5475 32.4443 36.4202 32.3807 36.2453Z" fill="#FBB025"/>
<path d="M26.9575 48.062C27.0847 44.7221 25.8124 42.6387 23.22 41.9389C20.9457 41.3346 18.4806 42.3683 17.3832 44.42C16.2222 46.5988 16.3176 49.1117 19.3712 51.5291C18.5601 51.8949 17.7808 52.2448 16.9856 52.6106C15.2998 53.3581 13.6298 54.1056 11.9599 54.869C11.5941 55.0439 11.4192 54.9962 11.2442 54.5986C8.06342 47.4576 4.8667 40.3326 1.66997 33.1917C1.24056 32.2215 1.54274 31.4104 2.46518 30.981C2.83097 30.8061 2.99001 30.822 3.13315 31.2673C3.73751 33.2712 4.45319 35.2433 5.00983 37.2631C5.646 39.5533 7.93618 39.3784 9.09718 38.3446C9.97191 37.5653 10.29 36.5474 10.3536 35.4183C10.4331 34.0028 10.0037 32.635 9.82877 31.2514C9.74925 30.6629 9.63792 30.0745 9.52659 29.5019C9.47888 29.1839 9.51069 28.9612 9.84467 28.7703C10.449 28.4205 10.958 27.9274 11.3715 27.3708C11.6736 26.9414 12.0712 26.7028 12.5325 26.4961C16.1586 24.8898 19.8006 23.2516 23.4268 21.6453C24.2856 21.2636 24.4605 21.3272 24.8422 22.1702C25.9714 24.7466 27.1006 27.3231 28.2139 29.8836C28.3888 30.2812 28.5638 30.647 29.025 30.7425C29.6294 30.8697 29.9792 30.6311 30.2655 29.9154C31.1721 27.6889 33.6372 26.7982 35.657 27.9751C36.9929 28.7544 37.7563 30.3926 37.4224 31.8239C37.0725 33.4143 35.8638 34.4004 34.1938 34.5753C33.5259 34.639 32.8897 34.5594 32.2376 34.5435C31.1402 34.5276 30.52 35.4024 30.9494 36.4202C32.0309 39.0603 33.1442 41.6845 34.2415 44.3086C34.3688 44.6108 34.4006 44.8017 34.0507 44.9607C31.7128 45.9945 29.3908 47.0441 27.0688 48.0779C27.037 48.0938 26.9893 48.062 26.9575 48.062Z" fill="#D22732"/>
<path d="M48.2529 40.301C48.1893 40.4282 48.1416 40.5395 48.0939 40.635C47.7281 41.3825 47.744 41.3507 48.4756 41.7483C48.905 41.9868 49.1118 41.9073 49.3026 41.462C49.9229 40.0147 50.8612 38.8537 52.3721 38.2494C52.6743 38.1221 52.6107 37.9313 52.5788 37.7245C52.2449 35.7206 51.9109 33.7167 51.5928 31.6969C51.4656 30.9176 51.6405 30.1701 52.0063 29.4544C52.1972 29.0727 52.5152 28.85 52.8969 28.7228C53.5172 28.5161 53.8512 28.691 54.0579 29.3431C55.0122 32.2853 55.9505 35.2435 56.9048 38.1857C56.9843 38.4561 57.0002 38.6947 56.9366 38.9809C56.3163 41.2234 55.7279 43.4818 55.1235 45.7243C54.9327 46.44 54.4873 47.0284 54.1056 47.6487C53.9625 47.8872 53.7239 47.8236 53.5172 47.8236C49.6366 47.8554 45.7401 47.8713 41.8595 47.9031C41.3665 47.9031 40.8575 47.8872 40.3804 47.9349C39.9033 47.9827 39.6011 47.8236 39.3307 47.4419C38.7582 46.6308 38.4083 45.7402 38.2493 44.77C38.2175 44.5474 38.2175 44.3724 38.5037 44.2611C41.7323 42.9252 44.9449 41.5892 48.1734 40.2374C48.1575 40.2533 48.1734 40.2692 48.2529 40.301Z" fill="#EDCCB1"/>
<path d="M13.6931 18.3533C15.8879 18.3533 18.0985 18.3692 20.2933 18.3374C20.675 18.3374 20.9136 18.4487 21.1203 18.7668C21.4543 19.2439 21.7247 19.737 21.9473 20.2618C22.0746 20.564 21.9791 20.6753 21.7247 20.8025C18.7983 22.1067 15.8879 23.4108 12.9774 24.7149C12.5003 24.9376 12.1981 24.5877 11.8323 24.4446C11.562 24.3332 11.4347 24.3332 11.3075 24.6195C10.6395 26.1463 9.70119 27.4345 8.06307 28.0548C7.82451 28.1502 7.87222 28.3252 7.90403 28.5001C8.22211 30.4722 8.54019 32.4443 8.89008 34.4005C9.03322 35.2116 8.89008 35.975 8.572 36.7066C8.39705 37.136 8.06307 37.3905 7.63366 37.5495C6.9975 37.7722 6.66351 37.6132 6.45676 36.977C5.50251 33.987 4.54827 31.013 3.59402 28.023C3.5145 27.8003 3.5145 27.5936 3.57812 27.3391C4.19838 25.0489 4.78683 22.7587 5.40709 20.4845C5.59794 19.7847 6.05915 19.228 6.40904 18.6078C6.55218 18.3533 6.79074 18.4487 6.9975 18.4487C9.23997 18.4487 11.4824 18.4487 13.7249 18.4487C13.6931 18.4328 13.6931 18.3851 13.6931 18.3533Z" fill="#EDCCB1"/>
<path d="M52.515 53.0718C49.0638 53.1195 45.6285 53.1672 42.1773 53.215C41.2231 53.2309 40.2688 53.1991 39.3305 53.2309C38.9647 53.2468 38.8057 53.1831 38.8216 52.7537C38.8534 51.7677 38.8216 50.7657 38.8057 49.7797C38.8057 49.5093 38.8693 49.3821 39.1556 49.3821C43.6087 49.3185 48.0618 49.2707 52.515 49.3185C52.4673 50.559 52.4673 51.8154 52.515 53.0718Z" fill="#FEFEFE"/>
<path d="M7.95215 13.2322C10.2105 13.0891 12.4689 13.1368 14.7273 13.1209C16.8743 13.0891 19.0055 13.1209 21.1525 13.0891C21.5819 13.0891 21.6933 13.2004 21.6774 13.6139C21.6615 14.5841 21.6774 15.5542 21.6774 16.5244C21.6774 16.7789 21.6456 16.922 21.3434 16.922C16.8902 16.9061 12.4371 17.081 7.96805 17.0015C7.99986 15.7451 8.01576 14.4887 7.95215 13.2322Z" fill="#FEFEFE"/>
<path d="M52.5153 53.0719C52.4676 51.8154 52.4676 50.559 52.5153 49.3185C53.1673 49.2549 53.9625 49.0481 54.4238 49.3662C54.9168 49.7161 54.5669 50.559 54.6146 51.1952C54.6464 51.6087 54.5828 52.0222 54.6464 52.4357C54.7259 53.0401 54.4874 53.1832 53.9307 53.1196C53.4536 53.056 52.9765 53.0719 52.5153 53.0719Z" fill="#EDCCB1"/>
<path d="M7.95216 13.232C8.01577 14.4885 7.99987 15.7449 7.96806 17.0013C7.41142 17.0172 6.85478 17.0172 6.29813 17.0331C6.01186 17.049 5.86872 16.9695 5.86872 16.6355C5.86872 15.6017 5.86872 14.568 5.83691 13.5342C5.83691 13.2798 5.91643 13.1843 6.1709 13.1843C6.75935 13.232 7.36371 13.232 7.95216 13.232Z" fill="#EDCCB1"/>
</g>
<defs>
<clipPath id="clip0_259_4795">
<rect width="60.2129" height="65" fill="white"/>
</clipPath>
</defs>
</svg>
