<svg width="77" height="84" viewBox="0 0 77 84" fill="none" xmlns="http://www.w3.org/2000/svg">
<g opacity="0.5">
<path d="M44.4154 60.1846C44.1305 59.8994 43.8457 59.6142 43.8457 59.0437C43.8457 57.9028 43.8457 57.0471 43.8457 55.9061C44.1305 54.1947 44.9851 53.339 46.6941 52.7685C48.688 52.1981 50.6819 51.3424 52.6758 50.7719C53.8152 50.4866 54.1 49.9162 54.1 48.7752V48.49C54.1 47.6343 54.1 47.0638 54.1 46.2081C54.1 45.3524 53.2455 45.0672 52.6758 44.4967C51.8213 43.3558 51.2516 42.2148 50.9668 40.7887C50.9668 40.5034 50.6819 40.2182 50.3971 40.2182C49.5426 39.933 48.9729 39.0773 48.9729 37.9363C48.9729 36.7954 49.2577 36.2249 50.3971 35.6544C50.6819 35.3692 50.6819 35.3692 50.6819 35.084C50.6819 33.6578 50.6819 31.9464 50.6819 30.5202C50.6819 28.8088 51.5365 27.6679 53.2455 27.0974C53.5304 27.0974 53.5303 26.8122 53.5303 26.8122C54.3849 25.386 55.8091 24.5303 57.5182 24.5303C60.0818 24.5303 62.9302 24.5303 65.4937 24.5303C67.4876 24.5303 68.9119 25.9564 69.1967 27.9531C69.1967 30.235 69.1967 32.8021 69.1967 35.084C69.1967 35.3692 69.1967 35.3692 69.4816 35.6544C70.3361 36.2249 70.9058 36.7954 70.9058 37.9363C70.9058 39.0773 70.3361 39.6477 69.4816 40.2182C69.1967 40.2182 69.1967 40.5034 69.1967 40.7887C68.9119 42.7853 67.7725 44.4967 66.3483 45.6377C66.0634 45.9229 66.0635 45.9229 66.0635 46.2081C66.0635 47.0638 66.0635 47.6343 66.0635 48.49C66.0635 49.3457 66.3483 49.9162 67.4877 50.2014C69.4816 50.7719 71.4754 51.6276 73.4693 52.1981C75.1784 52.7685 76.3178 54.4799 76.3178 56.1913C76.3178 57.0471 76.3178 57.6175 76.3178 58.4732C76.3178 59.0437 70.9058 69.5974 56.9485 67.6007C56.6636 67.6007 56.9485 66.1746 56.9485 66.1746C56.6636 65.8893 74.6087 59.3289 74.6087 59.0437C74.6087 58.188 74.6087 57.3323 74.6087 56.4766C74.6087 55.3356 74.039 54.1947 72.6148 53.9095C72.33 53.9095 71.7603 53.6242 71.4755 53.6242C71.1906 53.6242 71.1906 53.6242 70.9058 53.9095C70.3361 54.7652 69.4816 55.6209 68.627 56.4766C68.0573 56.7618 67.7725 56.7618 67.4877 56.4766C67.2028 56.1913 67.2028 55.6209 67.7725 55.3356C68.3422 55.0504 68.627 54.4799 69.1967 54.1947C70.0512 53.339 70.0513 53.339 68.9119 53.0538C68.3422 52.7685 68.0574 52.7685 67.4877 53.339C63.7847 57.0471 57.803 57.0471 54.1 53.6242C53.2455 53.0538 52.6758 52.7685 51.8213 53.339C51.2516 53.6242 51.2516 53.6242 51.5365 53.9095C53.8152 56.4766 56.6636 57.9028 60.0817 57.9028C61.7908 57.9028 63.4998 57.6175 64.9241 57.0471C65.4937 56.7618 65.7786 57.0471 66.0635 57.6175C66.3483 57.9028 66.0634 58.4732 65.4937 58.7585C64.0695 59.3289 62.6453 59.6142 60.9363 59.6142C58.3727 59.6142 56.0939 59.3289 54.1 58.188C52.6758 57.3323 51.2516 56.4766 50.1122 55.0504C49.2577 54.1947 49.2577 54.1947 48.1183 54.4799C47.8335 54.4799 47.8335 54.4799 47.5487 54.7652C46.6941 55.0504 46.1244 55.6209 45.8396 56.7618C45.5548 57.9028 45.8396 58.7585 45.8396 59.8994C45.8396 60.1846 45.5548 60.4699 45.2699 60.7551C44.9851 60.1846 44.7002 60.1846 44.4154 60.1846ZM54.3849 29.9497C54.1 29.9497 53.8152 29.9497 53.5303 29.6645C53.5303 29.3793 53.2455 29.3793 53.2455 29.6645C52.6758 29.9497 52.6758 30.5202 52.6758 31.0907C52.6758 32.5168 52.6758 33.943 52.6758 35.084C52.6758 35.6544 52.6758 35.9397 52.6758 36.5101C52.6758 37.3658 52.6758 37.3658 51.8213 37.6511C51.2516 37.6511 50.9668 38.2215 50.9668 38.5068C50.9668 39.0773 51.2516 39.3625 51.8213 39.3625C52.6758 39.6477 52.6758 39.6477 52.9607 40.5034C53.5304 44.2115 57.2333 47.3491 61.2211 47.0638C64.6392 46.7786 67.4876 43.9262 67.7725 40.5034C67.7725 39.6477 68.0574 39.6477 68.9119 39.3625C69.4816 39.3625 69.7664 39.0773 69.7664 38.5068C69.7664 37.9363 69.4816 37.6511 68.9119 37.6511C68.0574 37.3658 68.0574 37.3658 68.0574 36.5101C68.0574 35.3692 68.0574 34.2283 68.0574 32.8021C68.0574 32.5168 68.0573 32.2316 67.7725 32.5168C67.4876 32.5168 67.2028 32.5168 66.918 32.5168C63.7847 32.5168 60.6514 32.5168 57.5182 32.5168C56.6636 32.5168 56.6636 32.8021 56.3788 33.3726C56.0939 34.2283 55.5242 34.5135 54.9546 33.943C54.6697 33.0873 55.2394 32.2316 55.8091 31.6611C56.3788 31.0907 57.2333 31.0907 58.0878 31.0907C61.506 31.0907 64.9241 31.0907 68.0574 31.0907C68.3422 31.0907 68.627 31.0907 68.627 30.5202C68.627 29.9497 68.627 29.3793 68.627 28.8088C68.627 27.3826 68.0574 26.8122 66.6331 26.8122C64.0696 26.8122 61.506 26.8122 58.6575 26.8122C56.9485 26.8122 56.0939 27.6679 55.8091 29.3793C54.9546 29.3793 54.6697 29.6645 54.3849 29.9497ZM55.8091 47.3491C55.8091 48.2048 55.8091 49.0605 55.8091 49.9162C55.5243 50.7719 54.9546 51.3424 54.3849 51.9128C58.0878 55.3356 63.4999 54.7652 66.0635 51.9128C64.3544 50.7719 64.3544 49.0605 64.3544 47.3491C61.2211 48.7752 58.6575 48.7752 55.8091 47.3491Z" fill="#0F0B08"/>
<path d="M54.1001 33.6579C54.9546 34.2283 55.5243 34.2283 55.5243 33.0874C55.5243 32.5169 55.8092 32.2317 56.6637 32.2317C59.797 32.2317 62.9303 32.2317 66.0635 32.2317C66.3484 32.2317 66.6332 32.2317 66.918 32.2317C67.2029 32.2317 67.2029 32.2317 67.2029 32.5169C67.2029 33.6579 67.2029 34.7988 67.2029 36.225C67.2029 37.0807 67.2029 37.0807 68.0574 37.3659C68.6271 37.3659 68.912 37.6512 68.912 38.2216C68.912 38.7921 68.6271 39.0773 68.0574 39.0773C67.2029 39.3626 67.2029 39.3626 66.918 40.2183C66.6332 43.6411 63.4999 46.2082 60.3667 46.7787C56.094 47.3491 52.6759 44.2116 52.1062 40.2183C52.1062 39.3626 51.8214 39.3626 50.9668 39.0773C50.3972 39.0773 50.1123 38.7921 50.1123 38.2216C50.1123 37.9364 50.3972 37.3659 50.9668 37.3659C51.8214 37.0807 51.8214 37.0807 51.8214 36.225C51.8214 35.6545 51.8214 35.3693 51.8214 34.7988C52.9608 34.5136 53.8152 34.2283 54.1001 33.6579ZM60.3667 40.7887C60.0818 40.7887 59.5121 40.7887 58.9425 41.074C58.3728 41.074 58.0879 41.6444 58.0879 41.9297C58.0879 42.5001 58.6576 42.7854 59.2273 42.5001C59.797 42.5001 60.3666 42.5001 60.6515 42.2149C61.2212 42.2149 61.7909 41.9297 61.7909 41.3592C61.7909 41.074 61.2212 40.7887 60.3667 40.7887ZM56.6637 37.0807V36.7954C56.6637 36.225 56.3788 35.9397 55.8092 35.9397C55.2395 35.9397 54.9546 36.225 54.9546 36.7954V37.0807C54.9546 37.9364 55.2395 38.2216 55.8092 38.2216C56.3788 38.2216 56.6637 37.9364 56.6637 37.0807ZM63.4999 37.0807V37.3659C63.4999 37.9364 63.7848 38.2216 64.3545 38.2216C64.9241 38.2216 65.209 37.9364 65.209 37.3659C65.209 37.0807 65.209 36.7954 65.209 36.225C65.209 35.9397 64.9241 35.6545 64.3545 35.6545C64.0696 35.6545 63.7848 35.9397 63.7848 36.225C63.4999 36.7954 63.4999 36.7954 63.4999 37.0807Z" fill="#FBCBBE"/>
<path d="M74.3238 59.614C74.039 59.614 70.0512 67.3154 61.221 67.3154C52.1061 67.3154 51.8213 64.1778 46.1244 59.614C45.8396 59.614 45.8395 59.614 45.5547 59.614C45.5547 58.4731 45.5547 57.3322 45.5547 56.4765C45.8395 55.6208 46.4092 54.7651 47.2638 54.4798C47.5486 54.4798 47.5486 54.4798 47.8334 54.1946C48.9728 53.9094 48.9728 53.9094 49.8273 54.7651C50.9667 56.1912 52.3909 57.0469 53.8152 57.9026C56.0939 59.0436 58.3726 59.614 60.6514 59.3288C62.0756 59.3288 63.7847 59.0436 65.2089 58.4731C65.7786 58.1879 66.0634 57.9026 65.7786 57.3322C65.4937 56.7617 65.2089 56.7617 64.6392 56.7617C62.9301 57.3322 61.5059 57.6174 59.7968 57.6174C56.3787 57.3322 53.5303 56.1912 51.2515 53.6241C50.9667 53.3389 50.9667 53.3389 51.5364 53.0536C52.3909 52.7684 52.9606 52.7684 53.8152 53.3389C57.5181 56.7617 63.7847 56.7617 67.2028 53.0536C67.7725 52.4832 68.0573 52.4832 68.627 52.7684C69.7664 53.0536 69.7664 53.0536 68.9118 53.9094C68.627 54.1946 68.0573 54.7651 67.4876 55.0503C67.2028 55.3355 66.9179 55.906 67.2028 56.1912C67.4876 56.4765 68.0573 56.4765 68.3421 56.1912C69.1967 55.6208 70.0512 54.7651 70.6209 53.6241C70.9057 53.3389 70.9057 53.3389 71.1906 53.3389C71.4754 53.6241 72.0451 53.6241 72.33 53.6241C73.4693 53.9093 74.3238 55.0503 74.3238 56.1912C74.3238 57.9026 74.3238 58.7583 74.3238 59.614Z" fill="#976C5D"/>
<path d="M55.809 47.3491C58.6574 48.7753 61.5058 48.7753 64.3543 47.3491C64.3543 49.0605 64.0694 50.7719 66.0633 51.9129C63.2149 54.7652 58.0877 55.3357 54.3848 51.9129C55.2393 51.3424 55.809 50.7719 55.809 49.9162C55.809 49.0605 55.5241 48.2048 55.809 47.3491Z" fill="#FBCBBE"/>
<path d="M54.3846 29.9497C54.9543 29.9497 54.9542 29.3792 54.9542 29.094C55.2391 27.3826 56.0936 26.5269 57.8027 26.5269C60.3663 26.5269 62.9299 26.5269 65.7783 26.5269C67.2025 26.5269 67.7722 27.0973 67.7722 28.5235C67.7722 29.094 67.7722 29.6644 67.7722 30.2349C67.7722 30.5201 67.7722 30.8054 67.2025 30.8054C63.7844 30.8054 60.3663 30.8054 57.233 30.8054C56.3785 30.8054 55.8088 31.0906 54.9542 31.3758C54.6694 31.0906 54.6694 31.0906 54.3846 30.8054C54.0997 30.5201 53.8149 30.2349 54.3846 29.9497Z" fill="#846340"/>
<path d="M54.3849 29.9498C54.1 30.2351 54.3849 30.8056 54.6697 31.0908C54.6697 31.376 54.9546 31.376 55.2394 31.6613C54.6697 32.2317 54.3849 33.0874 54.3849 33.9431C53.8152 34.5136 53.2455 34.7988 52.6758 35.0841C52.6758 33.6579 52.6758 32.2317 52.6758 31.0908C52.6758 30.5203 52.9607 29.9498 53.2455 29.6646C53.2455 29.6646 53.5303 29.3794 53.5303 29.6646C53.5303 29.9498 53.8152 29.9498 54.3849 29.9498Z" fill="#604833"/>
<path d="M60.3666 40.7886C61.2212 40.7886 61.7909 41.0738 61.7909 41.359C61.7909 41.9295 61.506 42.2147 60.6515 42.2147C60.0818 42.2147 59.5121 42.2147 59.2272 42.5C58.6576 42.5 58.3727 42.2147 58.0879 41.9295C58.0879 41.6443 58.3727 41.0738 58.9424 41.0738C59.5121 41.0738 60.0818 41.0738 60.3666 40.7886Z" fill="#0F0B08"/>
<path d="M56.6632 37.0806C56.6632 37.9363 56.3783 38.2216 55.8086 38.2216C55.239 38.2216 54.9541 37.9363 54.9541 37.0806V36.7954C54.9541 36.2249 55.239 35.9397 55.8086 35.9397C56.3783 35.9397 56.6632 36.2249 56.6632 36.7954V37.0806Z" fill="#0F0B08"/>
<path d="M63.4997 37.0806C63.4997 36.7954 63.4997 36.7954 63.4997 36.5102C63.4997 36.2249 63.7845 35.9397 64.0693 35.9397C64.3542 35.9397 64.639 36.2249 64.9239 36.5102C64.9239 36.7954 64.9239 37.0806 64.9239 37.6511C64.9239 38.2216 64.639 38.5068 64.0693 38.5068C63.7845 38.5068 63.2148 38.2216 63.2148 37.6511C63.4997 37.3659 63.4997 37.3659 63.4997 37.0806Z" fill="#0F0B08"/>
</g>
<g opacity="0.5">
<path d="M7.67083 67.6007C7.10115 67.6007 2.25879 64.7484 2.25879 63.8927C2.25879 61.6108 2.25879 58.188 2.25879 55.9061C2.25879 53.0538 4.25272 50.2014 7.67083 50.2014C8.52536 50.2014 8.52533 50.2014 8.52533 51.0571C9.09501 54.4799 11.9434 57.3323 15.6464 57.9028C20.2039 58.4732 24.4765 55.3356 25.0462 50.7719C25.0462 50.4866 25.0462 50.4867 25.0462 50.2014C25.3311 50.2014 25.3311 50.4866 25.3311 50.7719C25.6159 51.9128 25.9008 52.7685 26.4704 53.6242C26.7553 53.9095 26.7553 53.9095 26.7553 54.1947C26.7553 56.4766 26.7553 58.4732 26.7553 60.7551C26.7553 61.3256 27.0402 61.896 27.6098 62.1813C28.1795 62.4665 28.7492 62.4665 29.3189 61.896C29.8886 61.3256 30.7431 61.0403 31.3128 60.4699C31.3128 61.3256 31.3128 62.1813 31.3128 63.3222C31.3128 67.6007 14.7919 71.594 7.67083 67.6007Z" fill="#F074A5"/>
<path d="M28.4644 44.4968C28.1795 43.9263 28.4644 43.6411 28.7492 43.3559C32.737 41.074 37.8642 43.6411 38.7187 48.2049C39.0036 50.2015 38.7188 51.9129 37.5794 53.6243C37.5794 53.9096 37.2945 53.9096 37.2945 54.1948C37.2945 56.4767 37.2945 58.4733 37.2945 60.7552C37.2945 61.3257 37.0097 61.8961 36.44 62.1814C35.8703 62.4666 35.3006 62.4666 34.731 61.8961C34.1613 61.3257 33.3067 61.0404 32.737 60.47C32.737 61.3257 32.737 62.1814 32.737 63.0371C32.737 63.8928 32.4522 64.4633 31.5977 65.0337C23.3372 70.7384 13.6526 70.4532 7.67088 68.1713C7.38604 67.8861 7.38602 67.6008 7.38602 67.3156C7.67086 66.7451 8.24053 67.0304 8.52537 67.0304C19.0646 70.7384 28.7493 65.319 29.6038 64.7485C30.4583 64.178 31.028 63.6076 31.028 63.3223C31.028 62.4666 31.028 61.6109 31.028 60.47C30.1735 61.0404 29.6038 61.3257 29.0341 61.8961C28.4644 62.1814 27.8947 62.4666 27.325 62.1814C26.7553 61.8961 26.4705 61.3257 26.4705 60.7552C26.4705 58.4733 26.4705 56.4767 26.4705 54.1948C26.4705 53.9096 26.4705 53.6243 26.1857 53.6243C25.616 52.7686 25.0463 51.9129 25.0463 50.772C25.0463 50.4867 25.0463 50.4867 24.7615 50.2015C24.7615 50.4867 24.7615 50.4867 24.7615 50.772C23.9069 55.3357 19.9191 58.4733 15.3616 57.9029C11.9435 57.3324 8.81024 54.48 8.24056 51.0572C8.24056 50.2015 8.24055 50.2015 7.38602 50.2015C3.9679 50.2015 1.68918 53.0539 1.97402 55.9062C1.97402 58.1881 1.97402 60.7552 1.97402 63.0371C1.97402 63.8928 1.97398 63.8928 2.82851 64.4633C3.11336 64.7485 4.25276 65.319 4.82245 65.6042C5.39214 65.8894 5.10727 66.1747 5.10727 66.4599C4.82242 66.7451 4.82243 66.7451 4.53759 66.7451C3.68306 66.1747 1.974 65.319 1.68916 65.0337C1.40432 64.7485 1.11946 64.4633 0.834622 64.178C0.834622 63.8928 0.549805 63.6076 0.549805 63.3223C0.549805 60.47 0.549805 57.9029 0.549805 55.0505C0.549805 52.1982 2.82853 49.631 5.9618 48.7753C6.81633 48.4901 7.38603 48.4901 8.24056 48.4901C8.5254 48.4901 8.81022 48.4901 9.37991 48.2049C9.9496 47.9196 10.5193 47.6344 11.089 47.3492C11.3738 47.3492 11.3738 47.0639 11.3738 46.7787C11.3738 46.2082 11.3738 45.6377 11.3738 45.3525C11.089 44.782 10.5193 45.0673 9.94959 44.782C7.10116 43.9263 5.39211 41.3592 5.10727 38.5069C5.10727 37.9364 5.3921 37.6512 5.67694 37.3659C5.96179 37.0807 5.96179 37.0807 5.67694 36.7955C5.10726 36.5102 5.10727 35.9398 5.10727 35.0841C5.10727 33.9431 5.10727 33.0874 5.10727 31.9465C5.10727 31.0908 5.67695 30.2351 6.53148 29.9498C6.81632 29.9498 6.81634 29.6646 6.81634 29.3794C6.81634 28.2384 6.81634 27.0975 6.81634 25.9565C7.38603 23.3894 8.81022 21.678 11.3738 20.5371C11.6586 20.5371 11.6587 20.2518 11.9435 19.9666C12.7981 17.97 14.5071 17.1143 16.7858 17.1143C19.0646 17.1143 20.4888 18.2552 21.6282 19.9666C21.6282 20.2518 21.913 20.2518 22.1978 20.5371C24.7614 21.3928 26.7553 23.9599 26.7553 26.8122C26.7553 27.6679 26.7553 28.2384 26.7553 29.0941C26.7553 29.3794 26.7553 29.3794 27.0402 29.3794C27.8947 29.6646 28.1795 30.5203 28.4644 31.376C28.4644 32.5169 28.4644 33.3727 28.4644 34.5136C28.4644 35.3693 28.1796 35.9398 27.6099 36.5102C28.7493 37.0807 28.4644 38.2216 28.1796 39.0773C27.6099 41.9297 25.3311 43.9263 22.4827 44.4968C22.1979 44.4968 22.1978 44.4968 22.1978 44.782C22.1978 45.3525 22.1978 45.6378 22.1978 46.2082C22.1978 46.4935 22.1979 46.4935 22.4827 46.4935C23.0524 46.7787 23.9069 47.0639 24.4766 47.6344C24.7614 47.6344 25.0463 47.6344 25.0463 47.6344C25.3311 47.6344 25.3311 47.6344 25.3311 47.3492C25.3311 46.4935 25.616 45.923 26.1857 45.0673C26.4705 44.4968 26.7553 44.4968 27.325 44.4968C27.6099 44.782 27.6099 45.0673 27.6099 45.6378C25.9008 49.3458 28.1795 53.3391 32.1673 53.6243C35.5855 53.9096 38.4339 50.772 37.8642 47.3492C37.2945 43.6411 33.3067 41.6445 29.8886 43.3559C29.0341 44.782 28.7492 44.782 28.4644 44.4968ZM31.3128 58.7586C31.8825 58.4733 32.4522 58.4733 33.0219 58.7586C33.0219 57.9029 33.0219 57.0471 33.0219 56.1914C33.0219 55.9062 33.0219 55.9062 32.737 55.9062C32.4522 55.9062 31.8825 55.9062 31.5977 55.9062C31.3128 57.0471 31.3128 57.9029 31.3128 58.7586ZM19.6343 29.6646C18.2101 31.376 16.501 31.6612 14.5071 31.6612C13.0829 31.6612 11.6587 31.6612 10.2344 31.6612C9.9496 31.6612 9.94959 31.6612 9.94959 31.9465C9.94959 33.0874 9.94959 33.9431 9.94959 35.0841C9.94959 35.9398 9.94959 37.0807 9.94959 37.9364C10.5193 41.9297 14.2223 44.782 18.2101 43.9263C21.3433 43.3559 23.6221 40.5035 23.6221 37.0807C23.6221 35.3693 23.6221 33.6579 23.6221 31.9465C23.6221 31.6612 23.6221 31.6612 23.3372 31.6612C21.6282 31.6612 20.4888 31.0908 19.6343 29.6646ZM12.2283 30.2351C13.3677 30.2351 14.5071 30.2351 15.6464 30.2351C17.3555 30.2351 18.7798 28.8089 19.0646 27.0975C19.0646 26.8122 19.0646 26.527 19.0646 26.2418C19.0646 25.9565 19.3494 25.6713 19.9191 25.6713C20.2039 25.6713 20.4888 25.9565 20.4888 26.2418C20.4888 26.527 20.4888 27.0975 20.4888 27.3827C20.204 28.8089 21.0585 29.9498 22.4827 29.9498C23.3372 29.9498 23.9069 29.9498 24.7615 29.9498C25.0463 29.9498 25.0463 29.6646 25.0463 29.6646C25.0463 29.0941 25.0463 28.2384 25.0463 27.6679C25.0463 24.8156 22.4827 22.2485 19.6343 22.2485C17.6404 22.2485 15.3616 22.2485 13.3677 22.2485C10.8042 22.2485 8.81024 23.9599 8.24056 26.2418C7.95571 27.3827 8.24054 28.5237 7.9557 29.3794C7.9557 29.6646 7.95571 29.6646 8.24056 29.6646C9.94961 30.2351 11.089 30.2351 12.2283 30.2351ZM11.6587 48.7753C11.089 49.0606 10.8041 49.3458 10.2344 49.3458C9.9496 49.3458 9.66475 49.631 9.94959 49.9163V50.2015C10.5193 53.6243 13.6526 56.1914 17.3555 55.9062C20.4888 55.621 23.3372 53.3391 23.9069 49.631C23.9069 49.3458 23.9069 49.3458 23.6221 49.3458C23.3372 49.0606 22.7675 49.0606 22.4827 48.7753C22.1979 48.4901 22.1979 48.7753 21.913 49.0606C20.7737 52.7686 16.2162 54.1948 13.3677 51.6277C12.2284 51.0572 11.9435 49.9163 11.6587 48.7753ZM20.7736 44.4968C19.6343 45.0673 18.2101 45.3525 16.7858 45.3525C15.3616 45.3525 14.2222 45.0673 12.798 44.4968C12.798 45.6378 12.798 46.7787 12.798 47.9196C12.798 49.631 14.5071 51.3424 16.2162 51.6277C18.2101 51.9129 20.204 50.4867 20.4888 48.4901C20.7737 47.3492 20.4888 45.923 20.7736 44.4968ZM26.7553 39.0773C26.7553 38.7921 26.7553 38.7921 26.4705 38.7921C26.1856 38.5069 25.9008 38.2216 25.9008 38.2216C25.616 37.9364 25.616 37.9364 25.3311 37.9364C25.0463 37.9364 25.0463 38.2216 25.0463 38.5069C24.7614 40.5035 23.9069 42.2149 22.1978 43.6411C22.1978 43.6411 21.913 43.9263 21.913 44.2116C21.913 44.4968 21.913 44.4968 22.1978 44.4968C24.7614 43.6411 26.4705 41.3592 26.7553 39.0773ZM7.9557 37.6512C7.67085 37.6512 7.67086 37.6512 7.38602 37.9364C7.10118 38.2216 7.10118 38.5069 6.81634 38.5069C6.5315 38.7921 6.53148 38.7921 6.53148 39.0773C6.81632 41.3592 8.81024 43.6411 11.089 43.6411C11.3738 43.6411 11.3738 43.6411 11.3738 43.3559C11.3738 43.0706 11.3738 43.0706 11.089 43.0706C9.37993 41.6445 8.5254 39.9331 8.24056 37.9364C8.5254 37.9364 8.24054 37.6512 7.9557 37.6512ZM28.1796 55.0505C28.1796 56.1914 28.1796 57.3324 28.1796 58.1881C28.1796 59.0438 28.1796 59.8995 28.1796 60.47C28.1796 60.47 28.1795 60.7552 28.4644 60.7552C29.0341 60.47 29.3189 60.1847 29.8886 59.8995V59.6143C29.8886 58.4733 29.8886 57.3324 29.8886 56.1914C29.8886 56.1914 29.8886 55.9062 29.6038 55.9062C29.0341 55.621 28.7493 55.3357 28.1796 55.0505ZM35.8703 55.0505C35.3006 55.3357 35.0158 55.621 34.4461 55.621C34.1613 55.621 34.1612 55.9062 34.1612 56.1914C34.1612 57.0471 34.1612 57.6176 34.1612 58.4733C34.1612 59.8995 34.1613 59.8995 35.3006 60.7552C35.5855 61.0404 35.5855 60.7552 35.5855 60.47C35.5855 58.7586 35.5855 57.3324 35.5855 55.621C35.8703 55.3357 35.8703 55.3357 35.8703 55.0505ZM8.24056 33.9431C8.24056 33.3726 8.24056 32.5169 8.24056 31.9465V31.6612C7.67087 31.376 6.81634 31.6612 6.81634 32.5169C6.81634 33.6579 6.81634 34.5136 6.81634 35.6545C6.81634 36.225 7.10119 36.5102 7.67088 36.5102C7.95572 36.5102 7.95571 36.5102 8.24056 36.5102C8.5254 36.5102 8.52537 36.5102 8.52537 36.225C8.24053 35.3693 8.24056 34.7988 8.24056 33.9431ZM25.0463 33.9431C25.0463 34.5136 25.0463 35.3693 25.0463 35.9398C25.0463 36.225 25.0463 36.5102 25.616 36.5102H25.9008C26.4705 36.5102 26.7553 36.225 26.7553 35.6545C26.7553 34.7988 26.7553 33.6579 26.7553 32.8022C26.7553 32.2317 26.4705 31.9465 25.9008 31.9465C25.616 31.9465 25.616 31.9465 25.3311 31.9465C25.0463 31.9465 25.0463 31.9465 25.0463 32.2317C25.0463 32.5169 25.0463 33.3726 25.0463 33.9431ZM13.6526 21.1075C15.6465 21.1075 17.9252 21.1075 19.9191 21.1075C18.7797 19.1109 15.3616 18.5404 13.6526 21.1075Z" fill="#0D0907"/>
<path d="M28.4644 44.4968C28.7493 44.782 29.0342 44.782 29.6038 44.4968C33.022 42.7854 37.0098 44.782 37.5795 48.4901C38.1491 51.9129 35.3007 55.0505 31.8826 54.7652C27.8948 54.48 25.616 50.4867 27.3251 46.7786C27.6099 46.2082 27.6099 45.9229 27.0402 45.6377C27.6099 45.3525 27.8948 44.782 28.4644 44.4968ZM35.8704 49.3458C35.8704 47.3491 34.1613 45.6377 32.1674 45.6377C30.1735 45.6377 28.4644 47.3491 28.4644 49.3458C28.4644 51.3424 30.1735 53.0538 32.1674 53.0538C34.1613 53.0538 35.8704 51.3424 35.8704 49.3458Z" fill="#FADC30"/>
<path d="M19.6339 29.6646C20.4884 31.0907 21.9127 31.6612 23.3369 31.6612C23.6217 31.6612 23.6217 31.6612 23.6217 31.9464C23.6217 33.6578 23.6217 35.3693 23.6217 37.0807C23.6217 40.2182 21.343 43.0706 18.2097 43.9263C14.2219 44.782 10.5189 41.9297 9.94922 37.9364C9.94922 37.0807 9.94922 35.9397 9.94922 35.084C9.94922 33.9431 9.94922 33.0874 9.94922 31.9464C9.94922 31.6612 9.94924 31.6612 10.2341 31.6612C11.6583 31.6612 13.0825 31.6612 14.5067 31.6612C16.5006 31.6612 18.2097 31.376 19.6339 29.6646ZM16.7855 39.3625C17.64 39.3625 18.2097 39.0773 18.7794 38.2216C19.0642 37.9364 19.0642 37.3659 18.7794 37.3659C18.4945 37.0807 18.2097 37.0807 17.9248 37.6511C17.3551 38.2216 17.0703 38.2216 16.5006 37.6511C16.2158 37.3659 15.9309 37.3659 15.6461 37.3659C15.3612 37.6511 15.3613 37.9364 15.3613 38.2216C15.3613 38.7921 15.9309 39.3625 16.7855 39.3625ZM19.0642 34.2283C19.0642 34.5135 19.0642 34.5135 19.0642 34.7988C19.0642 35.084 19.3491 35.3692 19.6339 35.3692C20.2036 35.3692 20.2036 35.084 20.2036 34.2283C20.2036 33.3726 19.9187 33.0874 19.6339 33.0874C19.3491 33.3726 19.0642 33.6578 19.0642 34.2283ZM14.2219 34.5135V34.2283C14.2219 33.6578 13.937 33.3726 13.6522 33.3726C13.3673 33.3726 13.0825 33.6578 13.0825 34.2283C13.0825 34.5135 13.0825 34.7988 13.0825 34.7988C13.0825 35.3692 13.3674 35.6545 13.937 35.6545C14.2219 35.6545 14.5067 35.3692 14.5067 34.7988C14.2219 34.5135 14.2219 34.5135 14.2219 34.5135Z" fill="#FBCBBE"/>
<path d="M12.228 30.235C11.0886 30.235 9.94927 30.235 8.52505 30.235C8.24021 30.235 8.24023 30.235 8.24023 29.9497C8.24023 28.8088 8.24021 27.6678 8.52505 26.8121C9.09474 24.5303 11.3735 22.8188 13.6522 22.8188C15.6461 22.8188 17.9249 22.8188 19.9188 22.8188C22.7672 22.8188 25.046 25.1007 25.3308 28.2383C25.3308 28.8088 25.3308 29.6645 25.3308 30.235C25.3308 30.5202 25.3308 30.5202 25.0459 30.5202C24.1914 30.5202 23.6217 30.5202 22.7672 30.5202C21.343 30.5202 20.4885 29.094 20.7733 27.9531C20.7733 27.6678 20.7733 27.0974 20.7733 26.8121C20.7733 26.5269 20.4885 26.2417 20.2036 26.2417C19.6339 26.2417 19.6339 26.5269 19.3491 26.8121C19.3491 27.0974 19.3491 27.3826 19.3491 27.6678C19.0642 29.3793 17.64 30.5202 15.931 30.8054C14.5068 30.235 13.3674 30.235 12.228 30.235Z" fill="#FADC30"/>
<path d="M11.6583 48.7754C11.9431 49.9163 12.5128 51.0573 13.3674 51.6277C16.2158 54.1949 20.7733 52.7687 21.9127 49.0606C21.9127 48.7754 22.1975 48.7754 22.4823 48.7754C22.7672 49.0606 23.3368 49.0606 23.6217 49.3459C23.9065 49.3459 23.9065 49.6311 23.9065 49.6311C23.3369 53.0539 20.7733 55.621 17.3552 55.9063C13.6522 56.1915 10.5189 53.6244 9.94922 50.2016V49.9163C9.94922 49.6311 9.94924 49.3459 10.2341 49.3459C10.5189 49.3459 11.0886 49.0606 11.6583 48.7754Z" fill="white"/>
<path d="M20.7738 44.4968C20.7738 45.923 20.7738 47.3492 20.7738 48.4901C20.4889 50.4868 18.495 51.6277 16.5011 51.6277C14.7921 51.6277 13.083 49.9163 13.083 47.9196C13.083 46.7787 13.083 45.6378 13.083 44.4968C14.2224 45.0673 15.6466 45.3525 17.0708 45.3525C18.2102 45.3525 19.3495 45.0673 20.7738 44.4968Z" fill="#FBCBBE"/>
<path d="M26.7554 39.0774C26.4706 41.3593 24.7615 43.3559 22.1979 43.9264C21.9131 43.9264 21.9131 43.9264 21.9131 43.6411C21.9131 43.3559 21.9131 43.3559 22.1979 43.0707C23.6221 41.6445 24.4766 39.9331 25.0463 37.9364C25.0463 37.6512 25.0463 37.366 25.3312 37.366C25.616 37.366 25.9009 37.366 25.9009 37.6512C26.1857 37.9364 26.4705 38.2217 26.4705 38.2217C26.7554 38.7921 26.7554 39.0774 26.7554 39.0774Z" fill="#FADC30"/>
<path d="M7.95546 37.6511C8.24031 37.6511 8.24033 37.6511 8.24033 37.9364C8.52517 39.933 9.3797 41.9296 11.0888 43.0706L11.3736 43.3558C11.3736 43.6411 11.3736 43.6411 11.0888 43.6411C8.81001 43.3558 6.81609 41.0739 6.53125 39.0773C6.53125 38.7921 6.53127 38.5068 6.81611 38.5068C7.10095 38.2216 7.10094 38.2216 7.38579 37.9364C7.67063 37.9364 7.95546 37.6511 7.95546 37.6511Z" fill="#FADC30"/>
<path d="M28.1797 55.0505C28.7494 55.3358 29.3191 55.621 29.6039 55.9062C29.8887 55.9062 29.8887 56.1915 29.8887 56.1915C29.8887 57.3324 29.8887 58.4734 29.8887 59.6143V59.8995C29.319 60.1848 29.0342 60.47 28.4645 60.7552C28.1797 60.7552 28.1797 60.47 28.1797 60.47C28.1797 59.6143 28.1797 58.7586 28.1797 58.1881C28.1797 57.0472 28.1797 56.1915 28.1797 55.0505Z" fill="#D2302F"/>
<path d="M35.8705 55.0505C35.8705 55.3358 35.8705 55.621 35.8705 55.621C35.8705 57.3324 35.8705 58.7586 35.8705 60.47C35.8705 60.7552 35.8705 60.7552 35.5856 60.7552C34.4463 59.8995 34.4463 59.8995 34.4463 58.4734C34.4463 57.6177 34.4463 57.0472 34.4463 56.1915C34.4463 55.9062 34.4463 55.9062 34.7311 55.621C35.016 55.621 35.5857 55.3358 35.8705 55.0505Z" fill="#D2302F"/>
<path d="M8.24033 33.943C8.24033 34.5135 8.24033 35.3692 8.24033 35.9397C8.24033 36.2249 8.24031 36.2249 7.95546 36.2249C7.67062 36.2249 7.67063 36.2249 7.38579 36.2249C6.8161 36.2249 6.53125 35.9397 6.53125 35.3692C6.53125 34.2283 6.53125 33.3726 6.53125 32.2316C6.53125 31.6612 7.38578 31.0907 7.95546 31.3759V31.6612C8.24031 32.8021 8.24033 33.3726 8.24033 33.943Z" fill="#FBCBBE"/>
<path d="M25.0459 33.943C25.0459 33.3725 25.0459 32.5168 25.0459 31.9464C25.0459 31.6611 25.0459 31.6611 25.3308 31.6611C25.6156 31.6611 25.6156 31.6611 25.9004 31.6611C26.4701 31.6611 26.755 31.9464 26.755 32.5168C26.755 33.3725 26.755 34.5135 26.755 35.3692C26.755 35.9397 26.4701 36.2249 25.9004 36.2249H25.6156C25.3307 36.2249 25.0459 36.2249 25.0459 35.6544C25.0459 35.3692 25.0459 34.5135 25.0459 33.943Z" fill="#FBCBBE"/>
<path d="M13.6523 21.1074C15.3614 18.8256 18.7795 19.1108 19.9189 21.1074C17.6401 21.1074 15.6462 21.1074 13.6523 21.1074Z" fill="#FADC30"/>
<path d="M31.3131 56.1914C31.598 56.1914 32.1677 56.1914 32.4525 56.1914C32.7374 56.1914 32.7374 56.1914 32.7374 56.4766C32.7374 57.3323 32.7374 58.1881 32.7374 59.0438C32.1677 58.7585 31.598 58.7585 31.0283 59.0438C31.3132 57.9028 31.3131 57.0471 31.3131 56.1914Z" fill="white"/>
<path d="M35.8708 49.3457C35.8708 51.3424 34.1617 53.0538 32.1678 53.0538C30.1739 53.0538 28.4648 51.3424 28.4648 49.3457C28.4648 47.3491 30.1739 45.6377 32.1678 45.6377C34.1617 45.6377 35.8708 47.3491 35.8708 49.3457ZM32.1678 51.6276C33.592 51.6276 34.4466 50.4867 34.4466 49.3457C34.4466 47.9196 33.3072 47.0639 32.1678 47.0639C31.0284 47.0639 29.8891 48.2048 29.8891 49.3457C29.6042 50.7719 30.7436 51.6276 32.1678 51.6276Z" fill="#0D0907"/>
<path d="M16.7858 39.3625C15.9313 39.3625 15.3616 39.0772 15.0767 38.2215C14.7919 37.9363 14.7919 37.3658 15.3616 37.3658C15.6464 37.0806 15.9313 37.0806 16.2161 37.6511C16.7858 38.2215 17.0707 38.2215 17.6404 37.6511C17.9252 37.3658 18.21 37.3658 18.4948 37.3658C18.7797 37.6511 18.7797 37.9363 18.4948 38.2215C18.21 39.0772 17.6403 39.3625 16.7858 39.3625Z" fill="#0D0907"/>
<path d="M19.0645 34.2283C19.0645 33.3726 19.3493 33.0874 19.9189 33.0874C20.4886 33.0874 20.4887 33.3726 20.4887 34.2283C20.4887 34.7988 20.2038 35.3693 19.9189 35.3693C19.6341 35.3693 19.3493 35.084 19.3493 34.7988C19.0644 34.7988 19.0645 34.5136 19.0645 34.2283Z" fill="#0D0907"/>
<path d="M14.2221 34.5135V34.7987C14.2221 35.3692 13.9372 35.6544 13.6524 35.6544C13.3675 35.6544 13.0827 35.3692 12.7979 34.7987C12.7979 34.5135 12.7979 34.2283 12.7979 34.2283C12.7979 33.6578 13.0827 33.3726 13.3676 33.3726C13.6524 33.3726 13.9372 33.6578 13.9372 34.2283C14.2221 34.2283 14.2221 34.2283 14.2221 34.5135Z" fill="#0D0907"/>
<path d="M32.1674 51.6277C30.7432 51.6277 29.8887 50.4868 29.8887 49.3458C29.8887 47.9197 31.0281 47.064 32.1674 47.064C33.5916 47.064 34.4462 48.2049 34.4462 49.3458C34.4462 50.772 33.3068 51.6277 32.1674 51.6277Z" fill="white"/>
</g>
<path d="M50.3976 34.7987C49.2582 35.084 48.9734 35.6544 48.9734 36.5101C48.9734 38.2215 48.9734 40.2182 48.9734 41.9296C48.9734 43.0705 48.4037 43.9262 47.2643 44.4967C47.834 41.0739 47.5492 37.6511 47.5492 34.2283C47.5492 32.8021 46.9795 31.9464 45.2704 32.2316C43.5613 32.2316 41.8523 31.9464 40.4281 30.5202C39.8584 29.9497 39.0039 29.9497 38.1493 30.5202C35.3009 32.8021 31.8828 32.8021 28.7495 32.5168C27.0404 32.2316 26.1859 33.0873 26.1859 34.5135C26.1859 36.7954 26.1859 39.3625 26.1859 41.6444C26.1859 42.5001 26.4708 43.641 26.4708 44.4967C25.3314 44.2115 24.7617 43.3558 24.7617 42.2148C24.7617 37.3658 24.7617 32.5168 24.7617 27.6679C24.7617 25.9564 26.4708 24.8155 27.895 24.5303C31.0282 24.5303 33.8767 24.5303 37.0099 24.5303C37.5796 24.5303 37.8645 24.8155 38.1493 25.1007C38.1493 25.386 38.4341 25.386 38.4341 25.6712C39.8584 27.6679 41.8523 27.9531 43.5613 25.9564C44.7007 24.5303 44.9856 24.5303 46.1249 24.8155C47.5492 25.386 48.6885 26.2417 48.6885 27.6679C48.6885 28.8088 48.6885 29.6645 48.6885 30.8054C48.6885 31.9464 49.2582 32.2316 50.1127 32.5168C50.3976 33.3726 50.3976 33.943 50.3976 34.7987Z" fill="#5E6B75"/>
<path d="M19.6345 63.3223C20.7739 63.8928 21.0587 63.8928 21.9133 63.0371C23.3375 61.3257 25.6162 60.7552 27.3253 59.6142C27.6101 59.329 27.8949 59.6142 27.8949 59.8995C29.0343 60.7552 30.1737 61.6109 31.313 62.4666C31.8827 62.7518 32.1676 63.0371 32.7373 63.3223C33.5918 63.3223 33.8766 63.6075 33.5918 64.7485C33.0221 67.3156 32.4525 73.5908 31.8828 76.1579C31.5979 77.0136 31.313 77.8693 31.313 78.725C31.313 79.2955 31.0282 79.5807 30.4586 79.5807C29.0343 79.5807 28.7495 79.5807 28.7495 78.1545C28.7495 76.4431 28.7495 74.7317 28.7495 73.0203C28.7495 71.8793 28.1798 71.5941 27.6101 71.5941C26.7556 71.5941 26.1859 72.1646 26.1859 73.0203C26.1859 75.0169 26.1859 77.0136 26.1859 79.0102C26.1859 79.5807 26.1859 79.5807 25.6162 79.5807C23.9071 79.5807 19.6345 77.2988 19.6345 76.7283C19.6345 74.1612 19.6345 70.1679 19.6345 67.6008C19.6345 66.7451 19.3496 66.1746 18.4951 65.8894C18.78 65.0337 19.6345 64.178 19.6345 63.3223Z" fill="#BFD6ED"/>
<path d="M44.7005 39.0774C44.7005 40.5036 44.7005 41.9297 44.4157 43.6412C43.2763 47.6344 39.8582 50.2016 35.8704 49.6311C31.8826 49.3458 29.0342 45.923 29.0342 41.6445C29.0342 39.6479 29.0342 37.9365 29.0342 35.9398C29.0342 35.0841 29.319 35.0841 29.8887 35.0841C32.1674 35.3693 34.4462 35.0841 36.7249 34.2284C37.5795 33.9432 38.1491 33.6579 38.7188 33.0875C39.0037 32.8022 39.2885 32.8022 39.5734 33.0875C40.9976 34.2284 42.4218 34.5136 44.1308 34.5136C44.7005 34.5136 44.7005 34.7989 44.7005 35.0841C44.7005 36.7955 44.7005 37.6512 44.7005 39.0774Z" fill="#FADBCD"/>
<path d="M54.1005 71.3088C54.1005 72.735 54.1005 73.8759 54.1005 75.3021C54.1005 75.5873 54.1005 76.443 54.1005 77.0135C52.3915 78.1544 49.8279 79.5806 48.1189 79.5806C47.5492 79.5806 47.5492 79.2954 47.5492 79.0101C47.5492 77.0135 47.5492 75.0168 47.5492 72.735C47.5492 71.594 46.9795 71.0236 46.125 71.3088C45.2704 71.3088 44.9856 71.8793 44.9856 72.735C44.9856 74.7316 44.9856 76.7283 44.9856 78.7249C44.9856 79.2954 44.9856 79.5806 44.131 79.5806C42.7068 79.5806 42.7068 79.5806 42.422 78.1544C41.8523 75.0168 40.9978 68.1712 40.4281 65.0336C40.1433 63.8927 40.4281 63.6074 41.2826 63.6074C41.8523 63.6074 42.1371 63.3222 42.7068 62.7517C43.8462 61.896 44.9856 61.0403 46.125 60.1846C46.4098 59.8994 46.6946 59.8994 46.9795 60.1846C48.1188 60.7551 49.2582 61.3256 50.3976 61.896C52.9612 63.3222 54.1005 65.6041 54.1005 68.4564C54.1005 69.3121 54.1005 70.1678 54.1005 71.3088Z" fill="#BFD6ED"/>
<path d="M36.7254 80.4365C35.8709 80.4365 35.3012 80.4365 34.4466 80.4365C34.1618 80.4365 33.877 80.4365 33.877 79.866C34.4466 76.7284 35.3012 72.7351 35.8708 69.5975C35.8708 69.0271 36.1557 65.6042 36.7254 65.6042C37.0102 65.6042 37.2951 69.3123 37.5799 69.5975C38.1496 72.7351 39.0041 76.7284 39.5738 79.866C39.5738 80.4365 39.5738 80.4365 39.0041 80.4365C38.4344 80.4365 37.5799 80.4365 36.7254 80.4365Z" fill="#5E6B75"/>
<path d="M34.1617 51.9128C35.8707 52.1981 37.5798 52.4833 39.2888 51.9128C39.8585 51.9128 39.8585 51.9128 39.8585 52.1981C39.8585 52.7685 39.8585 53.6242 39.8585 54.1947C39.8585 54.48 39.8585 54.7652 39.5737 55.0504C39.004 55.6209 38.1495 56.1914 37.5798 57.0471C37.295 57.3323 37.0101 57.3323 36.7253 57.0471C36.4404 56.7618 36.1556 56.4766 35.8707 56.4766C34.1617 55.3357 33.8768 53.9095 34.1617 51.9128Z" fill="#FADBCD"/>
<path d="M43.5614 58.1882C42.7069 58.7586 41.8524 59.6143 40.9978 60.1848C40.713 60.47 40.4281 60.47 39.8584 60.1848C38.7191 59.0439 38.7191 59.3291 39.8584 58.1882C41.2826 57.0472 41.2826 57.0472 42.7069 57.9029C43.2766 58.1882 43.2766 58.1882 43.5614 58.1882Z" fill="white"/>
<path d="M30.1738 58.188C32.4526 57.0471 32.4526 57.0471 34.1616 58.4733C35.0161 59.0437 35.0161 59.0437 34.1616 59.8994C33.5919 60.4699 33.0223 60.7551 32.4526 59.8994C31.5981 59.329 31.0284 59.0437 30.1738 58.188Z" fill="white"/>
<path d="M37.0098 63.0371C36.1552 63.3223 36.1553 62.4666 36.1553 62.1814C36.1553 61.6109 36.7249 61.3257 37.0098 61.3257C37.2946 61.3257 37.8643 61.6109 37.8643 62.1814C37.8643 62.4666 37.5795 63.3223 37.0098 63.0371Z" fill="#5E6B75"/>
<path d="M50.3976 34.7988C51.2521 35.084 51.8218 35.6545 51.8218 36.5102C51.8218 38.5068 52.1067 40.7887 51.8218 42.7854C51.537 45.6377 49.2582 47.6344 46.4098 47.6344C45.8401 47.6344 45.5553 47.9196 45.2704 48.2048C44.7007 48.7753 44.131 49.631 43.5614 49.9162C42.7068 50.4867 42.7068 50.7719 42.7068 51.6276C42.7068 52.4833 42.422 53.6243 42.9917 54.48C43.5614 55.0505 44.7007 55.3357 45.2704 55.9062C47.2643 56.7619 49.2582 57.9028 50.9673 58.7585C54.6702 60.7552 56.6641 63.8927 56.6641 68.1713C56.6641 71.0236 56.6641 73.876 56.6641 76.7283C56.6641 77.584 56.3793 77.8693 55.8096 78.4397C52.6763 80.1511 48.6885 81.5773 46.4098 82.1478C42.7068 83.0035 38.4342 83.2887 36.1555 83.2887C35.3009 83.2887 32.7373 83.2887 27.3253 82.1478C24.7617 81.5773 21.3436 80.7216 17.6407 78.4397C17.071 77.8693 16.7861 77.2988 16.7861 76.4431C16.7861 73.3055 16.7861 70.1679 16.7861 67.3156C16.7861 66.1746 17.0709 65.8894 18.4952 65.6042C19.3497 65.8894 19.6346 66.4599 19.6346 67.3156C19.6346 69.8827 19.6346 73.876 19.6346 76.4431C19.6346 77.0135 23.9072 78.725 25.6162 78.725C26.1859 78.725 26.186 78.4397 26.186 78.1545C26.186 76.1578 26.186 74.7317 26.186 72.735C26.186 71.5941 26.7556 71.0236 27.6102 71.3088C28.4647 71.3088 28.7495 71.8793 28.7495 72.735C28.7495 74.4464 28.7495 76.1578 28.7495 77.8693C28.7495 79.2954 28.7495 79.2954 30.4586 79.2954C31.0283 79.2954 31.3131 79.2954 31.3131 78.4397C31.3131 77.584 31.598 76.7283 31.8828 75.8726C32.4525 73.3055 33.0222 67.0303 33.5918 64.4632C33.8767 63.6075 33.5918 63.3223 32.7373 63.037C32.1676 63.037 31.5979 62.7518 31.3131 62.1813C30.1737 61.3256 29.0344 60.4699 27.895 59.6142C27.6101 59.329 27.6102 59.0437 27.3253 59.329C25.3314 60.4699 23.3375 61.0404 21.9133 62.7518C21.0588 63.6075 20.7739 63.6075 19.6346 63.037C19.0649 62.1813 19.0649 61.6109 19.9194 61.0404C20.7739 60.1847 21.9133 59.329 23.0527 58.7585C25.6163 57.3323 28.1798 56.1914 30.7434 54.7652C31.3131 54.48 31.3131 54.1948 31.3131 53.6243C31.5979 51.6276 31.3131 49.9162 29.3192 48.7753C28.4647 48.2048 27.895 47.6344 26.7556 47.3491C23.9072 46.7787 21.9133 44.4968 21.9133 41.6444C21.9133 37.0807 21.9133 32.5169 21.9133 27.9531C21.9133 24.5303 24.4769 21.9632 28.1799 21.678C31.0283 21.678 34.1615 21.678 37.01 21.678C38.719 21.678 39.8584 22.5337 40.7129 23.9599C40.9978 24.5303 41.2826 24.5303 41.5675 23.9599C42.7068 21.9632 44.7007 21.3927 46.6946 21.9632C49.2582 22.5337 50.6824 24.2451 51.2521 26.8122C51.5369 28.2384 51.5369 29.3793 51.2521 30.8055C51.2521 31.6612 50.6824 32.2317 49.8279 32.2317C48.6885 31.9464 48.4037 31.6612 48.4037 30.5203C48.4037 29.3793 48.4037 28.5236 48.4037 27.3827C48.4037 25.9565 47.2643 24.8156 45.8401 24.5303C44.7007 24.2451 44.4159 24.2451 43.2765 25.6713C41.8523 27.6679 39.5736 27.6679 38.1494 25.386C38.1494 25.1008 37.8645 25.1008 37.8645 24.8156C37.5797 24.2451 37.2948 24.2451 36.7251 24.2451C33.5919 24.2451 30.7434 24.2451 27.6102 24.2451C25.9011 24.2451 24.4769 25.6713 24.4769 27.3827C24.4769 32.2317 24.4769 37.0807 24.4769 41.9297C24.4769 43.0706 25.3314 43.9263 26.186 44.2115C26.186 43.3558 25.9011 42.2149 25.9011 41.3592C25.9011 39.0773 25.9011 36.5102 25.9011 34.2283C25.9011 32.5169 26.7556 31.9464 28.4647 32.2317C31.8828 32.5169 35.0161 32.5169 37.8645 30.235C38.4342 29.6646 39.5736 29.6646 40.1432 30.235C41.5675 31.6612 43.2765 31.9464 44.9856 31.9464C46.4098 31.9464 47.2643 32.5169 47.2643 33.9431C47.2643 37.3659 47.5491 40.7887 46.9795 44.2115C48.1188 43.6411 48.6885 42.7854 48.6885 41.6444C48.6885 39.933 48.6885 37.9364 48.6885 36.225C48.9734 35.6545 49.2582 35.084 50.3976 34.7988ZM44.7008 39.0773C44.7008 37.9364 44.7008 36.7954 44.7008 35.6545C44.7008 35.084 44.7007 35.084 44.131 35.084C42.422 35.084 40.9978 34.5135 39.5736 33.6578C39.2887 33.3726 39.0039 33.3726 38.719 33.6578C38.1493 34.2283 37.2948 34.5135 36.7251 34.7988C34.4464 35.6545 32.1676 35.6545 29.8889 35.6545C29.3192 35.6545 29.0344 35.6545 29.0344 36.5102C29.0344 38.2216 29.0344 40.2182 29.0344 42.2149C29.0344 46.4934 32.1676 49.631 35.8706 50.2015C39.8584 50.7719 43.5614 48.2048 44.4159 44.2115C44.9856 41.9297 44.7008 40.5035 44.7008 39.0773ZM54.1005 71.3088C54.1005 70.1679 54.1005 69.027 54.1005 68.1713C54.1005 65.3189 52.6764 63.037 50.3976 61.6109C49.2582 61.0404 48.1188 60.4699 46.9795 59.8995C46.6946 59.6142 46.4098 59.6142 46.125 59.8995C44.9856 60.7552 43.8462 61.6109 42.7068 62.4666C42.422 62.7518 41.8523 63.037 41.2826 63.3223C40.1432 63.6075 40.1433 63.6075 40.4281 64.7485C40.9978 67.886 41.8523 74.7317 42.422 77.8693C42.7068 79.2954 42.7068 79.2954 44.131 79.2954C44.7007 79.2954 44.9856 79.0102 44.9856 78.4397C44.9856 76.4431 44.9856 74.4464 44.9856 72.4498C44.9856 71.5941 45.2704 71.0236 46.125 71.0236C46.9795 71.0236 47.5492 71.5941 47.5492 72.4498C47.5492 74.4464 47.5492 75.8726 47.5492 78.1545C47.5492 78.725 47.5492 78.725 48.1189 78.725C49.8279 78.725 54.1005 77.0135 54.1005 76.4431C54.1005 75.3021 54.1005 72.735 54.1005 71.3088ZM36.7251 80.4364C37.5797 80.4364 38.1494 80.4364 39.0039 80.4364C39.5736 80.4364 39.5736 80.4364 39.5736 79.8659C39.0039 76.7283 38.1494 72.735 37.5797 69.5974C37.5797 69.027 37.2948 65.6042 36.7251 65.6042C36.4403 65.6042 36.1554 69.027 35.8706 69.5974C35.3009 72.735 34.4464 76.7283 33.8767 79.8659C33.8767 80.4364 33.8767 80.4364 34.4464 80.4364C35.3009 80.4364 36.1555 80.4364 36.7251 80.4364ZM34.1615 51.9129C33.8767 53.9095 33.8767 55.3357 35.8706 56.4766C36.1554 56.7619 36.4403 56.7619 36.7251 57.0471C37.01 57.3323 37.2948 57.3323 37.5797 57.0471C38.1494 56.4766 39.0039 55.9062 39.5736 55.0505C39.8584 54.7652 39.8584 54.48 39.8584 54.1948C39.8584 53.6243 39.8584 52.7686 39.8584 52.1981C39.8584 51.9129 39.8584 51.6276 39.2887 51.9129C37.5797 52.4833 35.8706 52.1981 34.1615 51.9129ZM43.5614 58.188C43.2765 57.9028 42.9917 57.9028 42.9917 57.9028C41.2826 57.0471 41.2826 57.0471 40.1432 58.188C39.0039 59.329 39.0039 59.0438 40.1432 60.1847C40.4281 60.4699 40.7129 60.4699 41.2826 60.1847C41.8523 59.6142 42.7068 59.0437 43.5614 58.188ZM30.1737 58.188C31.0283 58.7585 31.5979 59.329 32.1676 59.8995C32.7373 60.4699 33.307 60.4699 33.8767 59.8995C34.7312 59.0438 34.7312 59.329 33.8767 58.4733C32.4525 57.0471 32.4525 57.0471 30.1737 58.188ZM37.01 63.037C37.8645 63.3223 37.8645 62.4666 37.8645 62.1813C37.8645 61.6109 37.2948 61.3256 37.01 61.3256C36.7251 61.3256 36.1555 61.6109 36.1555 62.1813C36.1555 62.4666 36.1554 63.037 37.01 63.037Z" fill="#110F0A"/>
<path d="M20.7732 10.839C19.6338 10.839 19.349 10.5538 19.349 9.41284C19.0641 7.13096 18.4944 4.84908 18.2096 2.5672C18.2096 2.28197 17.9248 1.7115 18.2096 1.42626C18.4944 0.570557 19.6338 0.285322 20.4884 1.14103C23.6216 3.99338 26.47 6.56049 29.6033 9.41284C29.6033 9.41284 29.8882 9.69807 30.173 9.69807C32.1669 7.13096 33.876 4.27861 35.8699 1.7115L36.1547 1.42626C37.0092 0.285322 37.8638 0.285322 38.7183 1.42626C40.4273 3.70814 41.8516 5.99002 43.5606 8.2719C43.8455 8.84237 44.1303 9.1276 44.7 9.69807C47.2636 7.41619 49.8272 5.13432 52.3908 2.85244C52.9604 2.28197 53.5301 1.7115 54.3846 1.14103C54.9543 0.570557 55.2392 0.570557 56.0937 0.855792C56.6634 1.14103 56.6634 1.7115 56.6634 2.5672C56.3786 4.84908 55.8088 6.84572 55.524 9.1276C54.6695 13.1209 54.0998 17.3994 53.2453 21.3927C53.5301 21.6779 53.8149 21.3927 54.0998 21.3927C55.524 21.3927 56.3785 22.2484 56.3785 23.6746C56.3785 24.8155 56.3785 25.6712 56.3785 26.8122C56.3785 27.9531 55.524 28.8088 54.6695 29.094C54.3847 29.094 54.0998 29.094 53.5301 29.094C42.9909 29.094 32.4518 29.094 21.9126 29.094C20.2035 29.094 18.7793 28.2383 19.0641 26.2417C19.0641 25.386 19.0641 24.8155 19.0641 23.9598C19.0641 22.2484 19.9187 21.3927 21.6277 21.3927C21.9126 21.3927 22.1974 21.3927 22.4822 21.3927C22.1974 19.1108 21.6277 17.1142 21.3429 14.8323C21.058 13.9766 21.3429 13.4061 22.1974 13.1209C23.3368 13.1209 23.6216 13.4061 23.6216 14.5471C23.9064 15.9732 24.1913 17.3994 24.4761 19.1108C24.4761 19.9665 24.4761 20.8222 25.0458 21.3927C25.6155 21.9632 26.47 21.3927 27.3246 21.3927C35.0153 21.3927 42.4212 21.3927 50.112 21.3927C50.6817 21.3927 50.9665 21.3927 50.9665 20.8222C51.5362 17.3994 52.1059 13.6914 52.9604 10.2685C53.2453 8.84237 53.5301 7.13096 53.815 5.41955C51.2514 7.70143 48.6878 9.98331 46.1242 12.2652C44.9848 13.1209 44.4151 13.1209 43.5606 11.98C41.8516 9.41284 39.8577 7.13096 38.1486 4.56385C37.8638 3.99338 37.5789 3.99338 37.2941 4.56385C35.585 7.13096 33.5911 9.69807 31.8821 11.98C31.0275 12.8357 30.4579 13.1209 29.6033 12.2652C28.7488 11.6947 28.1791 10.839 27.3246 10.2685C25.6155 8.55713 23.9065 7.13096 21.9126 5.41955C22.1974 6.84572 22.4822 7.98666 22.4822 9.1276C21.9126 9.98331 21.9125 10.2685 20.7732 10.839ZM37.0092 23.6746C32.1669 23.6746 27.3246 23.6746 22.4822 23.6746C20.4883 23.6746 20.4884 23.6746 20.4884 25.6712C20.4884 26.2417 20.7732 26.5269 21.3429 26.5269C31.3124 26.5269 41.2819 26.5269 51.2514 26.5269C52.9604 26.5269 52.9604 26.5269 52.9604 24.8155C52.9604 24.2451 52.6756 23.9598 52.1059 23.9598C47.2636 23.6746 42.1364 23.6746 37.0092 23.6746Z" fill="#110F0A"/>
<path d="M20.7734 10.8391C21.628 10.2686 21.9128 9.98338 21.628 8.84244C21.3431 7.7015 21.3431 6.56056 21.0583 5.13439C23.0522 6.8458 24.7612 8.55721 26.4703 9.98338C27.3248 10.5539 27.8945 11.4096 28.749 11.98C29.6036 12.8357 30.4581 12.8357 31.0278 11.6948C32.7369 9.12768 34.7307 6.56056 36.4398 4.27868C36.7246 3.70821 37.0095 3.70821 37.2943 4.27868C39.0034 6.8458 40.7124 9.12768 42.7063 11.6948C43.5609 12.8357 44.1306 12.8357 45.27 11.98C47.8335 9.69815 50.1123 7.41627 52.9607 5.13439C52.6759 6.8458 52.391 8.27197 52.1062 9.98338C51.5365 13.4062 50.682 17.1143 50.1123 20.5371C50.1123 21.1075 49.8274 21.1075 49.2577 21.1075C41.567 21.1075 34.1611 21.1075 26.4703 21.1075C25.6158 21.1075 24.7612 21.3928 24.1915 21.1075C23.6219 20.5371 23.9067 19.6814 23.6219 18.8257C23.337 17.3995 23.0522 15.9733 22.7673 14.2619C22.4825 13.121 22.1976 12.8357 21.3431 12.8357C21.0583 12.2653 21.0583 11.6948 20.7734 10.8391ZM40.7124 14.8324C40.7124 14.5471 40.7125 14.2619 40.4276 13.9767C39.5731 12.8357 39.0034 11.98 38.1489 10.8391C37.2943 9.98338 35.8701 9.98338 35.3004 11.1243C34.7308 11.98 33.8762 12.8357 33.3066 13.6914C32.7369 14.5471 32.7369 15.4028 33.3066 15.9733C33.8762 16.829 34.4459 17.6847 35.3004 18.5404C35.8701 19.1109 36.7247 19.3961 37.5792 19.1109C38.4337 19.1109 40.7124 15.9733 40.7124 14.8324Z" fill="#FCDE7D"/>
<path d="M37.0095 23.6746C42.1367 23.6746 47.2638 23.6746 52.391 23.6746C52.9607 23.6746 53.2456 23.6746 53.2456 24.5303C53.2456 26.2418 53.2455 26.2418 51.5365 26.2418C41.567 26.2418 31.5975 26.2418 21.628 26.2418C21.0583 26.2418 20.7734 26.2418 20.7734 25.386C20.7734 23.3894 20.7734 23.3894 22.7673 23.3894C27.3248 23.6746 32.1671 23.6746 37.0095 23.6746Z" fill="#FCDE7D"/>
<path d="M40.7118 14.8324C40.7118 15.6881 38.433 19.1109 37.2937 19.3962C36.4391 19.6814 35.5846 19.3961 35.0149 18.8257C34.4452 17.97 33.5907 17.1143 33.021 16.2586C32.4513 15.4029 32.4513 14.5472 33.021 13.9767C33.5907 13.121 34.1604 12.2653 35.0149 11.4096C35.8694 10.5539 37.2936 10.2686 37.8633 11.1243C38.7179 11.98 39.2876 13.121 40.1421 14.2619C40.7118 14.2619 40.7118 14.5472 40.7118 14.8324ZM38.1482 14.8324C37.0088 13.121 36.724 13.121 35.8694 14.5472C35.8694 14.8324 35.5846 14.8324 35.8694 15.1176C36.1543 15.4029 36.4391 15.9733 36.724 16.2586C36.724 16.2586 36.724 16.5438 37.0088 16.5438C37.0088 16.5438 38.1482 15.1176 38.1482 14.8324Z" fill="#110F0A"/>
<path d="M38.1485 14.8324C38.1485 15.1176 37.0091 16.5438 37.0091 16.5438C36.7243 16.5438 36.7243 16.5438 36.7243 16.2586C36.4395 15.9733 36.1546 15.4029 35.8698 15.1176C35.5849 14.8324 35.8698 14.8324 35.8698 14.5472C36.7243 13.121 37.0091 13.121 38.1485 14.8324Z" fill="#FF0000"/>
</svg>
