<svg width="76" height="77" viewBox="0 0 76 77" fill="none" xmlns="http://www.w3.org/2000/svg">
<path d="M46.8998 53.2C46.4998 52.5 45.8998 52.4 45.1998 52.6C44.4998 52.8 43.8998 53 43.1998 53.2C39.6998 54.1 37.7998 56.5 36.9998 59.8C36.5998 61.3 36.4998 62.8 36.7998 64.3C37.3998 68.3 40.0998 70.4 43.7998 71.5C45.1998 71.9 46.5998 71.9 48.0998 72C42.7998 74.8 33.9998 75.4 26.4998 71.6C28.0998 70.7 29.1998 69.4 29.7998 67.7C31.0998 64.1 29.7998 59.7 26.8998 57.8C25.9998 57.2 25.0998 57 24.0998 56.7C22.0998 56.2 20.1998 55.5 18.9998 53.7C18.1998 52.6 17.9998 51.2 17.6998 49.9C17.5998 49.3 17.3998 48.8 17.1998 48.2C16.4998 46.4 15.1998 45.5 13.2998 45.3C12.8998 45.3 12.7998 45.2 12.7998 44.7C13.0998 43.4 13.3998 42.1 13.7998 40.8C13.8998 40.3 14.0998 40.2 14.5998 40.2C19.2998 40.2 23.8998 40.2 28.5998 40.2C29.5998 40.2 29.8998 40 30.1998 39C31.0998 39 31.9998 39 32.9998 39C33.2998 40 33.5998 40.2 34.5998 40.2C40.0998 40.2 45.4998 40.2 50.9998 40.2C51.5998 40.2 51.7998 40.4 51.8998 40.9C52.1998 42.2 52.4998 43.5 52.6998 44.8C52.9998 47.3 52.1998 49.2 50.0998 50.5C49.3998 50.9 49.0998 51.4 49.2998 52.2C48.3998 52.6 47.6998 52.9 46.8998 53.2Z" fill="#8EBEE6"/>
<path d="M53.7997 27.7001C52.1997 28.3001 50.4997 28.6001 48.8997 28.9001C45.7997 29.6001 42.6997 30.3001 39.6997 31.1001C37.8997 31.6001 36.0997 31.2001 34.2997 30.8001C24.2997 28.4001 14.1997 26.0001 4.1997 23.6001C3.5997 23.5001 2.99967 23.3001 2.79967 22.6001C2.39967 21.6001 2.89969 20.8001 4.09969 20.5001C6.09969 20.0001 7.29969 19.1001 9.59969 17.7001C13.5997 15.2001 23.6997 7.00006 29.9997 3.60006C31.8997 3.20006 33.6997 2.60006 35.5997 2.30006C37.1997 2.00006 38.6997 2.40006 40.1997 2.80006C44.0997 3.70006 47.6997 5.90006 51.0997 7.70006C51.3997 8.80006 53.8997 18.1001 54.1997 19.2001C54.5997 20.8001 54.7997 22.3001 54.6997 24.0001C54.2997 25.3001 53.8997 26.5001 53.7997 27.7001Z" fill="#7C8B93"/>
<path d="M46.8995 53.2001C47.6995 53.0001 48.3994 52.7 49.0994 52.3C49.7994 53.1 50.1994 53.1 51.0994 52.5C54.0994 50.6 55.1995 47.9 54.6995 44.5C54.4995 43.3 54.2995 42.1 53.9995 41C53.8995 40.5 53.8995 40.3 54.4995 40.3C56.6995 40.3 58.8994 40.3 61.0994 40.3C61.5994 40.3 61.6994 40.5001 61.7994 40.9001C62.7994 44.0001 63.1995 47.1 62.9995 50.3C62.6995 56 60.5995 60.9001 56.9995 65.3001C55.0995 67.6001 52.5995 68.5 49.8995 69.2C47.8995 69.7 45.7995 69.7 43.6995 69.1C40.2995 68.1 38.3995 65.1 38.8995 61.6C39.1995 59.8 39.6995 58.2001 40.8995 56.9001C41.5995 56.1001 42.4995 55.7001 43.4995 55.4001C44.1995 55.2001 44.9995 55 45.6995 54.8C46.7995 54.5 46.8995 54.2001 46.8995 53.2001Z" fill="#8AC149"/>
<path d="M32.7996 39.1C31.8996 39.1 30.9996 39.1 29.9996 39.1C29.6996 38.2 29.3996 38.0001 28.2996 37.9001C23.8996 37.9001 19.3996 37.9001 14.9996 37.9001C14.2996 37.9001 14.0996 37.7 14.0996 37C14.0996 34.3 14.0996 31.6 14.1996 29C14.1996 28.4 14.3996 28.4 14.8996 28.5C19.1996 29.5 23.4996 30.6 27.6996 31.6C30.3996 32.2 33.0996 33 35.8996 33.5C37.6996 33.8 39.3996 33.6 41.0996 33.1C47.4996 31.6 53.7996 30 60.1996 28.5C60.8996 28.3 60.9996 28.5 60.9996 29.1C60.9996 31.7 60.9996 34.4 60.9996 37C60.9996 37.7 60.7996 37.8 60.1996 37.8C51.4996 38 42.8996 37.9001 34.1996 37.9001C33.4996 38.0001 32.9996 38.3 32.7996 39.1Z" fill="#546E7A"/>
<path d="M12.2998 49.1001C12.2998 48.9001 12.2998 48.8001 12.2998 48.6001C12.2998 47.4001 12.3998 47.4001 13.4998 47.7001C14.0998 47.9001 14.5998 48.3001 14.7998 48.9001C15.1998 49.8001 15.2998 50.8001 15.4998 51.7001C16.3998 55.6001 18.9998 57.7001 22.6998 58.7001C22.9998 58.8001 23.1998 58.8001 23.4998 58.9001C25.9998 59.5001 27.4998 61.2001 27.6998 63.8001C27.7998 65.1001 27.6998 66.4001 27.0998 67.6001C26.3998 68.9001 25.2998 69.6001 23.8998 69.9001C23.5998 70.0001 23.3998 69.8001 23.1998 69.7001C17.7998 65.8001 14.2998 60.7001 12.7998 54.1001C12.4998 52.5001 12.3998 50.8001 12.2998 49.1001Z" fill="#8AC149"/>
<path d="M53.7998 27.7001C53.9998 26.4001 54.2998 25.2001 54.3998 24.0001C54.4998 22.4001 54.2998 20.8001 53.8998 19.2001C53.6998 18.1001 51.0998 8.80007 50.7998 7.70007C55.4998 10.4001 64.0998 16.8001 67.6998 19.6001C68.9998 19.9001 70.2998 20.2001 71.4998 20.6001C72.4998 20.9001 72.8998 21.7001 72.4998 22.6001C72.2998 23.2001 71.6998 23.4001 71.0998 23.6001C68.6998 24.2001 66.2998 24.8001 63.9998 25.3001C60.7998 26.1001 57.4998 26.8001 54.2998 27.6001C54.1998 27.7001 53.9998 27.8001 53.7998 27.7001Z" fill="#546E7A"/>
<path d="M73.6998 39.9C73.6998 40.7 73.6998 41.4 73.6998 42.2C73.6998 43.5 72.8998 44.3 71.7998 44.3C70.6998 44.3 69.8998 43.5 69.7998 42.2C69.7998 40.6 69.7998 39.1 69.7998 37.5C69.7998 36.2 70.6998 35.4 71.7998 35.4C72.8998 35.4 73.6998 36.3 73.6998 37.6C73.6998 38.3 73.6998 39.1 73.6998 39.9Z" fill="#8AC149"/>
<path d="M75.8998 43.2001C75.7998 43.2001 75.7998 43.4001 75.6998 43.5001C74.9998 45.4001 73.2998 46.7001 71.4998 46.5001C69.3998 46.3001 67.7998 45.0001 67.5998 42.9001C67.3998 40.8001 67.3998 38.7001 67.5998 36.6001C67.7998 35.0001 68.6998 33.9001 70.1998 33.3001C70.4998 33.2001 70.5998 33.1001 70.5998 32.7001C70.5998 30.6001 70.5998 28.6001 70.5998 26.5001C70.5998 26.4001 70.5998 26.2001 70.5998 26.0001C68.2998 26.5001 66.0998 27.1001 63.8998 27.6001C63.5998 27.7001 63.4998 27.8001 63.4998 28.1001C63.4998 31.6001 63.3998 35.1001 63.4998 38.6001C63.4998 39.7001 64.0998 40.8001 64.3998 41.9001C67.7998 54.7001 61.0998 68.4001 49.0998 73.8001C44.8998 75.7001 40.4998 76.5001 35.8998 76.2001C24.0998 75.5001 13.5998 66.7001 10.8998 55.2001C9.59979 49.8001 9.89979 44.4001 11.7998 39.2001C11.8998 38.9001 11.9998 38.6001 11.9998 38.3001C11.9998 35.0001 11.9998 31.6001 11.9998 28.3001C11.9998 27.8001 11.7998 27.6001 11.2998 27.5001C8.69979 26.9001 6.0998 26.3001 3.4998 25.7001C1.9998 25.3001 0.799801 24.5001 0.499801 22.9001C0.199801 21.5001 0.399801 20.2001 1.4998 19.2001C2.0998 18.6001 2.89981 18.4001 3.69981 18.2001C13.7998 15.8001 22.7998 3.00006 32.8998 0.500055C35.9998 -0.299945 38.7998 0.100055 41.7998 0.800055C51.3998 3.20006 62.1998 15.8001 71.7998 18.1001C74.3998 18.7001 75.5998 20.7001 74.8998 23.0001C74.5998 23.9001 74.0998 24.6001 73.2998 25.0001C72.9998 25.2001 72.8998 25.4001 72.8998 25.8001C72.8998 28.0001 72.8998 30.3001 72.8998 32.5001C72.8998 32.7001 72.7998 33.0001 73.0998 33.1001C74.5998 33.6001 75.4998 34.8001 75.9998 36.3001C75.8998 38.7001 75.8998 41.0001 75.8998 43.2001ZM53.7998 27.7001C53.9998 27.7001 54.1998 27.7001 54.4998 27.6001C57.6998 26.8001 60.9998 26.1001 64.1998 25.3001C66.5998 24.7001 68.9998 24.1001 71.2998 23.6001C71.8998 23.5001 72.3998 23.3001 72.6998 22.6001C72.9998 21.7001 72.6998 20.9001 71.6998 20.6001C70.3998 20.2001 69.0998 19.9001 67.8998 19.6001C62.8998 18.4001 47.2998 2.20006 36.4998 2.60006C25.6998 3.00006 20.1998 13.1001 12.3998 17.3001C10.4998 18.3001 7.19981 19.7001 4.09981 20.4001C2.89981 20.7001 2.39979 21.5001 2.79979 22.5001C2.99979 23.2001 3.59981 23.3001 4.19981 23.5001C14.1998 25.9001 24.2998 28.3001 34.2998 30.7001C36.0998 31.1001 37.7998 31.5001 39.6998 31.0001C42.7998 30.2001 45.7998 29.5001 48.8998 28.8001C50.4998 28.6001 52.1998 28.3001 53.7998 27.7001ZM29.9998 39.1001C29.6998 40.1001 29.3998 40.3001 28.3998 40.3001C23.6998 40.3001 19.0998 40.3001 14.3998 40.3001C13.8998 40.3001 13.6998 40.4001 13.5998 40.9001C13.1998 42.2001 12.8998 43.5001 12.5998 44.8001C12.4998 45.2001 12.5998 45.3001 13.0998 45.4001C14.9998 45.6001 16.2998 46.4001 16.9998 48.3001C17.1998 48.8001 17.2998 49.4001 17.4998 50.0001C17.7998 51.3001 18.0998 52.6001 18.7998 53.8001C19.9998 55.6001 21.8998 56.3001 23.8998 56.8001C24.8998 57.0001 25.7998 57.3001 26.6998 57.9001C29.5998 59.8001 30.8998 64.2001 29.5998 67.8001C28.9998 69.5001 27.8998 70.8 26.2998 71.7001C33.7998 75.5001 42.5998 74.9001 47.8998 72.1001C46.3998 72.1001 44.9998 72.0001 43.5998 71.6001C39.8998 70.5001 37.2998 68.4001 36.5998 64.4001C36.3998 62.9001 36.4998 61.4001 36.7998 59.9001C37.6998 56.6001 39.4998 54.1001 42.9998 53.3001C43.6998 53.1001 44.2998 52.9001 44.9998 52.7001C45.6998 52.5001 46.2998 52.6001 46.6998 53.3001C46.6998 54.3001 46.5998 54.6001 45.5998 54.9001C44.8998 55.1001 44.0998 55.3001 43.3998 55.5001C42.3998 55.8001 41.4998 56.2001 40.7998 57.0001C39.4998 58.3001 38.9998 60 38.7998 61.7001C38.2998 65.2001 40.1998 68.2001 43.5998 69.2001C45.6998 69.8 47.6998 69.8001 49.7998 69.3001C52.4998 68.6001 54.9998 67.7001 56.8998 65.4001C60.4998 61.0001 62.4998 56.1001 62.8998 50.4001C63.0998 47.2001 62.6998 44.0001 61.6998 41.0001C61.5998 40.6001 61.4998 40.4001 60.9998 40.4001C58.7998 40.4001 56.5998 40.4001 54.3998 40.4001C53.7998 40.4001 53.7998 40.6001 53.8998 41.1001C54.1998 42.3001 54.4998 43.4001 54.5998 44.6001C55.0998 48.0001 53.8998 50.7001 50.9998 52.6001C50.0998 53.2001 49.7998 53.1001 48.9998 52.4001C48.7998 51.6001 49.0998 51.1001 49.7998 50.7001C51.8998 49.4001 52.7998 47.5001 52.3998 45.0001C52.1998 43.7001 51.8998 42.4001 51.5998 41.1001C51.4998 40.6001 51.1998 40.4001 50.6998 40.4001C45.1998 40.4001 39.7998 40.4001 34.2998 40.4001C33.2998 40.4001 32.9998 40.2001 32.6998 39.2001C32.8998 38.4001 33.3998 38.1001 34.1998 38.1001C42.8998 38.1001 51.4998 38.2001 60.1998 38.0001C60.7998 38.0001 60.9998 37.9001 60.9998 37.2001C60.9998 34.6001 60.9998 31.9001 60.9998 29.3001C60.9998 28.7001 60.8998 28.5001 60.1998 28.7001C53.7998 30.3001 47.4998 31.8001 41.0998 33.3001C39.3998 33.7001 37.5998 34.0001 35.8998 33.7001C33.0998 33.2001 30.3998 32.4001 27.6998 31.8001C23.3998 30.8001 19.0998 29.8001 14.8998 28.7001C14.3998 28.6001 14.1998 28.6001 14.1998 29.2001C14.0998 31.9001 14.0998 34.6001 14.0998 37.2001C14.0998 37.9001 14.2998 38.1001 14.9998 38.1001C19.3998 38.1001 23.8998 38.1001 28.2998 38.1001C29.3998 38.0001 29.6998 38.2001 29.9998 39.1001ZM12.2998 49.1001C12.3998 50.8001 12.4998 52.5001 12.8998 54.1001C14.2998 60.6001 17.7998 65.8 23.2998 69.7001C23.4998 69.9 23.6998 70.0001 23.9998 69.9001C25.3998 69.6001 26.4998 68.9001 27.1998 67.6001C27.7998 66.4001 27.8998 65.1001 27.7998 63.8001C27.5998 61.2001 26.0998 59.5001 23.5998 58.9001C23.2998 58.8001 23.0998 58.8 22.7998 58.7001C19.0998 57.7001 16.4998 55.6001 15.5998 51.7001C15.3998 50.7001 15.1998 49.8001 14.8998 48.9001C14.6998 48.3001 14.1998 47.9001 13.5998 47.7001C12.4998 47.4001 12.3998 47.4001 12.3998 48.6001C12.2998 48.7001 12.2998 48.9001 12.2998 49.1001ZM73.6998 39.9001C73.6998 39.1001 73.6998 38.3001 73.6998 37.5001C73.6998 36.2001 72.7998 35.3001 71.7998 35.3001C70.6998 35.3001 69.8998 36.1001 69.7998 37.4001C69.7998 39.0001 69.7998 40.5001 69.7998 42.1001C69.7998 43.4001 70.5998 44.2001 71.7998 44.2001C72.8998 44.2001 73.6998 43.3001 73.6998 42.1001C73.6998 41.4001 73.6998 40.6001 73.6998 39.9001Z" fill="#080909"/>
</svg>
