<svg width="388" height="342" viewBox="0 0 388 342" fill="none" xmlns="http://www.w3.org/2000/svg">
<rect x="292" y="257" width="246" height="257" rx="20" transform="rotate(-180 292 257)" fill="#0200FF" fill-opacity="0.1"/>
<rect x="129" y="305" width="129" height="128" rx="20" transform="rotate(-180 129 305)" fill="#CCD0FF" fill-opacity="0.05"/>
<g clip-path="url(#clip0_1092_1658)">
<g filter="url(#filter0_d_1092_1658)">
<path d="M274.919 180.691C274.919 182.729 276.56 184.382 278.584 184.382C280.609 184.382 282.25 182.729 282.25 180.691C282.25 178.652 280.609 177 278.584 177C276.56 177 274.919 178.652 274.919 180.691Z" fill="#CCD0FF" fill-opacity="0.3"/>
<path d="M274.919 206.961C274.919 208.999 276.56 210.651 278.584 210.651C280.609 210.651 282.25 208.999 282.25 206.961C282.25 204.922 280.609 203.27 278.584 203.27C276.56 203.27 274.919 204.922 274.919 206.961Z" fill="#CCD0FF" fill-opacity="0.3"/>
<path d="M274.919 233.23C274.919 235.269 276.56 236.921 278.584 236.921C280.609 236.921 282.25 235.269 282.25 233.23C282.25 231.192 280.609 229.539 278.584 229.539C276.56 229.539 274.919 231.192 274.919 233.23Z" fill="#CCD0FF" fill-opacity="0.3"/>
<path d="M282.25 259.5C282.25 257.437 280.633 255.809 278.584 255.809C276.536 255.809 274.919 257.437 274.919 259.5C274.919 261.562 276.536 263.191 278.584 263.191C280.633 263.191 282.25 261.562 282.25 259.5Z" fill="#CCD0FF" fill-opacity="0.3"/>
<path d="M282.25 285.77C282.25 283.707 280.633 282.079 278.584 282.079C276.536 282.079 274.919 283.707 274.919 285.77C274.919 287.832 276.536 289.461 278.584 289.461C280.633 289.461 282.25 287.832 282.25 285.77Z" fill="#CCD0FF" fill-opacity="0.3"/>
<path d="M282.25 312.039C282.25 309.977 280.633 308.349 278.584 308.349C276.536 308.349 274.919 309.977 274.919 312.039C274.919 314.102 276.536 315.73 278.584 315.73C280.633 315.73 282.25 314.102 282.25 312.039Z" fill="#CCD0FF" fill-opacity="0.3"/>
<path d="M282.25 338.309C282.25 336.247 280.633 334.618 278.584 334.618C276.536 334.618 274.919 336.247 274.919 338.309C274.919 340.372 276.536 342 278.584 342C280.633 342 282.25 340.372 282.25 338.309Z" fill="#CCD0FF" fill-opacity="0.3"/>
<path d="M248.612 180.691C248.612 182.729 250.253 184.382 252.278 184.382C254.302 184.382 255.943 182.729 255.943 180.691C255.943 178.652 254.302 177 252.278 177C250.253 177 248.612 178.652 248.612 180.691Z" fill="#CCD0FF" fill-opacity="0.3"/>
<path d="M248.612 206.961C248.612 208.999 250.253 210.651 252.278 210.651C254.302 210.651 255.943 208.999 255.943 206.961C255.943 204.922 254.302 203.27 252.278 203.27C250.253 203.27 248.612 204.922 248.612 206.961Z" fill="#CCD0FF" fill-opacity="0.3"/>
<path d="M248.612 233.23C248.612 235.269 250.253 236.921 252.278 236.921C254.302 236.921 255.943 235.269 255.943 233.23C255.943 231.192 254.302 229.539 252.278 229.539C250.253 229.539 248.612 231.192 248.612 233.23Z" fill="#CCD0FF" fill-opacity="0.3"/>
<path d="M255.943 259.5C255.943 257.437 254.326 255.809 252.278 255.809C250.229 255.809 248.612 257.437 248.612 259.5C248.612 261.562 250.229 263.191 252.278 263.191C254.326 263.191 255.943 261.562 255.943 259.5Z" fill="#CCD0FF" fill-opacity="0.3"/>
<path d="M255.943 285.77C255.943 283.707 254.326 282.079 252.278 282.079C250.229 282.079 248.612 283.707 248.612 285.77C248.612 287.832 250.229 289.461 252.278 289.461C254.326 289.461 255.943 287.832 255.943 285.77Z" fill="#CCD0FF" fill-opacity="0.3"/>
<path d="M255.943 312.039C255.943 309.977 254.326 308.349 252.278 308.349C250.229 308.349 248.612 309.977 248.612 312.039C248.612 314.102 250.229 315.73 252.278 315.73C254.326 315.73 255.943 314.102 255.943 312.039Z" fill="#CCD0FF" fill-opacity="0.3"/>
<path d="M255.943 338.309C255.943 336.247 254.326 334.618 252.278 334.618C250.229 334.618 248.612 336.247 248.612 338.309C248.612 340.372 250.229 342 252.278 342C254.326 342 255.943 340.372 255.943 338.309Z" fill="#CCD0FF" fill-opacity="0.3"/>
<path d="M222.305 180.691C222.305 182.729 223.947 184.382 225.971 184.382C227.996 184.382 229.637 182.729 229.637 180.691C229.637 178.652 227.996 177 225.971 177C223.947 177 222.305 178.652 222.305 180.691Z" fill="#CCD0FF" fill-opacity="0.3"/>
<path d="M222.305 206.961C222.305 208.999 223.947 210.651 225.971 210.651C227.996 210.651 229.637 208.999 229.637 206.961C229.637 204.922 227.996 203.27 225.971 203.27C223.947 203.27 222.305 204.922 222.305 206.961Z" fill="#CCD0FF" fill-opacity="0.3"/>
<path d="M222.305 233.23C222.305 235.269 223.947 236.921 225.971 236.921C227.996 236.921 229.637 235.269 229.637 233.23C229.637 231.192 227.996 229.539 225.971 229.539C223.947 229.539 222.305 231.192 222.305 233.23Z" fill="#CCD0FF" fill-opacity="0.3"/>
<path d="M229.637 259.5C229.637 257.437 228.02 255.809 225.971 255.809C223.923 255.809 222.305 257.437 222.305 259.5C222.305 261.562 223.923 263.191 225.971 263.191C228.019 263.191 229.637 261.562 229.637 259.5Z" fill="#CCD0FF" fill-opacity="0.3"/>
<path d="M229.637 285.77C229.637 283.707 228.02 282.079 225.971 282.079C223.923 282.079 222.305 283.707 222.305 285.77C222.305 287.832 223.923 289.461 225.971 289.461C228.019 289.461 229.637 287.832 229.637 285.77Z" fill="#CCD0FF" fill-opacity="0.3"/>
<path d="M229.637 312.039C229.637 309.977 228.02 308.349 225.971 308.349C223.923 308.349 222.305 309.977 222.305 312.039C222.305 314.102 223.923 315.73 225.971 315.73C228.019 315.73 229.637 314.102 229.637 312.039Z" fill="#CCD0FF" fill-opacity="0.3"/>
<path d="M229.637 338.309C229.637 336.247 228.02 334.618 225.971 334.618C223.923 334.618 222.305 336.247 222.305 338.309C222.305 340.372 223.923 342 225.971 342C228.019 342 229.637 340.372 229.637 338.309Z" fill="#CCD0FF" fill-opacity="0.3"/>
<path d="M195.999 180.691C195.999 182.729 197.64 184.382 199.664 184.382C201.689 184.382 203.33 182.729 203.33 180.691C203.33 178.652 201.689 177 199.664 177C197.64 177 195.999 178.652 195.999 180.691Z" fill="#CCD0FF" fill-opacity="0.3"/>
<path d="M195.999 206.961C195.999 208.999 197.64 210.651 199.664 210.651C201.689 210.651 203.33 208.999 203.33 206.961C203.33 204.922 201.689 203.27 199.664 203.27C197.64 203.27 195.999 204.922 195.999 206.961Z" fill="#CCD0FF" fill-opacity="0.3"/>
<path d="M195.999 233.23C195.999 235.269 197.64 236.921 199.664 236.921C201.689 236.921 203.33 235.269 203.33 233.23C203.33 231.192 201.689 229.539 199.664 229.539C197.64 229.539 195.999 231.192 195.999 233.23Z" fill="#CCD0FF" fill-opacity="0.3"/>
<path d="M203.223 259.5C203.223 257.437 201.605 255.809 199.557 255.809C197.509 255.809 195.891 257.437 195.891 259.5C195.891 261.562 197.509 263.191 199.557 263.191C201.605 263.191 203.223 261.562 203.223 259.5Z" fill="#CCD0FF" fill-opacity="0.3"/>
<path d="M203.223 285.77C203.223 283.707 201.605 282.079 199.557 282.079C197.509 282.079 195.891 283.707 195.891 285.77C195.891 287.832 197.509 289.461 199.557 289.461C201.605 289.461 203.223 287.832 203.223 285.77Z" fill="#CCD0FF" fill-opacity="0.3"/>
<path d="M203.223 312.039C203.223 309.977 201.605 308.349 199.557 308.349C197.509 308.349 195.891 309.977 195.891 312.039C195.891 314.102 197.509 315.73 199.557 315.73C201.605 315.73 203.223 314.102 203.223 312.039Z" fill="#CCD0FF" fill-opacity="0.3"/>
<path d="M203.223 338.309C203.223 336.247 201.605 334.618 199.557 334.618C197.509 334.618 195.891 336.247 195.891 338.309C195.891 340.372 197.509 342 199.557 342C201.605 342 203.223 340.372 203.223 338.309Z" fill="#CCD0FF" fill-opacity="0.3"/>
<path d="M380.145 180.691C380.145 182.729 381.786 184.382 383.811 184.382C385.835 184.382 387.477 182.729 387.477 180.691C387.477 178.652 385.835 177 383.811 177C381.786 177 380.145 178.652 380.145 180.691Z" fill="#CCD0FF" fill-opacity="0.3"/>
<path d="M380.145 206.961C380.145 208.999 381.786 210.651 383.811 210.651C385.835 210.651 387.477 208.999 387.477 206.961C387.477 204.922 385.835 203.27 383.811 203.27C381.786 203.27 380.145 204.922 380.145 206.961Z" fill="#CCD0FF" fill-opacity="0.3"/>
<path d="M380.145 233.23C380.145 235.269 381.786 236.921 383.811 236.921C385.835 236.921 387.477 235.269 387.477 233.23C387.477 231.192 385.835 229.539 383.811 229.539C381.786 229.539 380.145 231.192 380.145 233.23Z" fill="#CCD0FF" fill-opacity="0.3"/>
<path d="M387.477 259.5C387.477 257.437 385.859 255.809 383.811 255.809C381.762 255.809 380.145 257.437 380.145 259.5C380.145 261.562 381.762 263.191 383.811 263.191C385.859 263.191 387.477 261.562 387.477 259.5Z" fill="#CCD0FF" fill-opacity="0.3"/>
<path d="M387.477 285.77C387.477 283.707 385.859 282.079 383.811 282.079C381.762 282.079 380.145 283.707 380.145 285.77C380.145 287.832 381.762 289.461 383.811 289.461C385.859 289.461 387.477 287.832 387.477 285.77Z" fill="#CCD0FF" fill-opacity="0.3"/>
<path d="M387.477 312.039C387.477 309.977 385.859 308.349 383.811 308.349C381.762 308.349 380.145 309.977 380.145 312.039C380.145 314.102 381.762 315.73 383.811 315.73C385.859 315.73 387.477 314.102 387.477 312.039Z" fill="#CCD0FF" fill-opacity="0.3"/>
<path d="M380.145 338.309C380.145 340.372 381.762 342 383.811 342C385.859 342 387.477 340.372 387.477 338.309C387.477 336.247 385.859 334.618 383.811 334.618C381.762 334.618 380.145 336.247 380.145 338.309Z" fill="#CCD0FF" fill-opacity="0.3"/>
<path d="M353.839 180.691C353.839 182.729 355.48 184.382 357.504 184.382C359.529 184.382 361.17 182.729 361.17 180.691C361.17 178.652 359.529 177 357.504 177C355.48 177 353.839 178.652 353.839 180.691Z" fill="#CCD0FF" fill-opacity="0.3"/>
<path d="M353.839 206.961C353.839 208.999 355.48 210.651 357.504 210.651C359.529 210.651 361.17 208.999 361.17 206.961C361.17 204.922 359.529 203.27 357.504 203.27C355.48 203.27 353.839 204.922 353.839 206.961Z" fill="#CCD0FF" fill-opacity="0.3"/>
<path d="M353.839 233.23C353.839 235.269 355.48 236.921 357.504 236.921C359.529 236.921 361.17 235.269 361.17 233.23C361.17 231.192 359.529 229.539 357.504 229.539C355.48 229.539 353.839 231.192 353.839 233.23Z" fill="#CCD0FF" fill-opacity="0.3"/>
<path d="M361.17 259.5C361.17 257.437 359.553 255.809 357.504 255.809C355.456 255.809 353.839 257.437 353.839 259.5C353.839 261.562 355.456 263.191 357.504 263.191C359.553 263.191 361.17 261.562 361.17 259.5Z" fill="#CCD0FF" fill-opacity="0.3"/>
<path d="M361.17 285.77C361.17 283.707 359.553 282.079 357.504 282.079C355.456 282.079 353.839 283.707 353.839 285.77C353.839 287.832 355.456 289.461 357.504 289.461C359.553 289.461 361.17 287.832 361.17 285.77Z" fill="#CCD0FF" fill-opacity="0.3"/>
<path d="M361.17 312.039C361.17 309.977 359.553 308.349 357.504 308.349C355.456 308.349 353.839 309.977 353.839 312.039C353.839 314.102 355.456 315.73 357.504 315.73C359.553 315.73 361.17 314.102 361.17 312.039Z" fill="#CCD0FF" fill-opacity="0.3"/>
<path d="M361.17 338.309C361.17 336.247 359.553 334.618 357.504 334.618C355.456 334.618 353.839 336.247 353.839 338.309C353.839 340.372 355.456 342 357.504 342C359.553 342 361.17 340.372 361.17 338.309Z" fill="#CCD0FF" fill-opacity="0.3"/>
<path d="M327.532 180.691C327.532 182.729 329.173 184.382 331.198 184.382C333.222 184.382 334.863 182.729 334.863 180.691C334.863 178.652 333.222 177 331.198 177C329.173 177 327.532 178.652 327.532 180.691Z" fill="#CCD0FF" fill-opacity="0.3"/>
<path d="M327.532 206.961C327.532 208.999 329.173 210.651 331.198 210.651C333.222 210.651 334.863 208.999 334.863 206.961C334.863 204.922 333.222 203.27 331.198 203.27C329.173 203.27 327.532 204.922 327.532 206.961Z" fill="#CCD0FF" fill-opacity="0.3"/>
<path d="M327.532 233.23C327.532 235.269 329.173 236.921 331.198 236.921C333.222 236.921 334.863 235.269 334.863 233.23C334.863 231.192 333.222 229.539 331.198 229.539C329.173 229.539 327.532 231.192 327.532 233.23Z" fill="#CCD0FF" fill-opacity="0.3"/>
<path d="M334.863 259.5C334.863 257.437 333.246 255.809 331.198 255.809C329.149 255.809 327.532 257.437 327.532 259.5C327.532 261.562 329.149 263.191 331.198 263.191C333.246 263.191 334.863 261.562 334.863 259.5Z" fill="#CCD0FF" fill-opacity="0.3"/>
<path d="M334.863 285.77C334.863 283.707 333.246 282.079 331.198 282.079C329.149 282.079 327.532 283.707 327.532 285.77C327.532 287.832 329.149 289.461 331.198 289.461C333.246 289.461 334.863 287.832 334.863 285.77Z" fill="#CCD0FF" fill-opacity="0.3"/>
<path d="M334.863 312.039C334.863 309.977 333.246 308.349 331.198 308.349C329.149 308.349 327.532 309.977 327.532 312.039C327.532 314.102 329.149 315.73 331.198 315.73C333.246 315.73 334.863 314.102 334.863 312.039Z" fill="#CCD0FF" fill-opacity="0.3"/>
<path d="M334.863 338.309C334.863 336.247 333.246 334.618 331.198 334.618C329.149 334.618 327.532 336.247 327.532 338.309C327.532 340.372 329.149 342 331.198 342C333.246 342 334.863 340.372 334.863 338.309Z" fill="#CCD0FF" fill-opacity="0.3"/>
<path d="M301.225 180.691C301.225 182.729 302.866 184.382 304.891 184.382C306.915 184.382 308.557 182.729 308.557 180.691C308.557 178.652 306.915 177 304.891 177C302.866 177 301.225 178.652 301.225 180.691Z" fill="#CCD0FF" fill-opacity="0.3"/>
<path d="M301.225 206.961C301.225 208.999 302.866 210.651 304.891 210.651C306.915 210.651 308.557 208.999 308.557 206.961C308.557 204.922 306.915 203.27 304.891 203.27C302.866 203.27 301.225 204.922 301.225 206.961Z" fill="#CCD0FF" fill-opacity="0.3"/>
<path d="M301.225 233.23C301.225 235.269 302.866 236.921 304.891 236.921C306.915 236.921 308.557 235.269 308.557 233.23C308.557 231.192 306.915 229.539 304.891 229.539C302.866 229.539 301.225 231.192 301.225 233.23Z" fill="#CCD0FF" fill-opacity="0.3"/>
<path d="M308.557 259.5C308.557 257.437 306.939 255.809 304.891 255.809C302.843 255.809 301.225 257.437 301.225 259.5C301.225 261.562 302.843 263.191 304.891 263.191C306.939 263.191 308.557 261.562 308.557 259.5Z" fill="#CCD0FF" fill-opacity="0.3"/>
<path d="M308.557 285.77C308.557 283.707 306.939 282.079 304.891 282.079C302.843 282.079 301.225 283.707 301.225 285.77C301.225 287.832 302.843 289.461 304.891 289.461C306.939 289.461 308.557 287.832 308.557 285.77Z" fill="#CCD0FF" fill-opacity="0.3"/>
<path d="M308.557 312.039C308.557 309.977 306.939 308.349 304.891 308.349C302.843 308.349 301.225 309.977 301.225 312.039C301.225 314.102 302.843 315.73 304.891 315.73C306.939 315.73 308.557 314.102 308.557 312.039Z" fill="#CCD0FF" fill-opacity="0.3"/>
<path d="M308.557 338.309C308.557 336.247 306.939 334.618 304.891 334.618C302.843 334.618 301.225 336.247 301.225 338.309C301.225 340.372 302.843 342 304.891 342C306.939 342 308.557 340.372 308.557 338.309Z" fill="#CCD0FF" fill-opacity="0.3"/>
</g>
</g>
<defs>
<filter id="filter0_d_1092_1658" x="155.891" y="137" width="291.586" height="265" filterUnits="userSpaceOnUse" color-interpolation-filters="sRGB">
<feFlood flood-opacity="0" result="BackgroundImageFix"/>
<feColorMatrix in="SourceAlpha" type="matrix" values="0 0 0 0 0 0 0 0 0 0 0 0 0 0 0 0 0 0 127 0" result="hardAlpha"/>
<feOffset dx="10" dy="10"/>
<feGaussianBlur stdDeviation="25"/>
<feComposite in2="hardAlpha" operator="out"/>
<feColorMatrix type="matrix" values="0 0 0 0 0 0 0 0 0 0 0 0 0 0 0 0 0 0 0.25 0"/>
<feBlend mode="normal" in2="BackgroundImageFix" result="effect1_dropShadow_1092_1658"/>
<feBlend mode="normal" in="SourceGraphic" in2="effect1_dropShadow_1092_1658" result="shape"/>
</filter>
<clipPath id="clip0_1092_1658">
<rect width="165" height="191.478" fill="white" transform="translate(387.477 177) rotate(90)"/>
</clipPath>
</defs>
</svg>
