<svg width="32" height="26" viewBox="0 0 32 26" fill="none" xmlns="http://www.w3.org/2000/svg">
<path fill-rule="evenodd" clip-rule="evenodd" d="M0 7.6V22.4C0.3 23.6 0.8 24.5 2 25.1C2.5 25.4 3.1 25.6 3.8 25.6H28.3C30.3 25.6 32 23.9 32 21.9V8.2C32 6.4 30.5 4.7 28.6 4.5C27.7719 4.34944 26.8872 4.36889 26.0311 4.38771C25.75 4.39389 25.4719 4.4 25.2 4.4C24.8 4.4 24.6 4.3 24.4 4C24 3.2 23.5 2.5 23 1.8C22.2 0.6 21.1 0 19.6 0H12.2C10.8 0 9.7 0.6 9 1.7C8.4 2.5 7.9 3.29999 7.40001 4.09999L7.4 4.1C7.3 4.3 7.1 4.4 6.9 4.4H4.1C2.1 4.4 0.6 5.5 0.1 7.4C0.0424951 7.4575 0.0180584 7.48194 0.00767393 7.51134C0 7.53307 0 7.5575 0 7.6ZM7.4 13.8C7.4 8.7 11.6 5.2 16 5.3C20.5 5.3 24.5 8.9 24.5 13.9C24.5 18.8 20.5 22.4 15.9 22.4C11.3 22.3 7.4 18.6 7.4 13.8ZM27.6 9.8H26.9C26.6 9.8 26.3 9.8 26.1 9.9C25.5 9.8 25.1 9.4 25.1 8.8C25.1 8.2 25.5 7.7 26.1 7.7H27.6C28.2 7.7 28.6 8.2 28.6 8.8C28.6 9.4 28.2 9.8 27.6 9.8ZM16.0002 18.7C18.6002 18.7 20.8002 16.5 20.8002 13.9C20.8002 11.2 18.6002 9.09998 16.0002 9.09998C13.4002 9.09998 11.2002 11.3 11.2002 13.9C11.2002 16.5 13.3002 18.7 16.0002 18.7Z" fill="#6463FF" fill-opacity="0.5"/>
</svg>
