<svg width="178" height="178" viewBox="0 0 178 178" fill="none" xmlns="http://www.w3.org/2000/svg">
<rect x="178" width="178" height="178" rx="20" transform="rotate(90 178 0)" fill="white" fill-opacity="0.75"/>
<path d="M167 129.874C166.562 129.874 166.781 130.311 166.562 130.53C164.594 136.874 160 140.374 153.218 140.374C145.343 140.374 137.467 140.374 129.811 140.374C128.498 140.374 128.061 140.593 128.061 141.905C128.28 145.405 128.061 149.124 128.061 152.624C128.061 153.937 127.623 155.031 126.53 155.468C125.217 156.125 124.123 155.468 123.248 154.593C120.842 152.187 118.435 149.781 116.029 147.374C115.373 146.718 114.935 146.718 114.279 147.374C111.873 149.781 109.466 152.187 107.06 154.593C106.185 155.468 105.091 156.125 103.779 155.468C102.466 154.812 102.247 153.718 102.247 152.406C102.247 148.906 102.247 145.187 102.247 141.686C102.247 140.374 102.029 140.155 100.716 140.155C75.5587 140.155 50.6202 140.155 25.4629 140.155C18.9002 140.155 13.8687 136.436 12.3374 130.749C12.1187 129.655 11.8999 128.561 11.8999 127.248C11.8999 96.6222 11.8999 65.7772 11.8999 35.1509C11.8999 27.2756 17.5876 21.5879 25.2442 21.5879C67.9022 21.5879 110.779 21.5879 153.437 21.5879C160 21.5879 164.812 25.3068 166.562 31.432C166.562 31.6508 166.562 32.0883 167 32.0883C167 64.6834 167 97.2784 167 129.874ZM133.092 97.2784C129.811 100.122 126.53 99.466 123.248 96.8409C123.248 105.154 123.248 113.029 123.248 121.342C125.217 119.373 126.748 117.623 128.498 116.092C130.248 114.342 131.342 114.342 133.092 115.873C134.842 117.623 136.592 119.373 138.561 121.123C138.561 112.592 138.561 104.279 138.561 95.7471C138.561 95.3096 138.561 95.0909 138.124 94.8721C135.936 94.2158 135.28 94.4346 133.967 96.1846C133.53 96.6222 133.311 96.8409 133.092 97.2784ZM156.718 69.7148C156.718 70.8086 156.499 71.9024 156.499 72.7775C155.843 74.5275 154.749 76.0588 152.999 76.7151C152.124 77.1526 151.906 77.8089 152.124 78.6839C152.999 83.2779 151.031 86.3405 146.437 87.2155C145.78 87.2155 145.124 87.4343 145.124 88.0906C144.905 90.0594 143.593 91.5907 143.593 93.5595C143.593 104.716 143.593 115.654 143.593 126.811C143.593 128.123 143.374 129.436 142.061 129.874C140.749 130.53 139.655 129.874 138.561 128.78C136.155 126.373 133.749 123.967 131.342 121.561C131.123 121.342 130.905 120.904 130.467 121.123C129.592 121.561 128.061 123.748 128.061 124.623C128.061 127.686 128.061 130.749 128.061 133.811C128.061 135.124 128.28 135.342 129.592 135.342C133.967 135.342 138.342 135.342 142.718 135.342C146.218 135.342 149.718 135.342 153.218 135.342C153.437 135.342 153.874 135.342 154.093 135.342C158.687 135.124 161.75 131.842 161.75 127.03C161.75 96.4034 161.75 65.7772 161.75 35.1509C161.75 34.9322 161.75 34.4947 161.75 34.2759C161.531 29.9007 158.031 26.8381 153.656 26.8381C152.999 26.8381 152.343 26.8381 151.906 26.8381C109.904 26.8381 68.1209 26.8381 26.1192 26.8381C20.2127 26.8381 17.1501 29.9007 17.1501 35.8072C17.1501 65.9959 17.1501 96.1847 17.1501 126.373C17.1501 132.28 20.2127 135.342 26.1192 135.342C50.839 135.342 75.5587 135.342 100.497 135.342C100.935 135.342 101.154 135.342 101.591 135.342C102.247 135.342 102.466 135.124 102.466 134.467C102.466 128.78 102.466 122.873 102.466 117.186C102.029 107.779 103.779 98.3722 101.372 88.9656C101.154 87.8718 100.716 87.4343 99.6222 87.2155C95.247 86.5593 93.0594 83.2779 94.1532 78.6839C94.372 77.8089 94.1532 77.1526 93.2782 76.4964C89.3405 74.09 88.4655 70.1523 91.3093 66.4334C91.9656 65.5584 91.9656 64.9021 91.3093 64.0271C88.4655 60.0894 89.3405 56.5893 93.2782 53.9642C93.9345 53.5267 94.372 52.8704 94.1532 51.9954C93.2782 48.9327 94.1532 46.5264 96.3408 44.5576C97.4346 43.9013 98.7472 43.4638 100.06 43.245C101.154 43.245 101.372 42.5887 101.591 41.7137C102.247 37.3385 105.529 35.1509 109.904 36.026C110.998 36.2447 111.654 36.026 112.091 35.1509C114.498 31.2133 118.435 30.557 121.936 33.1821C122.811 33.8384 123.467 33.8384 124.342 33.1821C128.061 30.557 131.998 31.2133 134.186 35.1509C134.842 36.026 135.499 36.2447 136.374 36.026C140.968 34.9322 144.03 37.1198 144.905 41.7137C145.124 42.5887 145.562 43.0263 146.437 43.245C151.031 43.9013 153.218 47.1827 152.124 51.7766C151.906 52.6516 152.124 53.3079 152.999 53.7454C154.749 54.6205 155.843 56.1518 156.499 57.9019C156.499 58.7769 156.718 59.8707 156.718 60.7457C156.281 61.8395 155.843 63.1521 154.968 64.0271C154.531 64.4646 154.531 65.1209 154.968 65.7772C155.624 67.3085 156.062 68.4023 156.718 69.7148ZM126.092 92.4658C126.311 92.6845 126.748 92.9033 126.967 93.122C128.498 94.2158 129.155 94.2158 130.03 92.247C131.123 90.7157 132.655 89.6219 134.624 89.1844C135.717 89.1844 136.811 89.1844 137.905 89.6219C138.78 89.8406 139.655 89.6219 139.874 88.5281C140.311 84.8092 142.499 82.8404 145.999 82.1841C147.093 81.9653 147.53 81.309 147.312 80.2153C146.437 76.7151 147.53 73.8713 150.593 72.1212C151.687 71.4649 151.687 70.8086 151.031 69.7148C148.843 66.6522 148.843 64.2459 151.031 61.1832C151.687 60.3082 151.687 59.4332 150.593 58.7769C147.53 57.0268 146.218 54.183 147.312 50.6828C147.53 49.589 147.093 48.9327 145.999 48.714C142.28 48.0577 140.53 46.3076 139.874 42.5887C139.436 41.4949 138.78 41.0574 137.686 41.2762C136.592 41.4949 135.499 41.7137 134.405 41.4949C132.655 41.0574 131.123 39.9636 130.03 38.6511C129.155 36.6823 128.717 36.4635 126.748 37.776C126.53 37.9948 126.311 38.2136 125.873 38.4323C123.248 39.5261 120.623 39.3074 118.435 37.3385C117.342 36.4635 116.685 37.1198 116.029 38.2136C114.279 41.0574 111.654 42.1512 108.591 41.2762C106.841 40.8387 106.622 41.0574 106.185 42.8075C105.529 46.3076 103.56 48.0577 100.278 48.714C98.9659 48.9327 98.5284 49.589 98.7472 50.9016C99.6222 54.8392 98.7472 56.5893 95.4658 58.7769C94.372 59.4332 94.372 60.0894 95.0283 61.1832C97.2158 64.4646 97.2158 66.6522 95.0283 69.7148C94.1532 70.8086 94.372 71.4649 95.4658 72.1212C98.7472 74.09 99.4034 76.2776 98.7472 79.9965C98.5284 81.0903 98.7472 81.9653 100.06 82.1841C103.779 82.8404 105.529 84.5904 106.185 88.3093C106.404 89.6219 107.06 90.0594 108.154 89.6219C111.654 88.7468 114.279 89.8406 116.248 92.9033C116.904 93.9971 117.56 93.9971 118.435 93.3408C120.842 91.5907 123.248 91.5907 126.092 92.4658ZM123.029 128.78C122.811 128.998 122.592 128.998 122.592 128.998C121.717 129.874 120.623 130.092 119.31 129.655C117.998 128.998 117.779 127.905 117.779 126.811C117.779 125.28 117.779 123.748 117.779 122.217C117.779 114.998 117.779 107.56 117.779 100.341C117.779 99.9035 118.217 99.0285 117.123 99.0285C114.498 98.8098 112.748 97.4972 111.654 95.3096C110.779 93.5595 109.248 94.8721 108.154 94.8721C107.06 94.8721 107.498 95.9659 107.498 96.4034C107.498 112.592 107.498 128.998 107.498 145.187C107.498 145.624 107.279 146.28 107.716 146.718C109.466 144.968 111.216 142.999 113.185 141.249C114.498 139.936 115.81 139.936 117.123 141.249C117.56 141.686 118.217 142.343 118.654 142.78C119.967 144.093 121.279 145.405 123.029 147.155C123.029 140.811 123.029 134.905 123.029 128.78Z" fill="#020201"/>
<path d="M102.247 117.187C102.247 122.875 102.247 128.781 102.247 134.469C102.247 135.125 102.029 135.344 101.372 135.344C100.935 135.344 100.716 135.344 100.279 135.344C75.5588 135.344 50.839 135.344 25.9005 135.344C19.994 135.344 16.9314 132.282 16.9314 126.375C16.9314 96.1864 16.9314 65.9977 16.9314 35.809C16.9314 29.9025 19.994 26.8398 25.9005 26.8398C67.9022 26.8398 109.685 26.8398 151.687 26.8398C152.343 26.8398 152.999 26.8398 153.437 26.8398C153.656 27.2774 153.874 27.4961 154.093 27.9336C156.062 30.34 156.5 32.9651 156.5 36.0277C156.5 43.028 156.5 50.0283 156.5 57.0286C156.5 57.4661 156.718 58.1224 156.281 58.5599C155.624 56.8098 154.531 55.2785 152.781 54.4035C151.906 53.9659 151.687 53.3097 151.906 52.4346C152.781 47.6219 150.812 44.5593 146.218 43.903C145.343 43.4655 144.905 43.028 144.905 42.153C144.249 37.559 140.968 35.3714 136.374 36.4652C135.28 36.684 134.624 36.4652 134.186 35.5902C131.78 31.6525 127.842 30.9963 124.342 33.6214C123.467 34.2776 122.811 34.2776 121.936 33.6214C118.435 30.9963 114.279 31.8713 112.091 35.5902C111.435 36.4652 110.779 36.684 109.904 36.4652C105.529 35.3714 102.247 37.7778 101.591 42.153C101.372 43.028 101.154 43.6843 100.06 43.6843C98.7472 43.6843 97.6534 44.3405 96.3408 44.9968C94.1533 44.9968 91.9657 44.9968 89.7781 44.9968C89.3406 43.028 88.4655 42.3717 86.2779 42.3717C71.1836 42.3717 56.308 42.3717 41.2136 42.3717C33.1195 42.3717 27.6506 47.8407 27.6506 55.9348C27.6506 72.7792 27.6506 89.4049 27.6506 106.249C27.6506 114.343 33.1195 119.812 41.2136 119.812C57.183 119.812 72.9337 119.812 88.9031 119.812C91.0906 119.812 91.7469 119.375 92.4032 117.187C95.4658 117.187 98.966 117.187 102.247 117.187Z" fill="#FDDA00"/>
<path d="M89.5594 44.7754C91.747 44.7754 93.9346 44.7754 96.1222 44.7754C93.9346 46.7442 93.0596 49.3693 93.9346 52.2132C94.1534 53.0882 93.9346 53.5257 93.0596 54.182C88.9032 56.8071 88.2469 60.526 91.0907 64.2449C91.747 65.12 91.5283 65.7762 91.0907 66.6513C88.4656 70.3702 89.1219 74.3078 93.0596 76.7142C93.9346 77.3705 94.1534 77.808 93.9346 78.9018C92.8408 83.2769 95.0284 86.5583 99.4036 87.2146C100.497 87.4334 100.935 87.8709 101.154 88.9647C103.56 98.3713 101.81 107.778 102.247 117.185C98.7473 117.185 95.4659 117.185 91.9658 117.185C91.3095 114.997 90.6532 114.559 88.4656 114.559C72.715 114.559 56.7456 114.559 40.995 114.559C35.7448 114.559 32.4634 111.497 32.4634 106.247C32.4634 89.4022 32.4634 72.5578 32.4634 55.7133C32.4634 53.5257 33.1197 51.5569 34.651 49.8068C36.401 47.838 38.5886 47.4005 41.2137 47.4005C56.0893 47.4005 70.9649 47.4005 85.8405 47.4005C88.2469 47.4005 88.9032 46.963 89.5594 44.7754ZM52.1517 102.965C52.5892 103.403 53.0267 103.84 53.4642 104.278C56.9644 107.122 59.152 107.559 63.3084 105.372C63.7459 105.153 63.9646 105.372 64.1834 105.372C69.6524 107.559 75.3401 108.653 81.0278 108.653C82.7779 108.653 83.8717 107.559 83.8717 106.028C83.8717 104.497 82.7779 103.403 80.8091 103.403C76.2151 103.403 71.84 102.309 67.6836 101.215C66.5898 100.996 65.496 100.34 65.0584 99.2463C64.6209 98.1525 63.5271 97.4963 62.2146 97.715C60.902 97.9338 60.2458 98.8088 60.027 100.121C59.8082 101.871 59.152 102.09 57.6206 101.215C55.6518 99.9026 54.1205 98.1525 53.2455 95.965C52.8079 94.6524 51.9329 93.7774 50.4016 93.9961C49.0891 94.2149 48.214 95.0899 48.214 96.84C48.214 98.5901 47.5577 100.34 46.2452 101.653C44.9326 102.965 43.4013 103.84 41.87 104.497C40.1199 105.153 39.4637 106.684 40.1199 107.997C40.7762 109.528 42.0888 109.966 43.8388 109.09C47.5577 107.778 50.1828 106.028 52.1517 102.965ZM61.1208 57.9009C56.5268 57.9009 51.9329 57.9009 47.1202 57.9009C45.5889 57.9009 44.2764 57.9009 42.745 57.9009C41.2137 57.9009 40.3387 58.9947 40.3387 60.3073C40.3387 61.6198 41.2137 62.7136 42.5263 62.9324C42.9638 62.9324 43.4013 62.9324 43.6201 62.9324C55.2143 62.9324 66.5898 62.9324 78.184 62.9324C78.6215 62.9324 79.2778 62.9324 79.7153 62.7136C81.0278 62.2761 81.9029 61.1823 81.6841 59.651C81.4654 58.3384 80.3716 57.6822 78.8403 57.6822C72.715 57.9009 67.0273 57.9009 61.1208 57.9009ZM60.902 68.1826C59.3707 68.1826 57.6206 68.1826 56.0893 68.1826C51.7142 68.1826 47.339 68.1826 42.9638 68.1826C41.4325 68.1826 40.3387 69.2764 40.3387 70.5889C40.3387 72.1202 41.2137 73.214 42.745 73.4328C42.9638 73.4328 43.1826 73.4328 43.4013 73.4328C54.9955 73.4328 66.8085 73.4328 78.4027 73.4328C78.8402 73.4328 79.2778 73.4328 79.4965 73.214C81.0278 72.7765 81.6841 71.464 81.2466 70.1514C80.8091 68.6201 79.7153 68.1826 78.4027 68.1826C72.715 68.1826 66.8085 68.1826 60.902 68.1826ZM60.902 78.4642C54.9955 78.4642 49.3078 78.4642 43.4013 78.4642C41.4325 78.4642 40.3387 79.3393 40.3387 81.0894C40.3387 82.6207 41.4325 83.7145 43.4013 83.7145C54.9955 83.7145 66.8085 83.7145 78.4027 83.7145C80.3716 83.7145 81.4654 82.6207 81.4654 81.0894C81.4654 79.558 80.3716 78.683 78.4027 78.683C72.715 78.4642 66.8085 78.4642 60.902 78.4642Z" fill="#F2F2F2"/>
<path d="M153.218 135.126C149.718 135.126 146.218 135.126 142.718 135.126C138.342 135.126 133.967 135.126 129.592 135.126C128.28 135.126 128.061 134.688 128.061 133.594C128.061 130.532 128.061 127.469 128.061 124.406C128.061 123.313 129.592 121.125 130.467 120.906C130.905 120.687 131.123 121.125 131.342 121.344C133.749 123.75 136.155 126.156 138.561 128.563C139.655 129.657 140.53 130.313 142.061 129.657C143.374 129 143.593 127.907 143.593 126.594C143.593 115.437 143.593 104.499 143.593 93.3426C143.593 91.3738 144.905 89.8425 145.124 87.8737C145.124 87.2174 145.999 87.2174 146.437 86.9986C151.03 86.1236 152.999 83.061 152.124 78.467C151.906 77.592 152.124 76.9357 152.999 76.4982C154.749 75.6232 155.843 74.3106 156.499 72.5605C156.937 72.9981 156.718 73.6543 156.718 74.0919C156.718 91.8113 156.718 109.531 156.718 127.25C156.718 127.907 156.718 128.344 156.499 129C156.281 131.625 154.749 133.376 153.218 135.126Z" fill="#FDDA00"/>
<path d="M134.624 89.4037C132.655 89.8412 131.123 90.935 130.03 92.4663C128.717 91.81 127.405 91.5913 126.092 92.4663C123.467 91.3725 121.061 91.5913 118.654 93.5601C117.779 94.2164 116.904 93.9976 116.467 93.1226C114.717 90.0599 111.873 88.7474 108.372 89.8412C107.279 90.0599 106.622 89.6224 106.404 88.5286C105.747 84.8097 104.216 83.0597 100.278 82.4034C98.9659 82.1846 98.7471 81.5284 98.9659 80.2158C99.8409 76.4969 98.9659 74.5281 95.6845 72.3405C94.5907 71.6842 94.3719 71.0279 95.247 69.9341C97.4346 66.8715 97.4346 64.6839 95.247 61.4025C94.5907 60.3087 94.8095 59.6525 95.6845 58.9962C98.9659 56.8086 99.8409 54.8398 98.9659 51.1209C98.7471 49.8083 99.1846 49.152 100.497 48.9333C103.997 48.4958 105.966 46.5269 106.404 43.0268C106.622 41.2767 107.06 41.058 108.81 41.4955C111.873 42.1518 114.717 41.058 116.248 38.4329C116.904 37.3391 117.56 36.6828 118.654 37.5578C121.061 39.5267 123.467 39.5267 126.092 38.6516C127.405 39.7454 128.717 38.8704 130.03 38.8704C131.123 40.4017 132.655 41.2767 134.405 41.7142C134.624 44.5581 135.499 45.6519 138.561 46.3082C141.186 46.9645 142.28 48.9333 141.843 51.3396C141.186 54.1835 141.624 55.0585 144.03 56.5898C146.218 57.9024 146.655 60.5275 145.343 62.4963C143.593 64.9027 143.593 65.9965 145.343 68.4028C146.874 70.5904 146.437 72.778 144.249 74.3093C141.843 75.8406 141.405 76.9344 142.061 79.7783C142.499 82.4034 141.186 84.3722 138.561 84.8097C135.717 85.2472 134.624 86.5598 134.624 89.4037ZM123.029 86.1223C134.405 86.1223 143.593 76.9344 143.811 65.7777C143.811 54.1835 134.842 44.9956 123.248 44.9956C111.654 44.9956 102.466 54.1835 102.466 65.559C102.247 76.9344 111.435 86.1223 123.029 86.1223Z" fill="#E51E61"/>
<path d="M153.218 135.122C154.749 133.372 156.281 131.403 156.499 128.997C156.499 128.341 156.718 127.903 156.718 127.247C156.718 109.527 156.718 91.8079 156.718 74.0884C156.718 73.6509 156.937 72.9946 156.499 72.5571C156.499 71.4633 156.718 70.3695 156.718 69.4945C156.718 66.6506 156.718 64.0255 156.718 61.1816C156.718 60.3066 156.499 59.2128 156.499 58.3378C156.937 57.9003 156.718 57.244 156.718 56.8065C156.718 49.8062 156.718 42.8059 156.718 35.8056C156.718 32.743 156.281 30.1179 154.312 27.7115C154.093 27.4928 153.874 27.0553 153.656 26.6178C158.031 26.399 161.531 29.6804 161.75 34.0555C161.75 34.2743 161.75 34.7118 161.75 34.9306C161.75 65.5568 161.75 96.1831 161.75 126.809C161.75 131.622 158.687 134.903 154.093 135.122C153.874 135.341 153.656 135.341 153.218 135.122Z" fill="#F7BD07"/>
<path d="M123.029 128.779C123.029 134.904 123.029 140.81 123.029 146.936C121.498 145.404 120.186 144.092 118.654 142.56C118.217 142.123 117.779 141.467 117.123 141.029C115.81 139.935 114.498 139.935 113.185 141.029C111.435 142.779 109.466 144.748 107.716 146.498C107.279 146.061 107.498 145.404 107.498 144.967C107.498 128.779 107.498 112.372 107.498 96.1835C107.498 95.5272 107.06 94.6522 108.154 94.6522C109.248 94.6522 110.779 93.3397 111.654 95.0897C112.967 97.2773 114.717 98.5899 117.123 98.8086C118.217 98.8086 117.779 99.6837 117.779 100.121C117.779 107.34 117.779 114.778 117.779 121.997C117.779 123.528 117.779 125.06 117.779 126.591C117.779 127.904 117.998 128.997 119.311 129.435C120.404 129.872 121.498 129.654 122.592 128.779C122.592 128.997 122.811 128.997 123.029 128.779Z" fill="#E71E62"/>
<path d="M134.624 89.4023C134.624 86.5585 135.717 85.2459 138.561 84.8084C141.186 84.3709 142.718 82.402 142.061 79.7769C141.405 76.9331 141.843 75.8393 144.249 74.308C146.437 72.7767 146.874 70.8078 145.343 68.4015C143.593 65.7764 143.593 64.9013 145.343 62.495C146.874 60.5262 146.218 57.9011 144.03 56.5885C141.624 55.0572 141.186 54.1822 141.843 51.3383C142.28 48.7132 141.186 46.9631 138.561 46.3068C135.28 45.4318 134.405 44.5568 134.405 41.7129C135.499 41.7129 136.592 41.7129 137.686 41.4941C138.78 41.2754 139.436 41.7129 139.655 42.8067C140.311 46.7444 142.061 48.4944 145.78 48.9319C147.093 49.1507 147.53 49.807 147.093 50.9008C146.218 54.4009 147.312 57.026 150.374 58.9948C151.468 59.6511 151.468 60.3074 150.812 61.4012C148.624 64.4638 148.624 66.8702 150.812 69.9328C151.468 71.0266 151.468 71.6829 150.374 72.3391C147.093 74.0892 146.218 76.9331 147.093 80.4332C147.312 81.527 146.874 82.1833 145.78 82.402C142.061 82.8396 140.093 85.0271 139.655 88.746C139.436 89.8398 138.78 90.2774 137.686 89.8398C136.811 89.4023 135.717 89.4023 134.624 89.4023Z" fill="#AB1456"/>
<path d="M133.092 115.655C131.124 114.124 130.249 114.124 128.498 115.874C126.748 117.624 125.217 119.374 123.248 121.124C123.248 112.811 123.248 104.936 123.248 96.623C126.53 99.2482 129.811 99.9044 133.092 97.0606C133.53 97.4981 133.311 97.9356 133.311 98.3731C133.311 103.623 133.311 109.092 133.311 114.343C133.311 114.999 133.53 115.436 133.092 115.655Z" fill="#E71E62"/>
<path d="M133.092 115.655C133.53 115.218 133.311 114.78 133.311 114.343C133.311 109.092 133.311 103.623 133.311 98.3732C133.311 97.9357 133.53 97.4982 133.092 97.0607C133.311 96.8419 133.53 96.4044 133.749 96.1856C135.061 94.4355 135.936 93.998 137.905 94.8731C138.342 95.0918 138.342 95.3106 138.342 95.7481C138.342 104.061 138.342 112.593 138.342 121.124C136.592 119.155 134.842 117.405 133.092 115.655Z" fill="#AB1456"/>
<path d="M156.718 61.4004C156.718 64.2443 156.718 66.8694 156.718 69.7132C156.281 68.6194 155.843 67.5256 154.968 66.4318C154.531 65.9943 154.531 65.338 154.968 64.6818C155.625 63.8067 156.062 62.4942 156.718 61.4004Z" fill="#FDDA00"/>
<path d="M130.029 38.8685C128.717 38.8685 127.404 39.7435 126.092 38.6497C126.311 38.4309 126.529 38.2122 126.967 37.9934C128.717 36.6809 129.154 36.6809 130.029 38.8685Z" fill="#AB1456"/>
<path d="M126.092 92.4678C127.404 91.5927 128.717 91.8115 130.029 92.4678C129.154 94.2178 128.717 94.4366 126.967 93.3428C126.529 92.9053 126.311 92.6865 126.092 92.4678Z" fill="#AB1456"/>
<path d="M89.5591 44.7786C88.9029 46.9662 88.4654 47.4037 86.059 47.4037C71.1834 47.4037 56.3078 47.4037 41.4322 47.4037C38.8071 47.4037 36.6195 48.06 34.8694 49.81C33.3381 51.3413 32.6819 53.3102 32.6819 55.7165C32.6819 72.5609 32.6819 89.4054 32.6819 106.25C32.6819 111.5 35.9632 114.563 41.2134 114.563C56.9641 114.563 72.9335 114.563 88.6841 114.563C91.0905 114.563 91.528 115 92.1842 117.188C91.528 119.375 90.8717 119.813 88.6841 119.813C72.7147 119.813 56.9641 119.813 40.9947 119.813C32.9006 119.813 27.4316 114.344 27.4316 106.25C27.4316 89.4054 27.4316 72.7797 27.4316 55.9353C27.4316 47.8412 32.9006 42.3722 40.9947 42.3722C56.089 42.3722 70.9646 42.3722 86.059 42.3722C88.2466 42.1535 88.9029 42.8098 89.5591 44.7786Z" fill="#040402"/>
<path d="M52.1515 102.966C50.1826 106.028 47.3388 107.778 44.2761 109.091C42.5261 109.747 40.9948 109.31 40.5573 107.997C39.901 106.466 40.5572 105.153 42.3073 104.497C44.0574 103.841 45.5887 102.966 46.6825 101.653C47.995 100.34 48.6513 98.8091 48.6513 96.8403C48.6513 95.0902 49.5264 94.2152 50.8389 93.9964C52.3702 93.7776 53.2453 94.6527 53.6828 95.9652C54.5578 98.1528 55.8704 99.9029 58.058 101.215C59.5893 102.09 60.0268 101.872 60.4643 100.122C60.6831 98.8091 61.3393 97.9341 62.6519 97.7153C63.9644 97.4965 64.8395 98.1528 65.4958 99.2466C65.9333 100.34 67.0271 100.997 68.1209 101.215C72.496 102.309 76.8712 103.403 81.2464 103.403C82.9965 103.403 84.0902 104.497 84.309 106.028C84.309 107.559 83.2152 108.653 81.4651 108.653C75.5587 108.653 69.8709 107.559 64.6207 105.372C64.402 105.153 64.1832 105.153 63.7457 105.372C59.5893 107.559 57.4017 107.122 53.9015 104.278C53.2453 104.059 52.8077 103.622 52.1515 102.966Z" fill="#030303"/>
<path d="M61.1207 57.9004C67.0272 57.9004 72.7149 57.9004 78.6214 57.9004C80.3715 57.9004 81.2465 58.5567 81.4653 59.8692C81.684 61.4005 81.0278 62.4943 79.4965 62.9318C79.0589 63.1506 78.4027 63.1506 77.9651 63.1506C66.3709 63.1506 54.9955 63.1506 43.4013 63.1506C42.9637 63.1506 42.5262 63.1506 42.3075 63.1506C40.9949 62.9318 40.1199 61.838 40.1199 60.5255C40.1199 59.2129 41.2137 58.1192 42.5262 58.1192C44.0575 58.1192 45.3701 58.1192 46.9014 58.1192C51.9328 57.9004 56.5268 57.9004 61.1207 57.9004Z" fill="#050505"/>
<path d="M60.9019 68.1855C66.8084 68.1855 72.7149 68.1855 78.6214 68.1855C79.934 68.1855 81.0278 68.6231 81.4653 70.1544C81.9028 71.6857 81.0278 72.9982 79.7152 73.217C79.2777 73.217 78.8402 73.4358 78.6214 73.4358C67.0272 73.4358 55.2142 73.4358 43.62 73.4358C43.4012 73.4358 43.1825 73.4358 42.9637 73.4358C41.2137 73.217 40.3386 71.9044 40.3386 70.5919C40.3386 69.2793 41.4324 68.1855 42.9637 68.1855C47.3389 68.1855 51.7141 68.1855 56.0893 68.1855C57.8393 68.1855 59.3706 68.1855 60.9019 68.1855Z" fill="#030303"/>
<path d="M60.902 78.4668C66.8084 78.4668 72.4962 78.4668 78.4027 78.4668C80.3715 78.4668 81.4653 79.3418 81.4653 80.8732C81.4653 82.6232 80.3715 83.4983 78.4027 83.4983C66.8084 83.4983 54.9955 83.4983 43.4012 83.4983C41.4324 83.4983 40.3386 82.4045 40.3386 80.8732C40.3386 79.3418 41.4324 78.248 43.4012 78.248C49.3077 78.4668 55.2142 78.4668 60.902 78.4668Z" fill="#020202"/>
<path d="M123.029 86.1208C111.435 86.1208 102.466 76.9329 102.466 65.3387C102.466 53.9633 111.654 44.7754 123.248 44.7754C134.624 44.7754 143.811 54.182 143.811 65.5575C143.593 77.1517 134.405 86.1208 123.029 86.1208ZM125.436 80.6518C134.186 79.7768 140.311 70.3702 137.905 61.6198C136.374 55.4946 130.905 50.6819 125.436 50.2444C124.998 50.0256 124.342 50.0256 123.904 50.0256C114.717 49.5881 107.279 56.8071 107.716 66.2138C107.935 75.1829 115.81 81.7456 124.998 80.8706C125.217 80.8706 125.436 80.8706 125.436 80.6518Z" fill="#030101"/>
<path d="M124.779 80.8731C115.592 81.7482 107.716 75.1854 107.498 66.2163C107.279 57.0284 114.498 49.5906 123.686 50.0281C124.342 50.0281 124.779 50.0281 125.217 50.2469C125.436 50.4656 125.654 50.9032 125.873 51.1219C134.624 57.6847 135.499 70.3727 127.842 78.0293C126.967 78.9043 126.092 79.7793 125.217 80.6544C125.217 80.6544 124.998 80.6544 124.779 80.8731Z" fill="#FDDA00"/>
<path d="M125.436 80.6516C126.311 79.7766 127.186 78.9015 128.061 78.0265C135.717 70.3699 134.842 57.6819 126.092 51.1192C125.873 50.9004 125.655 50.6817 125.436 50.2441C130.905 50.6817 136.374 55.4943 137.905 61.6196C140.311 70.3699 134.186 79.7766 125.436 80.6516Z" fill="#FABE08"/>
<path d="M124.779 80.8711C124.998 80.6523 125.217 80.6523 125.436 80.6523C125.436 80.8711 125.217 80.8711 124.779 80.8711Z" fill="#FABE08"/>
</svg>
