<svg width="178" height="178" viewBox="0 0 178 178" fill="none" xmlns="http://www.w3.org/2000/svg">
<rect x="178" width="178" height="178" rx="20" transform="rotate(90 178 0)" fill="white" fill-opacity="0.75"/>
<path d="M137.33 132.454C135.198 131.98 133.539 133.401 133.539 136.008C133.539 142.642 133.539 149.513 133.539 156.148C133.539 159.465 132.592 160.413 129.274 160.413C93.7334 160.413 58.1925 160.413 22.6515 160.413C19.0974 160.413 18.1497 159.465 18.1497 155.911C18.1497 111.603 18.1497 67.2953 18.1497 23.2245C18.1497 19.6704 19.0974 18.7227 22.6515 18.7227C58.1925 18.7227 93.4965 18.7227 129.037 18.7227C129.274 18.7227 129.748 18.7227 129.985 18.7227C132.118 18.7227 133.302 19.9074 133.302 22.0398C133.302 22.9876 133.302 24.1723 133.302 25.12C133.302 34.5976 133.302 44.3121 133.302 53.7897C133.302 55.9222 134.487 57.3438 136.146 57.3438L137.33 132.454ZM103.448 56.633C103.448 41.4689 91.1271 29.148 75.963 28.9111C60.7988 28.9111 48.241 41.2319 48.241 56.3961C48.241 71.5602 60.5619 83.8811 75.726 84.118C90.8902 84.118 103.448 71.7972 103.448 56.633ZM70.7503 99.7561C75.963 99.7561 80.9387 99.7561 86.1514 99.7561C88.0469 99.7561 89.9424 99.7561 91.8379 99.7561C93.7334 99.7561 95.1551 98.3344 95.1551 96.6758C95.1551 95.0173 93.7334 93.8326 91.8379 93.5956C91.601 93.5956 91.364 93.5956 91.1271 93.5956C77.6215 93.5956 64.116 93.5956 50.6104 93.5956C49.8996 93.5956 49.4257 93.5956 48.7149 93.8326C47.2932 94.0695 46.5824 95.2542 46.3455 96.6758C46.3455 98.0975 47.2932 99.2822 48.7149 99.5191C49.1888 99.7561 49.8996 99.7561 50.3735 99.7561C57.2447 99.7561 63.879 99.7561 70.7503 99.7561ZM70.7503 116.579C77.3846 116.579 84.2558 116.579 90.8902 116.579C91.364 116.579 92.0749 116.579 92.5487 116.579C93.9704 116.342 94.9181 115.157 94.9181 113.735C94.9181 112.314 93.9704 111.129 92.5487 110.892C92.0749 110.892 91.364 110.655 90.8902 110.655C77.3846 110.655 63.879 110.655 50.3735 110.655C49.6626 110.655 49.1888 110.655 48.4779 110.892C47.0563 111.366 46.3455 112.314 46.3455 113.735C46.3455 114.92 47.0563 115.868 48.241 116.342C48.9518 116.579 49.4257 116.579 50.1365 116.579C57.2447 116.579 64.116 116.579 70.7503 116.579ZM70.7503 127.241C63.879 127.241 57.0078 127.241 50.1365 127.241C48.0041 127.241 46.5824 128.426 46.5824 130.321C46.5824 132.217 48.0041 133.401 50.1365 133.401C50.3735 133.401 50.6104 133.401 50.8473 133.401C64.3529 133.401 77.6215 133.401 91.1271 133.401C91.8379 133.401 92.3118 133.401 93.0226 133.165C94.4443 132.928 95.392 131.506 95.392 130.321C95.392 128.9 94.4443 127.952 93.0226 127.478C92.5487 127.241 91.8379 127.241 91.1271 127.241C84.2558 127.241 77.6215 127.241 70.7503 127.241ZM84.0189 150.224C86.6252 150.224 88.9946 150.224 91.601 150.224C93.9704 150.224 95.392 149.04 95.1551 147.144C95.1551 145.248 93.7334 144.301 91.601 144.301C86.6252 144.301 81.6495 144.301 76.6738 144.301C74.5413 144.301 73.1197 145.485 73.1197 147.381C73.1197 149.276 74.5413 150.461 76.6738 150.461C79.0432 150.224 81.4126 150.224 84.0189 150.224ZM36.631 93.8326C34.9724 93.8326 33.5507 95.2542 33.5507 96.6758C33.5507 98.0975 34.9724 99.7561 36.394 99.7561C38.0526 99.7561 39.4742 98.3344 39.4742 96.6758C39.7112 95.0173 38.2895 93.8326 36.631 93.8326ZM36.631 116.579C38.2895 116.579 39.4742 115.157 39.4742 113.499C39.4742 111.84 38.0526 110.418 36.394 110.418C34.7354 110.418 33.5507 112.077 33.5507 113.499C33.7877 115.157 35.2093 116.579 36.631 116.579ZM36.631 127.241C34.9724 127.241 33.7877 128.663 33.7877 130.321C33.7877 131.98 35.2093 133.165 36.631 133.401C38.2895 133.401 39.7112 131.98 39.7112 130.321C39.7112 128.663 38.2895 127.241 36.631 127.241Z" fill="#EBF2FA"/>
<path d="M132.118 12.5635C132.828 13.0374 133.539 13.0374 134.25 13.2743C137.567 14.9329 139.463 17.5392 139.463 21.0933C139.463 31.9925 139.463 42.8918 139.463 53.791C139.463 55.6865 138.041 57.1081 136.382 57.1081C134.724 57.1081 133.539 55.6865 133.539 53.5541C133.539 44.0765 133.539 34.3619 133.539 24.8843C133.539 23.9366 133.539 22.7519 133.539 21.8041C133.539 19.6717 132.355 18.487 130.222 18.487C129.985 18.487 129.511 18.487 129.274 18.487C93.7333 18.487 58.4293 18.487 22.8884 18.487C19.3343 18.487 18.3865 19.4347 18.3865 22.9888C18.3865 67.2966 18.3865 111.604 18.3865 155.675C18.3865 159.229 19.3343 160.177 22.8884 160.177C58.4293 160.177 93.9703 160.177 129.511 160.177C132.828 160.177 133.776 159.229 133.776 155.912C133.776 149.278 133.776 142.406 133.776 135.772C133.776 133.166 135.435 131.744 137.567 132.218C138.989 132.455 139.937 133.64 139.937 135.298C139.937 142.88 139.937 150.225 139.937 157.808C139.937 162.309 136.146 165.863 131.644 166.337C130.933 166.337 130.459 166.337 129.748 166.337C94.2072 166.337 58.6663 166.337 23.1253 166.337C16.254 166.337 12.7 162.783 12.7 155.912C12.7 111.604 12.7 67.2966 12.7 23.2258C12.7 17.5392 14.3585 14.9329 19.8081 13.0374C19.8081 13.0374 19.8081 12.8004 20.0451 12.8004C57.0077 12.5635 94.4442 12.5635 132.118 12.5635Z" fill="#010101"/>
<path d="M164.815 67.2986C155.812 83.6474 146.097 99.7593 137.093 116.108C133.776 122.032 130.459 127.718 127.142 133.405C126.668 134.353 125.957 135.063 125.009 135.774C119.086 140.039 113.162 144.541 107.239 149.043C106.291 149.754 105.343 150.464 104.159 149.991C102.737 149.517 101.789 148.332 101.789 146.673C102.026 143.356 102.5 139.802 102.974 136.485C103.448 132.457 103.922 128.429 104.396 124.164C104.633 122.979 104.87 121.795 105.58 120.847C117.901 99.5224 129.985 78.4347 142.306 57.1101C144.912 52.3713 148.703 50.002 154.153 50.002C159.603 50.002 164.815 54.2669 166 59.7165C165.763 61.1381 166 65.1661 164.815 67.2986ZM152.968 76.5392C152.968 76.0653 152.494 76.0653 152.257 75.8284C149.177 73.9329 145.86 72.2743 142.78 70.3788C141.832 69.9049 141.595 70.1418 141.121 70.8527C131.407 87.6754 121.692 104.498 111.978 121.084C111.504 122.032 111.741 122.269 112.452 122.979C115.532 124.638 118.612 126.533 121.692 128.192C122.403 128.666 122.877 128.666 123.351 127.718C133.065 110.895 142.78 94.0727 152.494 77.25C152.731 77.0131 152.731 76.7761 152.968 76.5392ZM152.494 56.1624C151.073 56.1624 149.177 57.1101 147.993 59.0057C147.045 60.6642 146.097 62.0859 145.149 63.7445C144.912 64.2183 144.912 64.6922 145.386 64.9292C148.703 66.8247 152.021 68.7202 155.338 70.6157C155.812 70.8526 156.049 71.0896 156.522 70.3788C157.47 68.4833 158.892 66.8247 159.603 64.6922C161.261 60.6642 157.944 56.1624 152.494 56.1624ZM108.424 140.513C111.741 137.907 115.058 135.537 118.375 133.168C115.769 131.509 113.162 130.325 110.793 128.666C110.082 128.192 109.608 128.429 109.608 129.14C109.134 132.931 108.898 136.722 108.424 140.513Z" fill="#040404"/>
<path d="M103.448 56.6335C103.448 71.7976 90.8901 84.3554 75.726 84.1185C60.5618 84.1185 48.241 71.5607 48.241 56.3965C48.241 41.2324 60.7988 28.6746 75.9629 28.9115C91.1271 28.9115 103.448 41.4693 103.448 56.6335ZM75.9629 34.835C73.8305 34.835 71.698 35.0719 69.5655 35.7828C55.823 39.8107 49.8995 56.3965 57.9555 68.2435C58.1924 68.7174 58.4294 69.4282 59.1402 68.4804C61.0357 65.6372 63.642 63.5047 66.7223 62.0831C67.1961 61.8461 67.1961 61.6092 66.9592 61.1353C65.3006 58.7659 65.0637 55.9226 65.0637 52.8424C65.5376 44.3126 74.3043 39.5738 81.6495 44.0756C87.8099 47.8667 87.8099 56.3965 85.2036 60.6614C84.7297 61.6092 84.4927 62.0831 85.6774 62.5569C88.5207 63.9786 90.6532 65.8741 92.5487 68.2435C93.2595 69.1913 93.4965 68.9543 94.2073 68.0066C96.1028 65.1633 97.0506 62.0831 97.5244 58.529C98.7091 45.9712 88.7577 34.835 75.9629 34.835ZM75.0152 78.195C80.2278 78.195 84.7297 76.7733 88.2838 74.4039C88.9946 73.9301 88.9946 73.6931 88.5207 73.2192C83.0711 64.2155 68.6178 64.2155 63.4051 73.2192C63.1682 73.9301 63.1682 74.167 63.642 74.4039C67.4331 76.7733 71.4611 77.958 75.0152 78.195ZM80.7017 54.501C80.7017 50.71 78.8062 48.3406 75.489 48.5775C73.1196 48.8144 71.4611 50.473 70.9872 52.6055C70.5133 56.1596 71.698 58.7659 74.0674 59.7137C77.1476 60.8984 81.1756 58.7659 80.7017 54.501Z" fill="#040404"/>
<path d="M70.7504 99.7552C64.1161 99.7552 57.2448 99.7552 50.6105 99.7552C50.1366 99.7552 49.4258 99.7552 48.9519 99.5182C47.5303 99.2813 46.5825 97.8596 46.5825 96.6749C46.5825 95.2533 47.5303 94.3055 48.9519 93.8317C49.4258 93.5947 50.1366 93.5947 50.8474 93.5947C64.353 93.5947 77.8586 93.5947 91.3641 93.5947C91.6011 93.5947 91.838 93.5947 92.075 93.5947C93.9705 93.5947 95.3921 94.7794 95.3921 96.6749C95.3921 98.3335 93.9705 99.7552 92.075 99.7552C90.1794 99.7552 88.2839 99.7552 86.3884 99.7552C80.9388 99.7552 75.963 99.7552 70.7504 99.7552Z" fill="#010101"/>
<path d="M70.7504 116.581C63.8791 116.581 57.2448 116.581 50.3736 116.581C49.6627 116.581 49.1889 116.581 48.478 116.344C47.2933 115.87 46.5825 114.922 46.5825 113.737C46.5825 112.316 47.2933 111.368 48.715 110.894C49.4258 110.657 49.8997 110.657 50.6105 110.657C64.1161 110.657 77.6216 110.657 91.1272 110.657C91.6011 110.657 92.3119 110.657 92.7858 110.894C94.2074 111.131 95.1552 112.316 95.1552 113.737C95.1552 115.159 94.2074 116.344 92.7858 116.581C92.3119 116.581 91.6011 116.581 91.1272 116.581C84.2559 116.581 77.6216 116.581 70.7504 116.581Z" fill="#010101"/>
<path d="M70.75 127.243C77.3843 127.243 84.2556 127.243 90.8899 127.243C91.6007 127.243 92.0746 127.243 92.7854 127.48C94.207 127.717 95.1548 128.902 95.1548 130.323C95.1548 131.745 94.207 132.93 92.7854 133.167C92.3115 133.404 91.6007 133.404 90.8899 133.404C77.3843 133.404 64.1157 133.404 50.6101 133.404C50.3732 133.404 50.1363 133.404 49.8993 133.404C47.7669 133.404 46.3452 132.219 46.3452 130.323C46.3452 128.428 47.7669 127.243 49.8993 127.243C57.0075 127.243 63.8788 127.243 70.75 127.243Z" fill="#010101"/>
<path d="M84.019 150.226C81.4126 150.226 79.0432 150.226 76.4369 150.226C74.3045 150.226 72.8828 149.041 72.8828 147.146C72.8828 145.25 74.3045 144.302 76.4369 144.065C81.4126 144.065 86.3884 144.065 91.3641 144.065C93.4966 144.065 94.9182 145.25 94.9182 146.909C94.9182 148.804 93.4966 149.989 91.3641 149.989C88.9947 150.226 86.3884 150.226 84.019 150.226Z" fill="#010101"/>
<path d="M36.631 93.8359C38.2896 93.8359 39.4743 95.2576 39.4743 96.6792C39.4743 98.3378 38.0526 99.7594 36.3941 99.7594C34.7355 99.7594 33.5508 98.3378 33.5508 96.6792C33.7877 95.2576 35.2094 93.8359 36.631 93.8359Z" fill="#040404"/>
<path d="M36.631 116.581C35.2094 116.581 33.5508 115.159 33.5508 113.737C33.5508 112.316 34.9724 110.657 36.3941 110.657C38.0526 110.657 39.4743 112.079 39.4743 113.737C39.7112 115.159 38.2896 116.581 36.631 116.581Z" fill="#040404"/>
<path d="M36.6309 127.243C38.2895 127.243 39.4742 128.665 39.7111 130.086C39.7111 131.745 38.2895 133.167 36.6309 133.167C34.9723 133.167 33.7876 131.745 33.7876 130.086C33.7876 128.665 35.2092 127.48 36.6309 127.243Z" fill="#040404"/>
<path d="M152.968 76.5398C152.731 76.7767 152.731 77.0137 152.494 77.2506C142.78 94.0733 133.065 110.896 123.351 127.719C122.877 128.667 122.403 128.667 121.692 128.193C118.612 126.297 115.532 124.639 112.452 122.98C111.504 122.506 111.267 122.032 111.978 121.084C121.692 104.262 131.407 87.439 141.121 70.8532C141.595 70.1424 141.832 69.9055 142.78 70.3794C145.86 72.2749 149.177 73.9335 152.258 75.829C152.494 76.0659 152.968 76.0659 152.968 76.5398Z" fill="#FBB953"/>
<path d="M152.495 56.1611C157.944 56.1611 161.024 60.663 159.603 64.9279C158.892 66.8234 157.47 68.7189 156.523 70.6145C156.286 71.0883 155.812 71.0883 155.338 70.8514C152.021 68.9559 148.704 67.0604 145.386 65.1648C144.912 64.9279 144.676 64.454 145.149 63.9801C146.097 62.3216 147.045 60.663 147.993 59.2414C149.177 57.1089 151.073 56.1611 152.495 56.1611Z" fill="#F16563"/>
<path d="M108.424 140.512C108.897 136.484 109.371 132.93 109.608 129.375C109.608 128.428 110.082 128.191 110.793 128.902C113.162 130.323 115.769 131.745 118.375 133.403C115.058 135.773 111.741 138.142 108.424 140.512Z" fill="#A6DAF6"/>
<path d="M75.963 34.8369C88.7577 34.8369 98.7092 45.9731 97.2876 58.7678C96.8137 62.085 95.8659 65.1652 93.9704 68.2454C93.4965 69.1932 93.0226 69.4301 92.3118 68.4824C90.4163 66.113 88.2838 63.9805 85.4406 62.7958C84.2559 62.3219 84.4928 61.848 84.9667 60.9003C87.573 56.8723 87.573 48.1055 81.4126 44.3145C74.3044 40.0496 65.5376 44.7884 64.8268 53.0813C64.5899 55.9246 64.8268 58.7678 66.7223 61.3742C66.9593 61.848 66.9593 62.085 66.4854 62.3219C63.4052 63.7436 60.7988 65.876 58.9033 68.7193C58.1925 69.6671 57.9556 68.9562 57.7186 68.4824C49.6627 56.6354 55.8231 40.0496 69.3287 36.0216C71.6981 35.3108 73.8305 34.8369 75.963 34.8369Z" fill="#F16563"/>
<path d="M75.015 78.1953C71.4609 78.1953 67.4329 76.7737 63.6419 74.4043C62.9311 73.9304 62.9311 73.6935 63.405 73.2196C68.6176 64.2159 83.3079 64.2159 88.5206 73.2196C88.7575 73.9304 88.7575 74.1673 88.2836 74.4043C84.7295 76.5367 80.2277 78.1953 75.015 78.1953Z" fill="#A6DAF6"/>
<path d="M80.7017 54.5035C81.1756 58.7684 77.1476 60.9008 74.3044 59.9531C71.698 59.0053 70.5133 56.399 71.2242 52.8449C71.4611 50.4755 73.3566 48.8169 75.726 48.8169C78.8062 48.343 80.7017 50.7124 80.7017 54.5035Z" fill="#FBB953"/>
</svg>
