<svg width="178" height="178" viewBox="0 0 178 178" fill="none" xmlns="http://www.w3.org/2000/svg">
<rect x="178" y="-0.000976562" width="178" height="178" rx="20" transform="rotate(90 178 -0.000976562)" fill="white" fill-opacity="0.75"/>
<g opacity="0.5">
<path d="M102.625 126.537C101.867 126.158 101.488 125.4 101.677 124.453C101.867 122.558 101.488 120.473 101.867 118.578C102.435 115.546 104.141 113.461 107.173 112.514C110.963 111.187 114.564 110.05 118.354 108.723C120.249 108.155 121.007 107.018 121.007 105.123C121.007 104.933 121.007 104.744 121.007 104.554C121.007 103.228 121.197 101.712 121.007 100.385C120.818 99.0585 119.302 98.3005 118.543 97.353C117.027 95.2684 115.89 92.9943 115.322 90.3411C115.132 89.7726 114.943 89.3936 114.374 89.2041C112.669 88.4461 111.532 86.93 111.532 85.0349C111.532 83.1398 112.29 81.6237 113.995 80.6762C114.564 80.2972 114.753 80.1077 114.753 79.5391C114.753 76.6965 114.753 73.6644 114.753 70.8217C114.753 67.4106 116.459 65.1365 119.681 64.1889C120.06 63.9994 120.249 63.8099 120.439 63.6204C121.955 60.7778 124.608 59.2617 127.829 59.2617C132.946 59.2617 138.063 59.2617 143.18 59.2617C147.159 59.2617 150.002 61.9148 150.002 66.084C150.002 70.6322 150.002 75.1804 150.002 79.7287C150.002 80.2972 150.191 80.4867 150.57 80.8657C152.276 81.8132 153.224 83.3293 153.224 85.2244C153.224 87.1195 152.276 88.6356 150.381 89.5831C150.002 89.7726 149.812 89.9621 149.623 90.5306C148.865 94.3208 146.97 97.353 144.127 100.006C143.748 100.385 143.559 100.764 143.559 101.333C143.559 102.849 143.559 104.175 143.559 105.691C143.559 107.586 144.317 108.534 146.022 109.102C149.812 110.429 153.413 111.566 157.203 112.893C160.614 114.03 162.699 116.872 162.699 120.473C162.699 121.989 162.699 123.316 162.699 124.832C162.699 125.779 152.655 146.057 126.124 141.887C125.745 141.887 126.313 139.045 125.934 139.045C125.555 138.666 159.667 125.969 159.667 125.4C159.667 123.695 159.667 122.179 159.667 120.473C159.667 118.009 158.34 116.304 156.066 115.546C155.308 115.356 154.55 114.977 153.792 114.788C153.224 114.598 153.034 114.598 152.655 115.167C151.328 116.872 149.812 118.388 148.107 119.715C147.349 120.283 146.401 120.283 145.833 119.715C145.264 119.146 145.454 118.199 146.212 117.441C146.97 116.683 147.917 115.925 148.675 115.167C150.191 113.651 150.191 113.651 148.296 112.893C147.159 112.514 146.401 112.514 145.454 113.461C138.631 120.283 126.882 120.473 119.87 114.03C118.354 112.703 117.217 112.514 115.701 113.272C114.943 113.651 114.943 113.84 115.322 114.409C119.681 119.336 125.176 121.989 131.62 122.179C134.841 122.368 138.063 121.61 140.905 120.473C141.853 120.094 142.801 120.473 143.18 121.421C143.559 122.179 142.99 122.937 142.043 123.316C139.389 124.453 136.547 125.021 133.704 125.211C129.156 125.4 124.608 124.642 120.628 122.368C117.785 120.852 115.132 118.957 113.048 116.493C111.532 114.598 111.532 114.598 109.258 115.356C108.879 115.546 108.5 115.546 108.12 115.735C106.415 116.304 105.278 117.63 104.899 119.336C104.52 121.421 104.899 123.316 104.709 125.4C104.709 125.969 104.141 126.348 103.951 126.727C103.383 126.537 103.004 126.537 102.625 126.537ZM121.197 68.7372C120.439 68.7372 119.87 68.7372 119.491 67.9791C119.302 67.6001 119.112 67.6001 118.733 67.7896C117.975 68.3581 117.406 69.3057 117.406 70.4427C117.406 73.0958 117.406 75.749 117.406 78.2126C117.217 79.1601 117.406 80.1077 117.406 81.0552C117.406 82.5713 117.217 82.9503 115.701 83.1398C114.753 83.3293 114.185 84.0874 114.185 84.8454C114.185 85.7929 114.753 86.3615 115.701 86.551C117.406 86.93 117.406 86.93 117.785 88.6356C118.922 95.8369 125.745 101.901 133.704 100.954C139.958 100.196 145.643 94.8893 146.401 88.6356C146.591 86.93 146.591 86.7405 148.296 86.551C149.244 86.3615 149.623 85.7929 149.623 84.8454C149.623 83.8978 149.054 83.3293 148.107 83.1398C146.591 82.7608 146.401 82.5713 146.401 81.0552C146.401 78.7811 146.401 76.507 146.401 74.2329C146.401 73.6644 146.212 73.4749 145.643 73.4749C145.075 73.4749 144.506 73.4749 144.127 73.4749C138.063 73.4749 131.999 73.4749 125.934 73.4749C124.608 73.4749 124.039 73.8539 123.85 74.9909C123.471 76.886 122.334 77.265 120.818 75.9385C120.439 74.2329 121.197 72.9063 122.144 71.5798C123.281 70.6322 124.797 70.4427 126.313 70.4427C132.757 70.4427 139.01 70.4427 145.454 70.4427C146.212 70.4427 146.401 70.2532 146.401 69.4952C146.401 68.3581 146.401 67.2211 146.401 66.084C146.401 63.4309 145.075 62.1043 142.611 62.1043C137.684 62.1043 132.757 62.1043 127.64 62.1043C124.418 62.1043 122.713 63.6204 122.144 66.8421C122.144 67.9791 121.955 68.5476 121.197 68.7372ZM123.85 102.091C123.66 103.796 124.039 105.502 123.66 107.018C123.281 108.723 122.144 110.05 120.818 110.998C127.64 117.63 137.873 116.493 143.18 110.998C139.768 108.913 140.147 105.502 140.147 102.28C134.652 104.744 129.345 104.744 123.85 102.091Z" fill="#120F0E"/>
<path d="M121.007 76.1277C122.523 77.4542 123.471 77.0752 124.039 75.1801C124.229 74.0431 124.797 73.6641 126.124 73.6641C132.188 73.6641 138.253 73.6641 144.317 73.6641C144.885 73.6641 145.454 73.6641 145.833 73.6641C146.401 73.6641 146.591 73.8536 146.591 74.4221C146.591 76.6962 146.591 78.9703 146.591 81.2444C146.591 82.7605 146.78 82.95 148.297 83.329C149.244 83.5185 149.813 84.087 149.813 85.0346C149.813 85.9821 149.434 86.5507 148.486 86.7402C146.78 87.1192 146.78 87.1192 146.591 88.8248C145.833 95.0785 140.148 100.385 133.894 101.143C125.745 102.09 119.112 96.0261 117.975 88.8248C117.786 87.1192 117.596 87.1192 115.891 86.7402C114.943 86.5507 114.564 85.9821 114.375 85.0346C114.375 84.2765 114.943 83.5185 115.891 83.329C117.407 82.95 117.596 82.7605 117.596 81.2444C117.596 80.2969 117.407 79.3493 117.596 78.4018C118.923 77.8333 120.06 77.2647 121.007 76.1277ZM132.757 89.7723C132.188 89.7723 131.051 89.9618 129.914 90.1513C128.967 90.3408 128.398 90.9093 128.588 91.8569C128.777 92.8044 129.535 93.373 130.483 93.1834C131.43 92.9939 132.378 92.9939 133.325 92.8044C134.652 92.6149 135.41 92.0464 135.22 91.0989C135.22 90.1513 134.462 89.5828 132.757 89.7723ZM125.556 82.571C125.556 82.3815 125.556 82.192 125.556 82.0024C125.556 80.8654 124.987 80.2969 124.039 80.2969C123.092 80.2969 122.523 80.8654 122.523 82.0024C122.523 82.192 122.523 82.3815 122.523 82.571C122.523 84.087 123.092 84.8451 124.039 84.8451C124.987 84.8451 125.556 84.087 125.556 82.571ZM138.442 82.571C138.442 82.7605 138.442 83.1395 138.442 83.329C138.442 84.2765 139.2 84.8451 139.958 84.8451C140.906 84.8451 141.285 84.2765 141.474 83.329C141.474 82.7605 141.664 82.0024 141.474 81.4339C141.285 80.6759 140.716 80.2969 139.958 80.2969C139.2 80.2969 138.821 80.8654 138.632 81.6234C138.442 81.8129 138.442 82.192 138.442 82.571Z" fill="#FBCCBF"/>
<path d="M159.287 125.209C158.908 125.209 150.948 139.612 134.272 139.612C116.837 139.612 116.647 133.737 105.656 125.209C105.277 125.209 104.898 125.209 104.519 125.209C104.519 123.125 104.329 121.23 104.708 119.145C105.087 117.25 106.224 116.113 107.93 115.544C108.309 115.355 108.688 115.355 109.067 115.165C111.341 114.407 111.341 114.407 112.857 116.302C114.942 118.955 117.595 120.661 120.438 122.177C124.607 124.262 128.965 125.209 133.514 125.02C136.356 124.83 139.199 124.262 141.852 123.125C142.8 122.746 143.179 121.988 142.989 121.23C142.61 120.282 141.852 119.903 140.715 120.282C137.683 121.609 134.651 122.177 131.429 121.988C124.986 121.609 119.49 119.145 115.131 114.218C114.563 113.649 114.563 113.46 115.51 113.081C117.216 112.323 118.353 112.512 119.679 113.839C126.881 120.471 138.441 120.092 145.263 113.27C146.211 112.323 146.969 112.323 148.106 112.702C150.001 113.46 150.001 113.46 148.485 114.976C147.727 115.734 146.779 116.492 146.021 117.25C145.263 118.008 145.074 118.955 145.642 119.524C146.211 120.092 147.158 120.092 147.916 119.524C149.622 118.197 151.138 116.681 152.464 114.976C152.844 114.407 153.033 114.407 153.602 114.597C154.36 114.976 155.118 115.165 155.876 115.355C158.15 116.113 159.476 117.818 159.476 120.282C159.476 121.798 159.287 123.504 159.287 125.209Z" fill="#986D5E"/>
<path d="M123.85 102.09C129.156 104.743 134.462 104.743 139.958 102.09C139.958 105.501 139.579 108.912 142.99 110.807C137.873 116.303 127.64 117.44 120.628 110.807C121.954 109.86 123.092 108.533 123.471 106.828C124.039 105.501 123.85 103.795 123.85 102.09Z" fill="#FBCCBF"/>
<path d="M121.196 68.7363C121.954 68.5468 122.333 67.7887 122.333 67.0307C122.712 63.809 124.607 62.293 127.829 62.293C132.756 62.293 137.683 62.293 142.8 62.293C145.453 62.293 146.59 63.6195 146.59 66.2727C146.59 67.4097 146.59 68.5468 146.59 69.6838C146.59 70.4418 146.401 70.6313 145.643 70.6313C139.199 70.6313 132.945 70.6313 126.502 70.6313C124.986 70.6313 123.66 70.8209 122.333 71.7684C121.954 71.3894 121.575 71.1999 121.385 70.8209C121.006 70.2523 120.438 69.4943 121.196 68.7363Z" fill="#856441"/>
<path d="M121.197 68.7376C120.439 69.4957 121.197 70.0642 121.387 70.6327C121.576 71.0117 121.955 71.2012 122.334 71.5803C121.197 72.9068 120.439 74.2334 121.008 75.939C120.06 77.076 118.923 77.6445 117.596 78.2131C117.596 75.56 117.596 72.9068 117.596 70.4432C117.596 69.4957 117.975 68.5481 118.923 67.7901C119.113 67.6006 119.302 67.4111 119.681 67.9796C119.871 68.7376 120.439 68.9271 121.197 68.7376Z" fill="#614934"/>
<path d="M132.757 89.7707C134.463 89.5812 135.221 90.1497 135.41 91.0972C135.41 92.0448 134.652 92.6133 133.515 92.8028C132.568 92.8028 131.62 92.9923 130.673 93.1818C129.725 93.3713 128.967 92.8028 128.778 91.8553C128.588 91.0972 129.157 90.3392 130.104 90.1497C131.052 89.9602 132.189 89.7707 132.757 89.7707Z" fill="#120F0E"/>
<path d="M125.555 82.571C125.555 84.087 124.987 84.8451 124.039 84.8451C123.091 84.8451 122.523 84.087 122.523 82.571C122.523 82.3815 122.523 82.192 122.523 82.0025C122.523 80.8654 123.091 80.2969 124.039 80.2969C124.987 80.2969 125.366 80.8654 125.555 82.0025C125.555 82.192 125.555 82.3815 125.555 82.571Z" fill="#120F0E"/>
<path d="M138.441 82.571C138.441 82.192 138.441 81.8129 138.441 81.6234C138.631 80.8654 139.01 80.4864 139.768 80.2969C140.526 80.2969 141.094 80.6759 141.284 81.4339C141.473 82.0024 141.473 82.7605 141.284 83.329C141.284 84.2766 140.715 84.6556 139.768 84.8451C139.01 84.8451 138.252 84.2766 138.252 83.329C138.441 82.95 138.441 82.7605 138.441 82.571Z" fill="#120F0E"/>
</g>
<g opacity="0.5">
<path d="M32.5078 140.182C31.3707 140.182 22.0848 134.686 22.0848 132.98C22.0848 128.432 22.0848 122.178 22.0848 117.63C21.8953 112.324 26.0645 107.018 32.5078 107.018C34.0239 107.018 34.0239 107.018 34.2134 108.344C35.3504 114.977 40.8462 120.283 47.479 121.42C56.1964 122.747 64.1557 116.872 65.4823 107.965C65.4823 107.586 65.6718 107.207 65.6718 106.828C66.0508 107.018 66.0508 107.397 66.0508 107.776C66.4298 109.86 67.1879 111.566 68.3249 113.271C68.5144 113.65 68.7039 114.029 68.7039 114.408C68.7039 118.578 68.7039 122.747 68.7039 126.916C68.7039 128.243 69.083 129.19 70.22 129.948C71.3571 130.517 72.4941 130.327 73.4417 129.569C74.7682 128.622 76.0948 127.864 77.4213 126.916C77.4213 128.811 77.4213 130.517 77.4213 132.222C77.6108 140.561 45.9629 147.951 32.5078 140.182Z" fill="#EF74A5"/>
<path d="M72.1149 96.4061C71.7359 95.269 71.9254 94.89 72.8729 94.3215C80.4532 90.1523 90.3077 94.89 91.8238 103.418C92.3923 107.208 91.6343 110.43 89.5497 113.462C89.3602 113.841 89.1706 114.22 89.1706 114.599C89.1706 118.768 89.1706 122.937 89.1706 127.106C89.1706 128.433 88.7916 129.381 87.6546 129.949C86.5175 130.518 85.3805 130.328 84.4329 129.57C83.1064 128.623 81.7798 127.865 80.4532 126.917C80.4532 128.623 80.4532 130.139 80.4532 131.655C80.4532 133.55 79.8847 134.687 78.5582 135.634C63.0185 146.626 44.4466 146.057 33.0761 141.699C32.6971 141.32 32.6971 140.751 32.8866 140.183C33.2656 139.046 34.5922 139.425 34.9712 139.804C55.2486 147.005 73.2519 136.582 75.147 135.445C76.8526 134.118 77.9896 133.36 77.9896 132.602C77.9896 130.897 77.9896 129.191 77.9896 127.296C76.6631 128.244 75.3365 129.002 74.01 129.949C73.0624 130.707 71.9254 130.897 70.7883 130.328C69.6513 129.76 69.2722 128.623 69.2722 127.296C69.2722 123.127 69.2722 118.958 69.2722 114.788C69.2722 114.409 69.0827 114.03 68.8932 113.651C67.7562 111.946 66.8086 110.24 66.6191 108.156C66.6191 107.966 66.6191 107.587 66.2401 107.208C66.2401 107.587 66.0506 107.966 66.0506 108.345C64.724 117.063 56.7647 122.937 48.0473 121.8C41.225 120.853 35.9187 115.546 34.7817 108.724C34.5922 107.208 34.5922 107.398 33.0761 107.398C26.6328 107.398 22.4636 112.704 22.6531 118.01C22.8426 122.558 22.6531 127.296 22.6531 131.844C22.6531 133.36 22.8426 133.55 24.1692 134.687C24.9272 135.255 27.0118 136.203 27.7699 136.771C28.7174 137.34 28.3384 137.908 28.1489 138.477C27.9594 139.046 27.5803 139.046 27.2013 139.235C25.3062 138.287 22.2741 136.392 21.8951 136.013C21.3266 135.634 20.758 135.066 20.379 134.308C20.1895 133.739 20 133.171 20 132.602C20 127.485 20 122.179 20 117.063C20.1895 111.377 24.5482 106.45 30.044 105.313C31.56 104.934 33.0761 104.934 34.5922 104.934C35.3502 104.934 35.9187 104.744 36.4872 104.555C37.6243 103.986 38.5718 103.418 39.7089 103.039C40.0879 102.849 40.4669 102.66 40.2774 102.091C40.2774 101.144 40.4669 100.007 40.0879 99.2487C39.7089 98.4907 38.3823 98.6802 37.6243 98.4907C32.3181 96.7851 28.9069 92.2369 28.5279 86.7411C28.5279 85.6041 29.0964 85.0356 29.6649 84.467C30.044 84.088 30.2335 83.8985 29.6649 83.33C28.7174 82.572 28.5279 81.4349 28.3384 80.2979C28.3384 78.4028 28.3384 76.5077 28.3384 74.6126C28.3384 72.907 29.0964 71.5805 30.802 70.8224C31.181 70.6329 31.3705 70.4434 31.3705 69.8749C31.3705 67.7903 31.181 65.7057 31.56 63.6211C32.5076 58.6939 35.3502 55.2827 40.0879 53.5771C40.4669 53.3876 40.8459 53.1981 41.0355 52.6296C42.9305 49.0289 45.9627 46.9443 49.9424 46.9443C54.1116 46.9443 57.1437 48.8394 59.0388 52.6296C59.2283 53.1981 59.6073 53.3876 60.1758 53.5771C65.2926 55.2827 68.8932 60.2099 68.8932 65.7057C68.8932 67.2218 68.8932 68.5483 68.8932 70.0644C68.8932 70.4434 68.8932 70.6329 69.2722 70.8224C70.7883 71.5805 71.7359 72.907 71.7359 74.6126C71.7359 76.5077 71.7359 78.4028 71.7359 80.2979C71.7359 81.8139 71.1673 82.951 70.0303 83.8985C70.0303 83.8985 70.0303 84.088 70.2198 84.088C72.1149 85.4146 71.9254 87.1202 71.5463 89.0153C70.4093 94.132 66.0506 98.3012 60.7444 99.0592C60.1758 99.0592 60.1758 99.2487 60.1758 99.6277C60.1758 100.575 60.1758 101.333 60.1758 102.281C60.1758 102.66 60.3653 102.849 60.7444 103.039C62.0709 103.607 63.3975 104.365 64.5345 104.934C64.9135 105.123 65.2926 105.123 65.8611 105.123C66.2401 105.123 66.4296 104.934 66.4296 104.555C66.6191 103.039 67.1876 101.712 67.7562 100.386C68.3247 99.4382 68.7037 99.2487 69.8408 99.4382C70.5988 100.007 70.5988 100.765 70.2198 101.523C66.8086 108.345 71.1673 115.925 78.7477 116.684C85.0015 117.252 90.6867 111.188 89.7392 104.934C88.6021 97.7327 81.2113 93.9425 74.768 97.1641C73.4414 96.9746 72.6834 96.9746 72.1149 96.4061ZM77.4211 123.885C78.3687 123.506 79.5057 123.506 80.4532 123.885C80.4532 122.369 80.4532 120.853 80.4532 119.337C80.4532 118.768 80.2637 118.768 79.6952 118.768C78.9372 118.958 78.1791 118.958 77.2316 118.768C77.2316 120.474 77.2316 122.179 77.4211 123.885ZM55.2486 68.3588C52.785 71.391 49.3738 72.149 45.5837 72.149C42.741 71.9595 40.0879 72.149 37.2453 72.149C36.6768 72.149 36.4872 72.3385 36.4872 72.907C36.4872 74.9916 36.4872 76.8867 36.4872 78.9713C36.4872 80.6769 36.2977 82.572 36.6768 84.2775C37.6243 91.8579 45.0151 96.9746 52.406 95.4585C58.4702 94.132 62.8289 88.8257 63.0185 82.572C63.0185 79.3503 63.0185 76.1287 63.0185 72.907C63.0185 72.3385 62.8289 72.149 62.2604 72.149C59.2283 72.3385 56.7647 71.2014 55.2486 68.3588ZM41.225 69.4959C43.4991 69.4959 45.7732 69.4959 47.8578 69.4959C51.0794 69.3064 53.7325 67.0322 54.4906 63.8106C54.6801 63.2421 54.4906 62.6736 54.6801 62.105C54.8696 61.347 55.2486 60.968 56.0066 60.968C56.7647 60.968 57.1437 61.5365 57.1437 62.2945C57.1437 63.0526 57.1437 63.8106 56.9542 64.3791C56.3857 67.0323 58.0912 69.3064 60.7444 69.4959C62.2604 69.6854 63.587 69.4959 65.1031 69.4959C65.6716 69.4959 65.6716 69.1168 65.6716 68.7378C65.6716 67.4113 65.6716 66.0847 65.6716 64.7581C65.4821 59.0729 61.1234 54.7142 55.4381 54.5247C51.4584 54.5247 47.4788 54.5247 43.3096 54.5247C38.5718 54.5247 34.5922 57.7463 33.4551 62.2945C32.8866 64.3791 33.2656 66.4637 33.0761 68.5483C33.0761 69.1168 33.2656 69.3064 33.8341 69.3064C36.6768 69.4959 38.9509 69.4959 41.225 69.4959ZM39.8984 104.934C38.9509 105.313 38.1928 105.882 37.2453 106.261C36.4873 106.45 36.4872 107.019 36.4872 107.587C36.4872 107.777 36.4872 107.966 36.6768 108.156C37.8138 114.788 43.6886 119.337 50.7004 118.958C56.7647 118.579 62.0709 113.841 63.0185 107.208C63.0185 106.829 63.0185 106.64 62.6394 106.45C61.8814 106.071 61.1234 105.692 60.3653 105.313C59.7968 104.934 59.6073 105.123 59.4178 105.692C57.3332 112.704 48.8053 115.357 43.1201 110.619C41.4145 108.914 40.4669 107.019 39.8984 104.934ZM57.1437 96.5956C54.6801 97.9222 52.2165 98.4907 49.7529 98.4907C47.0997 98.4907 44.8256 97.9222 42.362 96.5956C42.362 98.8697 42.362 101.144 42.362 103.228C42.362 106.829 45.3942 109.861 48.8053 110.24C52.785 110.619 56.3857 108.156 56.9542 104.365C57.5227 101.712 57.1437 99.2487 57.1437 96.5956ZM68.8932 86.3621C68.8932 86.1726 68.8932 85.7936 68.5142 85.6041C68.1352 85.2251 67.5667 84.8461 67.1876 84.2775C66.8086 83.8985 66.4296 83.8985 65.8611 83.8985C65.2926 83.8985 65.4821 84.467 65.4821 84.8461C64.9135 88.6362 63.208 91.8579 60.3653 94.511C60.1758 94.7005 59.7968 94.89 59.7968 95.4585C59.7968 95.8376 59.7968 95.8376 60.1758 95.8376C65.1031 94.7005 68.3247 90.9103 68.8932 86.3621ZM33.2656 83.8985C32.8866 83.709 32.6971 83.8985 32.3181 84.2775C31.939 84.6566 31.56 85.0356 31.181 85.4146C30.802 85.7936 30.6125 86.1726 30.6125 86.7411C30.9915 90.9103 34.9712 95.0795 39.1404 95.6481C39.5194 95.6481 39.7089 95.4585 39.7089 95.269C39.7089 94.89 39.5194 94.7005 39.3299 94.511C36.2977 91.8579 34.5922 88.4467 34.0236 84.467C34.0236 83.8985 33.8341 83.709 33.2656 83.8985ZM71.5463 116.494C71.5463 118.579 71.5463 120.663 71.5463 122.558C71.5463 124.074 71.5463 125.59 71.5463 127.106C71.5463 127.296 71.5463 127.865 71.9254 127.675C72.8729 127.106 73.8204 126.538 74.768 125.78C74.9575 125.78 74.768 125.401 74.768 125.211C74.768 122.937 74.768 120.663 74.768 118.579C74.768 118.389 74.768 118.01 74.389 118.01C73.4414 117.631 72.4939 117.063 71.5463 116.494ZM86.328 116.494C85.3805 116.873 84.6224 117.442 83.6749 117.821C83.2959 118.01 83.1064 118.2 83.1064 118.579C83.1064 120.095 83.1064 121.421 83.1064 122.937C83.1064 125.78 83.1064 125.78 85.57 127.296C86.1385 127.675 86.328 127.485 86.328 126.917C86.328 123.885 86.328 120.853 86.328 117.631C86.328 117.442 86.328 117.063 86.328 116.494ZM33.8341 76.6972C33.8341 75.3706 33.8341 74.0441 33.8341 72.907C33.8341 72.7175 34.0236 72.528 33.6446 72.3385C32.5076 71.77 30.802 72.528 30.6125 73.8546C30.6125 75.7496 30.6125 77.8342 30.6125 79.7293C30.6125 80.6769 31.181 81.2454 32.1286 81.2454C32.5076 81.2454 32.6971 81.2454 33.0761 81.2454C33.6446 81.2454 33.6446 81.0559 33.6446 80.6769C33.8341 79.1608 33.8341 78.0237 33.8341 76.6972ZM65.6716 76.5077C65.6716 77.6447 65.6716 78.9713 65.6716 80.1083C65.6716 80.8664 65.8611 81.0559 66.6191 80.8664C66.8086 80.8664 66.9981 80.8664 67.1876 80.8664C68.3247 80.8664 68.8932 80.2979 68.8932 79.1608C68.8932 77.2657 68.8932 75.3706 68.8932 73.4755C68.8932 72.528 68.3247 71.9595 67.3772 71.9595C66.9981 71.9595 66.6191 71.9595 66.2401 71.9595C65.8611 71.9595 65.6716 72.149 65.6716 72.528C65.6716 74.0441 65.6716 75.3706 65.6716 76.5077ZM43.8781 51.8716C47.8578 51.8716 51.8374 51.8716 55.8171 51.8716C53.3535 48.0814 46.9102 47.3234 43.8781 51.8716Z" fill="#100D0C"/>
<path d="M72.1151 96.4042C72.6836 97.1623 73.4417 97.1623 74.1997 96.5938C80.643 93.3721 88.0338 97.1623 89.1709 104.364C90.1184 110.617 84.6227 116.492 78.1794 116.113C70.599 115.545 66.2403 107.775 69.6515 100.952C70.0305 100.194 70.0305 99.4364 69.2725 98.8679C70.22 97.9203 71.1676 96.9728 72.1151 96.4042ZM86.1387 105.69C86.1387 101.71 82.9171 98.4888 78.9374 98.4888C74.9577 98.4888 71.7361 101.71 71.7361 105.69C71.7361 109.67 74.9577 112.892 78.9374 112.892C82.9171 112.892 86.1387 109.67 86.1387 105.69Z" fill="#F9DC31"/>
<path d="M55.2484 68.3604C56.9539 71.0135 59.4175 72.1505 62.4497 72.1505C63.0182 72.1505 63.2077 72.34 63.2077 72.9086C63.2077 76.1302 63.2077 79.3519 63.2077 82.5735C63.2077 88.8273 58.6595 94.1335 52.5952 95.4601C45.0149 96.9762 37.8136 91.8594 36.866 84.2791C36.6765 82.5735 36.6765 80.6784 36.6765 78.9728C36.6765 76.8882 36.6765 74.9932 36.6765 72.9086C36.6765 72.34 36.866 72.1505 37.4345 72.1505C40.2772 72.1505 42.9303 72.1505 45.7729 72.1505C49.3736 72.34 52.5952 71.3925 55.2484 68.3604ZM49.7526 86.7427C51.2687 86.7427 52.5952 86.1742 53.3533 84.8476C53.7323 84.0896 53.7323 83.3315 53.1638 82.9525C52.5952 82.5735 51.8372 82.5735 51.2687 83.3315C50.1316 84.4686 49.3736 84.4686 48.426 83.3315C47.8575 82.763 47.289 82.5735 46.7205 82.9525C46.1519 83.3315 45.9624 84.0896 46.3415 84.8476C46.91 85.9847 48.2365 86.5532 49.7526 86.7427ZM54.3008 77.2673C54.3008 77.6463 54.3008 78.0253 54.4903 78.4043C54.6798 78.9728 55.0588 79.3518 55.8169 79.3518C56.7644 79.3518 57.1434 78.7833 57.1434 77.4568C57.1434 75.9407 56.7644 75.3722 55.8169 75.3722C54.6798 75.1827 54.3008 75.9407 54.3008 77.2673ZM45.2044 77.2673C45.2044 77.0777 45.2044 76.8882 45.2044 76.6987C45.2044 75.7512 44.6359 75.1827 43.8778 75.1827C43.1198 75.1827 42.5513 75.7512 42.5513 76.5092C42.5513 76.8882 42.5513 77.4568 42.5513 77.8358C42.5513 78.5938 43.1198 79.1623 43.8778 79.1623C44.6359 79.1623 45.0149 78.5938 45.2044 77.6463C45.2044 77.8358 45.2044 77.6463 45.2044 77.2673Z" fill="#FBCCBF"/>
<path d="M41.2256 69.4955C38.9515 69.4955 36.6774 69.4955 34.4033 69.4955C33.8348 69.4955 33.6453 69.306 33.6453 68.7375C33.8348 66.6529 33.4558 64.5683 34.0243 62.4837C35.1613 57.9355 39.141 54.7139 43.8787 54.7139C47.8584 54.7139 51.8381 54.7139 56.0073 54.7139C61.503 54.7139 66.0512 59.2621 66.2407 64.9473C66.2407 66.2739 66.2407 67.6005 66.2407 68.927C66.2407 69.306 66.2407 69.685 65.6722 69.685C64.1562 69.685 62.8296 69.685 61.3135 69.685C58.6604 69.4955 56.9548 67.2214 57.5233 64.5683C57.7129 63.8103 57.7129 63.0522 57.7129 62.4837C57.7129 61.7257 57.1443 61.1572 56.5758 61.1572C55.8178 61.1572 55.2492 61.5362 55.2492 62.2942C55.0597 62.8627 55.2492 63.4313 55.0597 63.9998C54.3017 67.2214 51.6486 69.685 48.4269 69.685C45.7738 69.4955 43.4997 69.306 41.2256 69.4955Z" fill="#F9DC31"/>
<path d="M39.8982 104.933C40.4667 107.208 41.4142 109.103 43.3093 110.429C48.9946 115.167 57.5225 112.703 59.607 105.502C59.7966 104.933 59.9861 104.744 60.5546 105.123C61.3126 105.502 62.0707 105.881 62.8287 106.26C63.2077 106.45 63.3972 106.639 63.2077 107.018C62.4497 113.84 57.1434 118.578 50.8897 118.768C43.8778 119.147 38.1926 114.598 36.866 107.966C36.866 107.776 36.866 107.587 36.6765 107.397C36.487 106.829 36.6765 106.26 37.4345 106.071C38.1926 105.881 38.9506 105.312 39.8982 104.933Z" fill="white"/>
<path d="M57.1435 96.5938C56.954 99.2469 57.333 101.9 56.954 104.364C56.3855 108.154 52.7848 110.617 48.8051 110.238C45.394 110.049 42.3618 106.827 42.3618 103.227C42.3618 100.952 42.3618 98.8679 42.3618 96.5938C44.8254 97.7308 47.289 98.4888 49.7527 98.4888C52.4058 98.2993 54.8694 97.7308 57.1435 96.5938Z" fill="#FBCCBF"/>
<path d="M68.8927 86.3631C68.5137 90.9113 65.1026 94.7015 60.3649 95.649C59.9858 95.649 59.9858 95.649 59.9858 95.27C59.9858 94.891 60.1753 94.7015 60.5544 94.3224C63.397 91.6693 65.1026 88.6372 65.6711 84.6575C65.6711 84.2785 65.4816 83.8995 66.0501 83.71C66.4291 83.71 66.9977 83.71 67.3767 84.089C67.7557 84.6575 68.1347 85.0365 68.7032 85.4155C68.7032 85.7946 68.8927 85.9841 68.8927 86.3631Z" fill="#F9DC31"/>
<path d="M33.2652 83.8986C33.8337 83.7091 33.8337 84.0881 34.0232 84.4671C34.5917 88.4468 36.2973 91.8579 39.3295 94.511C39.519 94.7006 39.7085 94.8901 39.7085 95.2691C39.7085 95.6481 39.7085 95.8376 39.1399 95.6481C34.9708 95.0796 30.9911 90.9104 30.6121 86.7412C30.6121 86.1727 30.6121 85.7936 31.1806 85.4146C31.5596 85.0356 31.9386 84.6566 32.3176 84.2776C32.6967 83.8986 33.0757 83.7091 33.2652 83.8986Z" fill="#F9DC31"/>
<path d="M71.5469 116.492C72.4944 117.061 73.442 117.629 74.3895 118.008C74.7685 118.198 74.7685 118.387 74.7685 118.577C74.7685 120.851 74.7685 123.125 74.7685 125.21C74.7685 125.399 74.7685 125.589 74.7685 125.778C73.821 126.347 72.8734 127.105 71.9259 127.673C71.5469 127.863 71.5469 127.294 71.5469 127.105C71.5469 125.589 71.5469 124.073 71.5469 122.556C71.5469 120.661 71.5469 118.577 71.5469 116.492Z" fill="#D2302E"/>
<path d="M86.3278 116.492C86.3278 117.061 86.3278 117.44 86.3278 117.629C86.3278 120.661 86.3278 123.694 86.3278 126.915C86.3278 127.484 86.1383 127.673 85.5698 127.294C83.1062 125.778 83.1062 125.778 83.1062 122.935C83.1062 121.419 83.1062 120.093 83.1062 118.577C83.1062 118.198 83.2957 117.819 83.6747 117.819C84.6223 117.44 85.3803 117.061 86.3278 116.492Z" fill="#D2302E"/>
<path d="M33.8346 76.6972C33.8346 78.0238 33.8346 79.3503 33.8346 80.4874C33.8346 80.8664 33.6451 81.0559 33.2661 81.0559C32.8871 81.0559 32.6976 81.0559 32.3186 81.0559C31.371 81.0559 30.8025 80.4874 30.8025 79.5398C30.8025 77.6447 30.8025 75.5601 30.8025 73.6651C30.8025 72.3385 32.6976 71.5805 33.8346 72.149C34.0241 72.3385 34.0241 72.528 34.0241 72.7175C33.8346 74.0441 33.8346 75.3706 33.8346 76.6972Z" fill="#FBCCBF"/>
<path d="M65.6711 76.5091C65.6711 75.1825 65.6711 73.856 65.6711 72.7189C65.6711 72.3399 65.6711 72.1504 66.2397 72.1504C66.6187 72.1504 66.9977 72.1504 67.3767 72.1504C68.3243 72.1504 68.8928 72.7189 68.8928 73.6665C68.8928 75.5615 68.8928 77.4566 68.8928 79.3517C68.8928 80.4888 68.3243 81.0573 67.1872 81.0573C66.9977 81.0573 66.8082 81.0573 66.6187 81.0573C65.8607 81.2468 65.6711 80.8678 65.6711 80.2993C65.6711 78.9727 65.6711 77.8356 65.6711 76.5091Z" fill="#FBCCBF"/>
<path d="M43.8774 51.8726C47.0991 47.3244 53.5424 48.0824 55.8165 51.8726C51.8368 51.8726 47.8571 51.8726 43.8774 51.8726Z" fill="#F9DC31"/>
<path d="M77.4209 118.769C78.1789 118.958 78.937 118.769 79.8845 118.769C80.453 118.769 80.6425 118.769 80.6425 119.337C80.6425 120.853 80.6425 122.369 80.6425 123.885C79.5055 123.317 78.558 123.317 77.6104 123.885C77.4209 122.18 77.4209 120.474 77.4209 118.769Z" fill="white"/>
<path d="M77.4205 118.769C77.4205 120.474 77.4205 122.18 77.4205 123.885C77.2309 122.18 77.2309 120.474 77.4205 118.769Z" fill="#FBCCBF"/>
<path d="M86.1383 105.691C86.1383 109.67 82.9166 112.892 78.9369 112.892C74.9572 112.892 71.7356 109.67 71.7356 105.691C71.7356 101.711 74.9572 98.4893 78.9369 98.4893C82.9166 98.4893 86.1383 101.711 86.1383 105.691ZM78.9369 110.239C81.4005 110.239 83.4851 108.344 83.4851 105.691C83.4851 103.227 81.4005 101.142 78.9369 101.142C76.4733 101.142 74.5782 103.227 74.5782 105.691C74.3887 108.344 76.4733 110.239 78.9369 110.239Z" fill="#100D0C"/>
<path d="M49.7537 86.7433C48.2376 86.7433 47.1005 85.9853 46.153 84.6587C45.774 83.9007 45.9635 83.1426 46.532 82.7636C47.1005 82.3846 47.8586 82.3846 48.2376 83.1426C49.3746 84.4692 50.1327 84.4692 51.0802 83.1426C51.6487 82.5741 52.4068 82.3846 52.9753 82.7636C53.5438 83.1426 53.7333 83.9007 53.1648 84.6587C52.4068 85.9853 51.2697 86.7433 49.7537 86.7433Z" fill="#100D0C"/>
<path d="M54.3005 77.2662C54.3005 75.7502 54.8691 75.1816 55.8166 75.1816C56.7641 75.1816 57.1432 75.7502 57.1432 77.2662C57.1432 78.5928 56.7641 79.1613 55.8166 79.1613C55.2481 79.1613 54.6796 78.7823 54.49 78.2138C54.3005 78.0243 54.3005 77.6453 54.3005 77.2662Z" fill="#100D0C"/>
<path d="M45.2056 77.2662C45.2056 77.4557 45.2056 77.6452 45.2056 77.8347C45.2056 78.5927 44.6371 79.1613 43.8791 79.3508C43.121 79.3508 42.5525 78.7822 42.5525 78.0242C42.5525 77.6452 42.5525 77.0767 42.5525 76.6976C42.5525 75.7501 43.121 75.3711 43.8791 75.3711C44.6371 75.3711 45.2056 75.9396 45.2056 76.8872C45.2056 76.8872 45.2056 77.0767 45.2056 77.2662Z" fill="#100D0C"/>
<path d="M78.9379 110.24C76.4742 110.24 74.5792 108.345 74.3896 105.692C74.3896 103.228 76.4742 101.144 78.7483 101.144C81.212 101.144 83.2966 103.228 83.2966 105.692C83.4861 108.345 81.4015 110.24 78.9379 110.24Z" fill="white"/>
</g>
<path d="M113.806 78.2126C111.721 78.7811 111.153 79.5391 111.153 81.6237C111.153 85.0349 111.153 88.6356 111.153 92.0467C111.153 94.3208 110.016 95.8369 107.742 96.9739C108.879 90.3411 108.31 83.8978 108.5 77.4545C108.5 74.6119 107.363 73.2854 104.331 73.4749C100.92 73.4749 97.6979 72.9063 95.2342 70.2532C94.0972 69.1162 92.3916 69.1162 91.0651 70.0637C85.5693 74.2329 79.3155 74.4224 73.0617 73.6644C70.0296 73.2854 68.324 74.6119 68.324 77.6441C68.324 82.1923 68.324 86.7405 68.324 91.4782C68.324 93.3733 68.8925 95.0788 69.0821 96.9739C67.187 96.4054 65.6709 94.6998 65.6709 92.4257C65.6709 83.3293 65.6709 74.0434 65.6709 64.947C65.6709 61.9148 68.703 59.2617 71.9247 59.2617C77.6099 59.2617 83.4847 59.2617 89.17 59.2617C90.1175 59.2617 90.8755 59.6407 91.4441 60.5883C91.6336 60.9673 91.8231 61.1568 92.0126 61.5358C94.6657 65.5155 98.6454 65.705 101.678 61.9148C103.762 59.2617 104.331 58.8827 106.605 59.6407C109.447 60.5883 111.342 62.6729 111.532 65.1365C111.532 67.0316 111.532 68.9267 111.532 70.8217C111.532 72.7168 112.29 73.6644 114.375 73.8539C113.806 75.1804 113.806 76.6965 113.806 78.2126Z" fill="#5F6C76"/>
<path d="M55.249 132.415C57.1441 133.363 57.9022 133.363 59.4182 131.847C62.4504 128.814 66.43 127.488 70.0307 125.593C70.5992 125.214 70.9782 125.782 71.3573 126.161C73.4419 127.867 75.716 129.572 77.8006 131.278C78.5586 131.847 79.5061 132.605 80.6432 132.605C82.3488 132.794 82.7278 133.363 82.3488 135.258C81.2117 140.185 80.2642 151.934 79.1271 156.862C78.7481 158.567 78.1796 160.273 77.9901 161.978C77.8006 163.115 77.232 163.305 76.2845 163.305C73.2524 163.305 73.2524 163.305 73.2524 160.273C73.2524 157.051 73.2524 153.64 73.2524 150.418C73.2524 148.523 72.4943 147.576 70.7887 147.386C69.0832 147.386 68.1356 148.334 68.1356 150.418C68.1356 154.209 68.1356 158.188 68.1356 161.978C68.1356 162.926 67.9461 163.305 66.8091 163.305C63.3979 163.305 55.628 158.757 55.628 157.809C55.628 152.882 55.628 145.302 55.628 140.185C55.628 138.479 55.0595 137.532 53.5435 136.963C53.9225 135.258 55.0595 134.121 55.249 132.415Z" fill="#C0D7ED"/>
<path d="M103.194 86.1733C103.194 88.8265 103.383 91.6691 102.815 94.7012C100.919 102.282 94.0972 107.019 86.5168 106.261C79.126 105.503 73.4407 99.0599 73.2512 91.2901C73.2512 87.6894 73.2512 84.2782 73.2512 80.6776C73.2512 79.1615 73.8197 78.972 74.9568 79.1615C79.3155 79.73 83.6742 79.1615 87.8434 77.835C89.3595 77.2664 90.686 76.6979 91.8231 75.9399C92.3916 75.5609 92.9601 75.3713 93.5286 75.9399C95.9923 77.835 99.0244 78.7825 102.057 78.7825C103.004 78.7825 103.194 79.1615 103.194 80.1091C103.194 81.8146 103.194 83.8992 103.194 86.1733Z" fill="#FADBCD"/>
<path d="M120.819 147.573C120.819 150.037 120.819 152.69 120.819 155.154C120.819 155.912 120.819 157.428 120.819 158.186C117.408 160.081 112.86 162.923 109.449 162.923C108.501 162.923 108.312 162.544 108.312 161.786C108.312 157.807 108.312 154.017 108.312 150.037C108.312 148.142 107.175 147.005 105.469 147.194C103.953 147.384 103.195 148.331 103.195 149.847C103.195 153.638 103.195 157.617 103.195 161.407C103.195 162.544 103.006 163.113 101.679 162.923C98.8364 162.923 98.8364 162.923 98.0784 160.081C96.7518 154.017 95.4253 141.13 94.0987 135.255C93.7197 133.171 93.9092 132.602 95.9938 132.413C96.9413 132.223 97.8889 131.655 98.6469 131.086C100.732 129.38 103.006 127.675 105.09 125.969C105.659 125.401 106.038 125.401 106.796 125.78C108.88 126.917 111.154 127.864 113.239 129.191C117.977 131.844 120.44 136.013 120.44 141.509C120.819 143.404 120.819 145.489 120.819 147.573Z" fill="#C0D7ED"/>
<path d="M88.0343 165.008C86.7077 165.008 85.1916 165.008 83.8651 165.008C83.107 165.008 82.5385 165.008 82.9175 164.061C84.2441 158.186 85.5706 150.416 86.8972 144.541C87.0867 143.594 87.6552 136.771 88.4133 136.771C89.1713 136.771 89.5503 143.594 89.7398 144.541C90.8769 150.416 92.2034 158.186 93.53 163.871C93.7195 165.008 93.3405 165.008 92.3929 165.008C90.8769 165.008 89.5503 165.008 88.0343 165.008Z" fill="#5F6C76"/>
<path d="M82.9166 110.811C86.1382 111.569 89.3599 111.569 92.5815 111C93.3395 110.811 93.529 111.19 93.529 111.758C93.529 113.085 93.529 114.411 93.529 115.548C93.529 116.306 93.3395 116.685 92.771 117.064C91.4445 118.201 90.1179 119.338 88.7913 120.665C88.2228 121.234 87.8438 121.234 87.2753 120.665C86.8962 120.286 86.5172 119.717 85.9487 119.338C82.7271 117.443 82.1585 114.411 82.9166 110.811Z" fill="#FADBCD"/>
<path d="M100.921 122.748C99.2153 124.075 97.6993 125.212 96.1832 126.538C95.4252 127.296 94.8566 127.296 94.0986 126.538C92.014 124.643 92.014 124.643 94.0986 122.748C96.5622 120.474 96.5622 120.474 99.5944 121.99C100.163 122.369 100.542 122.559 100.921 122.748Z" fill="white"/>
<path d="M75.3369 122.748C79.5061 120.474 79.5061 120.474 82.7277 123.316C84.2438 124.643 84.2438 124.643 82.7277 125.97C81.4012 127.296 80.6432 127.296 79.3166 125.97C78.1795 124.832 76.853 123.885 75.3369 122.748Z" fill="white"/>
<path d="M88.0329 131.656C86.5169 131.846 86.5168 130.709 86.5168 129.761C86.5168 128.814 87.4644 128.056 88.0329 128.056C88.791 128.056 89.7385 128.814 89.7385 129.761C89.7385 130.898 89.549 132.035 88.0329 131.656Z" fill="#5F6C76"/>
<path d="M113.807 78.2155C115.702 78.5945 116.46 79.7315 116.46 81.6266C116.27 85.6063 116.839 89.586 116.27 93.5657C115.512 98.8719 111.153 102.662 106.037 102.852C105.089 102.852 104.521 103.231 104.142 103.799C103.194 105.126 102.057 106.263 100.73 107.21C99.4039 107.968 99.0248 109.105 99.2143 110.621C99.4039 112.517 98.6458 114.601 99.5934 115.928C100.541 117.254 102.626 117.633 104.142 118.391C107.742 120.286 111.532 121.992 115.133 123.887C122.334 127.677 126.125 133.362 126.314 141.511C126.314 147.007 126.314 152.503 126.314 157.999C126.314 159.325 125.746 160.273 124.798 161.22C118.734 164.821 111.532 167.095 106.795 168.043C99.5934 169.369 91.8235 170.127 87.4648 170.127C85.7592 170.127 81.0215 170.127 70.7881 168.043C66.0503 167.095 59.228 165.01 52.4057 161.22C51.2687 160.273 50.8896 159.136 50.8896 157.62C50.8896 151.745 50.8896 145.87 51.0792 139.995C51.0792 137.721 51.8372 137.153 54.1113 136.774C55.6274 137.342 56.1959 138.29 56.1959 139.995C56.1959 144.922 56.1959 152.503 56.1959 157.62C56.1959 158.567 64.1553 161.789 67.3769 161.789C68.514 161.789 68.7035 161.41 68.7035 160.462C68.7035 156.672 68.7035 153.829 68.7035 150.039C68.7035 148.144 69.651 147.007 71.3566 147.007C72.8727 147.007 73.8202 147.955 73.8202 150.039C73.8202 153.261 73.8202 156.672 73.8202 159.894C73.8202 162.926 73.8202 162.736 76.8523 162.926C77.9894 162.926 78.3684 162.736 78.5579 161.599C78.7474 159.894 79.3159 158.188 79.695 156.483C80.832 151.555 81.7796 139.806 82.9166 134.879C83.2956 132.983 82.9166 132.415 81.211 132.225C80.074 132.036 79.3159 131.467 78.3684 130.899C76.2838 129.193 74.0097 127.488 71.9251 125.782C71.5461 125.593 71.3566 125.024 70.5985 125.214C66.9979 127.298 63.0182 128.435 59.9861 131.467C58.47 132.983 57.712 133.173 55.8169 132.036C54.6798 130.52 54.8693 129.383 56.1959 128.056C57.9015 126.161 59.9861 124.835 62.2602 123.698C67.1874 121.234 71.9251 118.77 76.8523 116.307C77.7999 115.928 77.9894 115.359 78.1789 114.222C78.5579 110.432 78.1789 107.21 74.3887 104.747C72.8727 103.799 71.7356 102.473 69.651 102.094C64.1553 101.146 60.5546 96.7873 60.5546 91.2916C60.5546 82.5742 60.3651 74.0463 60.5546 65.3289C60.5546 58.6961 65.6713 53.7689 72.3041 53.5793C77.9894 53.3898 83.6746 53.5793 89.1704 53.5793C92.392 53.5793 94.6661 55.0954 96.1822 57.7485C96.7507 58.6961 97.1298 58.8856 97.6983 57.938C99.9724 53.9584 103.384 52.8213 107.742 53.9584C112.48 55.0954 115.323 58.3171 116.46 63.0548C117.028 65.5184 116.649 67.982 116.649 70.6351C116.649 72.1512 115.702 73.0987 114.186 73.2882C112.29 72.9092 111.532 72.1512 111.343 70.2561C111.343 68.361 111.343 66.4659 111.343 64.5708C111.153 61.9177 109.258 59.8331 106.416 59.0751C104.142 58.3171 103.573 58.6961 101.488 61.3492C98.6458 65.1394 94.4766 65.1394 91.8235 60.9702C91.634 60.5912 91.4445 60.4017 91.255 60.0226C90.6865 59.0751 90.1179 58.6961 88.9809 58.6961C83.2956 58.6961 77.4209 58.6961 71.7356 58.6961C68.514 58.6961 65.6713 61.3492 65.4818 64.3813C65.4818 73.4778 65.4818 82.7637 65.4818 91.8601C65.4818 93.9447 66.9979 95.6503 68.893 96.4083C68.7035 94.5132 68.1349 92.8076 68.1349 90.9125C68.1349 86.3643 68.1349 81.8161 68.1349 77.0784C68.1349 74.0463 69.8405 72.7197 72.8727 73.0987C79.3159 73.8568 85.5697 73.8568 90.876 69.4981C92.2025 68.5505 93.9081 68.5505 95.0452 69.6876C97.5088 72.3407 100.73 72.9092 104.142 72.9092C106.984 72.9092 108.311 74.0463 108.311 76.8889C108.121 83.3322 108.879 89.7755 107.553 96.4083C109.827 95.2712 110.964 93.7552 110.964 91.4811C110.964 88.0699 110.964 84.4692 110.964 81.0581C110.964 79.7315 111.722 78.784 113.807 78.2155ZM103.194 86.1748C103.194 83.9007 103.194 81.8161 103.194 79.921C103.194 78.9735 103.005 78.5945 102.057 78.5945C98.8353 78.405 95.9927 77.6469 93.5291 75.7518C92.7711 75.1833 92.392 75.3728 91.8235 75.7518C90.497 76.5099 89.1704 77.2679 87.8438 77.6469C83.6746 79.163 79.3159 79.542 74.9572 78.9735C73.8202 78.784 73.2517 78.9735 73.2517 80.4896C73.4412 84.0902 73.2517 87.5014 73.2517 91.1021C73.4412 99.0614 79.1264 105.315 86.5173 106.073C94.2871 106.831 100.92 102.094 102.815 94.5132C103.384 91.6706 103.194 88.6384 103.194 86.1748ZM120.818 147.576C120.818 145.491 120.818 143.406 120.818 141.322C120.818 135.826 118.165 131.657 113.617 129.004C111.532 127.867 109.258 126.73 107.174 125.593C106.416 125.214 106.037 125.403 105.468 125.782C103.384 127.488 101.109 129.193 99.0248 130.899C98.2668 131.467 97.5088 132.036 96.3717 132.225C94.2871 132.604 94.0976 132.983 94.4766 135.068C95.8032 141.132 97.1298 154.019 98.4563 159.894C99.0248 162.736 99.0248 162.736 102.057 162.736C103.384 162.736 103.573 162.357 103.573 161.22C103.573 157.43 103.573 153.45 103.573 149.66C103.573 148.144 104.331 147.197 105.847 147.007C107.553 146.818 108.69 147.955 108.69 149.85C108.69 153.829 108.69 156.483 108.69 160.462C108.69 161.22 108.879 161.599 109.827 161.599C113.238 161.599 121.197 158.188 121.197 157.43C120.818 155.345 120.818 150.039 120.818 147.576ZM88.0333 165.01C89.5494 165.01 90.876 165.01 92.392 165.01C93.3396 165.01 93.7186 164.821 93.5291 163.873C92.2025 157.999 90.876 150.418 89.7389 144.543C89.5494 143.596 88.9809 136.774 88.4124 136.774C87.6543 136.774 87.0858 143.596 86.8963 144.543C85.5697 150.418 84.4327 158.188 82.9166 164.063C82.7271 165.01 83.1061 165.2 83.8642 165.2C85.1907 165.01 86.7068 165.01 88.0333 165.01ZM82.9166 110.811C82.1586 114.412 82.5376 117.444 85.9487 119.339C86.5173 119.718 86.8963 120.097 87.2753 120.665C87.8438 121.234 88.2228 121.234 88.7914 120.665C90.1179 119.339 91.4445 118.202 92.7711 117.065C93.3396 116.686 93.5291 116.117 93.5291 115.549C93.5291 114.222 93.5291 112.896 93.5291 111.758C93.5291 111 93.5291 110.811 92.5815 111C89.5494 111.569 86.1383 111.379 82.9166 110.811ZM100.92 122.75C100.351 122.56 99.9724 122.181 99.5934 121.992C96.5612 120.476 96.5612 120.476 94.0976 122.75C92.013 124.645 92.013 124.645 94.0976 126.54C94.8556 127.298 95.4242 127.298 96.1822 126.54C97.6983 125.214 99.2144 124.077 100.92 122.75ZM75.3363 122.75C76.8523 123.887 78.1789 124.835 79.3159 125.972C80.6425 127.298 81.59 127.109 82.7271 125.972C84.0537 124.645 84.2432 124.645 82.7271 123.319C79.5054 120.476 79.5055 120.476 75.3363 122.75ZM88.0333 131.657C89.5494 132.036 89.7389 130.899 89.7389 129.951C89.7389 129.004 88.7914 128.246 88.0333 128.246C87.2753 128.246 86.3278 129.004 86.5173 129.951C86.7068 130.709 86.5173 132.036 88.0333 131.657Z" fill="#14130F"/>
<path d="M57.713 32.7322C55.6284 32.5426 55.0599 32.1636 54.6809 29.8895C53.9228 25.5308 53.1648 21.1721 52.4068 16.8134C52.2173 16.0554 52.2173 15.2974 52.4068 14.5393C52.9753 12.8338 54.8704 12.6442 56.3865 13.9708C62.0717 19.277 67.757 24.3938 73.4422 29.7C73.6317 29.8895 74.0108 30.2685 74.3898 30.4581C77.9904 25.3413 81.5911 20.4141 85.1918 15.4869C85.3813 15.2974 85.5708 14.9183 85.7603 14.7288C87.4659 12.4547 88.7924 12.4547 90.498 14.7288C93.5302 19.0875 96.7518 23.2567 99.7839 27.6154C100.352 28.563 101.11 29.5105 101.869 30.4581C106.606 26.0994 111.533 21.7407 116.271 17.1924C117.408 16.0554 118.735 15.1079 119.872 13.9708C120.819 13.0233 121.767 12.6442 122.904 13.4023C124.231 14.1603 124.231 15.2974 124.041 16.4344C123.283 20.6036 122.525 24.5833 121.956 28.7525C120.63 36.5223 119.114 44.4817 117.787 52.2515C118.356 52.6306 119.114 52.4411 119.682 52.4411C122.146 52.6306 123.852 54.3361 124.041 56.7998C124.041 58.6948 124.041 60.7794 124.041 62.6745C124.041 64.7591 122.714 66.2752 120.63 66.8437C120.061 67.0332 119.303 67.0332 118.545 67.0332C98.4574 67.0332 78.3695 67.0332 58.2815 67.0332C55.0599 67.0332 52.4068 65.5171 52.7858 61.5375C52.9753 60.2109 52.7858 58.6948 52.7858 57.3683C52.7858 54.3361 54.4914 52.6306 57.5235 52.6306C57.9025 52.6306 58.2815 52.6306 58.8501 52.6306C58.092 48.4614 57.5235 44.2922 56.7655 40.123C56.3865 38.6069 56.955 37.4699 58.4711 36.9013C60.5556 36.9013 61.1242 37.4699 61.5032 39.5545C62.0717 42.3971 62.4507 45.2397 63.0193 48.0824C63.2088 49.5984 63.2088 51.4935 63.9668 52.2515C64.9143 53.1991 66.8094 52.4411 68.3255 52.4411C82.7282 52.4411 97.1308 52.4411 111.723 52.4411C112.671 52.4411 113.239 52.2515 113.429 51.1145C114.566 44.2922 115.892 37.6594 117.029 30.8371C117.598 27.9944 117.977 24.9623 118.735 21.7407C113.808 26.2889 109.07 30.6476 104.332 35.0063C102.248 36.9013 101.11 36.7118 99.5944 34.4377C96.1833 29.7 92.7721 25.1518 89.5505 20.4141C88.7924 19.4666 88.6029 19.4666 87.8449 20.4141C84.4337 25.1518 81.0226 29.8895 77.6114 34.6272C76.2849 36.5223 74.9583 36.5223 73.2527 35.0063C71.7367 33.6797 70.4101 32.3531 68.894 31.0266C65.4829 27.9944 62.2612 24.9623 58.6606 21.5511C59.0396 24.0148 59.4186 26.2889 59.9871 28.3735C59.7976 31.0266 59.4186 31.5951 57.713 32.7322ZM88.4134 57.1788C79.317 57.1788 70.0311 57.1788 60.9347 57.1788C57.334 57.1788 57.334 57.1788 57.334 60.7794C57.334 61.9165 57.713 62.106 58.6606 62.106C77.6114 62.106 96.7518 62.106 115.703 62.106C119.114 62.106 119.114 62.106 119.114 58.6948C119.114 57.3683 118.735 57.1788 117.598 57.1788C107.743 57.1788 98.0784 57.1788 88.4134 57.1788Z" fill="#14130F"/>
<path d="M57.7129 32.7321C59.608 31.5951 59.7975 31.0266 59.4185 28.7525C59.0395 26.6679 58.6604 24.3938 58.0919 21.9301C61.6926 25.3413 65.1037 28.3734 68.3254 31.4056C69.8414 32.7321 71.168 34.0587 72.6841 35.3853C74.3896 36.9013 75.7162 36.9013 77.0428 35.0062C80.4539 30.2685 83.8651 25.5308 87.2762 20.7931C87.8448 19.8456 88.2238 19.656 88.9818 20.7931C92.393 25.5308 95.6146 30.079 99.0258 34.8167C100.542 37.0908 101.868 37.0908 103.763 35.3853C108.501 31.0266 113.239 26.6679 118.166 22.1197C117.598 25.3413 117.029 28.3734 116.461 31.2161C115.324 38.0384 113.997 44.6712 112.86 51.4935C112.67 52.6305 112.291 52.8201 111.154 52.8201C96.7517 52.8201 82.349 52.8201 67.7569 52.8201C66.2408 52.8201 64.3457 53.3886 63.3981 52.6305C62.4506 51.8725 62.6401 49.7879 62.4506 48.4614C61.8821 45.6187 61.5031 42.7761 60.9345 39.9335C60.5555 38.0384 59.987 37.4699 57.9024 37.2803C58.0919 35.5748 57.9024 34.0587 57.7129 32.7321ZM95.6146 40.3125C95.6146 39.744 95.4251 39.1754 95.2356 38.6069C93.909 36.7118 92.5825 34.6272 90.8769 32.7321C89.3608 31.0266 86.7077 31.2161 85.1916 33.1112C83.8651 34.8167 82.728 36.3328 81.591 38.0384C80.4539 39.5544 80.4539 41.0705 81.591 42.5866C82.728 44.2922 84.0546 45.9977 85.1916 47.5138C86.1392 48.8404 87.8448 49.2194 89.3608 48.8404C91.0664 48.4614 95.6146 42.2076 95.6146 40.3125Z" fill="#FBDE7D"/>
<path d="M88.4129 57.1777C98.0778 57.1777 107.932 57.1777 117.597 57.1777C118.734 57.1777 119.113 57.3672 119.113 58.6938C119.113 62.105 119.113 62.105 115.702 62.105C96.7513 62.105 77.6109 62.105 58.6601 62.105C57.523 62.105 57.3335 61.9155 57.3335 60.7784C57.3335 57.1777 57.3335 57.1777 60.9342 57.1777C70.0306 57.1777 79.127 57.1777 88.4129 57.1777Z" fill="#FBDE7D"/>
<path d="M95.6135 40.3139C95.6135 42.209 91.0653 48.4628 89.3597 49.0313C87.8436 49.4103 86.1381 49.0313 85.1905 47.7047C83.864 45.9991 82.7269 44.4831 81.5898 42.7775C80.4528 41.2614 80.4528 39.7454 81.5898 38.2293C82.7269 36.5237 84.0535 34.8181 85.1905 33.3021C86.7066 31.407 89.3597 31.2175 90.8758 32.9231C92.3918 34.8181 93.7184 36.7132 95.2345 38.7978C95.424 39.1768 95.6135 39.7454 95.6135 40.3139ZM90.6863 40.3139C90.6863 40.1244 90.4968 40.1244 90.4968 39.9349C88.7912 36.9027 88.0331 36.9027 86.1381 39.9349C85.9486 40.3139 85.759 40.6929 86.1381 41.0719C86.7066 41.83 87.2751 42.588 87.8436 43.346C88.0331 43.5355 88.0331 43.725 88.4122 43.725C88.6017 43.5355 90.6863 40.6929 90.6863 40.3139Z" fill="#14130F"/>
<path d="M90.686 40.3143C90.686 40.6933 88.6014 43.5359 88.4119 43.7254C88.0329 43.7254 88.0329 43.5359 87.8433 43.3464C87.2748 42.5884 86.7063 41.8303 86.1378 41.0723C85.7588 40.6933 85.9483 40.3143 86.1378 39.9352C88.0329 36.9031 88.6014 36.9031 90.4965 39.9352C90.4965 40.1247 90.4965 40.1247 90.686 40.3143Z" fill="#ED2224"/>
</svg>
