<svg width="35" height="12" viewBox="0 0 35 12" fill="none" xmlns="http://www.w3.org/2000/svg">
<path d="M3.57955 9.13636C2.98864 9.13636 2.47017 8.99574 2.02415 8.71449C1.58097 8.43324 1.23438 8.03977 0.984375 7.53409C0.737216 7.02841 0.613636 6.4375 0.613636 5.76136C0.613636 5.07955 0.737216 4.48437 0.984375 3.97585C1.23438 3.46733 1.58097 3.07244 2.02415 2.79119C2.47017 2.50994 2.98864 2.36932 3.57955 2.36932C4.17045 2.36932 4.6875 2.50994 5.13068 2.79119C5.5767 3.07244 5.9233 3.46733 6.17045 3.97585C6.42045 4.48437 6.54545 5.07955 6.54545 5.76136C6.54545 6.4375 6.42045 7.02841 6.17045 7.53409C5.9233 8.03977 5.5767 8.43324 5.13068 8.71449C4.6875 8.99574 4.17045 9.13636 3.57955 9.13636ZM3.57955 8.23295C4.02841 8.23295 4.39773 8.1179 4.6875 7.88778C4.97727 7.65767 5.19176 7.35511 5.33097 6.98011C5.47017 6.60511 5.53977 6.19886 5.53977 5.76136C5.53977 5.32386 5.47017 4.91619 5.33097 4.53835C5.19176 4.16051 4.97727 3.85511 4.6875 3.62216C4.39773 3.3892 4.02841 3.27273 3.57955 3.27273C3.13068 3.27273 2.76136 3.3892 2.47159 3.62216C2.18182 3.85511 1.96733 4.16051 1.82812 4.53835C1.68892 4.91619 1.61932 5.32386 1.61932 5.76136C1.61932 6.19886 1.68892 6.60511 1.82812 6.98011C1.96733 7.35511 2.18182 7.65767 2.47159 7.88778C2.76136 8.1179 3.13068 8.23295 3.57955 8.23295ZM8.08061 11.4545V2.45455H9.0522V3.49432H9.17152C9.24538 3.38068 9.34766 3.2358 9.47834 3.05966C9.61186 2.88068 9.8022 2.72159 10.0494 2.58239C10.2994 2.44034 10.6374 2.36932 11.0636 2.36932C11.6147 2.36932 12.1005 2.5071 12.521 2.78267C12.9414 3.05824 13.2695 3.44886 13.5053 3.95455C13.7411 4.46023 13.859 5.05682 13.859 5.74432C13.859 6.4375 13.7411 7.03835 13.5053 7.54688C13.2695 8.05256 12.9428 8.4446 12.5252 8.72301C12.1076 8.99858 11.6261 9.13636 11.0806 9.13636C10.6602 9.13636 10.3235 9.06676 10.0707 8.92756C9.81783 8.78551 9.62322 8.625 9.48686 8.44602C9.3505 8.2642 9.24538 8.11364 9.17152 7.99432H9.08629V11.4545H8.08061ZM9.06925 5.72727C9.06925 6.22159 9.14169 6.65767 9.28658 7.03551C9.43146 7.41051 9.64311 7.70455 9.92152 7.91761C10.1999 8.12784 10.5408 8.23295 10.9442 8.23295C11.3647 8.23295 11.7156 8.12216 11.9968 7.90057C12.2809 7.67614 12.494 7.375 12.636 6.99716C12.7809 6.61648 12.8533 6.19318 12.8533 5.72727C12.8533 5.26705 12.7823 4.85227 12.6403 4.48295C12.5011 4.1108 12.2894 3.81676 12.0053 3.60085C11.7241 3.3821 11.3704 3.27273 10.9442 3.27273C10.5352 3.27273 10.1914 3.37642 9.913 3.58381C9.63459 3.78835 9.42436 4.07528 9.28232 4.4446C9.14027 4.81108 9.06925 5.23864 9.06925 5.72727ZM18.2397 2.45455V3.30682H14.8477V2.45455H18.2397ZM15.8363 0.886364H16.842V7.125C16.842 7.40909 16.8832 7.62216 16.9656 7.7642C17.0508 7.90341 17.1587 7.99716 17.2894 8.04545C17.4229 8.09091 17.5636 8.11364 17.7113 8.11364C17.8221 8.11364 17.913 8.10795 17.984 8.09659C18.055 8.08239 18.1119 8.07102 18.1545 8.0625L18.359 8.96591C18.2908 8.99148 18.1957 9.01705 18.0735 9.04261C17.9513 9.07102 17.7965 9.08523 17.609 9.08523C17.3249 9.08523 17.0465 9.02415 16.7738 8.90199C16.5039 8.77983 16.2795 8.59375 16.1005 8.34375C15.9244 8.09375 15.8363 7.77841 15.8363 7.39773V0.886364ZM19.7525 9V2.45455H20.7582V9H19.7525ZM20.2638 1.36364C20.0678 1.36364 19.8988 1.29688 19.7567 1.16335C19.6175 1.02983 19.5479 0.869318 19.5479 0.681818C19.5479 0.494318 19.6175 0.333807 19.7567 0.200284C19.8988 0.0667613 20.0678 0 20.2638 0C20.4599 0 20.6275 0.0667613 20.7667 0.200284C20.9087 0.333807 20.9798 0.494318 20.9798 0.681818C20.9798 0.869318 20.9087 1.02983 20.7667 1.16335C20.6275 1.29688 20.4599 1.36364 20.2638 1.36364ZM25.2592 9.13636C24.6683 9.13636 24.1499 8.99574 23.7038 8.71449C23.2607 8.43324 22.9141 8.03977 22.6641 7.53409C22.4169 7.02841 22.2933 6.4375 22.2933 5.76136C22.2933 5.07955 22.4169 4.48437 22.6641 3.97585C22.9141 3.46733 23.2607 3.07244 23.7038 2.79119C24.1499 2.50994 24.6683 2.36932 25.2592 2.36932C25.8501 2.36932 26.3672 2.50994 26.8104 2.79119C27.2564 3.07244 27.603 3.46733 27.8501 3.97585C28.1001 4.48437 28.2251 5.07955 28.2251 5.76136C28.2251 6.4375 28.1001 7.02841 27.8501 7.53409C27.603 8.03977 27.2564 8.43324 26.8104 8.71449C26.3672 8.99574 25.8501 9.13636 25.2592 9.13636ZM25.2592 8.23295C25.7081 8.23295 26.0774 8.1179 26.3672 7.88778C26.657 7.65767 26.8714 7.35511 27.0107 6.98011C27.1499 6.60511 27.2195 6.19886 27.2195 5.76136C27.2195 5.32386 27.1499 4.91619 27.0107 4.53835C26.8714 4.16051 26.657 3.85511 26.3672 3.62216C26.0774 3.3892 25.7081 3.27273 25.2592 3.27273C24.8104 3.27273 24.4411 3.3892 24.1513 3.62216C23.8615 3.85511 23.647 4.16051 23.5078 4.53835C23.3686 4.91619 23.299 5.32386 23.299 5.76136C23.299 6.19886 23.3686 6.60511 23.5078 6.98011C23.647 7.35511 23.8615 7.65767 24.1513 7.88778C24.4411 8.1179 24.8104 8.23295 25.2592 8.23295ZM30.766 5.0625V9H29.7603V2.45455H30.7319V3.47727H30.8171C30.9705 3.14489 31.2035 2.87784 31.516 2.67614C31.8285 2.47159 32.2319 2.36932 32.7262 2.36932C33.1694 2.36932 33.5572 2.46023 33.8896 2.64205C34.2219 2.82102 34.4805 3.09375 34.6651 3.46023C34.8498 3.82386 34.9421 4.28409 34.9421 4.84091V9H33.9364V4.90909C33.9364 4.39489 33.8029 3.99432 33.5359 3.70739C33.2688 3.41761 32.9023 3.27273 32.4364 3.27273C32.1154 3.27273 31.8285 3.34233 31.5756 3.48153C31.3256 3.62074 31.1282 3.82386 30.9833 4.09091C30.8384 4.35795 30.766 4.68182 30.766 5.0625Z" fill="black"/>
</svg>
