<svg width="78" height="78" viewBox="0 0 78 78" fill="none" xmlns="http://www.w3.org/2000/svg">
<path d="M68.3085 66.9079C69.4757 66.9079 69.4757 66.9079 69.4757 68.1918C69.4757 69.4757 69.4757 70.8764 69.4757 72.1603C69.3589 74.8448 67.3747 76.8291 64.6901 77.0625C64.5734 77.0625 64.4567 77.0625 64.34 77.0625C44.9644 77.0625 25.7056 77.0625 6.33006 77.0625C6.09662 77.0625 5.9799 77.0625 5.74646 77.0625C5.3963 77.0625 5.04614 76.9458 4.69598 76.9458C2.71174 76.4789 1.66126 75.195 0.960938 73.3275C0.960938 71.3432 0.960938 69.4757 0.960938 67.4915C1.42782 67.0246 2.01142 66.9079 2.71174 66.9079C4.34582 66.9079 5.9799 66.9079 7.61399 66.9079C8.31431 66.9079 8.43103 66.7912 8.43103 66.0908C8.43103 58.3873 8.43103 50.5671 8.43103 42.8635C8.43103 41.4629 8.43103 41.4629 9.71495 41.4629C10.9989 41.5796 10.9989 41.5796 10.9989 42.8635C10.9989 50.2169 10.9989 57.5703 10.9989 64.9236C10.9989 65.3905 10.9989 65.9741 10.9989 66.441C10.9989 66.9079 11.1156 67.0246 11.5825 67.0246C12.2828 67.0246 13.0998 67.0246 13.8002 67.0246C29.2072 67.0246 44.6143 67.0246 60.0213 67.0246C61.422 67.0246 61.7721 67.3748 61.8889 68.8921C61.8889 69.9426 61.8889 70.9931 61.8889 72.0436C61.8889 73.5609 62.9393 74.6114 64.34 74.6114C65.8573 74.6114 66.9078 73.5609 66.9078 72.0436C66.9078 70.8764 66.9078 69.5924 66.9078 68.4252C66.9078 67.0246 66.9078 67.0246 68.3085 66.9079ZM60.0213 74.6114C59.4377 73.4442 59.321 72.277 59.321 71.2265C59.321 69.5924 59.321 69.5924 57.6869 69.5924C40.1789 69.5924 22.7876 69.5924 5.27958 69.5924C3.41206 69.5924 3.41206 69.5924 3.41206 71.46C3.29534 73.2108 4.2291 74.7281 6.5635 74.7281C24.0715 74.7281 41.5795 74.7281 59.0876 74.7281C59.321 74.6114 59.5544 74.6114 60.0213 74.6114Z" fill="#020203"/>
<path d="M9.71495 39.011C7.26383 39.011 4.92942 39.011 2.4783 39.011C1.8947 39.011 1.3111 38.8943 0.960938 38.4274C0.960938 32.9415 0.960938 27.4557 0.960938 21.8531C1.42782 21.3863 1.8947 21.2695 2.4783 21.2695C4.92942 21.2695 7.26383 21.2695 9.71495 21.2695C9.94839 21.2695 10.2985 21.2695 10.532 21.2695C16.0178 21.2695 21.6204 21.2695 27.1063 21.2695C28.2735 21.2695 28.7403 21.7364 28.7403 22.9036C28.7403 23.6039 28.7403 24.3043 28.7403 25.0046C28.7403 29.0898 28.7403 33.175 28.7403 37.3769C28.7403 38.6608 28.2735 39.011 26.9895 39.011C23.2545 39.011 19.5194 39.011 15.7844 39.011C13.8002 39.011 11.8159 39.011 9.71495 39.011ZM14.8506 23.7207C11.2323 23.7207 7.61399 23.7207 3.99566 23.7207C3.52878 23.7207 3.29534 23.8374 3.29534 24.421C3.29534 28.2727 3.29534 32.0078 3.29534 35.8595C3.29534 36.3264 3.41206 36.5599 3.87894 36.5599C11.1156 36.5599 18.3522 36.5599 25.5889 36.5599C26.0558 36.5599 26.1725 36.4431 26.1725 35.9763C26.1725 32.1245 26.1725 28.3895 26.1725 24.5377C26.1725 23.9541 25.9391 23.8374 25.4722 23.9541C22.0873 23.7207 18.469 23.7207 14.8506 23.7207Z" fill="#020100"/>
<path d="M5.75 77.0625C5.98344 77.0625 6.10016 77.0625 6.3336 77.0625C25.7091 77.0625 44.968 77.0625 64.3435 77.0625C64.4602 77.0625 64.577 77.0625 64.6937 77.0625V77.1792C45.0847 77.1792 25.359 77.1792 5.75 77.1792C5.75 77.1792 5.75 77.1792 5.75 77.0625Z" fill="#9F9F9F"/>
<path d="M28.8613 24.8881C28.8613 24.1878 28.8613 23.4875 28.8613 22.7872C28.8613 21.62 28.3944 21.1531 27.2272 21.1531C21.7414 21.1531 16.1388 21.1531 10.653 21.1531C10.4195 21.1531 10.0694 21.1531 9.83594 21.1531C9.83594 20.3361 9.83594 19.519 9.83594 18.702C11.1199 18.5853 11.1199 18.5853 11.1199 17.3013C11.1199 13.683 11.1199 9.94797 11.1199 6.32965C11.1199 5.5126 11.2366 4.69556 11.9369 3.99524C12.5205 3.41164 13.2208 3.29492 14.0379 3.29492C30.7288 3.29492 47.4198 3.29492 64.1108 3.29492C64.461 3.29492 64.8111 3.29492 65.0446 3.41164C65.8616 3.52836 66.6786 4.11196 66.7954 4.929C67.0288 5.86277 67.4957 5.97949 68.196 5.86277H68.3127C68.3127 6.67981 68.3127 7.49685 68.3127 8.31389C68.0793 8.31389 67.7291 8.31389 67.4957 8.31389C56.0571 8.31389 44.7353 8.31389 33.2967 8.31389C31.7793 8.31389 31.4292 8.66405 31.4292 10.2981C31.4292 16.4843 31.4292 22.5537 31.4292 28.7399C31.4292 30.7242 31.4292 32.7084 31.4292 34.6926C31.4292 35.9766 31.896 36.3267 33.18 36.3267C33.8803 36.3267 34.5806 36.3267 35.2809 36.3267C35.3976 36.7936 34.814 37.6106 35.9812 37.6106C46.7195 37.6106 57.4578 37.6106 68.3127 37.6106C68.3127 37.9608 68.3127 38.4277 68.3127 38.7779C68.0793 38.7779 67.9626 38.7779 67.7291 38.7779C67.1455 38.6611 66.9121 38.8946 67.0288 39.4782C67.0288 40.4119 67.0288 41.4624 67.0288 42.3962C67.0288 43.7968 67.0288 43.7968 68.3127 43.7968C68.3127 44.6139 68.3127 45.4309 68.3127 46.2479C65.6282 46.2479 62.8269 46.2479 60.1423 46.2479C57.4578 46.2479 54.7732 46.2479 52.0886 46.2479C50.9214 46.2479 50.4545 46.7148 50.4545 47.7653C50.4545 52.6675 50.4545 57.6865 50.4545 62.5888C50.4545 63.5225 50.9214 63.9894 51.9719 64.1061C52.789 64.1061 53.606 64.1061 54.3063 64.1061C54.3063 64.2228 54.3063 64.3396 54.3063 64.4563C54.3063 65.5068 54.3063 65.5068 55.2401 65.5068C59.5587 65.5068 63.8774 65.5068 68.196 65.5068C68.196 65.8569 68.196 66.3238 68.3127 66.674C67.0288 66.7907 67.0288 66.7907 67.0288 68.0746C67.0288 69.2418 67.0288 70.5257 67.0288 71.6929C67.0288 73.2103 65.9783 74.2608 64.461 74.2608C63.0603 74.2608 62.0098 73.2103 62.0098 71.6929C62.0098 70.6424 62.0098 69.592 62.0098 68.5415C62.0098 67.1408 61.6597 66.674 60.1423 66.674C44.7353 66.674 29.3282 66.674 13.9211 66.674C13.2208 66.674 12.4038 66.674 11.7035 66.674C11.2366 66.674 11.1199 66.5572 11.1199 66.0904C11.1199 65.6235 11.1199 65.1566 11.1199 64.573C11.1199 57.2196 11.1199 49.8663 11.1199 42.5129C11.1199 41.229 11.1199 41.229 9.83594 41.1123C9.83594 40.7621 9.83594 40.2952 9.83594 39.9451C16.2555 39.9451 22.6752 39.9451 29.2115 39.9451C30.262 39.9451 30.262 39.945 30.262 38.8946C30.262 34.5759 30.262 30.2573 30.262 25.9386C30.1452 24.8881 30.1452 24.8881 28.8613 24.8881ZM47.8867 45.3142C47.8867 44.7306 47.8867 44.0303 47.8867 43.4467C47.8867 41.8126 47.5365 41.4624 45.9025 41.4624C35.7478 41.4624 25.5932 41.4624 15.4385 41.4624C15.3218 41.4624 15.0883 41.4624 14.9716 41.4624C13.9211 41.4624 13.4543 41.9293 13.4543 42.9798C13.4543 47.882 13.4543 52.901 13.4543 57.8032C13.4543 58.8537 13.9211 59.2039 14.9716 59.3206C15.6719 59.3206 16.489 59.3206 17.1893 59.3206C17.1893 60.6045 16.9559 60.4878 18.3565 60.4878C28.2777 60.4878 38.1989 60.4878 48.0034 60.4878C48.9372 60.4878 48.9372 60.4878 48.9372 59.554C48.9372 55.2354 48.9372 50.9167 48.9372 46.5981C49.1706 45.3142 49.1706 45.3142 47.8867 45.3142ZM21.1578 10.9985C19.1735 10.9985 17.306 10.9985 15.3218 10.9985C13.4543 10.9985 13.4543 10.9985 13.4543 12.866C13.4543 13.4496 13.571 13.5663 14.1546 13.5663C18.3565 13.5663 22.5584 13.5663 26.7604 13.5663C27.344 13.5663 28.161 13.7997 28.5112 13.4496C28.8613 13.0994 28.5112 12.2824 28.6279 11.6988C28.7446 11.1152 28.3944 10.9985 27.9276 10.9985C25.8266 10.9985 23.4922 10.9985 21.1578 10.9985ZM14.7382 8.43061C16.1388 8.43061 16.1388 8.43061 16.1388 7.14669C16.1388 5.86277 16.1388 5.86277 14.8549 5.86277C13.571 5.86277 13.571 5.86277 13.571 7.14669C13.571 8.43061 13.571 8.43061 14.7382 8.43061ZM18.5899 7.26341C18.5899 8.54733 18.5899 8.54733 19.8739 8.54733C21.1578 8.54733 21.1578 8.54733 21.1578 7.26341C21.1578 5.97949 21.1578 5.97949 19.8739 5.97949C18.5899 5.86277 18.5899 5.86277 18.5899 7.26341ZM23.7256 7.14669C23.7256 8.54733 23.7256 8.54733 25.0096 8.54733C26.1768 8.54733 26.1768 8.54733 26.1768 7.38013C26.1768 5.97949 26.1768 5.97949 24.8928 5.97949C23.7256 5.86277 23.7256 5.86277 23.7256 7.14669Z" fill="#CDEBF5"/>
<path d="M35.1565 36.4445C34.4561 36.4445 33.7558 36.4445 33.0555 36.4445C31.7716 36.4445 31.3047 35.9776 31.3047 34.8104C31.3047 32.8262 31.3047 30.8419 31.3047 28.8577C31.3047 22.6715 31.3047 16.6021 31.3047 10.4159C31.3047 8.89852 31.6548 8.43164 33.1722 8.43164C44.6108 8.43164 55.9326 8.43164 67.3712 8.43164C67.6047 8.43164 67.9548 8.43164 68.1883 8.43164C70.5227 8.43164 72.8571 8.43164 75.1915 8.43164C76.7088 8.43164 77.059 8.7818 77.059 10.2992C77.059 18.3529 77.059 26.5233 77.059 34.577C77.059 36.0943 76.7088 36.4445 75.1915 36.4445C72.8571 36.4445 70.5227 36.4445 68.1883 36.4445C68.0715 36.4445 67.8381 36.4445 67.7214 36.4445C57.0998 36.4445 46.3616 36.4445 35.7401 36.4445C35.6233 36.4445 35.3899 36.4445 35.1565 36.4445ZM33.8725 27.6905C34.2227 27.6905 34.4561 27.457 34.6896 27.3403C37.841 25.4728 41.1092 23.4885 44.2606 21.621C45.0777 21.1541 45.778 21.1541 46.4783 21.621C49.8632 23.8387 53.2481 26.0564 56.633 28.2741C56.9831 28.5075 57.3333 28.6242 57.8002 28.3908C60.4847 26.9901 63.286 25.5895 66.0873 24.0721C66.7876 23.722 67.3712 23.722 67.9548 24.0721C69.9391 25.2393 71.8066 26.2898 73.7908 27.457C74.0243 27.5737 74.2577 27.8072 74.4911 27.8072C74.4911 27.6905 74.4911 27.5737 74.4911 27.5737C74.4911 22.3213 74.4911 16.9522 74.4911 11.6998C74.4911 11.1162 74.141 11.1162 73.7908 11.1162C60.7182 11.1162 47.6455 11.1162 34.5729 11.1162C33.9892 11.1162 33.8725 11.2329 33.8725 11.8165C33.8725 16.9522 33.8725 22.0879 33.8725 27.2236C33.8725 27.3403 33.8725 27.457 33.8725 27.6905ZM54.1818 33.8766C57.9169 33.8766 61.6519 33.8766 65.387 33.8766C68.1883 33.8766 70.9895 33.8766 73.7908 33.8766C74.4911 33.8766 74.6079 33.6432 74.6079 33.0596C74.6079 32.5927 74.6079 32.0091 74.6079 31.5422C74.6079 31.0754 74.4911 30.7252 74.0243 30.4917C71.9233 29.3245 69.8223 28.1573 67.7214 26.8734C67.1378 26.5233 66.7876 26.5233 66.204 26.8734C63.5194 28.2741 60.8349 29.6747 58.1503 31.0753C57.45 31.4255 56.8664 31.4255 56.2828 30.9586C53.0146 28.8577 49.6298 26.64 46.3616 24.539C45.6613 24.0721 45.1944 24.0721 44.4941 24.539C41.6928 26.2898 38.7748 28.1573 35.8568 29.6747C34.3394 30.4918 33.6391 31.4255 33.8725 33.1763C33.9893 33.7599 33.9893 33.9934 34.6896 33.9934C41.2259 33.8766 47.6455 33.8766 54.1818 33.8766Z" fill="#010203"/>
<path d="M54.2971 64.4558C53.48 64.4558 52.663 64.4558 51.9627 64.4558C51.0289 64.4558 50.4453 63.989 50.4453 62.9385C50.4453 58.0362 50.4453 53.0173 50.4453 48.115C50.4453 47.0645 50.9122 46.7144 52.0794 46.5977C54.764 46.5977 57.4485 46.5977 60.1331 46.5977C62.8176 46.5977 65.6189 46.5977 68.3035 46.5977C70.6379 46.5977 72.8556 46.5977 75.19 46.5977C76.8241 46.5977 77.1742 46.9478 77.1742 48.5819C77.1742 53.2507 77.1742 57.9195 77.1742 62.5883C77.1742 64.1057 76.8241 64.4558 75.3067 64.4558C72.9723 64.4558 70.6379 64.4558 68.3035 64.4558H68.1868C63.518 64.4558 58.8492 64.4558 54.2971 64.4558ZM63.7514 61.888C67.1363 61.888 70.5212 61.888 73.9061 61.888C74.3729 61.888 74.6064 61.7713 74.6064 61.1877C74.6064 57.3359 74.6064 53.6009 74.6064 49.7491C74.6064 49.1655 74.3729 49.0488 73.9061 49.0488C67.1363 49.0488 60.4832 49.0488 53.7135 49.0488C53.1299 49.0488 53.0132 49.1655 53.0132 49.7491C53.0132 53.4841 53.0132 57.2192 53.0132 60.9542C53.0132 61.6546 53.2466 61.7713 53.8302 61.6546C57.0984 61.888 60.3665 61.888 63.7514 61.888Z" fill="#030203"/>
<path d="M68.3076 5.9799H68.1909C67.4905 6.09662 67.0237 5.9799 66.7902 5.04614C66.5568 4.2291 65.8565 3.76222 65.0394 3.52878C64.6893 3.41206 64.4558 3.41206 64.1057 3.41206C47.4147 3.41206 30.7237 3.41206 14.0327 3.41206C13.2157 3.41206 12.5154 3.52878 11.9318 4.11238C11.2314 4.69598 11.1147 5.51302 11.1147 6.44678C11.1147 10.0651 11.1147 13.8002 11.1147 17.4185C11.1147 18.7024 11.1147 18.7024 9.8308 18.8191C8.54687 18.7024 8.54688 18.7024 8.54688 17.4185C8.54688 13.8002 8.54688 10.1818 8.54688 6.56351C8.54688 4.34582 9.48064 2.59502 11.4649 1.54454C11.815 1.07766 12.3986 0.960938 12.9822 0.960938C30.2568 0.960938 47.6481 0.960938 65.0394 0.960938C67.2571 0.960938 69.5915 3.29534 69.4748 5.51302C69.4748 5.86318 69.3581 5.86318 69.1246 5.86318C68.7745 5.86318 68.541 5.9799 68.3076 5.9799Z" fill="#010203"/>
<path d="M35.1567 36.4453C35.3901 36.4453 35.5068 36.4453 35.7403 36.4453C46.3618 36.4453 57.1001 36.4453 67.7216 36.4453C67.8383 36.4453 68.0718 36.4453 68.1885 36.4453C68.1885 36.9122 68.1885 37.2624 68.0718 37.7292C57.3335 37.7292 46.5952 37.7292 35.7403 37.7292C34.6898 37.7292 35.3901 36.9122 35.1567 36.4453Z" fill="#70BFCB"/>
<path d="M54.3047 64.457C58.9735 64.457 63.5256 64.457 68.1944 64.457L68.3111 64.5737C68.3111 64.9239 68.4278 65.3908 68.3111 65.741C63.9925 65.741 59.6738 65.741 55.3552 65.741C54.4214 65.741 54.4214 65.7409 54.4214 64.6905C54.3047 64.5737 54.3047 64.5738 54.3047 64.457Z" fill="#70BFCB"/>
<path d="M68.3074 44.0306C67.0234 43.9139 67.0234 43.9139 67.0234 42.6299C67.0234 41.6962 67.0234 40.6457 67.0234 39.7119C67.0234 39.1283 67.2569 38.8949 67.7238 39.0116C67.9572 39.0116 68.0739 39.0116 68.3074 39.0116C69.4746 39.1283 69.4746 39.1283 69.4746 40.4122C69.4746 41.346 69.4746 42.3965 69.4746 43.3302C69.4746 44.0306 69.2411 44.264 68.6575 44.1473C68.5408 44.0306 68.4241 44.0306 68.3074 44.0306Z" fill="#020203"/>
<path d="M68.1948 64.5737L68.0781 64.457H68.1948C68.3116 64.457 68.3116 64.457 68.1948 64.5737Z" fill="#84CAD7"/>
<path d="M60.0174 74.6122C59.6672 74.6122 59.3171 74.6122 59.0836 74.6122C41.5756 74.6122 24.0676 74.6122 6.55955 74.6122C4.22515 74.6122 3.29138 73.2116 3.4081 71.3441C3.52483 69.4766 3.40811 69.4766 5.27563 69.4766C22.7836 69.4766 40.1749 69.4766 57.683 69.4766C59.3171 69.4766 59.3171 69.4766 59.3171 71.1106C59.3171 72.2778 59.3171 73.445 60.0174 74.6122Z" fill="#00AEEF"/>
<path d="M28.8609 24.8887C30.1448 24.8887 30.1448 24.8887 30.1448 26.1726C30.1448 30.4912 30.1448 34.8099 30.1448 39.1285C30.1448 40.179 30.1448 40.179 29.0943 40.179C22.6747 40.179 16.2551 40.179 9.71875 40.179C9.71875 39.7121 9.71875 39.362 9.71875 38.8951C11.8197 38.8951 13.804 38.8951 15.9049 38.8951C19.64 38.8951 23.375 38.8951 27.1101 38.8951C28.394 38.8951 28.7441 38.4282 28.8609 37.261C28.8609 33.1758 28.8609 29.0906 28.8609 24.8887Z" fill="#70BFCB"/>
<path d="M14.8526 23.7217C18.471 23.7217 21.9726 23.7217 25.5909 23.7217C26.0578 23.7217 26.2912 23.8384 26.2912 24.3053C26.2912 28.1571 26.2912 31.8921 26.2912 35.7439C26.2912 36.2108 26.1745 36.3275 25.7076 36.3275C18.471 36.3275 11.2343 36.3275 3.99766 36.3275C3.41406 36.3275 3.41406 36.0941 3.41406 35.6272C3.41406 31.7754 3.41406 28.0404 3.41406 24.1886C3.41406 23.605 3.53078 23.4883 4.11438 23.4883C7.61599 23.7217 11.2343 23.7217 14.8526 23.7217ZM14.5025 34.2265C14.8526 34.2265 14.8526 33.8764 14.8526 33.7597C15.4362 32.0089 16.0198 30.2581 16.6034 28.5072C17.3038 26.523 17.3038 26.523 15.2028 26.0561C14.8526 25.9394 14.7359 26.0561 14.6192 26.4063C13.9189 28.624 13.1018 30.9584 12.4015 33.1761C12.4015 33.4095 12.1681 33.5262 12.5182 33.6429C13.2186 33.7597 13.9189 33.9931 14.5025 34.2265ZM5.98191 30.0246C5.98191 30.4915 6.21535 30.8417 6.56551 31.0751C7.26583 31.7754 7.84943 32.359 8.54975 33.0593C8.89991 33.5262 9.13335 33.4095 9.48351 33.0593C9.83367 32.5925 10.6507 32.2423 10.6507 31.6587C10.6507 31.3085 9.95039 30.8417 9.48351 30.3748C9.25007 30.1413 9.13335 30.0246 9.48351 29.6745C9.95039 29.2076 10.7674 28.8574 10.6507 28.3905C10.534 27.9236 9.83367 27.4568 9.36679 26.9899C9.13335 26.7564 9.01663 26.7564 8.66647 26.9899C7.96615 27.6902 7.26583 28.3905 6.56551 29.2076C6.09863 29.3243 5.98191 29.6744 5.98191 30.0246ZM20.6886 30.0246C20.2218 30.4915 19.7549 30.9584 19.288 31.3085C19.0546 31.542 18.9378 31.7754 19.288 32.0089C19.6382 32.359 20.105 32.7092 20.4552 33.1761C20.6886 33.4095 20.8054 33.5262 21.0388 33.1761C21.7391 32.359 22.5562 31.6587 23.2565 30.8417C23.8401 30.2581 23.7234 29.6745 23.2565 29.0908C22.9063 28.624 22.4394 28.2738 22.0893 27.9236C20.6886 26.4063 20.6886 26.523 19.288 28.0404C19.0546 28.3905 19.0546 28.5072 19.288 28.7407C19.7549 29.2076 20.2218 29.5577 20.6886 30.0246Z" fill="#FBA42E"/>
<path d="M17.3054 59.3211C16.605 59.3211 15.788 59.3211 15.0877 59.3211C14.0372 59.3211 13.5703 58.8542 13.5703 57.8037C13.5703 52.9015 13.5703 47.8825 13.5703 42.9803C13.5703 42.0465 14.0372 41.5796 15.0877 41.4629C15.2044 41.4629 15.4378 41.4629 15.5546 41.4629C25.7092 41.4629 35.8639 41.4629 46.0185 41.4629C47.6526 41.4629 48.0028 41.8131 48.0028 43.4471C48.0028 44.0307 48.0028 44.7311 48.0028 45.3147C48.0028 49.3999 48.0028 53.3683 48.0028 57.4536C48.0028 58.9709 47.6526 59.3211 46.1352 59.3211C36.9143 59.3211 27.6934 59.3211 18.3558 59.3211C17.889 59.3211 17.6555 59.3211 17.3054 59.3211ZM30.7282 56.7532C35.397 56.7532 39.9491 56.7532 44.6179 56.7532C45.2015 56.7532 45.3182 56.6365 45.3182 56.0529C45.3182 52.3179 45.3182 48.4661 45.3182 44.7311C45.3182 44.1475 45.0848 44.0307 44.6179 44.0307C35.397 44.0307 26.1761 44.0307 16.8385 44.0307C16.2549 44.0307 16.1382 44.1475 16.1382 44.7311C16.1382 48.4661 16.1382 52.2011 16.1382 55.9362C16.1382 56.6365 16.2549 56.8699 16.9552 56.7532C21.5073 56.7532 26.0594 56.7532 30.7282 56.7532Z" fill="#020203"/>
<path d="M17.3047 59.3209C17.6548 59.3209 17.8883 59.3209 18.2384 59.3209C27.4593 59.3209 36.6802 59.3209 46.0178 59.3209C47.5352 59.3209 47.8854 58.9707 47.8854 57.4533C47.8854 53.3681 47.8854 49.3997 47.8854 45.3145C49.1693 45.3145 49.1693 45.3145 49.1693 46.5984C49.1693 50.917 49.1693 55.2357 49.1693 59.5543C49.1693 60.4881 49.1693 60.4881 48.2355 60.4881C38.3143 60.4881 28.3931 60.4881 18.5886 60.4881C17.188 60.4881 17.4214 60.7215 17.3047 59.3209Z" fill="#70BFCB"/>
<path d="M21.1571 10.998C23.4915 10.998 25.8259 10.998 28.0436 10.998C28.5105 10.998 28.8607 11.1148 28.7439 11.6984C28.6272 12.282 28.9774 13.099 28.6272 13.4492C28.2771 13.7993 27.46 13.5659 26.8764 13.5659C22.6745 13.5659 18.4726 13.5659 14.2706 13.5659C13.687 13.5659 13.5703 13.4492 13.5703 12.8656C13.5703 10.998 13.5703 10.998 15.4378 10.998C17.3054 10.998 19.2896 10.998 21.1571 10.998Z" fill="#060A0B"/>
<path d="M14.7292 8.43112C13.4453 8.43112 13.4453 8.43112 13.4453 7.1472C13.4453 5.86328 13.4453 5.86328 14.7292 5.86328C16.0132 5.86328 16.0132 5.86328 16.0132 7.1472C16.1299 8.43112 16.1299 8.43112 14.7292 8.43112Z" fill="#060A0B"/>
<path d="M18.5859 7.26439C18.5859 5.98047 18.5859 5.98047 19.8699 5.98047C21.1538 5.98047 21.1538 5.98047 21.1538 7.26439C21.1538 8.54831 21.1538 8.54831 19.8699 8.54831C18.5859 8.43159 18.5859 8.43159 18.5859 7.26439Z" fill="#030203"/>
<path d="M23.7188 7.14767C23.7188 5.98047 23.7188 5.98047 24.886 5.98047C26.1699 5.98047 26.1699 5.98047 26.1699 7.38111C26.1699 8.54831 26.1699 8.54831 25.0027 8.54831C23.7188 8.43159 23.7188 8.43159 23.7188 7.14767Z" fill="#020203"/>
<path d="M54.1868 33.8756C47.6505 33.8756 41.2309 33.8756 34.6945 33.8756C33.9942 33.8756 33.9942 33.6421 33.8775 33.0585C33.644 31.3077 34.2276 30.3739 35.8617 29.5569C38.7797 28.0395 41.6977 26.172 44.499 24.4212C45.1993 23.9543 45.6662 24.0711 46.3665 24.4212C49.6347 26.6389 53.0196 28.7399 56.2878 30.8408C56.8714 31.3077 57.455 31.3077 58.1553 30.9575C60.8398 29.5569 63.5244 28.1563 66.209 26.7556C66.7926 26.5222 67.1427 26.4055 67.7263 26.7556C69.8273 28.0395 71.9282 29.2067 74.0292 30.3739C74.4961 30.6074 74.7295 30.9575 74.6128 31.4244C74.6128 31.8913 74.6128 32.4749 74.6128 32.9418C74.7295 33.5254 74.4961 33.7588 73.7958 33.7588C70.9945 33.7588 68.1932 33.7588 65.3919 33.7588C61.6569 33.8756 57.9218 33.8756 54.1868 33.8756Z" fill="#65DEF5"/>
<path d="M63.7534 61.889C60.3685 61.889 57.1004 61.889 53.7155 61.889C53.1319 61.889 52.8984 61.7723 52.8984 61.1887C52.8984 57.4536 52.8984 53.7186 52.8984 49.9835C52.8984 49.3999 53.0152 49.2832 53.5988 49.2832C60.3685 49.2832 67.0216 49.2832 73.7913 49.2832C74.3749 49.2832 74.4917 49.3999 74.4917 49.9835C74.4917 53.8353 74.4917 57.5703 74.4917 61.4221C74.4917 62.0057 74.3749 62.1224 73.7913 62.1224C70.5232 61.889 67.1383 61.889 63.7534 61.889ZM66.3213 59.3211C67.6052 59.3211 68.8891 59.3211 70.173 59.3211C72.0405 59.3211 71.9238 59.3211 72.0405 57.4536C72.0405 56.87 71.9238 56.7533 71.3402 56.7533C68.4222 56.7533 65.3875 56.7533 62.4695 56.7533C60.4852 56.7533 60.602 56.7533 60.602 58.7375C60.602 59.2044 60.8354 59.3211 61.3023 59.3211C62.9364 59.3211 64.5705 59.3211 66.3213 59.3211ZM66.3213 54.3022C67.6052 54.3022 68.8891 54.3022 70.173 54.3022C72.0405 54.3022 72.0405 54.3022 72.0405 52.4346C72.0405 51.851 71.9238 51.7343 71.3402 51.7343C68.4222 51.7343 65.3875 51.7343 62.4695 51.7343C60.602 51.7343 60.602 51.7343 60.602 53.6018C60.602 54.1854 60.8354 54.3022 61.3023 54.3022C62.9364 54.1854 64.5705 54.3022 66.3213 54.3022ZM56.6335 54.3022C58.0341 54.3022 58.0341 54.3022 58.0341 53.0182C58.0341 51.7343 58.0341 51.7343 56.7502 51.7343C55.4663 51.7343 55.4663 51.7343 55.4663 53.0182C55.4663 54.3022 55.4663 54.3022 56.6335 54.3022ZM58.0341 58.0372C58.0341 56.7533 58.0341 56.7533 56.7502 56.7533C55.4663 56.7533 55.4663 56.7533 55.4663 58.0372C55.4663 59.3211 55.4663 59.3211 56.7502 59.3211C58.0341 59.3211 58.0341 59.3211 58.0341 58.0372Z" fill="#DF4983"/>
<path d="M14.4973 34.2266C13.797 33.9931 13.2134 33.7597 12.5131 33.5263C12.2796 33.4095 12.3964 33.1761 12.3964 33.0594C13.0967 30.8417 13.9137 28.5073 14.6141 26.2896C14.7308 25.9395 14.8475 25.9395 15.1977 25.9395C17.2986 26.4063 17.2986 26.4063 16.5983 28.3906C16.0147 30.1414 15.4311 31.8922 14.8475 33.643C14.8475 33.8764 14.9642 34.2266 14.4973 34.2266Z" fill="#030203"/>
<path d="M5.98438 30.0251C5.98438 29.6749 6.10109 29.3248 6.45126 29.0913C7.15158 28.391 7.8519 27.6907 8.55222 26.8736C8.78566 26.6402 8.90238 26.6402 9.13582 26.9904C9.6027 27.4572 10.303 27.9241 10.4197 28.391C10.5365 28.8579 9.71942 29.3248 9.25254 29.6749C9.0191 29.9084 9.0191 30.1418 9.25254 30.3752C9.71942 30.7254 10.4197 31.309 10.4197 31.6592C10.4197 32.126 9.6027 32.5929 9.25254 33.0598C8.90238 33.41 8.66894 33.5267 8.31878 33.0598C7.73518 32.3595 7.03486 31.7759 6.33454 31.0756C6.21781 30.8421 5.98438 30.492 5.98438 30.0251Z" fill="#020100"/>
<path d="M20.692 30.024C20.2251 29.5571 19.7582 29.0902 19.2913 28.7401C19.0579 28.5066 18.9411 28.3899 19.2913 28.0398C20.692 26.5224 20.692 26.5224 22.0926 27.923C22.4428 28.2732 22.9096 28.6234 23.2598 29.0902C23.7267 29.6738 23.8434 30.2575 23.2598 30.8411C22.5595 31.6581 21.7424 32.3584 21.0421 33.1755C20.8087 33.4089 20.692 33.4089 20.4585 33.1755C20.1084 32.8253 19.7582 32.3584 19.2913 32.0083C18.9411 31.7748 19.0579 31.5414 19.2913 31.3079C19.7582 30.9578 20.2251 30.6076 20.692 30.024Z" fill="#030203"/>
<path d="M30.7228 56.7537C26.1707 56.7537 21.5019 56.7537 16.9499 56.7537C16.2495 56.7537 16.1328 56.5203 16.1328 55.9367C16.1328 52.2017 16.1328 48.4666 16.1328 44.7316C16.1328 44.148 16.2495 44.0312 16.8331 44.0312C26.054 44.0312 35.2749 44.0312 44.6125 44.0312C45.1961 44.0312 45.4296 44.148 45.3129 44.7316C45.3129 48.4666 45.3129 52.3184 45.3129 56.0534C45.3129 56.637 45.1961 56.7537 44.6125 56.7537C39.9437 56.7537 35.2749 56.7537 30.7228 56.7537ZM26.2875 51.7348C24.3032 51.7348 22.319 51.7348 20.4515 51.7348C18.7007 51.7348 18.7007 51.7348 18.7007 53.4856C18.7007 54.0692 18.8174 54.3026 19.5177 54.3026C23.7196 54.3026 27.9215 54.3026 32.1235 54.3026C34.1077 54.3026 33.991 54.3026 33.991 52.3184C33.991 51.8515 33.8743 51.7348 33.4074 51.7348C30.9563 51.7348 28.6219 51.7348 26.2875 51.7348ZM32.0068 49.1669C33.2907 49.1669 34.5746 49.1669 35.8585 49.1669C37.726 49.1669 37.726 49.1669 37.726 47.2994C37.726 46.7158 37.6093 46.5991 37.0257 46.5991C34.1077 46.5991 31.1897 46.5991 28.2717 46.5991C26.2875 46.5991 26.2875 46.5991 26.2875 48.5833C26.2875 49.0502 26.4042 49.1669 26.8711 49.1669C28.6219 49.1669 30.256 49.1669 32.0068 49.1669ZM39.5936 51.7348C39.1267 51.7348 38.6598 51.7348 38.3096 51.7348C36.4421 51.7348 36.4421 51.7348 36.4421 53.6023C36.4421 54.0692 36.5588 54.3026 37.1424 54.3026C38.4264 54.3026 39.7103 54.3026 40.9942 54.3026C42.9784 54.3026 42.9784 54.3026 42.9784 52.3184C42.9784 51.8515 42.745 51.7348 42.3948 51.8515C41.3444 51.7348 40.5273 51.7348 39.5936 51.7348ZM21.2685 46.5991C21.0351 46.5991 20.8016 46.5991 20.5682 46.5991C18.4672 46.5991 18.5839 46.5991 18.7007 48.7001C18.7007 49.0502 18.8174 49.1669 19.2843 49.1669C20.1013 49.1669 21.0351 49.1669 21.8521 49.1669C23.9531 49.1669 23.9531 49.1669 23.8363 47.066C23.8363 46.7158 23.7196 46.5991 23.3695 46.5991C22.5524 46.5991 21.8521 46.5991 21.2685 46.5991ZM42.745 47.883C42.745 46.5991 42.745 46.5991 41.4611 46.5991C40.1772 46.5991 40.1772 46.5991 40.1772 47.883C40.1772 49.1669 40.1772 49.1669 41.4611 49.1669C42.745 49.1669 42.745 49.1669 42.745 47.883Z" fill="#DE4882"/>
<path d="M61.1854 13.5664C63.6365 13.5664 65.6207 15.5506 65.6207 18.0018C65.6207 20.4529 63.6365 22.4371 61.3021 22.4371C58.851 22.4371 56.8667 20.5696 56.75 18.1185C56.75 15.5506 58.7342 13.5664 61.1854 13.5664ZM63.0529 18.0018C63.0529 16.9513 62.2358 16.1342 61.1854 16.1342C60.1349 16.1342 59.3178 16.9513 59.3178 18.0018C59.3178 19.0523 60.2516 19.8693 61.1854 19.8693C62.2358 19.8693 63.0529 19.0523 63.0529 18.0018Z" fill="#010203"/>
<path d="M66.3282 59.3218C64.5774 59.3218 62.9433 59.3218 61.1925 59.3218C60.7256 59.3218 60.6089 59.205 60.4922 58.7381C60.4922 56.7539 60.4922 56.7539 62.3597 56.7539C65.2777 56.7539 68.3124 56.7539 71.2304 56.7539C71.814 56.7539 71.9308 56.8706 71.9308 57.4542C71.9308 59.3218 71.9308 59.3218 70.0632 59.3218C68.896 59.3218 67.6121 59.3218 66.3282 59.3218Z" fill="#020100"/>
<path d="M66.3287 54.3022C64.6946 54.3022 62.9438 54.3022 61.3097 54.3022C60.8428 54.3022 60.6094 54.1855 60.6094 53.6019C60.6094 51.7344 60.6094 51.7344 62.4769 51.7344C65.3949 51.7344 68.4296 51.7344 71.3476 51.7344C71.8145 51.7344 72.048 51.8511 72.048 52.4347C72.048 54.3022 72.0479 54.3022 70.1804 54.3022C68.8965 54.3022 67.6126 54.3022 66.3287 54.3022Z" fill="#030203"/>
<path d="M56.636 54.3022C55.4688 54.3022 55.4688 54.3022 55.4688 53.0183C55.4688 51.7344 55.4687 51.7344 56.7527 51.7344C58.0366 51.7344 58.0366 51.7344 58.0366 53.0183C58.0366 54.3022 58.0366 54.3022 56.636 54.3022Z" fill="#030203"/>
<path d="M58.0366 58.0378C58.0366 59.3218 58.0366 59.3218 56.7527 59.3218C55.4687 59.3218 55.4688 59.3218 55.4688 58.0378C55.4688 56.7539 55.4687 56.7539 56.7527 56.7539C58.0366 56.7539 58.0366 56.7539 58.0366 58.0378Z" fill="#030203"/>
<path d="M26.2895 51.7344C28.6239 51.7344 30.9583 51.7344 33.2927 51.7344C33.7596 51.7344 33.8763 51.8511 33.8763 52.318C33.8763 54.3022 33.8763 54.3022 32.0088 54.3022C27.8068 54.3022 23.6049 54.3022 19.403 54.3022C18.8194 54.3022 18.5859 54.1855 18.5859 53.4852C18.5859 51.7344 18.5859 51.7344 20.3367 51.7344C22.321 51.7344 24.3052 51.7344 26.2895 51.7344Z" fill="#030203"/>
<path d="M32.0083 49.1655C30.2575 49.1655 28.6235 49.1655 26.8727 49.1655C26.4058 49.1655 26.2891 49.0488 26.2891 48.5819C26.2891 46.5977 26.2891 46.5977 28.2733 46.5977C31.1913 46.5977 34.1093 46.5977 37.0273 46.5977C37.6109 46.5977 37.7276 46.7144 37.7276 47.298C37.7276 49.1655 37.7276 49.1655 35.8601 49.1655C34.5762 49.1655 33.2923 49.1655 32.0083 49.1655Z" fill="#0B0407"/>
<path d="M39.5958 51.7339C40.4129 51.7339 41.3466 51.7339 42.1637 51.7339C42.5138 51.7339 42.7473 51.8506 42.7473 52.2008C42.864 54.185 42.864 54.185 40.763 54.185C39.4791 54.185 38.1952 54.185 36.9113 54.185C36.3277 54.185 36.2109 54.0683 36.2109 53.4847C36.2109 51.6172 36.2109 51.6172 38.0785 51.6172C38.7788 51.7339 39.1289 51.7339 39.5958 51.7339Z" fill="#030203"/>
<path d="M21.2726 46.5977C21.9729 46.5977 22.5565 46.5977 23.2568 46.5977C23.607 46.5977 23.7237 46.7144 23.7237 47.0645C23.8404 49.1655 23.8404 49.1655 21.7394 49.1655C20.9224 49.1655 19.9886 49.1655 19.1716 49.1655C18.8214 49.1655 18.7047 49.0488 18.588 48.6986C18.4713 46.5977 18.4713 46.5977 20.4555 46.5977C20.8057 46.5977 21.0391 46.5977 21.2726 46.5977Z" fill="#0B0407"/>
<path d="M42.7475 47.8816C42.7475 49.1655 42.7475 49.1655 41.4636 49.1655C40.1797 49.1655 40.1797 49.1655 40.1797 47.8816C40.1797 46.5977 40.1797 46.5977 41.4636 46.5977C42.7475 46.5977 42.7475 46.5977 42.7475 47.8816Z" fill="#0B0407"/>
<path d="M33.875 27.689C33.875 27.4556 33.875 27.3389 33.875 27.1054C33.875 21.9697 33.875 16.8341 33.875 11.6984C33.875 11.1148 33.9917 10.998 34.5753 10.998C47.648 10.998 60.7206 10.998 73.7933 10.998C74.2602 10.998 74.4936 10.998 74.4936 11.5816C74.4936 16.8341 74.4936 22.2032 74.4936 27.4556C74.4936 27.5723 74.4936 27.689 74.4936 27.689C74.1435 27.689 74.0267 27.5723 73.7933 27.3389C71.8091 26.1717 69.8248 25.1212 67.9573 23.954C67.257 23.6038 66.7901 23.6038 66.0898 23.954C63.4052 25.3546 60.6039 26.7553 57.8026 28.2726C57.3358 28.5061 57.1023 28.5061 56.6354 28.1559C53.2505 25.9382 49.8657 23.7205 46.4808 21.5029C45.6637 21.036 45.0801 20.9193 44.2631 21.5029C41.1116 23.4871 37.8435 25.3546 34.692 27.2221C34.4586 27.4556 34.2252 27.689 33.875 27.689ZM61.1875 13.5659C58.7364 13.5659 56.7521 15.5501 56.7521 18.0013C56.7521 20.4524 58.7364 22.4366 61.3042 22.3199C63.7554 22.3199 65.6229 20.3357 65.6229 17.8845C65.6229 15.5501 63.6386 13.5659 61.1875 13.5659Z" fill="#00AEEF"/>
<path d="M63.0554 18.0023C63.0554 19.0528 62.2383 19.8698 61.1878 19.8698C60.1374 19.8698 59.3203 19.0528 59.3203 18.0023C59.3203 16.9518 60.1374 16.1348 61.1878 16.1348C62.2383 16.1348 63.0554 16.9518 63.0554 18.0023Z" fill="#FDD98E"/>
</svg>
