<svg width="59" height="67" viewBox="0 0 59 67" fill="none" xmlns="http://www.w3.org/2000/svg">
<path d="M30.2724 0C30.9932 0.309707 31.7139 0.516179 32.2288 1.03236C34.2881 2.78737 34.2881 6.09091 31.611 7.94915C32.0228 7.94915 32.2288 7.94915 32.4347 7.94915C34.597 7.94915 36.2445 9.60092 36.2445 11.7689C36.2445 12.4915 36.2445 13.2142 36.2445 13.8336C36.2445 14.9692 35.5237 15.7951 34.3911 15.7951C31.0961 15.7951 27.6982 15.7951 24.4033 15.7951C23.3736 15.7951 22.6528 15.1757 22.5499 14.1433C22.4469 13.2142 22.4469 12.1818 22.5499 11.2527C22.8588 9.29122 24.4033 8.05239 26.3597 7.94915C26.5656 7.94915 26.7715 7.94915 27.1834 7.94915C26.0508 7.12327 25.433 6.19415 25.227 4.95532C24.8152 2.68413 26.2567 0.619414 28.419 0.103236C28.522 0.103236 28.6249 0.103236 28.6249 0C29.2427 0 29.7576 0 30.2724 0ZM29.5516 9.29122C28.522 9.29122 27.4923 9.29122 26.4626 9.29122C25.33 9.29122 24.4033 10.0139 24.0944 11.0462C23.8885 11.9753 23.8885 13.0077 23.9914 14.0401C23.9914 14.6595 24.6092 14.453 25.0211 14.453C25.433 14.5562 25.433 14.2465 25.433 13.9368C25.433 13.4206 25.433 12.9045 25.433 12.3883C25.433 11.9753 25.5359 11.5624 26.0508 11.5624C26.5656 11.5624 26.7715 11.9753 26.7715 12.3883C26.7715 12.9045 26.7715 13.5239 26.7715 14.0401C26.7715 14.3498 26.8745 14.453 27.1834 14.453C28.7279 14.453 30.2724 14.453 31.9199 14.453C32.2288 14.453 32.3317 14.3498 32.3317 14.0401C32.3317 13.5239 32.3317 12.9045 32.3317 12.3883C32.3317 11.9753 32.5377 11.5624 33.0525 11.6656C33.5673 11.6656 33.6703 11.9753 33.6703 12.3883C33.6703 12.9045 33.6703 13.4206 33.6703 13.9368C33.6703 14.2465 33.5673 14.6595 34.1851 14.5562C34.7 14.5562 35.1118 14.5562 35.1118 13.8336C35.1118 13.1109 35.1118 12.3883 35.1118 11.7689C34.9059 10.2203 33.8762 9.29122 32.5377 9.29122C31.508 9.29122 30.5813 9.29122 29.5516 9.29122ZM29.5516 7.2265C31.1991 7.2265 32.4347 5.88444 32.4347 4.23267C32.4347 2.58089 31.0961 1.23883 29.4487 1.34206C27.8012 1.34206 26.5656 2.68413 26.5656 4.3359C26.5656 5.98767 27.9042 7.2265 29.5516 7.2265Z" fill="#0E1010"/>
<path d="M40.363 0C40.7749 0.206471 40.9808 0.516179 40.8778 1.03236C40.7749 1.4453 41.0838 1.4453 41.3927 1.4453C41.9075 1.4453 42.3194 1.65177 42.3194 2.27119C42.3194 2.8906 41.9075 3.09707 41.3927 3.09707C40.9808 3.09707 40.8778 3.20031 40.8778 3.61325C40.8778 4.12943 40.5689 4.54237 40.0541 4.54237C39.5393 4.54237 39.2304 4.23267 39.2304 3.71649C39.2304 3.20031 39.1274 3.09707 38.6126 3.09707C38.0977 3.09707 37.6859 2.78737 37.7888 2.27119C37.7888 1.75501 38.0977 1.4453 38.7155 1.4453C39.1274 1.4453 39.3333 1.34206 39.2304 0.929122C39.2304 0.516179 39.5393 0.309707 39.7452 0C39.9511 0 40.1571 0 40.363 0Z" fill="#EE647D"/>
<path d="M45.3056 33.5516C45.3056 42.3267 38.2009 49.3467 29.4488 49.3467C20.7995 49.3467 13.6948 42.2234 13.6948 33.4484C13.6948 24.6734 20.7995 17.6533 29.5517 17.6533C38.3039 17.6533 45.3056 24.7766 45.3056 33.5516ZM28.8309 29.4222C28.8309 28.3898 28.8309 27.3575 28.8309 26.3251C28.8309 26.0154 28.728 25.9122 28.4191 25.9122C26.5657 25.9122 24.8152 26.2219 22.9618 26.5316C22.6529 26.6348 22.55 26.7381 22.447 27.0478C22.0351 28.8028 21.8292 30.5578 21.8292 32.416C21.8292 32.7257 21.9322 32.829 22.2411 32.829C24.3004 32.829 26.2568 32.829 28.3161 32.829C28.728 32.829 28.728 32.7257 28.728 32.3128C28.8309 31.3837 28.8309 30.3513 28.8309 29.4222ZM33.5674 32.829C34.5971 32.829 35.5238 32.829 36.5535 32.829C36.9653 32.829 37.0683 32.7257 37.0683 32.3128C36.9653 30.5578 36.7594 28.8028 36.4505 27.0478C36.3475 26.7381 36.2446 26.6348 35.9357 26.5316C34.1852 26.1187 32.4348 25.9122 30.6844 25.9122C30.3755 25.9122 30.1695 26.0154 30.1695 26.3251C30.1695 28.3898 30.1695 30.3513 30.1695 32.416C30.1695 32.7257 30.2725 32.829 30.5814 32.829C31.6111 32.829 32.5378 32.829 33.5674 32.829ZM25.433 34.171C24.4034 34.171 23.3737 34.171 22.344 34.171C22.0351 34.171 21.9322 34.171 21.9322 34.584C21.9322 36.4422 22.2411 38.3005 22.55 40.0555C22.6529 40.3652 22.7559 40.4684 22.9618 40.4684C24.7123 40.8814 26.5657 41.0878 28.3161 41.1911C28.728 41.1911 28.728 41.0878 28.728 40.6749C28.728 38.7134 28.728 36.6487 28.728 34.6872C28.728 34.2743 28.625 34.171 28.3161 34.171C27.3894 34.171 26.3597 34.171 25.433 34.171ZM30.1695 37.5778C30.1695 38.6102 30.1695 39.5393 30.1695 40.5717C30.1695 40.9846 30.2725 41.0878 30.6844 41.0878C32.4348 40.9846 34.1852 40.7781 35.9357 40.4684C36.2446 40.3652 36.3475 40.2619 36.4505 39.9522C36.8624 38.1972 37.0683 36.4422 37.0683 34.584C37.0683 34.171 36.9653 34.0678 36.6564 34.0678C34.5971 34.0678 32.6407 34.0678 30.5814 34.0678C30.2725 34.0678 30.1695 34.171 30.1695 34.4807C30.1695 35.5131 30.1695 36.5455 30.1695 37.5778ZM28.8309 45.2173C28.8309 44.3914 28.8309 43.6687 28.8309 42.8428C28.8309 42.5331 28.728 42.4299 28.4191 42.4299C26.7716 42.4299 25.1241 42.2234 23.4767 41.9137C23.1678 41.8105 22.9618 41.8105 23.1678 42.3267C23.7856 44.0817 24.5063 45.7334 25.7419 47.282C26.0508 47.5917 26.2568 47.7982 26.6686 47.9014C27.2864 48.0046 27.8013 48.0046 28.4191 48.1079C28.728 48.2111 28.8309 48.1079 28.8309 47.6949C28.8309 46.7658 28.8309 45.9399 28.8309 45.2173ZM41.187 32.829C41.7018 32.829 42.1137 32.829 42.6285 32.829C44.07 32.829 43.9671 32.829 43.8641 31.3837C43.7611 30.3513 43.3493 29.7319 42.5255 29.2157C41.187 28.3898 39.7454 27.6672 38.3039 27.151C37.892 27.0478 37.892 27.151 37.892 27.4607C38.2009 29.1125 38.4069 30.7643 38.4069 32.416C38.4069 32.7257 38.5098 32.829 38.8187 32.829C39.6425 32.829 40.4662 32.829 41.187 32.829ZM37.7891 39.9522C39.8484 39.3328 41.5988 38.5069 43.1433 37.1649C43.4522 36.9584 43.6582 36.6487 43.6582 36.2358C43.7611 35.6163 43.7611 35.1002 43.8641 34.4807C43.9671 34.171 43.7611 34.0678 43.4522 34.0678C41.9077 34.0678 40.2603 34.0678 38.7158 34.0678C38.4069 34.0678 38.3039 34.171 38.3039 34.4807C38.3039 35.1002 38.2009 35.7196 38.2009 36.339C38.2009 37.5778 37.995 38.7134 37.7891 39.9522ZM35.9357 41.8105C35.7297 41.8105 35.7297 41.8105 35.6268 41.8105C33.9793 42.1202 32.2289 42.3267 30.4784 42.3267C30.0666 42.3267 30.1695 42.5331 30.1695 42.7396C30.1695 43.9784 30.1695 45.2173 30.1695 46.5593C30.1695 48.0046 30.1695 48.0046 31.6111 47.7982C32.3318 47.6949 32.9496 47.5917 33.4645 46.869C34.5971 45.4237 35.3179 43.6687 35.9357 41.8105ZM21.2114 27.0478C19.461 27.564 18.0194 28.2866 16.5779 29.2157C15.6512 29.8351 15.2393 30.5578 15.2393 31.5901C15.2393 31.8999 15.2393 32.1063 15.1364 32.416C15.0334 32.7257 15.1364 32.829 15.5482 32.829C17.0927 32.829 18.6372 32.829 20.2847 32.829C20.6966 32.829 20.6966 32.7257 20.7995 32.3128C20.7995 31.6934 20.9025 31.074 20.9025 30.4546C20.7995 29.319 21.0055 28.1834 21.2114 27.0478ZM23.0648 25.0863C23.1678 25.0863 23.1678 25.1895 23.2707 25.1895C25.0212 24.8798 26.7716 24.6734 28.5221 24.6734C28.9339 24.6734 28.8309 24.4669 28.8309 24.1572C28.8309 22.9183 28.8309 21.6795 28.8309 20.4407C28.8309 18.9954 28.831 18.9954 27.3894 19.2019C26.8746 19.3051 26.2568 19.2019 25.8449 19.718C24.6093 21.2666 23.6826 23.1248 23.0648 25.0863ZM35.9357 25.0863C35.6268 23.9507 35.2149 22.9183 34.7001 21.886C34.2882 21.1633 33.8763 20.4407 33.3615 19.8213C33.0526 19.4083 32.7437 19.2019 32.2289 19.2019C31.714 19.0986 31.1992 19.0986 30.5814 18.9954C30.2725 18.9954 30.1695 18.9954 30.1695 19.3051C30.1695 20.8536 30.1695 22.5054 30.1695 24.0539C30.1695 24.3636 30.2725 24.4669 30.5814 24.4669C31.3022 24.4669 31.92 24.5701 32.6407 24.5701C33.7734 24.6733 34.803 24.9831 35.9357 25.0863ZM21.1084 39.849C21.1084 39.7458 21.2114 39.7458 21.1084 39.6425C20.7995 37.8875 20.5936 36.1325 20.5936 34.3775C20.5936 33.9646 20.3877 34.0678 20.0788 34.0678C18.8432 34.0678 17.6076 34.0678 16.372 34.0678C14.9304 34.0678 14.8275 34.0678 15.1364 35.5131C15.2393 36.0293 15.2393 36.5455 15.6512 36.9584C17.2987 38.4037 19.1521 39.2296 21.1084 39.849ZM23.6826 46.6626C22.8589 45.114 22.1381 43.5655 21.7262 41.9137C21.6233 41.5008 21.4173 41.2943 21.0055 41.1911C19.461 40.7781 18.0194 40.1587 16.6809 39.3328C16.5779 39.2296 16.372 39.0231 16.269 39.2296C17.8135 42.6364 20.2847 45.2173 23.6826 46.6626ZM42.6285 39.3328C41.084 40.2619 39.4365 40.8814 37.6861 41.3975C37.3772 41.5008 37.3772 41.604 37.2742 41.9137C36.9653 43.0493 36.5535 44.0817 36.0386 45.114C35.7297 45.6302 35.5238 46.1464 35.2149 46.7658C38.7158 45.2173 41.187 42.7396 42.6285 39.3328ZM23.6826 20.2342C20.1817 21.6795 17.8135 24.2604 16.269 27.6672C16.372 27.6672 16.372 27.6672 16.372 27.6672C17.9165 26.7381 19.5639 26.0154 21.3144 25.6025C21.5203 25.4992 21.6233 25.396 21.7262 25.1895C22.1381 23.4345 22.8589 21.886 23.6826 20.2342ZM42.8344 27.8737C41.187 24.2604 38.7158 21.7828 35.3179 20.3375C36.1416 21.886 36.8624 23.5378 37.3772 25.2928C37.4802 25.4992 37.5831 25.6025 37.7891 25.7057C39.4365 26.1187 41.084 26.8413 42.8344 27.8737Z" fill="#0E1010"/>
<path d="M31.7139 58.9476C34.1851 60.7026 34.2881 63.6964 32.6406 65.5547C30.8902 67.4129 28.1101 67.4129 26.3596 65.5547C24.7122 63.7997 24.7122 60.8058 27.2863 58.9476C26.8745 58.9476 26.6685 58.9476 26.4626 58.9476C24.3003 58.9476 22.6528 57.2958 22.6528 55.1279C22.6528 54.4052 22.6528 53.7858 22.6528 53.0632C22.6528 51.9276 23.3736 51.1017 24.5062 51.1017C27.8012 51.1017 31.1991 51.1017 34.494 51.1017C35.5237 51.1017 36.2445 51.8243 36.3474 52.7535C36.4504 53.6826 36.4504 54.6117 36.3474 55.5408C36.0385 57.6055 34.597 58.9476 32.4347 58.9476C32.2287 58.9476 32.0228 58.9476 31.7139 58.9476ZM29.4486 57.7088C30.4783 57.7088 31.508 57.7088 32.5376 57.7088C33.6703 57.7088 34.597 56.9861 34.9059 55.9538C35.1118 55.0246 35.0089 53.9923 35.0089 53.0632C35.0089 52.4438 34.3911 52.6502 33.9792 52.6502C33.5673 52.6502 33.6703 52.9599 33.6703 53.1664C33.6703 53.6826 33.6703 54.1988 33.6703 54.7149C33.6703 55.1279 33.4644 55.5408 32.9495 55.5408C32.4347 55.5408 32.3317 55.2311 32.2287 54.7149C32.2287 54.1988 32.2287 53.5793 32.2287 53.0632C32.2287 52.7535 32.1258 52.6502 31.8169 52.6502C30.2724 52.6502 28.6249 52.6502 27.0804 52.6502C26.7715 52.6502 26.6685 52.7535 26.6685 53.0632C26.6685 53.6826 26.6685 54.1988 26.6685 54.8182C26.6685 55.2311 26.4626 55.5408 26.0507 55.5408C25.5359 55.5408 25.4329 55.2311 25.4329 54.8182C25.4329 54.302 25.4329 53.7858 25.4329 53.2696C25.4329 52.9599 25.5359 52.6502 24.9181 52.6502C24.4033 52.6502 23.9914 52.6502 23.9914 53.2696C23.9914 53.9923 23.9914 54.7149 23.9914 55.4376C24.0944 56.7797 25.124 57.7088 26.4626 57.812C27.4923 57.7088 28.5219 57.7088 29.4486 57.7088ZM32.3317 62.6641C32.3317 61.0123 31.0961 59.7735 29.4486 59.7735C27.9041 59.7735 26.6685 61.0123 26.6685 62.6641C26.6685 64.3159 27.9041 65.5547 29.5516 65.5547C31.0961 65.6579 32.3317 64.3159 32.3317 62.6641Z" fill="#0E1010"/>
<path d="M52.719 44.1849C56.2199 43.4623 58.4852 44.5979 59 47.3852C59.4119 49.6564 57.7644 51.9276 55.6021 52.3405C53.0279 52.7535 50.8656 51.1017 50.5567 48.3143C50.3508 48.4176 50.2478 48.7273 50.1448 48.8305C49.0122 50.6888 46.8499 51.3082 44.8935 50.2758C44.2757 49.9661 43.6579 49.5532 43.1431 49.2435C42.2164 48.6241 41.9075 47.6949 42.4223 46.6626C44.0698 43.772 45.7173 40.8814 47.3647 37.9908C47.9825 36.9584 48.9092 36.7519 49.9389 37.2681C50.3508 37.4746 50.7626 37.7843 51.1745 37.9908C53.4398 39.1264 54.4694 41.7073 52.719 44.1849ZM46.644 49.4499C47.5707 49.4499 48.2914 49.1402 48.7033 48.3143C49.8359 46.4561 50.8656 44.5979 51.8953 42.7396C52.4101 41.8105 52.2042 40.6749 51.4834 39.9522C50.7626 39.2296 49.8359 38.8167 48.9092 38.4037C48.4974 38.1972 48.3944 38.8167 48.1885 39.2296C47.9825 39.5393 48.3944 39.6425 48.4974 39.7458C48.9092 40.0555 49.3211 40.262 49.733 40.4684C50.1448 40.6749 50.5567 40.9846 50.2478 41.5008C49.9389 42.017 49.527 41.8105 49.1152 41.604C48.7033 41.2943 48.1885 41.0878 47.7766 40.7781C47.5707 40.5717 47.3647 40.5717 47.2618 40.8814C46.438 42.3267 45.7173 43.6687 44.8935 45.0108C44.6876 45.3205 44.7906 45.4237 45.0995 45.527C45.6143 45.8367 46.1291 46.1464 46.644 46.4561C46.9529 46.6626 47.1588 46.9723 46.9529 47.3852C46.7469 47.7982 46.3351 47.7982 46.0262 47.5917C45.6143 47.3852 45.0995 47.1788 44.6876 46.869C44.1728 46.4561 43.8639 46.6626 43.6579 47.1788C43.452 47.5917 43.555 47.9014 43.9668 48.1079C44.4817 48.4176 45.0995 48.7273 45.6143 49.037C45.8202 49.3467 46.2321 49.4499 46.644 49.4499ZM54.7784 50.9985C56.3229 50.9985 57.6614 49.6564 57.6614 48.1079C57.6614 46.4561 56.3229 45.114 54.6754 45.114C53.1309 45.114 51.7923 46.4561 51.7923 48.0046C51.7923 49.6564 53.1309 50.9985 54.7784 50.9985Z" fill="#0E1010"/>
<path d="M52.8223 22.7119C52.7194 23.0216 52.9253 23.1248 53.0283 23.3313C54.058 25.2928 53.5431 27.4607 51.5867 28.5963C50.9689 29.0092 50.3511 29.3189 49.7333 29.6287C48.8066 30.1448 47.777 29.9384 47.2621 29.0092C45.5117 26.1186 43.8642 23.1248 42.2168 20.2342C41.8049 19.4083 41.8049 18.5824 42.5257 18.0663C43.5553 17.2404 44.585 16.5177 45.8206 16.208C47.4681 15.7951 49.0126 16.5177 49.9393 17.963C50.0422 18.1695 50.2482 18.376 50.4541 18.7889C50.5571 18.1695 50.5571 17.7565 50.763 17.2404C51.6897 15.0724 54.0579 14.0401 56.2203 14.8659C58.3826 15.6918 59.5152 18.0663 58.6915 20.2342C57.8677 22.5054 55.6025 23.641 53.3372 22.9183C53.2342 22.8151 53.0283 22.8151 52.8223 22.7119ZM46.4384 17.4468C45.5117 17.4468 44.482 18.2727 43.5553 18.9954C43.0405 19.3051 43.6583 19.718 43.7613 20.131C43.9672 20.5439 44.1731 20.131 44.3791 20.131C44.7909 19.9245 45.2028 19.6148 45.7176 19.4083C46.1295 19.2018 46.5414 19.0986 46.7473 19.5116C47.0562 20.0277 46.7473 20.3374 46.3354 20.5439C45.9236 20.8536 45.4087 21.0601 44.9969 21.2666C44.688 21.473 44.688 21.5763 44.7909 21.886C45.6147 23.228 46.3354 24.5701 47.1592 25.9122C47.3651 26.2219 47.4681 26.2219 47.777 26.1186C48.2918 25.8089 48.8066 25.4992 49.3215 25.1895C49.7333 24.983 50.0422 24.983 50.2482 25.396C50.4541 25.8089 50.3511 26.1186 49.9393 26.3251C49.5274 26.6348 49.0126 26.8413 48.6007 27.151C48.2918 27.3575 47.8799 27.3575 48.2918 27.8736C48.6007 28.2866 48.8066 28.6995 49.4244 28.3898C50.0422 28.0801 50.66 27.6672 51.1749 27.3575C52.3075 26.6348 52.6164 25.2928 51.9986 24.0539C50.9689 22.1957 49.9393 20.4407 48.8066 18.5824C48.3948 17.8598 47.674 17.5501 46.4384 17.4468ZM51.8956 18.8921C51.8956 20.4407 53.2342 21.7827 54.7787 21.7827C56.3232 21.7827 57.6618 20.4407 57.6618 18.7889C57.6618 17.2404 56.3232 16.0015 54.7787 15.8983C53.1312 16.0015 51.8956 17.2404 51.8956 18.8921Z" fill="#0E1010"/>
<path d="M8.54639 48.2111C8.13452 51.3082 5.76629 52.6502 3.39805 52.2373C1.13278 51.8244 -0.411724 49.4499 0.000143632 47.1787C0.617945 44.4946 2.88322 43.2558 6.07519 44.0817C5.86925 43.4623 5.45739 42.9461 5.35442 42.2234C5.14849 40.6749 5.66332 39.1264 7.00189 38.3005C7.61969 37.8875 8.34046 37.4746 9.06123 37.1649C10.0909 36.6487 11.0176 36.8552 11.6354 37.8875C13.2829 40.7781 15.0333 43.6687 16.6808 46.6626C17.0926 47.4885 17.0926 48.3143 16.3719 48.8305C15.3422 49.5532 14.3125 50.2758 13.0769 50.5855C11.4295 50.9985 9.88496 50.2758 8.95826 48.8305C8.85529 48.7273 8.75233 48.5208 8.54639 48.2111ZM12.5621 49.4499C13.5918 49.3467 14.5185 48.624 15.5481 47.9014C16.063 47.5917 15.4452 47.0755 15.2392 46.7658C15.0333 46.3529 14.8274 46.7658 14.6214 46.869C14.1066 47.0755 13.6947 47.3852 13.1799 47.6949C12.768 47.9014 12.4591 47.9014 12.2532 47.4885C12.0473 47.0755 12.1502 46.7658 12.5621 46.5593C13.0769 46.2496 13.5918 45.9399 14.1066 45.6302C14.4155 45.4237 14.4155 45.3205 14.3125 45.0108C13.4888 43.6687 12.768 42.3267 11.9443 40.8814C11.7384 40.5717 11.6354 40.4684 11.3265 40.6749C10.8117 40.9846 10.2968 41.2943 9.78199 41.604C9.37013 41.8105 9.06123 41.8105 8.85529 41.3975C8.64936 40.9846 8.75233 40.6749 9.16419 40.4684C9.67903 40.1587 10.1939 39.849 10.7087 39.5393C10.8117 39.4361 11.0176 39.4361 11.0176 39.3328C10.9146 39.0231 10.7087 38.6102 10.3998 38.4037C10.1939 38.1972 9.98793 38.3005 9.78199 38.5069C9.16419 38.8166 8.54639 39.2296 8.03156 39.5393C6.89892 40.2619 6.48705 41.604 7.20782 42.7396C8.23749 44.5979 9.26716 46.4561 10.3998 48.3143C10.7087 49.1402 11.4295 49.4499 12.5621 49.4499ZM4.22178 50.9985C5.86925 50.9985 7.10486 49.7596 7.10486 48.1079C7.10486 46.4561 5.76629 45.114 4.22178 45.114C2.67728 45.114 1.33871 46.4561 1.23575 48.0046C1.33871 49.6564 2.67728 50.9985 4.22178 50.9985Z" fill="#0E1010"/>
<path d="M6.07522 22.7119C3.19215 23.9507 0.720942 22.1957 0.103141 20.0277C-0.51466 17.6533 0.926876 15.1757 3.39808 14.6595C5.97225 14.1433 8.13456 15.8983 8.54642 18.6857C8.75236 18.5824 8.85532 18.2727 8.95829 18.1695C10.0909 16.3112 12.2532 15.6918 14.2096 16.7242C14.8274 17.0339 15.4452 17.4468 15.96 17.7565C16.9897 18.376 17.1956 19.3051 16.6808 20.3374C15.0333 23.228 13.3859 26.1186 11.6354 29.0092C11.0176 30.0416 10.0909 30.2481 9.06126 29.7319C8.54642 29.4222 8.03159 29.1125 7.51675 28.8028C5.35445 27.5639 4.73665 25.4992 5.97225 23.228C6.07522 23.1248 6.28115 23.0216 6.07522 22.7119ZM12.4592 17.5501C11.5325 17.5501 10.7087 17.8598 10.2969 18.6857C9.16422 20.5439 8.13455 22.4022 7.10489 24.2604C6.59005 25.1895 6.79599 26.4283 7.61972 27.151C8.34049 27.7704 9.16422 28.1834 9.98796 28.5963C10.6058 28.906 10.7087 28.1834 10.9147 27.8736C11.1206 27.5639 10.8117 27.4607 10.6058 27.4607C10.0909 27.151 9.67906 26.8413 9.16422 26.6348C8.75236 26.4283 8.64939 26.0154 8.85532 25.6025C9.06126 25.1895 9.47312 25.1895 9.78203 25.396C10.2969 25.7057 10.8117 26.0154 11.3265 26.3251C11.5325 26.5316 11.7384 26.5316 11.8414 26.2219C12.6651 24.7766 13.3859 23.4345 14.2096 22.0924C14.4155 21.7827 14.3126 21.6795 14.0037 21.5763C13.4888 21.2666 12.974 20.9569 12.4592 20.6471C12.0473 20.4407 11.9443 20.131 12.1503 19.718C12.3562 19.3051 12.7681 19.2018 13.1799 19.5116C13.5918 19.718 14.0037 20.0277 14.4155 20.2342C15.1363 20.6471 15.1363 20.6471 15.4452 19.9245C15.6511 19.5116 15.5482 19.3051 15.1363 19.0986C14.5185 18.7889 13.9007 18.376 13.3859 18.0663C13.077 17.5501 12.7681 17.4468 12.4592 17.5501ZM4.22181 16.0015C2.57435 16.0015 1.33874 17.3436 1.33874 18.8921C1.33874 20.5439 2.67731 21.886 4.22181 21.886C5.86928 21.886 7.20785 20.5439 7.20785 18.8921C7.20785 17.2404 5.86928 15.8983 4.22181 16.0015Z" fill="#0E1010"/>
<path d="M18.2252 59.98C16.9896 60.2897 16.2688 61.1156 15.8569 62.3544C15.4451 61.1156 14.7243 60.2897 13.3857 59.98C14.7243 59.567 15.548 58.8444 15.8569 57.5023C16.2688 58.8444 16.9896 59.6703 18.2252 59.98Z" fill="#F5A065"/>
<path d="M46.7471 55.0246C47.6738 54.8182 48.1886 54.302 48.4975 53.3729C48.8064 54.302 49.3212 54.8182 50.2479 55.0246C49.4242 55.3343 48.8064 55.7473 48.6005 56.6764C48.1886 55.7473 47.5708 55.2311 46.7471 55.0246Z" fill="#89C34A"/>
<path d="M43.8643 7.94915C43.8643 7.43297 44.2761 7.12326 44.688 7.12326C45.2028 7.12326 45.6147 7.5362 45.5117 8.05238C45.5117 8.56856 45.0999 8.87827 44.585 8.87827C44.2761 8.87827 43.8643 8.36209 43.8643 7.94915Z" fill="#F5A065"/>
<path d="M21.2114 66.8968C20.6966 66.8968 20.3877 66.5871 20.3877 66.0709C20.3877 65.6579 20.7996 65.1418 21.2114 65.1418C21.7263 65.1418 22.1381 65.5547 22.1381 66.0709C22.1381 66.5871 21.7263 66.8968 21.2114 66.8968Z" fill="#76CEF0"/>
<path d="M29.5518 9.29122C30.4785 9.29122 31.5082 9.29122 32.4349 9.29122C33.8764 9.29122 34.9061 10.2203 35.009 11.6656C35.009 12.3883 35.009 13.1109 35.009 13.7304C35.009 14.453 34.5972 14.3498 34.0823 14.453C33.4645 14.453 33.5675 14.1433 33.5675 13.8336C33.5675 13.3174 33.5675 12.8012 33.5675 12.2851C33.5675 11.8721 33.3616 11.5624 32.9497 11.5624C32.4349 11.5624 32.2289 11.8721 32.2289 12.2851C32.2289 12.8012 32.2289 13.4207 32.2289 13.9368C32.2289 14.2465 32.126 14.3498 31.8171 14.3498C30.2726 14.3498 28.7281 14.3498 27.0806 14.3498C26.7717 14.3498 26.6687 14.2465 26.6687 13.9368C26.6687 13.4207 26.6687 12.8012 26.6687 12.2851C26.6687 11.8721 26.4628 11.4592 25.9479 11.4592C25.4331 11.4592 25.3301 11.8721 25.3301 12.2851C25.3301 12.8012 25.3301 13.3174 25.3301 13.8336C25.3301 14.0401 25.4331 14.3498 24.9183 14.3498C24.5064 14.3498 23.9916 14.5562 23.8886 13.9368C23.7856 12.9045 23.6827 11.9754 23.9916 10.943C24.3005 9.91064 25.2272 9.18799 26.3598 9.18799C27.4925 9.29122 28.5221 9.29122 29.5518 9.29122Z" fill="#EE647D"/>
<path d="M29.5515 7.22651C27.904 7.22651 26.5654 5.98768 26.5654 4.33591C26.5654 2.68414 27.904 1.34207 29.4485 1.34207C31.096 1.34207 32.4345 2.68414 32.4345 4.23267C32.4345 5.88444 31.1989 7.22651 29.5515 7.22651Z" fill="#F5A065"/>
<path d="M28.8309 29.4222C28.8309 30.3513 28.8309 31.3837 28.8309 32.3128C28.8309 32.6225 28.7279 32.829 28.419 32.829C26.3597 32.829 24.4033 32.829 22.344 32.829C22.0351 32.829 21.9321 32.7257 21.9321 32.416C21.9321 30.5578 22.241 28.8028 22.5499 27.0478C22.6529 26.7381 22.7559 26.6348 23.0648 26.5316C24.8152 26.1186 26.6686 25.9122 28.522 25.9122C28.8309 25.9122 28.9339 26.0154 28.9339 26.3251C28.8309 27.3575 28.8309 28.3898 28.8309 29.4222Z" fill="#76CEF0"/>
<path d="M33.5673 32.829C32.5377 32.829 31.611 32.829 30.5813 32.829C30.2724 32.829 30.1694 32.7257 30.1694 32.416C30.1694 30.3513 30.1694 28.3898 30.1694 26.3251C30.1694 25.9122 30.2724 25.8089 30.6843 25.9122C32.4347 26.0154 34.1851 26.2219 35.9356 26.5316C36.2445 26.6348 36.3474 26.7381 36.4504 27.0478C36.8623 28.8028 37.0682 30.5578 37.0682 32.3128C37.0682 32.7257 36.9652 32.9322 36.5534 32.829C35.6267 32.829 34.597 32.829 33.5673 32.829Z" fill="#76CEF0"/>
<path d="M25.4331 34.171C26.4627 34.171 27.3894 34.171 28.4191 34.171C28.831 34.171 28.9339 34.2743 28.831 34.6872C28.831 36.6487 28.831 38.7134 28.831 40.6749C28.831 40.9846 28.728 41.1911 28.4191 41.1911C26.5657 41.1911 24.8153 40.8813 23.0648 40.4684C22.8589 40.4684 22.653 40.3652 22.653 40.0555C22.2411 38.1972 22.0352 36.4422 22.0352 34.584C22.0352 34.2743 22.2411 34.171 22.447 34.171C23.3737 34.171 24.4034 34.171 25.4331 34.171Z" fill="#76CEF0"/>
<path d="M30.1694 37.5778C30.1694 36.5454 30.1694 35.6163 30.1694 34.584C30.1694 34.2743 30.2724 34.171 30.5813 34.171C32.6406 34.171 34.597 34.171 36.6563 34.171C37.0682 34.171 37.1712 34.2743 37.0682 34.6872C37.0682 36.5454 36.7593 38.3005 36.4504 40.0555C36.3474 40.3652 36.2445 40.4684 35.9356 40.5716C34.1851 40.9846 32.4347 41.1911 30.6843 41.1911C30.2724 41.1911 30.1694 41.0878 30.1694 40.6749C30.1694 39.5393 30.1694 38.6102 30.1694 37.5778Z" fill="#76CEF0"/>
<path d="M28.8307 45.2173C28.8307 46.0432 28.8307 46.869 28.8307 47.5917C28.8307 47.9014 28.7277 48.0046 28.4188 48.0046C27.801 47.9014 27.2862 47.7982 26.6684 47.7982C26.2565 47.6949 25.9476 47.4885 25.7417 47.1787C24.6091 45.7334 23.7853 44.0817 23.1675 42.2234C23.0646 41.8105 23.1675 41.8105 23.4764 41.8105C25.1239 42.1202 26.7714 42.3267 28.4188 42.3267C28.7277 42.3267 28.8307 42.4299 28.8307 42.7396C28.8307 43.5655 28.8307 44.3914 28.8307 45.2173Z" fill="#76CEF0"/>
<path d="M41.1871 32.829C40.3633 32.829 39.6426 32.829 38.8188 32.829C38.5099 32.829 38.407 32.7257 38.407 32.416C38.407 30.7643 38.201 29.1125 37.8921 27.4607C37.7892 27.151 37.8921 26.9445 38.304 27.151C39.8485 27.6672 41.1871 28.2866 42.5256 29.2157C43.3494 29.7319 43.7612 30.4546 43.8642 31.3837C43.9672 32.829 44.0701 32.829 42.6286 32.829C42.1138 32.829 41.7019 32.829 41.1871 32.829Z" fill="#76CEF0"/>
<path d="M37.7891 39.9522C37.995 38.7134 38.2009 37.5778 38.3039 36.4422C38.3039 35.8228 38.4069 35.2034 38.4069 34.584C38.4069 34.2743 38.5098 34.171 38.8187 34.171C40.3632 34.171 42.0107 34.171 43.5552 34.171C43.8641 34.171 43.9671 34.171 43.9671 34.584C43.8641 35.2034 43.8641 35.7196 43.7611 36.339C43.6582 36.7519 43.5552 37.0616 43.2463 37.2681C41.5988 38.5069 39.8484 39.3328 37.7891 39.9522Z" fill="#76CEF0"/>
<path d="M35.9356 41.8105C35.3178 43.6687 34.597 45.3205 33.4644 46.869C32.9495 47.5917 32.3317 47.6949 31.611 47.7982C30.1694 48.0046 30.1694 48.0046 30.1694 46.5593C30.1694 45.3205 30.1694 44.0817 30.1694 42.7396C30.1694 42.5331 30.1694 42.3267 30.4783 42.3267C32.2288 42.3267 33.8762 42.1202 35.6267 41.8105C35.7296 41.8105 35.7296 41.8105 35.9356 41.8105Z" fill="#76CEF0"/>
<path d="M21.2112 27.0478C21.0052 28.2866 20.7993 29.3189 20.6963 30.4545C20.6963 31.074 20.5934 31.6934 20.5934 32.3128C20.5934 32.6225 20.4904 32.829 20.0785 32.829C18.534 32.829 16.9895 32.829 15.342 32.829C15.0331 32.829 14.9302 32.7257 14.9302 32.416C15.0331 32.2095 15.0331 31.8998 15.0331 31.5901C15.0331 30.5578 15.445 29.7319 16.3717 29.2157C17.9162 28.2866 19.4607 27.5639 21.2112 27.0478Z" fill="#76CEF0"/>
<path d="M23.0649 25.0863C23.6827 23.1248 24.5065 21.2666 25.845 19.6148C26.2569 19.0986 26.8747 19.2018 27.3895 19.0986C28.8311 18.7889 28.8311 18.8921 28.8311 20.3374C28.8311 21.5763 28.8311 22.8151 28.8311 24.0539C28.8311 24.2604 28.8311 24.4669 28.5222 24.5701C26.7717 24.5701 25.0213 24.7766 23.2709 25.0863C23.2709 25.0863 23.1679 25.0863 23.0649 25.0863Z" fill="#76CEF0"/>
<path d="M35.9356 25.0863C34.8029 24.8798 33.7733 24.6733 32.6406 24.6733C31.9199 24.6733 31.3021 24.5701 30.5813 24.5701C30.2724 24.5701 30.1694 24.4669 30.1694 24.1572C30.1694 22.6086 30.1694 20.9569 30.1694 19.4083C30.1694 19.0986 30.2724 18.9954 30.5813 19.0986C31.0961 19.2019 31.611 19.3051 32.2288 19.3051C32.7436 19.3051 33.0525 19.6148 33.3614 19.9245C33.8762 20.5439 34.2881 21.2666 34.7 21.9892C35.2148 22.9183 35.6267 23.9507 35.9356 25.0863Z" fill="#76CEF0"/>
<path d="M21.1082 39.849C19.1518 39.2296 17.2984 38.4037 15.7539 37.0616C15.2391 36.6487 15.342 36.1325 15.2391 35.6163C14.9301 34.171 14.9301 34.171 16.4747 34.171C17.7103 34.171 18.9459 34.171 20.1815 34.171C20.3874 34.171 20.6963 34.171 20.6963 34.4807C20.6963 36.2357 20.9022 37.9907 21.2111 39.7458C21.2111 39.7458 21.1082 39.7458 21.1082 39.849Z" fill="#76CEF0"/>
<path d="M23.6826 46.6626C20.1817 45.2173 17.8135 42.6364 16.166 39.2296C16.3719 39.0231 16.4749 39.2296 16.5779 39.3328C17.9165 40.1587 19.358 40.7781 20.9025 41.1911C21.3144 41.2943 21.5203 41.5008 21.6233 41.9137C22.2411 43.5655 22.8589 45.114 23.6826 46.6626Z" fill="#76CEF0"/>
<path d="M42.6285 39.3328C41.1869 42.7396 38.7157 45.2173 35.2148 46.6626C35.5237 46.1464 35.8326 45.6302 36.0386 45.0108C36.5534 43.9784 36.9653 42.9461 37.2742 41.8105C37.3771 41.604 37.3771 41.3975 37.686 41.2943C39.4365 40.8814 41.084 40.1587 42.6285 39.3328Z" fill="#76CEF0"/>
<path d="M23.6826 20.2342C22.8589 21.7827 22.1381 23.4345 21.6233 25.1895C21.5203 25.396 21.5203 25.4992 21.2114 25.6024C19.461 26.0154 17.8135 26.738 16.269 27.6672H16.166C17.8135 24.2604 20.2847 21.7827 23.6826 20.2342Z" fill="#76CEF0"/>
<path d="M42.8344 27.8736C41.084 26.8413 39.4365 26.1186 37.686 25.6024C37.4801 25.4992 37.3771 25.396 37.2742 25.1895C36.7593 23.4345 36.1415 21.886 35.2148 20.2342C38.7157 21.7827 41.1869 24.2604 42.8344 27.8736Z" fill="#76CEF0"/>
<path d="M29.4485 57.7088C28.4188 57.7088 27.4921 57.7088 26.4624 57.7088C25.1238 57.7088 24.0942 56.7796 23.9912 55.3343C23.9912 54.6117 23.9912 53.889 23.9912 53.1664C23.9912 52.4437 24.506 52.547 24.9179 52.547C25.4327 52.547 25.4327 52.8567 25.4327 53.1664C25.4327 53.6826 25.4327 54.1988 25.4327 54.7149C25.4327 55.1279 25.6387 55.4376 26.0505 55.4376C26.5654 55.4376 26.6683 55.1279 26.6683 54.7149C26.6683 54.0955 26.6683 53.5793 26.6683 52.9599C26.6683 52.6502 26.7713 52.547 27.0802 52.547C28.6247 52.547 30.2722 52.547 31.8167 52.547C32.1256 52.547 32.2286 52.6502 32.2286 52.9599C32.2286 53.4761 32.2286 54.0955 32.2286 54.6117C32.2286 55.0246 32.4345 55.4376 32.9493 55.4376C33.4642 55.4376 33.5671 55.1279 33.6701 54.6117C33.6701 54.0955 33.6701 53.5793 33.6701 53.0632C33.6701 52.8567 33.5671 52.4437 33.979 52.547C34.3909 52.547 35.0087 52.3405 35.0087 52.9599C35.1116 53.889 35.2146 54.9214 34.9057 55.8505C34.6998 56.8829 33.6701 57.6055 32.5375 57.6055C31.6108 57.7088 30.4781 57.7088 29.4485 57.7088Z" fill="#F6C94D"/>
<path d="M32.3316 62.6641C32.3316 64.3159 31.096 65.5547 29.4485 65.5547C27.904 65.5547 26.5654 64.2126 26.5654 62.6641C26.5654 61.0123 27.801 59.7735 29.3455 59.7735C31.096 59.7735 32.3316 61.0123 32.3316 62.6641Z" fill="#A57454"/>
<path d="M46.6441 49.4499C46.2322 49.4499 45.8203 49.3467 45.4085 49.1402C44.8936 48.8305 44.2758 48.5208 43.761 48.2111C43.3491 48.0046 43.2462 47.6949 43.4521 47.282C43.761 46.7658 43.9669 46.5593 44.4818 46.9723C44.8936 47.282 45.3055 47.4885 45.8203 47.6949C46.2322 47.9014 46.5411 47.7982 46.747 47.4885C46.953 47.0755 46.747 46.7658 46.4381 46.5593C45.9233 46.2496 45.4085 45.9399 44.8936 45.6302C44.5847 45.527 44.5847 45.3205 44.6877 45.114C45.5114 43.772 46.3352 42.3267 47.0559 40.9846C47.2619 40.6749 47.3648 40.6749 47.5708 40.8814C47.9826 41.1911 48.4975 41.3975 48.9093 41.7073C49.3212 41.9137 49.7331 42.1202 50.042 41.604C50.3509 41.0878 50.042 40.7781 49.5271 40.5717C49.1153 40.3652 48.7034 40.1587 48.2915 39.849C48.0856 39.7458 47.6737 39.7458 47.9826 39.3328C48.1886 39.0231 48.2915 38.3005 48.9093 38.6102C49.836 39.0231 50.7627 39.4361 51.4835 40.1587C52.2043 40.8814 52.4102 42.017 51.8954 42.9461C50.8657 44.8043 49.7331 46.6626 48.7034 48.5208C48.2915 49.1402 47.5708 49.4499 46.6441 49.4499Z" fill="#F9A166"/>
<path d="M54.7785 50.9985C53.1311 50.9985 51.7925 49.7596 51.7925 48.1079C51.7925 46.5593 53.131 45.2173 54.6756 45.2173C56.2201 45.2173 57.6616 46.5593 57.6616 48.2111C57.6616 49.6564 56.323 50.9985 54.7785 50.9985Z" fill="#D68648"/>
<path d="M46.4384 17.4468C47.674 17.4468 48.3948 17.8598 48.8067 18.5824C49.8363 20.4407 50.969 22.1957 51.9986 24.0539C52.6164 25.1895 52.3075 26.6348 51.1749 27.3575C50.5571 27.7704 49.9393 28.0801 49.4245 28.3898C48.8067 28.8028 48.6007 28.2866 48.2918 27.8736C47.88 27.3575 48.3948 27.3575 48.6007 27.151C49.0126 26.8413 49.5274 26.6348 49.9393 26.3251C50.3512 26.1186 50.4541 25.8089 50.2482 25.396C50.0423 24.983 49.6304 24.983 49.3215 25.1895C48.8067 25.4992 48.2918 25.7057 47.777 26.1186C47.4681 26.3251 47.3651 26.2219 47.1592 25.9122C46.4384 24.5701 45.6147 23.228 44.791 21.886C44.585 21.5763 44.585 21.3698 44.9969 21.2666C45.5117 21.0601 45.9236 20.7504 46.3355 20.5439C46.7473 20.3374 47.0562 20.0277 46.7473 19.5116C46.4384 19.0986 46.0266 19.0986 45.7177 19.4083C45.3058 19.6148 44.8939 19.9245 44.3791 20.131C44.1731 20.2342 43.9672 20.5439 43.7613 20.131C43.5553 19.8213 43.0405 19.3051 43.5553 18.9954C44.482 18.376 45.5117 17.5501 46.4384 17.4468Z" fill="#89C34A"/>
<path d="M51.8955 18.8921C51.8955 17.3436 53.2341 16.0015 54.7786 16.0015C56.3231 16.0015 57.6616 17.3436 57.6616 18.8921C57.6616 20.4407 56.3231 21.7827 54.7786 21.886C53.2341 21.7827 51.8955 20.4407 51.8955 18.8921Z" fill="#F5A065"/>
<path d="M12.5619 49.4499C11.4293 49.4499 10.7085 49.037 10.1937 48.3143C9.164 46.4561 8.03137 44.5978 7.0017 42.7396C6.3839 41.604 6.79576 40.1587 7.82543 39.5393C8.44323 39.1263 9.06103 38.8166 9.57587 38.5069C9.7818 38.4037 9.98774 38.3005 10.1937 38.4037C10.5026 38.6102 10.6055 39.0231 10.8115 39.3328C10.8115 39.436 10.6055 39.5393 10.5026 39.5393C9.98774 39.849 9.4729 40.1587 8.95807 40.4684C8.5462 40.6749 8.44323 40.9846 8.64917 41.3975C8.8551 41.8105 9.26697 41.8105 9.57587 41.604C10.0907 41.2943 10.6055 41.0878 11.1204 40.6749C11.4293 40.4684 11.5322 40.5716 11.7382 40.8813C12.5619 42.2234 13.2827 43.6687 14.1064 45.0108C14.3123 45.3205 14.2094 45.4237 13.9005 45.6302C13.3856 45.9399 12.8708 46.2496 12.356 46.5593C11.9441 46.7658 11.8411 47.0755 12.0471 47.4884C12.253 47.9014 12.6649 47.9014 12.9738 47.6949C13.4886 47.4884 13.9005 47.1787 14.4153 46.869C14.6212 46.7658 14.8272 46.3528 15.0331 46.7658C15.239 47.0755 15.7539 47.5917 15.342 47.9014C14.5183 48.624 13.5916 49.3467 12.5619 49.4499Z" fill="#76CEF0"/>
<path d="M4.22194 50.9985C2.57447 50.9985 1.33887 49.6564 1.33887 48.1079C1.33887 46.4561 2.67744 45.114 4.32491 45.2173C5.86941 45.114 7.20798 46.4561 7.20798 48.1079C7.20798 49.7596 5.86941 50.9985 4.22194 50.9985Z" fill="#F8D0B5"/>
<path d="M12.4592 17.5501C12.7681 17.5501 13.18 17.6533 13.4889 17.8598C14.1067 18.1695 14.7245 18.5824 15.2393 18.8921C15.6512 19.0986 15.6512 19.4083 15.5482 19.718C15.2393 20.4407 15.1364 20.4407 14.5186 20.0277C14.1067 19.8213 13.6948 19.5116 13.283 19.3051C12.8711 19.0986 12.5622 19.0986 12.2533 19.5116C12.0474 19.9245 12.2533 20.2342 12.5622 20.4407C13.077 20.7504 13.5919 21.0601 14.1067 21.3698C14.3126 21.473 14.4156 21.5763 14.3126 21.886C13.4889 23.228 12.6652 24.6733 11.9444 26.0154C11.7385 26.3251 11.6355 26.3251 11.4296 26.1186C10.9147 25.8089 10.3999 25.4992 9.88507 25.1895C9.4732 24.9831 9.1643 24.9831 8.95837 25.396C8.75243 25.8089 8.8554 26.1186 9.26727 26.4284C9.7821 26.7381 10.194 26.9445 10.7088 27.2542C10.9147 27.3575 11.2236 27.3575 11.0177 27.6672C10.8118 27.9769 10.7088 28.6995 10.091 28.3898C9.26727 27.9769 8.44353 27.5639 7.72276 26.9445C6.89903 26.2219 6.6931 24.9831 7.20793 24.0539C8.2376 22.1957 9.37023 20.3374 10.3999 18.4792C10.7088 17.8598 11.4296 17.4468 12.4592 17.5501Z" fill="#76CEF0"/>
<path d="M4.22188 16.0015C5.86935 16.0015 7.10495 17.2404 7.10495 18.8921C7.10495 20.5439 5.76638 21.886 4.11891 21.886C2.57441 21.886 1.23584 20.5439 1.23584 18.8921C1.33881 17.2404 2.67738 16.0015 4.22188 16.0015Z" fill="#F8D0B5"/>
</svg>
