<svg width="65" height="58" viewBox="0 0 65 58" fill="none" xmlns="http://www.w3.org/2000/svg">
<g clip-path="url(#clip0_441_17552)">
<path d="M50.7002 24.5C50.2002 24.5 50.0002 24.3 49.9002 23.9C48.8002 19.5 46.6002 15.8 43.1002 12.8C38.0002 8.4 32.1002 6.8 25.5002 7.8C24.5002 7.9 24.1002 8.4 24.1002 9.4C22.9002 9.7 21.8002 10.1 20.7002 10.6C19.3002 8.9 17.6002 7.5 16.2002 5.9C16.3002 5.8 16.4002 5.8 16.5002 5.7C22.0002 2.8 27.8002 1.9 33.9002 3C39.5002 4 44.2002 6.6 48.1002 10.6C50.2002 12.7 51.8002 15.1 53.0002 17.7C55.8002 23.4 53.4002 24.2 50.7002 24.5Z" fill="#FDFDFD"/>
<path d="M64.9002 39.4C64.6002 40.1 64.3002 40.8 63.8002 41.5C63.7002 41.6 63.7002 41.9 63.7002 42.1C63.7002 46.3 63.7002 50.5 63.7002 54.8C63.7002 56.5 62.9002 57.6 61.5002 58C61.2002 58 60.9002 58 60.6002 58C50.0002 58 39.5002 58 28.9002 58C15.6002 58 4.00024 48.9 0.900236 36C-0.899764 28.7 0.000236511 21.6 3.70024 15C4.00024 14.5 4.00024 14.1 3.50024 13.7C2.50024 12.8 1.60024 11.8 0.600236 10.8C0.200236 10.4 -0.0997636 9.9 0.100236 9.2C0.400236 8.6 1.00024 8.4 1.60024 8.4C3.70024 8.4 5.80024 8.4 7.90024 8.4C8.40024 8.4 8.50024 8.3 8.50024 7.8C8.50024 5.7 8.50024 3.6 8.50024 1.5C8.50024 0.800002 8.70024 0.300002 9.30024 0.100002C9.90024 -0.0999981 10.4002 0.100002 10.8002 0.600002C11.8002 1.6 12.9002 2.6 13.9002 3.7C14.2002 4 14.4002 4 14.8002 3.8C17.9002 2 21.3002 0.900002 24.9002 0.400002C27.4002 1.87755e-06 30.0002 1.87755e-06 32.5002 0.300002C36.1002 0.700002 39.5002 1.8 42.7002 3.5C48.3002 6.5 52.5002 11 55.3002 16.7C55.7002 17.5 55.4002 18.2 54.7002 18.5C54.0002 18.8 53.3002 18.6 53.0002 17.8C51.7002 15.2 50.1002 12.8 48.1002 10.7C44.2002 6.7 39.4002 4.1 33.9002 3.1C27.8002 1.9 22.0002 2.8 16.6002 5.7C16.5002 5.7 16.4002 5.8 16.3002 5.9C17.8002 7.5 19.4002 8.9 20.8002 10.6C20.9002 13 20.9002 15.5 20.8002 17.9C20.8002 18.8 21.1002 19.5 21.8002 20C21.9002 20.1 22.0002 20.3 22.2002 20.4C24.3002 22.5 26.4002 24.6 28.5002 26.7C29.2002 27.4 29.2002 28.1 28.7002 28.6C28.2002 29.2 27.4002 29.1 26.7002 28.4C26.2002 28 25.8002 27.5 25.4002 27.1C23.6002 25.3 21.8002 23.5 20.0002 21.8C19.5002 21.1 18.9002 20.8 17.9002 20.8C15.8002 20.9 13.6002 20.8 11.5002 20.8C11.2002 20.8 10.9002 20.8 10.6002 20.7C10.3002 20.5 10.1002 20.3 9.80024 20.1C8.50024 18.8 7.20024 17.6 5.90024 16.3C5.90024 16.3 5.90024 16.3 5.80024 16.4C2.70024 22.1 1.80024 28.1 3.10024 34.5C4.30024 40 7.00024 44.7 11.3002 48.5C16.1002 52.9 21.8002 55.1 28.3002 55.4C28.6002 55.4 28.7002 55.3 28.7002 55C28.7002 53.7 28.7002 52.4 28.7002 51.1C28.7002 50.6 28.6002 50.4 28.1002 50.4C23.4002 50.2 19.1002 48.6 15.4002 45.5C9.10024 40.1 6.60024 33.2 7.90024 24.9C8.10024 23.8 8.40024 23.5 9.50024 23.5C10.3002 24 10.6002 24.4 10.4002 25.4C9.90024 27.8 9.90024 30.2 10.4002 32.6C11.5002 37.8 14.3002 41.9 18.8002 44.8C21.6002 46.7 24.8002 47.6 28.2002 47.8C28.6002 47.8 28.7002 47.7 28.7002 47.3C28.7002 45.7 28.7002 44.1 28.7002 42.5C28.7002 41.7 28.6002 41 28.0002 40.4C27.8002 39.8 27.5002 39.3 27.5002 38.6C27.5002 36 27.5002 33.4 27.5002 30.8C27.5002 29.6 27.9002 29.1 29.2002 29.1C32.0002 29.1 34.8002 29.1 37.7002 29.1C38.3002 29.1 38.4002 28.9 38.4002 28.4C38.4002 27.9 38.4002 27.4 38.4002 26.9C38.3002 25.7 38.8002 24.8 39.9002 24.3C40.3002 24.2 40.7002 24.2 41.1002 24.2C43.0002 24.2 45.0002 24.2 46.9002 24.2C47.4002 24.2 47.6002 24.2 47.4002 23.6C45.7002 17.9 42.2002 13.8 36.8002 11.4C33.4002 9.8 29.7002 9.4 26.0002 10C25.0002 10.2 24.7002 10 24.2002 9.1C24.2002 8.1 24.6002 7.6 25.6002 7.5C32.2002 6.5 38.1002 8.2 43.2002 12.5C46.6002 15.4 48.9002 19.2 50.0002 23.6C50.1002 24.1 50.3002 24.3 50.8002 24.2C53.4002 24 54.4002 25.2 54.2002 27.6C54.2002 28.1 54.0002 28.8 54.3002 29.1C54.6002 29.4 55.3002 29.2 55.8002 29.2C58.3002 29.2 60.8002 29.2 63.3002 29.2C64.1002 29.2 64.7002 29.4 65.1002 30.1C64.9002 33.3 64.9002 36.4 64.9002 39.4ZM46.2002 55.5C46.7002 55.5 47.2002 55.5 47.7002 55.5C51.9002 55.5 56.1002 55.5 60.4002 55.5C61.0002 55.5 61.2002 55.3 61.2002 54.7C61.2002 54 61.2002 53.2 61.2002 52.5C61.2002 52 61.1002 51.9 60.6002 51.9C58.1002 51.9 55.7002 51.9 53.2002 51.9C52.7002 51.9 52.3002 51.8 51.9002 51.4C51.6002 51 51.5002 50.6 51.7002 50.1C51.9002 49.5 52.4002 49.3 53.0002 49.3C55.5002 49.3 58.1002 49.3 60.6002 49.3C60.9002 49.3 61.1002 49.4 61.1002 48.9C61.1002 47 61.1002 45.1 61.1002 43.1C61.1002 42.8 61.0002 42.7 60.7002 42.7C57.3002 42.7 53.8002 42.7 50.4002 42.7C50.0002 42.7 49.9002 42.8 49.8002 43.2C49.4002 44.8 47.9002 46 46.3002 46C44.5002 46 43.0002 45 42.6002 43.3C42.5002 42.8 42.2002 42.7 41.8002 42.7C38.5002 42.7 35.1002 42.7 31.8002 42.7C31.3002 42.7 31.3002 42.8 31.3002 43.3C31.3002 47 31.3002 50.7 31.3002 54.4C31.3002 55.2 31.4002 55.3 32.2002 55.3C36.8002 55.5 41.5002 55.5 46.2002 55.5ZM46.2002 31.9C41.0002 31.9 35.8002 31.9 30.6002 31.9C30.2002 31.9 30.0002 32 30.0002 32.4C30.0002 34.3 30.0002 36.2 30.0002 38.1C30.0002 39.6 30.8002 40.3 32.3002 40.4C35.3002 40.4 38.4002 40.4 41.4002 40.4C42.3002 40.4 42.3002 40.4 42.4002 39.5C42.4002 38.4 43.0002 37.8 43.9002 37.8C45.4002 37.8 46.9002 37.8 48.5002 37.8C49.1002 37.8 49.6002 38.1 49.9002 38.7C50.1002 39.1 50.0002 39.5 50.0002 39.9C50.0002 40.3 50.1002 40.5 50.6002 40.5C53.8002 40.5 57.0002 40.5 60.2002 40.5C61.6002 40.5 62.4002 39.7 62.4002 38.3C62.4002 36.4 62.4002 34.5 62.4002 32.6C62.4002 32.1 62.3002 32 61.8002 32C56.6002 31.9 51.4002 31.9 46.2002 31.9ZM16.3002 18.2C16.3002 18.1 16.4002 18.1 16.4002 18C14.1002 15.7 11.8002 13.4 9.40024 11.2C9.40024 11.1 9.30024 11 9.10024 11C7.60024 11 6.00024 11 4.50024 11C4.50024 11.1 4.40024 11.1 4.40024 11.2C6.70024 13.5 9.10024 15.8 11.4002 18.1C11.5002 18.2 11.6002 18.2 11.7002 18.2C13.3002 18.2 14.8002 18.2 16.3002 18.2ZM11.2002 4.4C11.1002 4.4 11.1002 4.4 11.0002 4.5C11.0002 5.9 11.0002 7.3 11.0002 8.7C11.0002 9 11.1002 9.3 11.3002 9.5C13.5002 11.7 15.6002 13.8 17.8002 16C17.9002 16.1 18.0002 16.3 18.2002 16.3C18.2002 14.8 18.2002 13.4 18.2002 11.9C18.2002 11.6 18.1002 11.5 17.9002 11.3C15.8002 9 13.5002 6.7 11.2002 4.4ZM46.1002 29.4C47.3002 29.4 48.5002 29.4 49.6002 29.4C50.2002 29.4 51.0002 29.6 51.4002 29.3C51.8002 28.9 51.5002 28.1 51.5002 27.5C51.5002 27.1 51.4002 27 51.0002 27C47.7002 27 44.5002 27 41.2002 27C40.8002 27 40.7002 27.1 40.7002 27.5C40.7002 28 40.7002 28.4 40.7002 28.9C40.7002 29.3 40.8002 29.5 41.2002 29.5C42.9002 29.4 44.5002 29.4 46.1002 29.4ZM47.4002 41.6C47.4002 41.3 47.4002 41 47.4002 40.7C47.4002 40.3 47.3002 40.2 46.9002 40.3C46.4002 40.3 45.8002 40.3 45.3002 40.3C45.1002 40.3 44.9002 40.3 44.9002 40.6C44.9002 41.3 44.8002 42 45.0002 42.7C45.1002 43.3 45.6002 43.7 46.2002 43.7C46.8002 43.7 47.3002 43.2 47.4002 42.6C47.4002 42.3 47.4002 41.9 47.4002 41.6Z" fill="#080807"/>
<path d="M24.1004 9.39999C24.6004 10.3 24.9004 10.5 25.9004 10.3C29.6004 9.69999 33.3004 10.1 36.7004 11.7C42.1004 14.1 45.6004 18.2 47.3004 23.9C47.5004 24.5 47.3004 24.5 46.8004 24.5C44.9004 24.5 42.9004 24.5 41.0004 24.5C40.6004 24.5 40.2004 24.5 39.8004 24.6C39.3004 23.5 38.7004 22.4 37.9004 21.5C38.4004 20.7 38.4004 20.1 37.8004 19.5C34.0004 16.2 29.6004 15.3 24.8004 16.8C23.9004 17.1 23.7004 17.6 23.9004 18.6C23.2004 18.9 22.5004 19.4 21.9004 19.9C21.2004 19.4 20.9004 18.8 20.9004 17.8C21.0004 15.4 21.0004 12.9 20.9004 10.5C21.9004 9.99999 23.0004 9.69999 24.1004 9.39999Z" fill="#F16764"/>
<path d="M54.7002 22.3C54.7002 21.6 55.2002 21.1 56.0002 21.1C56.7002 21.1 57.3002 21.7 57.3002 22.4C57.3002 23.1 56.7002 23.7 56.0002 23.6C55.2002 23.7 54.7002 23.1 54.7002 22.3Z" fill="#080807"/>
<path d="M46.2002 55.5C41.5002 55.5 36.8002 55.5 32.1002 55.5C31.3002 55.5 31.2002 55.4 31.2002 54.6C31.2002 50.9 31.2002 47.2 31.2002 43.5C31.2002 43.1 31.3002 42.9 31.7002 42.9C35.0002 42.9 38.4002 42.9 41.7002 42.9C42.2002 42.9 42.4002 43 42.5002 43.5C43.0002 45.2 44.4002 46.2 46.2002 46.2C47.9002 46.2 49.3002 45 49.7002 43.4C49.8002 43 50.0002 42.9 50.3002 42.9C53.7002 42.9 57.2002 42.9 60.6002 42.9C60.9002 42.9 61.0002 43 61.0002 43.3C61.0002 45.2 61.0002 47.1 61.0002 49.1C61.0002 49.6 60.7002 49.5 60.5002 49.5C58.0002 49.5 55.4002 49.5 52.9002 49.5C52.3002 49.5 51.8002 49.7 51.6002 50.3C51.4002 50.8 51.5002 51.2 51.8002 51.6C52.1002 52 52.6002 52.1 53.1002 52.1C55.6002 52.1 58.0002 52.1 60.5002 52.1C61.0002 52.1 61.1002 52.2 61.1002 52.7C61.1002 53.4 61.1002 54.2 61.1002 54.9C61.1002 55.5 60.9002 55.7 60.3002 55.7C56.1002 55.7 51.9002 55.7 47.6002 55.7C47.2002 55.5 46.7002 55.5 46.2002 55.5ZM46.6002 49.4C45.9002 49.4 45.4002 50 45.3002 50.6C45.3002 51.3 45.9002 51.9 46.6002 51.9C47.3002 51.9 47.9002 51.3 47.9002 50.6C47.9002 50 47.3002 49.4 46.6002 49.4Z" fill="#84C8EF"/>
<path d="M46.2 31.9C51.4 31.9 56.6 31.9 61.8 31.9C62.3 31.9 62.4 32 62.4 32.5C62.4 34.4 62.4 36.3 62.4 38.2C62.4 39.6 61.6 40.4 60.2 40.4C57 40.4 53.8 40.4 50.6 40.4C50.2 40.4 50 40.3 50 39.8C50 39.4 50.1 39 49.9 38.6C49.6 38 49.2 37.7 48.5 37.7C47 37.7 45.5 37.7 43.9 37.7C43 37.7 42.4 38.4 42.4 39.4C42.4 40.3 42.4 40.3 41.4 40.3C38.4 40.3 35.3 40.3 32.3 40.3C30.8 40.3 30 39.5 30 38C30 36.1 30 34.2 30 32.3C30 31.8 30.1 31.8 30.6 31.8C35.8 31.9 41 31.9 46.2 31.9Z" fill="#C8E9FA"/>
<path d="M9.50044 23.7C8.40044 23.7 8.00044 24 7.90044 25.1C6.60044 33.4 9.10044 40.2 15.4004 45.7C19.0004 48.8 23.3004 50.3 28.1004 50.6C28.7004 50.6 28.7004 50.8 28.7004 51.3C28.7004 52.6 28.7004 53.9 28.7004 55.2C28.7004 55.5 28.6004 55.6 28.3004 55.6C21.8004 55.3 16.1004 53 11.3004 48.7C7.00044 44.7 4.30044 40 3.20044 34.4C1.80044 28.1 2.80044 22 5.80044 16.3L5.90044 16.2C7.20044 17.5 8.50044 18.8 9.80044 20C10.0004 20.2 10.3004 20.4 10.6004 20.6C10.2004 21.7 9.80044 22.7 9.50044 23.7Z" fill="#FDFDFD"/>
<path d="M37.9004 21.5C38.7004 22.4 39.3004 23.5 39.8004 24.6C38.7004 25.1 38.2004 26 38.3004 27.2C38.3004 27.7 38.3004 28.2 38.3004 28.7C38.3004 29.2 38.2004 29.4 37.6004 29.4C34.8004 29.4 32.0004 29.4 29.1004 29.4C27.9004 29.4 27.4004 29.8 27.4004 31.1C27.4004 33.7 27.4004 36.3 27.4004 38.9C27.4004 39.5 27.7004 40.1 27.9004 40.7C26.6004 40.5 25.3004 40.3 24.1004 39.6C24.3004 38.6 24.2004 38.3 23.2004 37.7C19.3004 35 17.7004 30.7 19.0004 26C19.3004 25.1 19.1004 24.7 18.4004 24.1C18.8004 23.2 19.3004 22.5 19.8004 21.8C21.6004 23.6 23.4004 25.4 25.2004 27.1C25.6004 27.5 26.1004 28 26.5004 28.4C27.2004 29.1 28.0004 29.1 28.5004 28.6C29.0004 28 29.0004 27.3 28.3004 26.7C26.2004 24.6 24.1004 22.5 22.0004 20.4C21.9004 20.3 21.8004 20.1 21.6004 20C22.2004 19.5 22.9004 19 23.6004 18.7C24.2004 19.5 24.5004 19.6 25.4004 19.3C26.3004 19 27.3004 18.8 28.2004 18.7C31.0004 18.6 33.5004 19.4 35.6004 21.3C36.7004 21.9 37.1004 21.9 37.9004 21.5Z" fill="#FDFDFD"/>
<path d="M19.9 21.8C19.3 22.5 18.8 23.3 18.5 24.1C17.4 24 17 24.2 16.7 25.3C16.4 26.2 16.2 27.2 16.2 28.1C16 33.1 18 37.1 22.2 39.9C23 40.4 23.6 40.3 24.2 39.5C25.4 40.1 26.7 40.4 28 40.6C28.6 41.2 28.7 41.9 28.7 42.7C28.6 44.3 28.7 45.9 28.7 47.5C28.7 47.9 28.7 48 28.2 48C24.8 47.8 21.7 46.9 18.8 45C14.3 42.1 11.5 38 10.4 32.8C9.9 30.4 9.9 28 10.4 25.6C10.6 24.6 10.4 24.2 9.5 23.7C9.7 22.7 10.1 21.7 10.5 20.7C10.8 20.8 11.1 20.8 11.4 20.8C13.5 20.8 15.7 20.9 17.8 20.8C18.8 20.7 19.4 21 19.9 21.8Z" fill="#F16764"/>
<path d="M16.3 18.2C14.8 18.2 13.3 18.2 11.8 18.2C11.7 18.2 11.6 18.1 11.5 18.1C9.2 15.8 6.8 13.5 4.5 11.2C4.5 11.1 4.6 11.1 4.6 11C6.1 11 7.7 11 9.2 11C9.4 11 9.5 11.1 9.6 11.2C11.9 13.5 14.2 15.8 16.6 18C16.4 18.1 16.4 18.2 16.3 18.2Z" fill="#BCDA83"/>
<path d="M11.2001 4.40001C13.5001 6.70001 15.7001 9.00001 18.0001 11.3C18.2001 11.5 18.3001 11.7 18.3001 11.9C18.3001 13.4 18.3001 14.8 18.3001 16.3C18.1001 16.3 18.0001 16.2 17.9001 16C15.7001 13.8 13.6001 11.7 11.4001 9.50001C11.2001 9.30001 11.1001 9.00001 11.1001 8.70001C11.1001 7.30001 11.1001 5.90001 11.1001 4.50001C11.1001 4.50001 11.2001 4.50001 11.2001 4.40001Z" fill="#BCDA83"/>
<path d="M46.1005 29.4C44.5005 29.4 42.9005 29.4 41.3005 29.4C40.8005 29.4 40.7005 29.3 40.8005 28.8C40.8005 28.3 40.8005 27.9 40.8005 27.4C40.8005 27 40.9005 26.9 41.3005 26.9C44.6005 26.9 47.8005 26.9 51.1005 26.9C51.5005 26.9 51.6005 27 51.6005 27.4C51.5005 28 51.9005 28.9 51.5005 29.2C51.2005 29.5 50.3005 29.3 49.7005 29.3C48.5005 29.4 47.3005 29.4 46.1005 29.4Z" fill="#FDFDFD"/>
<path d="M47.4004 41.6C47.4004 41.9 47.4004 42.3 47.4004 42.6C47.3004 43.2 46.8004 43.7 46.2004 43.7C45.6004 43.7 45.1004 43.3 45.0004 42.7C44.9004 42 45.0004 41.3 44.9004 40.6C44.9004 40.3 45.1004 40.3 45.3004 40.3C45.8004 40.3 46.4004 40.3 46.9004 40.3C47.2004 40.3 47.4004 40.4 47.4004 40.7C47.4004 41 47.4004 41.3 47.4004 41.6Z" fill="#FDFDFD"/>
<path d="M37.9005 21.5C37.1005 22 36.7005 22 35.9005 21.3C33.8005 19.4 31.3005 18.6 28.5005 18.7C27.5005 18.7 26.6005 18.9 25.7005 19.3C24.8005 19.6 24.4005 19.5 23.9005 18.7C23.7005 17.8 23.9005 17.2 24.8005 16.9C29.7005 15.3 34.0005 16.2 37.8005 19.6C38.4005 20.1 38.4005 20.6 37.9005 21.5Z" fill="#080807"/>
<path d="M46.6003 49.4C47.3003 49.4 47.9003 50 47.9003 50.7C47.9003 51.3 47.3003 52 46.6003 52C45.9003 52 45.3003 51.4 45.3003 50.7C45.4003 50 46.0003 49.4 46.6003 49.4Z" fill="#080807"/>
<path d="M24.2002 39.6C23.6002 40.4 23.0002 40.5 22.2002 40C18.0002 37.2 16.0002 33.3 16.2002 28.2C16.2002 27.2 16.4002 26.3 16.7002 25.4C17.0002 24.3 17.4002 24.1 18.5002 24.2C19.3002 24.8 19.4002 25.1 19.1002 26.1C17.8002 30.7 19.4002 35 23.3002 37.8C24.3002 38.3 24.4002 38.6 24.2002 39.6Z" fill="#080807"/>
</g>
<defs>
<clipPath id="clip0_441_17552">
<rect width="64.9" height="58" fill="white"/>
</clipPath>
</defs>
</svg>
