<svg width="186" height="185" viewBox="0 0 186 185" fill="none" xmlns="http://www.w3.org/2000/svg">
<g filter="url(#filter0_d_2094_26710)">
<rect x="4.00047" width="177.52" height="176.914" rx="20" fill="white" fill-opacity="0.5" shape-rendering="crispEdges"/>
</g>
<rect x="14.0005" y="10" width="157.538" height="157" rx="20" fill="white"/>
<path d="M49.6657 148.734C48.3822 148.624 47.5754 148 47.5021 146.717C47.172 139.823 47.9055 133.149 51.206 126.952C56.6702 116.648 65.215 110.671 76.6935 108.544C75.63 107.774 74.5298 107.041 73.5397 106.198C69.579 103.007 66.6819 99.0105 64.8849 94.2802C64.6282 93.6201 64.4082 93.2534 63.5647 93.2534C58.4672 93.0334 54.0298 88.8531 53.5531 83.8662C53.0396 78.3658 56.4135 73.4522 61.5477 72.1321C62.0978 71.9854 63.198 72.3154 63.0513 71.2154C62.9046 70.0053 63.8581 68.5752 61.9878 67.7318C56.9636 65.4583 53.1863 61.6081 49.7391 57.3912C49.189 56.7311 49.189 55.9244 49.5557 55.191C49.9958 54.3476 50.6926 54.0176 51.6827 53.9809C55.6067 53.9443 57.8438 53.2842 60.1175 51.5975C54.9833 49.764 52.6362 45.7671 51.7194 40.7068C51.3894 38.8733 52.5262 37.5899 54.3599 37.8833C59.8974 38.69 64.9583 37.5166 69.6524 34.5831C71.4493 33.4463 71.9261 33.5197 73.5397 34.8397C73.613 35.9031 73.723 37.0032 72.6595 37.6632C70.0924 39.2033 67.5254 40.5601 64.7016 41.4035C62.3545 42.1002 59.9708 42.3202 57.5504 42.2102C56.6336 42.1735 56.3769 42.4669 56.8169 43.3103C57.367 44.3737 57.9538 45.3637 58.9073 46.1338C60.4108 47.4539 62.2078 47.8206 64.1148 47.9306C66.3885 48.0406 67.2686 49.434 66.0951 51.3774C65.0316 53.1742 63.4914 54.531 61.7311 55.6311C59.8974 56.8045 57.8804 57.3545 55.7534 58.0145C57.9538 60.068 60.1175 61.9014 62.6112 63.4049C64.8116 64.7616 67.0853 64.725 69.469 64.3583C76.2168 63.2215 82.0111 60.2513 86.5585 55.081C88.4655 52.9175 89.9324 53.9443 91.0326 55.5944C92.2794 57.4278 93.1229 59.4446 93.5263 61.6081C93.673 62.4515 93.9297 62.5982 94.6998 62.3415C96.6068 61.6814 98.4404 60.838 100.091 59.6646C102.291 58.0879 103.941 56.1077 105.335 53.7976C106.325 52.1842 107.902 52.2208 108.966 53.7243C109.186 54.0543 109.406 54.421 109.626 54.7877C111.423 57.7578 113.55 60.508 116.08 62.9282C116.74 63.5515 117.07 63.4782 117.51 62.7448C118.134 61.7181 118.757 60.728 119.234 59.628C120.811 55.9611 120.994 52.1475 120.811 48.2606C120.737 46.4638 120.371 44.7404 119.601 43.1269C117.474 38.69 113.513 37.5166 109.076 37.2966C107.792 37.2232 106.875 36.8565 105.922 36.0131C101.741 32.2362 96.8268 30.1094 91.1426 30.1461C87.3286 30.1828 83.808 31.5029 80.4341 33.153C79.1139 33.813 77.9404 33.9597 76.8402 32.8229C76.3268 30.9895 76.5835 30.3661 78.2705 29.5227C82.5245 27.4693 86.9619 25.9292 91.8394 26.0025C97.817 26.1125 103.025 28.276 107.645 31.9796C108.562 32.7129 109.442 33.1163 110.689 33.1896C118.647 33.6297 124.075 39.02 124.918 46.9772C125.505 52.4408 124.881 57.7212 122.424 62.6715C121.838 63.8082 121.288 65.0183 120.334 65.8617C118.537 67.4751 119.344 69.4919 119.197 71.362C119.124 72.0588 119.857 71.8754 120.224 71.9854C124.735 73.1222 127.522 75.9457 128.549 80.4559C129.942 86.5797 125.065 92.9234 118.757 93.1801C118.097 93.2168 117.694 93.2901 117.437 94.0235C115.2 100.037 111.313 104.731 105.885 108.178C105.775 108.251 105.702 108.324 105.482 108.508C111.386 109.424 116.703 111.588 121.324 115.218C129.942 122.002 134.49 130.912 134.71 141.913C134.856 149.174 134.71 156.434 134.746 163.731C134.746 164.941 134.343 165.821 133.353 166.481C105.188 166.481 76.9869 166.481 48.8223 166.481C47.7588 165.821 47.4287 164.868 47.4287 163.621C47.5021 160.834 47.4287 158.084 47.4654 155.297C47.4654 153.684 47.9788 153.061 49.6291 152.731C51.0593 153.024 51.6461 153.904 51.6094 155.371C51.5361 157.277 51.6827 159.221 51.5727 161.128C51.5361 162.191 51.9028 162.411 52.8929 162.374C56.1935 162.301 59.494 162.301 62.7579 162.374C63.7847 162.411 63.9314 162.044 63.9314 161.128C63.8948 156.361 63.9314 151.63 63.9314 146.863C63.9314 145.103 64.6282 144.223 65.9851 144.223C67.342 144.223 68.0388 145.103 68.0754 146.863C68.0754 151.667 68.1121 156.471 68.0754 161.274C68.0754 162.191 68.3322 162.374 69.2123 162.374C83.8447 162.338 98.4771 162.338 113.11 162.374C114.026 162.374 114.21 162.081 114.21 161.238C114.173 156.434 114.21 151.63 114.21 146.827C114.21 146.313 114.173 145.837 114.43 145.36C114.943 144.443 115.713 144.04 116.703 144.26C117.804 144.517 118.317 145.323 118.317 146.46C118.317 151.41 118.317 156.324 118.317 161.274C118.317 161.934 118.28 162.374 119.197 162.338C122.718 162.264 126.238 162.301 129.759 162.338C130.419 162.338 130.602 162.154 130.602 161.494C130.492 154.087 130.932 146.68 130.382 139.31C129.869 132.819 127.229 127.209 122.974 122.369C122.424 121.709 122.131 121.709 121.544 122.369C117.877 126.476 114.136 130.582 110.396 134.653C109.222 135.936 108.525 136.083 106.949 135.239C105.995 133.993 106.325 132.929 107.315 131.829C111.276 127.539 115.2 123.212 119.161 118.812C118.574 118.372 118.024 117.932 117.474 117.565C115.457 116.172 115.457 116.172 113.843 117.968C106.985 125.522 100.127 133.076 93.2696 140.593C91.656 142.39 90.6292 142.353 88.9789 140.556C86.8152 138.21 84.6882 135.826 82.5245 133.443C77.5737 127.979 72.6229 122.552 67.672 117.125C67.3787 116.795 67.1586 116.062 66.3885 116.538C65.2883 117.272 64.1148 117.895 63.1613 118.848C71.8894 128.456 80.5808 138.026 89.2723 147.597C90.5558 148.99 91.656 148.99 92.9395 147.56C95.5433 144.7 98.1837 141.803 100.787 138.943C102.071 137.55 102.548 137.44 104.235 138.246C105.115 139.75 105.078 140.41 103.941 141.656C101.301 144.553 98.6605 147.45 96.02 150.384C95.1399 151.337 94.1864 152.144 92.9029 152.51C89.969 153.354 87.732 152.217 85.7517 150.054C77.427 140.776 68.9923 131.573 60.6309 122.332C60.0808 121.745 59.8241 121.745 59.274 122.332C56.8903 125.009 55.0566 128.016 53.6997 131.316C51.7561 136.046 51.426 141.033 51.5727 146.057C51.6827 147.524 51.1327 148.44 49.6657 148.734ZM86.7052 129.922C86.6685 129.922 86.6318 129.886 86.5952 129.886C86.5952 129.922 86.5585 129.959 86.5585 130.032C86.5585 130.692 86.1918 131.353 86.8152 131.976C88.0987 133.333 89.3456 134.726 90.5925 136.119C90.9959 136.596 91.2526 136.596 91.656 136.119C92.7562 134.836 93.893 133.589 95.0665 132.379C95.8 131.646 96.02 130.876 95.5433 129.959C95.1399 127.502 94.7365 125.045 94.3331 122.589C94.2598 122.075 94.003 121.855 93.4163 121.855C91.9127 121.892 90.4091 121.892 88.9055 121.855C88.3188 121.855 88.0621 122.075 87.9887 122.589C87.512 125.009 87.1086 127.466 86.7052 129.922ZM88.3554 59.408C82.5978 64.9083 75.8134 67.9885 68.0388 68.7219C67.122 68.7952 67.232 69.3452 67.232 69.932C67.232 75.0656 67.232 80.1626 67.232 85.2963C67.232 86.543 67.4153 87.7531 67.672 88.9632C70.5325 102.164 82.4145 110.121 95.8 107.811C106.142 106.014 114.833 96.0403 115.017 85.6629C115.127 79.9059 115.053 74.1489 115.053 68.3919C115.053 67.9885 115.163 67.5851 114.76 67.2551C111.679 64.945 109.406 61.9381 107.242 58.8213C107.059 58.9679 106.912 59.1146 106.802 59.2246C103.025 63.7716 98.1104 66.3017 92.3161 67.2918C90.2991 67.6218 89.3456 66.7784 89.4923 64.7983C89.5656 62.8915 89.3089 61.2047 88.3554 59.408ZM99.4673 127.539C103.501 123.102 107.425 118.812 111.386 114.448C108.305 113.201 105.225 112.578 101.998 112.468C99.6873 112.395 99.614 112.395 99.1739 114.631C98.8072 116.428 97.9637 118.225 98.1471 120.058C98.4038 122.479 98.9905 124.862 99.4673 127.539ZM82.7079 127.502C82.9646 126.182 83.2579 125.155 83.368 124.092C83.5513 122.515 84.2848 120.975 84.0647 119.398C83.7714 117.272 83.1479 115.218 82.6712 113.128C82.5978 112.798 82.5978 112.431 82.0477 112.431C78.1971 112.395 74.4932 112.981 70.8259 114.485C74.7865 118.812 78.6739 123.065 82.7079 127.502ZM63.3447 89.0365C62.8312 85.0762 63.1246 81.2627 63.0513 77.4491C63.0146 76.0557 62.9046 75.9823 61.5844 76.569C59.054 77.6691 57.367 80.4926 57.6604 83.1694C57.9904 86.1396 60.0808 88.3398 63.3447 89.0365ZM118.867 88.9998C119.271 88.9265 119.564 88.8898 119.894 88.7798C122.498 88.0464 124.478 85.4429 124.588 82.6928C124.698 79.9426 122.828 77.2291 120.261 76.349C119.784 76.2023 119.161 75.7623 119.161 76.8257C119.087 80.896 119.344 84.9662 118.867 88.9998ZM90.9592 112.505C89.7857 112.651 88.3921 112.285 87.0352 112.688C87.3286 114.008 87.6587 115.328 87.842 116.685C87.952 117.345 88.2821 117.492 88.8322 117.492C90.3358 117.492 91.8394 117.455 93.3429 117.492C94.0397 117.492 94.2964 117.272 94.3698 116.575C94.5165 115.548 94.8098 114.558 95.1032 113.531C95.2866 112.835 95.2132 112.431 94.2964 112.505C93.2696 112.578 92.2061 112.505 90.9592 112.505Z" fill="#090807"/>
<path d="M106.876 135.276C108.453 136.12 109.15 135.973 110.323 134.689C114.027 130.583 117.768 126.512 121.472 122.405C122.058 121.745 122.352 121.782 122.902 122.405C127.193 127.282 129.833 132.893 130.31 139.346C130.896 146.717 130.456 154.161 130.53 161.531C130.53 162.191 130.346 162.375 129.686 162.375C126.166 162.338 122.645 162.338 119.125 162.375C118.208 162.375 118.244 161.971 118.244 161.311C118.244 156.361 118.244 151.447 118.244 146.497C118.244 145.323 117.731 144.553 116.631 144.297C115.641 144.077 114.871 144.48 114.357 145.397C114.1 145.873 114.137 146.35 114.137 146.864C114.137 151.667 114.1 156.471 114.137 161.274C114.137 162.155 113.954 162.411 113.037 162.411C98.4045 162.375 83.7721 162.375 69.1397 162.411C68.2595 162.411 68.0028 162.228 68.0028 161.311C68.0395 156.507 68.0395 151.704 68.0028 146.9C68.0028 145.14 67.306 144.26 65.9125 144.26C64.5556 144.26 63.8588 145.14 63.8588 146.9C63.8588 151.667 63.8221 156.397 63.8588 161.164C63.8588 162.081 63.7121 162.411 62.6853 162.411C59.3847 162.338 56.1209 162.338 52.8203 162.411C51.8301 162.448 51.4634 162.228 51.5001 161.164C51.6101 159.258 51.4634 157.314 51.5368 155.407C51.5734 153.941 50.9867 153.061 49.5564 152.767C49.5564 151.411 49.5564 150.09 49.5564 148.734C51.0234 148.477 51.5734 147.56 51.5368 146.093C51.3901 141.07 51.7201 136.083 53.6638 131.353C55.0207 128.016 56.8543 125.045 59.238 122.369C59.7515 121.782 60.0448 121.782 60.5949 122.369C68.9563 131.609 77.3543 140.813 85.7157 150.09C87.696 152.291 89.8964 153.391 92.8669 152.547C94.1504 152.181 95.1039 151.41 95.9841 150.42C98.6245 147.487 101.265 144.59 103.905 141.693C105.006 140.446 105.079 139.786 104.199 138.283C105.116 137.256 105.996 136.266 106.876 135.276Z" fill="#8DD7F7"/>
<path d="M76.7664 32.8596C77.8665 33.9597 79.0401 33.8497 80.3603 33.1897C83.7342 31.5029 87.2548 30.2195 91.0687 30.1828C96.753 30.1095 101.667 32.2363 105.848 36.0498C106.801 36.8932 107.718 37.2966 109.002 37.3333C113.439 37.5533 117.4 38.7267 119.527 43.1636C120.297 44.7771 120.664 46.5005 120.737 48.2973C120.92 52.1842 120.737 55.9978 119.16 59.6647C118.683 60.7647 118.06 61.7548 117.436 62.7815C116.996 63.5149 116.703 63.5882 116.006 62.9649C113.476 60.5447 111.385 57.7945 109.552 54.8244C109.332 54.4577 109.148 54.1276 108.892 53.761C107.828 52.2575 106.215 52.2209 105.261 53.8343C103.867 56.1444 102.181 58.1246 100.017 59.7013C98.3666 60.8747 96.5696 61.7181 94.626 62.3782C93.8925 62.6348 93.5991 62.4882 93.4524 61.6448C93.0857 59.4813 92.2056 57.4645 90.9587 55.6311C89.8585 53.981 88.3916 52.9542 86.4846 55.1177C81.9372 60.288 76.1429 63.2582 69.3952 64.395C67.0481 64.7983 64.7377 64.7983 62.5374 63.4416C60.0803 61.9381 57.8799 60.1414 55.6796 58.0512C57.8066 57.3912 59.7869 56.8412 61.5839 55.7044C63.3442 54.6043 64.8844 53.2109 65.9479 51.4508C67.1214 49.5074 66.278 48.0773 63.9676 48.0039C62.0606 47.9306 60.2637 47.5272 58.7601 46.2071C57.8433 45.4004 57.2198 44.4104 56.6697 43.3836C56.2297 42.5403 56.4864 42.2469 57.4032 42.2836C59.8236 42.3936 62.2073 42.1369 64.5544 41.4769C67.3782 40.6335 69.9452 39.2767 72.4757 37.7733C73.5758 37.1132 73.4658 36.0132 73.3558 34.9498C74.6027 34.1797 75.7029 33.5197 76.7664 32.8596Z" fill="#2E4556"/>
<path d="M88.3555 59.408C89.3457 61.2047 89.6024 62.9282 89.4557 64.725C89.309 66.7418 90.2625 67.5851 92.2795 67.2185C98.0738 66.2651 102.988 63.7349 106.765 59.1513C106.875 59.0046 107.022 58.8946 107.205 58.7479C109.406 61.8648 111.643 64.9083 114.723 67.1818C115.127 67.4751 115.017 67.9152 115.017 68.3185C115.017 74.0756 115.09 79.8326 114.98 85.5896C114.797 95.9669 106.105 105.941 95.7634 107.738C82.4145 110.048 70.5326 102.091 67.6354 88.8898C67.3787 87.6798 67.1954 86.4697 67.1954 85.2229C67.1954 80.0893 67.1954 74.9923 67.1954 69.8586C67.1954 69.2719 67.0853 68.7586 68.0022 68.6486C75.8134 67.9518 82.5612 64.8716 88.3555 59.408ZM90.7392 97.617C95.2133 97.617 98.8439 95.7103 100.458 92.7034C101.118 91.4567 100.898 90.2099 99.8341 89.6232C98.8072 89.0365 97.5604 89.2932 96.9369 90.5399C94.9933 94.3902 87.1086 94.4635 85.2017 90.5033C84.9083 89.9166 84.4315 89.5132 83.7347 89.4032C82.8913 89.2932 82.1945 89.4765 81.6811 90.2099C81.131 91.0166 81.1677 91.8233 81.6444 92.6301C83.8081 96.2236 87.182 97.4704 90.7392 97.617ZM80.6176 79.3559C80.6176 78.3658 80.6542 77.3391 80.5809 76.349C80.4709 75.1023 79.5541 74.2956 78.4172 74.3322C77.2804 74.3689 76.4736 75.2123 76.4736 76.4957C76.4369 78.3292 76.4369 80.1259 76.4736 81.9594C76.5102 83.4262 77.207 84.1962 78.4539 84.2329C79.7374 84.2695 80.5442 83.4262 80.6176 81.9594C80.6542 81.0793 80.6176 80.1993 80.6176 79.3559ZM105.702 79.2826C105.702 78.4025 105.702 77.5591 105.702 76.6791C105.702 76.6057 105.702 76.4957 105.702 76.4224C105.628 75.249 104.858 74.3689 103.795 74.3322C102.621 74.2956 101.741 74.9189 101.668 76.019C101.521 78.1825 101.521 80.3826 101.668 82.5461C101.741 83.6462 102.621 84.2695 103.795 84.1962C104.968 84.1229 105.628 83.4261 105.665 82.2527C105.738 81.2993 105.702 80.2726 105.702 79.2826Z" fill="#FCDFCC"/>
<path d="M106.876 135.276C105.996 136.266 105.116 137.256 104.273 138.246C102.586 137.44 102.109 137.55 100.825 138.943C98.2217 141.803 95.5812 144.7 92.9775 147.56C91.6572 148.99 90.5937 149.027 89.3102 147.597C80.6188 138.026 71.8906 128.456 63.1992 118.848C64.1527 117.895 65.3262 117.235 66.4264 116.538C67.1599 116.062 67.3799 116.795 67.71 117.125C72.6608 122.552 77.6116 128.016 82.5624 133.443C84.7261 135.826 86.8531 138.173 89.0168 140.556C90.6671 142.353 91.6572 142.39 93.3075 140.593C100.165 133.039 107.023 125.522 113.881 117.968C115.494 116.172 115.494 116.172 117.511 117.565C118.062 117.968 118.612 118.372 119.198 118.812C115.201 123.212 111.277 127.539 107.353 131.829C106.253 132.929 105.923 134.029 106.876 135.276Z" fill="#FDCD4D"/>
<path d="M99.4669 127.539C98.9902 124.899 98.4034 122.515 98.1467 120.095C97.9633 118.225 98.8068 116.465 99.1735 114.668C99.6136 112.431 99.6869 112.431 101.997 112.505C105.188 112.615 108.305 113.238 111.386 114.485C107.425 118.812 103.501 123.102 99.4669 127.539Z" fill="white"/>
<path d="M82.7094 127.502C78.6754 123.065 74.8247 118.812 70.8641 114.448C74.4947 112.945 78.2353 112.358 82.0859 112.395C82.636 112.395 82.5994 112.761 82.7094 113.091C83.1861 115.182 83.7729 117.235 84.1029 119.362C84.323 120.939 83.6262 122.479 83.4062 124.055C83.2228 125.155 82.9661 126.219 82.7094 127.502Z" fill="white"/>
<path d="M86.7055 129.922C87.1089 127.466 87.5123 125.009 87.9157 122.552C87.9891 122.039 88.2458 121.819 88.8325 121.819C90.3361 121.855 91.8397 121.855 93.3433 121.819C93.93 121.819 94.1868 122.039 94.2601 122.552C94.6635 125.009 95.0669 127.466 95.4703 129.922C94.3701 131.169 93.2699 132.489 92.0964 133.663C91.5096 134.249 90.6662 134.396 90.0061 133.699C88.9059 132.453 87.8057 131.169 86.7055 129.922Z" fill="#FCDFCC"/>
<path d="M63.3435 89.0365C60.0429 88.3398 57.9526 86.1397 57.6225 83.1328C57.3291 80.456 59.0161 77.6325 61.5465 76.5324C62.8667 75.9457 62.9767 76.019 63.0134 77.4124C63.1234 81.2627 62.83 85.0763 63.3435 89.0365Z" fill="#FCDFCC"/>
<path d="M118.868 88.9999C119.345 84.9296 119.088 80.896 119.161 76.8258C119.161 75.7624 119.785 76.2024 120.262 76.3491C122.829 77.2291 124.662 79.9426 124.589 82.6928C124.479 85.443 122.499 88.0465 119.895 88.7799C119.565 88.8899 119.235 88.9265 118.868 88.9999Z" fill="#FCDFCC"/>
<path d="M90.9593 112.505C92.2428 112.505 93.2696 112.578 94.3332 112.468C95.25 112.395 95.3233 112.798 95.14 113.495C94.8832 114.485 94.5899 115.512 94.4065 116.538C94.2965 117.235 94.0398 117.492 93.3797 117.455C91.8761 117.418 90.3725 117.418 88.8689 117.455C88.2822 117.455 87.9521 117.345 87.8788 116.648C87.6587 115.292 87.3287 113.971 87.072 112.651C88.3922 112.285 89.7857 112.651 90.9593 112.505Z" fill="#FDCD4D"/>
<path d="M86.7061 129.922C87.8063 131.169 88.9065 132.489 90.0434 133.699C90.7035 134.396 91.5469 134.249 92.1337 133.663C93.3072 132.453 94.3707 131.169 95.5076 129.922C95.9843 130.839 95.801 131.609 95.0308 132.343C93.8573 133.553 92.7205 134.799 91.6203 136.083C91.2169 136.559 90.9602 136.523 90.5568 136.083C89.3099 134.689 88.063 133.296 86.7795 131.939C86.1927 131.316 86.5228 130.656 86.5228 129.996C86.5228 129.959 86.5228 129.922 86.5594 129.849C86.6328 129.886 86.6695 129.886 86.7061 129.922Z" fill="#FDCD4D"/>
<path d="M90.7388 97.617C87.1816 97.4704 83.8077 96.2236 81.6807 92.6301C81.2039 91.8233 81.1306 91.0166 81.7173 90.2099C82.2308 89.4765 82.9275 89.2932 83.771 89.4032C84.4678 89.4765 84.9445 89.9165 85.2379 90.5032C87.1816 94.4635 95.0295 94.4268 96.9732 90.5399C97.5966 89.2932 98.8068 89.0365 99.8703 89.6232C100.934 90.2466 101.154 91.4566 100.494 92.7034C98.8435 95.7102 95.2129 97.617 90.7388 97.617Z" fill="#090807"/>
<path d="M80.6184 79.3559C80.6184 80.236 80.655 81.0793 80.6184 81.9594C80.545 83.4262 79.7382 84.2695 78.4547 84.2329C77.2078 84.1962 76.511 83.4262 76.4743 81.9594C76.4377 80.126 76.4377 78.3292 76.4743 76.4957C76.511 75.2123 77.3178 74.3689 78.418 74.3323C79.5549 74.2956 80.4717 75.1023 80.5817 76.349C80.6917 77.3391 80.6184 78.3292 80.6184 79.3559Z" fill="#090807"/>
<path d="M105.7 79.2826C105.7 80.2727 105.737 81.2994 105.7 82.2895C105.627 83.4629 105.003 84.1229 103.83 84.2329C102.656 84.3063 101.776 83.6829 101.703 82.5828C101.556 80.4193 101.556 78.2192 101.703 76.0557C101.776 74.9557 102.656 74.3323 103.83 74.369C104.893 74.4056 105.664 75.2857 105.737 76.4591C105.737 76.5324 105.737 76.6424 105.737 76.7158C105.7 77.5592 105.7 78.4026 105.7 79.2826Z" fill="#090807"/>
<defs>
<filter id="filter0_d_2094_26710" x="0.000473022" y="0" width="185.52" height="184.914" filterUnits="userSpaceOnUse" color-interpolation-filters="sRGB">
<feFlood flood-opacity="0" result="BackgroundImageFix"/>
<feColorMatrix in="SourceAlpha" type="matrix" values="0 0 0 0 0 0 0 0 0 0 0 0 0 0 0 0 0 0 127 0" result="hardAlpha"/>
<feOffset dy="4"/>
<feGaussianBlur stdDeviation="2"/>
<feComposite in2="hardAlpha" operator="out"/>
<feColorMatrix type="matrix" values="0 0 0 0 0 0 0 0 0 0 0 0 0 0 0 0 0 0 0.25 0"/>
<feBlend mode="normal" in2="BackgroundImageFix" result="effect1_dropShadow_2094_26710"/>
<feBlend mode="normal" in="SourceGraphic" in2="effect1_dropShadow_2094_26710" result="shape"/>
</filter>
</defs>
</svg>
