<svg width="42" height="42" viewBox="0 0 42 42" fill="none" xmlns="http://www.w3.org/2000/svg">
<path d="M41.1071 18.9041C41.1071 19.9678 41.1071 21.0444 41.1071 22.1082C40.953 23.4795 40.7603 24.8637 40.3364 26.1838C38.1012 33.3096 33.4124 37.9876 26.2829 40.2433C24.9469 40.6662 23.5467 40.8584 22.1593 41.0122C21.0931 41.0122 20.014 41.0122 18.9478 41.0122C17.9972 40.8841 17.0338 40.7944 16.096 40.5637C8.31135 38.6156 3.2115 33.8223 0.770759 26.1838C0.346841 24.8637 0.166998 23.4795 0 22.1082C0 21.0444 0 19.9678 0 18.9041C0.12846 17.9557 0.218382 16.9944 0.449609 16.0589C2.4022 8.29216 7.2066 3.19126 14.8628 0.756162C16.1859 0.333224 17.5733 0.153796 18.9478 0C20.014 0 21.0931 0 22.1593 0C23.1099 0.128163 24.0734 0.217878 25.0111 0.448571C32.7829 2.38384 37.8828 7.18996 40.3364 14.79C40.7603 16.1229 40.953 17.5071 41.1071 18.9041ZM26.1544 31.1437C27.0665 31.1821 27.8886 30.9514 28.6594 30.5669C29.5586 30.1312 30.2137 29.3878 30.9074 28.7086C31.4598 28.1703 31.4598 27.7345 30.9203 27.1962C29.7513 26.0171 28.5823 24.8509 27.4005 23.6846C26.8609 23.1463 26.437 23.1463 25.8847 23.6974C25.2424 24.3382 24.6129 25.0047 23.9706 25.6327C23.1742 26.4144 22.2364 26.4913 21.3243 25.8377C19.0121 24.1972 16.9952 22.2363 15.2996 19.9422C14.5802 18.981 14.6573 18.0582 15.4923 17.2123C16.1602 16.5331 16.8411 15.8794 17.5091 15.2002C17.9844 14.7131 17.9972 14.2774 17.5219 13.8032C16.3144 12.5856 15.1069 11.3809 13.8865 10.1762C13.4369 9.72759 12.9744 9.72759 12.512 10.1762C12.1009 10.5735 11.6898 10.9708 11.2916 11.3937C9.77579 13.0598 9.4161 14.9695 10.1355 17.0842C10.7649 18.9425 11.6898 20.6599 12.8588 22.2363C15.595 25.9274 18.9735 28.8239 23.3155 30.5029C24.2404 30.8489 25.1781 31.1949 26.1544 31.1437Z" fill="#0E1133"/>
</svg>
