<svg width="49" height="39" viewBox="0 0 49 39" fill="none" xmlns="http://www.w3.org/2000/svg">
<g clip-path="url(#clip0_1380_10580)">
<path d="M24.594 39.0002C31.7734 39.0002 38.9528 39.0002 46.1492 39.0002C48.2029 39.0002 49.0176 38.1643 49.0176 36.1C49.0006 26.2391 49.0006 16.3611 49.0006 6.50023C49.0006 4.48711 48.2368 3.73645 46.2341 3.73645C45.5891 3.73645 44.9272 3.70233 44.2822 3.75351C43.5863 3.80469 43.3487 3.54879 43.3317 2.83225C43.3317 1.2627 42.8395 0.512044 41.7363 0.136716C40.3955 -0.323914 38.9698 0.631467 38.8679 2.04748C38.7491 3.73645 38.7491 3.73645 37.0858 3.73645C35.7789 3.73645 34.489 3.70233 33.1821 3.75351C32.5032 3.77057 32.2826 3.51467 32.2995 2.84931C32.3505 1.72333 32.011 0.750889 30.9417 0.222018C29.7027 -0.392155 28.1922 0.34144 27.8527 1.68921C27.8188 1.85981 27.8018 2.03042 27.7848 2.20102C27.5981 3.73645 27.5981 3.73645 26.0706 3.73645C24.7637 3.73645 23.4738 3.71939 22.1669 3.75351C21.5219 3.77057 21.1994 3.58291 21.2503 2.88344C21.2673 2.69577 21.2334 2.49105 21.2164 2.28632C21.0806 0.904432 20.1641 -0.0168274 18.959 0.000233002C17.771 0.0172934 16.8375 0.989734 16.7017 2.3375C16.5659 3.73645 16.5659 3.73645 15.1402 3.73645C13.8672 3.73645 12.5943 3.70233 11.3214 3.75351C10.5406 3.78763 10.1842 3.58291 10.2012 2.72989C10.2351 1.68921 9.9296 0.750889 8.89426 0.239078C7.55343 -0.426276 6.05984 0.392621 5.73736 1.91099C5.61855 2.49105 5.92405 3.2417 5.43185 3.59997C4.90569 3.9753 4.17587 3.70233 3.53091 3.73645C3.07265 3.75351 2.63136 3.73645 2.1731 3.75351C0.98502 3.78763 0.0854683 4.65771 0.0175781 5.83488C0.0175781 5.92018 0.0175781 6.00548 0.0175781 6.09078C0.0175781 16.2417 0.0175781 26.3926 0.0175781 36.5265C0.0175781 38.096 0.985016 38.9832 2.63136 39.0002C8.28325 39.0173 13.9351 39.0002 19.604 39.0002C21.2503 39.0002 22.9137 39.0002 24.594 39.0002ZM24.4073 12.6931C31.6715 12.6931 38.9358 12.6931 46.2171 12.6931C47.3543 12.6931 47.3543 12.6931 47.3543 13.8021C47.3543 21.1721 47.3543 28.5252 47.3543 35.8952C47.3543 37.1748 47.2185 37.3283 45.9625 37.3283C31.6546 37.3283 17.3466 37.3283 3.03871 37.3283C1.78273 37.3283 1.64695 37.1748 1.64695 35.8952C1.64695 28.5252 1.64695 21.1721 1.64695 13.8021C1.64695 12.6931 1.64695 12.6761 2.78412 12.6761C9.99749 12.6931 17.1939 12.6931 24.4073 12.6931ZM24.594 10.953C17.4145 10.953 10.2181 10.953 3.03871 10.953C2.75018 10.953 2.47861 10.953 2.19008 10.9359C1.79971 10.9359 1.62998 10.7312 1.62998 10.3388C1.62998 8.93987 1.62998 7.55798 1.62998 6.15903C1.62998 5.64721 1.90154 5.37425 2.42769 5.37425C3.1066 5.37425 3.7855 5.42543 4.46441 5.35719C5.24515 5.28895 5.60157 5.52779 5.75433 6.36375C5.958 7.55798 6.97636 8.27451 8.04564 8.18921C9.1828 8.08685 10.0314 7.30207 10.1163 6.09078C10.1502 5.52779 10.3709 5.35719 10.897 5.37425C12.4755 5.39131 14.0709 5.40837 15.6494 5.37425C16.3453 5.35719 16.6338 5.54485 16.7526 6.26139C16.9563 7.50679 17.9577 8.27451 19.0609 8.20627C20.249 8.12097 21.0467 7.33619 21.1485 6.05666C21.1994 5.52779 21.4201 5.39131 21.8953 5.39131C23.5926 5.40837 25.2898 5.40837 26.9871 5.39131C27.4793 5.39131 27.666 5.57897 27.7509 6.07372C28.0224 7.43855 28.8201 8.18921 29.9913 8.18921C31.1624 8.20627 31.9771 7.47267 32.2486 6.07372C32.3674 5.49367 32.639 5.35719 33.1651 5.35719C34.6927 5.37425 36.2202 5.39131 37.7477 5.35719C38.4436 5.34013 38.817 5.52779 38.851 6.26139C38.8849 6.80732 39.1395 7.23383 39.5299 7.5921C40.1748 8.17215 40.9386 8.32569 41.7533 8.05273C42.568 7.79682 43.145 7.23383 43.2129 6.34669C43.2808 5.54485 43.6373 5.27189 44.418 5.34013C45.012 5.39131 45.6061 5.34013 46.2001 5.35719C47.2355 5.37425 47.3543 5.49367 47.3543 6.55141C47.3543 7.62622 47.3543 8.71808 47.3543 9.79288C47.3543 10.9189 47.3543 10.9189 46.2171 10.9189C39.0207 10.953 31.8073 10.953 24.594 10.953ZM30.5683 4.0606C30.5683 4.65771 30.5853 5.25483 30.5683 5.85194C30.5683 6.21021 30.3986 6.46611 30.0082 6.46611C29.6179 6.46611 29.4651 6.19315 29.4651 5.85194C29.4651 4.69183 29.4651 3.53173 29.4651 2.35456C29.4651 1.9963 29.6348 1.74039 30.0252 1.74039C30.3986 1.74039 30.5683 2.01336 30.5683 2.37162C30.5853 2.93462 30.5683 3.49761 30.5683 4.0606ZM19.5361 4.09472C19.5361 4.65771 19.5361 5.23777 19.5361 5.80076C19.5361 6.19315 19.4003 6.48317 18.959 6.46611C18.5687 6.44905 18.4329 6.15903 18.4329 5.81782C18.4159 4.67477 18.4159 3.54879 18.4329 2.40574C18.4329 2.03042 18.5856 1.70627 19.0269 1.72333C19.4682 1.74039 19.5531 2.0816 19.5531 2.45693C19.5361 3.01992 19.5361 3.54879 19.5361 4.09472ZM40.4973 4.11178C40.4973 3.54879 40.4803 2.9858 40.4973 2.40574C40.4973 2.03042 40.6501 1.72333 41.0914 1.74039C41.4817 1.75745 41.6175 2.04748 41.6175 2.38868C41.6345 3.51467 41.6345 4.65771 41.6175 5.7837C41.6175 6.12491 41.5157 6.43199 41.1253 6.44905C40.684 6.48317 40.5313 6.17609 40.5143 5.80076C40.4803 5.23777 40.4973 4.67477 40.4973 4.11178ZM8.48692 4.02648C8.48692 4.64065 8.50389 5.27189 8.46995 5.88606C8.45298 6.24433 8.24931 6.46611 7.85894 6.44905C7.50251 6.43199 7.36673 6.17609 7.36673 5.869C7.34975 4.67477 7.34975 3.49761 7.36673 2.30338C7.36673 1.96218 7.58737 1.70627 7.96077 1.74039C8.30022 1.75745 8.45298 2.01336 8.46995 2.32044C8.50389 2.88344 8.48692 3.44643 8.48692 4.02648Z" fill="black"/>
<path d="M24.5435 24.1744C26.2068 24.1744 27.8871 24.1744 29.5504 24.1744C30.4839 24.1744 30.7724 23.9015 30.7724 22.9631C30.7894 20.6088 30.7894 18.2374 30.7724 15.8831C30.7555 14.8765 30.4499 14.5694 29.4146 14.5694C26.1389 14.5524 22.8632 14.5524 19.5705 14.5694C18.5182 14.5694 18.2297 14.8936 18.2127 15.9684C18.1957 18.2715 18.1957 20.5747 18.2127 22.8778C18.2127 23.9356 18.4842 24.1744 19.5196 24.1744C21.2168 24.1744 22.8802 24.1744 24.5435 24.1744ZM24.5435 22.5196C23.2705 22.5196 21.9976 22.5025 20.7246 22.5196C20.2154 22.5196 19.9269 22.3831 19.9269 21.803C19.9439 20.1823 19.9439 18.5616 19.9269 16.9408C19.9269 16.412 20.1645 16.2414 20.6567 16.2414C23.2026 16.2414 25.7485 16.2584 28.2944 16.2414C28.8375 16.2414 29.0412 16.4631 29.0412 17.0091C29.0242 18.5786 29.0073 20.1311 29.0412 21.7007C29.0582 22.349 28.7697 22.5366 28.1756 22.5196C26.9875 22.5025 25.7655 22.5196 24.5435 22.5196Z" fill="black"/>
<path d="M39.0198 24.1577C40.6832 24.1577 42.3465 24.1407 44.0098 24.1748C44.8414 24.1918 45.2148 23.7995 45.2148 22.9976C45.2148 20.5921 45.2148 18.1695 45.2148 15.764C45.2148 14.9622 44.8075 14.5527 44.0098 14.5527C40.6153 14.5527 37.2377 14.5527 33.8432 14.5527C33.0964 14.5527 32.723 14.9281 32.74 15.7299C32.7569 18.1695 32.7569 20.6092 32.74 23.0488C32.74 23.8336 33.0455 24.1918 33.8432 24.1748C35.5744 24.1407 37.2886 24.1577 39.0198 24.1577ZM38.9859 22.5199C37.7129 22.5199 36.44 22.5029 35.167 22.5199C34.6579 22.5199 34.3693 22.4005 34.3863 21.8034C34.4033 20.1827 34.4033 18.5619 34.3863 16.9412C34.3863 16.4123 34.6239 16.2417 35.1161 16.2417C37.662 16.2417 40.2079 16.2588 42.7538 16.2417C43.2969 16.2417 43.5176 16.4635 43.5006 17.0094C43.4836 18.579 43.4836 20.1315 43.5006 21.701C43.5176 22.3493 43.229 22.537 42.635 22.5199C41.413 22.5029 40.1909 22.5199 38.9859 22.5199Z" fill="black"/>
<path d="M10.0655 24.158C11.7627 24.158 13.46 24.1409 15.1403 24.158C15.938 24.175 16.2605 23.8338 16.2435 23.032C16.2265 20.5923 16.2265 18.1527 16.2435 15.7131C16.2435 14.9112 15.9041 14.5359 15.1403 14.5359C11.7458 14.5188 8.36821 14.5359 4.97368 14.5359C4.19294 14.5359 3.76862 14.9454 3.76862 15.7472C3.76862 18.1527 3.76862 20.5753 3.76862 22.9808C3.76862 23.7656 4.12505 24.175 4.97368 24.158C6.67094 24.1409 8.36821 24.158 10.0655 24.158ZM10.1164 22.5202C8.84344 22.5202 7.57049 22.5031 6.29754 22.5202C5.7035 22.5372 5.49983 22.2984 5.49983 21.7183C5.5168 20.1488 5.5168 18.5963 5.49983 17.0267C5.49983 16.4978 5.68653 16.2419 6.22965 16.2419C8.77555 16.259 11.3214 16.259 13.8673 16.2419C14.4105 16.2419 14.6141 16.4637 14.6141 17.0097C14.5972 18.5792 14.5802 20.1317 14.6141 21.7013C14.6311 22.3666 14.3426 22.5372 13.7485 22.5202C12.5435 22.5031 11.3384 22.5202 10.1164 22.5202Z" fill="black"/>
<path d="M24.4742 25.7615C22.8618 25.7615 21.2494 25.7615 19.637 25.7615C18.5508 25.7615 18.2283 26.0345 18.2283 27.0922C18.2113 29.4295 18.2113 31.7497 18.2283 34.0869C18.2453 35.1106 18.5678 35.4177 19.5691 35.4177C22.8449 35.4347 26.1206 35.4347 29.4133 35.4177C30.4656 35.4177 30.7711 35.1106 30.7881 34.0358C30.805 31.7326 30.805 29.4295 30.7881 27.1263C30.7711 26.0515 30.4656 25.7615 29.4133 25.7615C27.75 25.7444 26.1206 25.7615 24.4742 25.7615ZM24.4742 27.3993C25.7472 27.3993 27.0201 27.4163 28.2931 27.3993C28.8362 27.3822 29.0568 27.5699 29.0568 28.1329C29.0399 29.7877 29.0399 31.4255 29.0568 33.0804C29.0568 33.5922 28.8362 33.7799 28.344 33.7799C25.7981 33.7628 23.2522 33.7628 20.7063 33.7799C20.1632 33.7799 19.9425 33.6093 19.9425 33.0463C19.9595 31.4255 19.9595 29.8048 19.9425 28.1841C19.9256 27.5869 20.1632 27.3822 20.7403 27.3993C21.9793 27.4163 23.2352 27.3993 24.4742 27.3993Z" fill="black"/>
<path d="M38.9529 35.4175C40.5992 35.4175 42.2286 35.4346 43.8749 35.4175C44.8933 35.4175 45.2158 35.1104 45.2158 34.1039C45.2328 31.7495 45.2328 29.3952 45.2158 27.0409C45.2158 26.0855 44.8933 25.7784 43.9259 25.7784C40.6162 25.7614 37.3065 25.7614 34.0138 25.7784C32.9955 25.7784 32.7748 26.0173 32.7748 27.0409C32.7748 29.3952 32.7748 31.7495 32.7748 34.1039C32.7748 35.1787 32.9955 35.4175 34.0648 35.4175C35.6772 35.4175 37.3235 35.4175 38.9529 35.4175ZM38.868 27.3992C40.1749 27.3992 41.4648 27.4162 42.7717 27.3992C43.2809 27.3992 43.4846 27.5868 43.4846 28.0986C43.4676 29.7535 43.4676 31.3913 43.4846 33.0461C43.4846 33.6091 43.247 33.7797 42.7208 33.7797C40.1749 33.7627 37.629 33.7627 35.0831 33.7797C34.5739 33.7797 34.3703 33.5921 34.3703 33.0803C34.3872 31.4254 34.3872 29.7876 34.3703 28.1327C34.3703 27.5698 34.5909 27.3821 35.134 27.3992C36.39 27.4162 37.629 27.3992 38.868 27.3992Z" fill="black"/>
<path d="M10.0657 35.4174C11.712 35.4174 13.3414 35.4345 14.9878 35.4174C16.0061 35.4174 16.2437 35.1786 16.2607 34.172C16.2777 31.7836 16.2777 29.3951 16.2607 27.0237C16.2607 26.0172 16.0231 25.7783 14.9878 25.7783C11.712 25.7783 8.43632 25.7783 5.16061 25.7783C4.1083 25.7783 3.80279 26.0854 3.78582 27.1602C3.76885 29.4634 3.76885 31.7665 3.78582 34.0526C3.78582 35.1274 4.1083 35.4174 5.16061 35.4345C6.78998 35.4174 8.43632 35.4174 10.0657 35.4174ZM10.0148 27.3991C11.2877 27.3991 12.5607 27.4161 13.8336 27.382C14.4277 27.3649 14.6313 27.5867 14.6313 28.1838C14.6144 29.7704 14.6144 31.3741 14.6313 32.9607C14.6313 33.5237 14.4786 33.7796 13.8676 33.7796C11.3556 33.7626 8.82669 33.7626 6.31474 33.7796C5.7207 33.7796 5.50005 33.5749 5.51703 32.9949C5.534 31.4082 5.55097 29.8046 5.51703 28.218C5.50005 27.5697 5.77162 27.382 6.38263 27.3991C7.58769 27.4161 8.79275 27.3991 10.0148 27.3991Z" fill="black"/>
<path d="M25.8334 19.3982C25.9013 19.0911 26.1558 18.9376 26.3425 18.7329C26.7329 18.2893 26.9875 17.8116 26.4783 17.3168C25.9861 16.8392 25.5109 17.1462 25.1714 17.5557C24.6622 18.1528 24.2889 18.0504 23.8136 17.5216C23.4572 17.1121 22.982 16.8562 22.5067 17.351C22.0654 17.8287 22.2182 18.3234 22.6595 18.6817C23.2705 19.1935 23.2365 19.5859 22.6425 20.0806C22.2182 20.4389 22.0485 20.9507 22.5237 21.4113C22.965 21.8378 23.4402 21.6672 23.7797 21.2748C24.3228 20.6266 24.7641 20.7289 25.2733 21.309C25.6297 21.7184 26.1219 21.8208 26.5292 21.3943C26.9536 20.9507 26.7669 20.5242 26.4104 20.1147C26.2068 19.893 25.9182 19.7224 25.8334 19.3982Z" fill="black"/>
<path d="M35.9317 17.9138C35.9656 18.255 36.1353 18.4768 36.322 18.6815C37.1707 19.5516 38.0363 20.4046 38.8849 21.2747C39.3941 21.7865 39.9202 21.8036 40.4294 21.2918C40.8537 20.8653 41.2611 20.4558 41.6684 20.0122C41.9909 19.654 42.0588 19.2445 41.7024 18.8692C41.3629 18.4939 40.9725 18.5621 40.5652 18.8009C40.2088 19.0227 40.0221 19.671 39.5129 19.4663C39.1565 19.3298 38.8849 18.9204 38.5794 18.6133C38.1381 18.1868 37.7138 17.7261 37.2555 17.3167C37.0179 17.0949 36.7124 17.0267 36.3899 17.1973C36.0844 17.3679 35.9317 17.6067 35.9317 17.9138Z" fill="black"/>
<path d="M12.2208 18.5965C11.7795 18.5965 11.5079 18.9207 11.2364 19.2107C10.8969 19.6031 10.6084 19.586 10.2689 19.2107C9.72582 18.6306 9.14875 18.0847 8.58865 17.5217C8.18131 17.1123 7.74002 16.8905 7.26479 17.3852C6.84047 17.8288 6.99323 18.2724 7.3836 18.6648C8.26617 19.5519 9.13178 20.439 10.0313 21.3091C10.5066 21.7868 11.0157 21.8209 11.5079 21.3091C11.9323 20.8485 12.3905 20.422 12.8148 19.9613C13.0694 19.6884 13.1034 19.3472 12.9167 19.006C12.7809 18.733 12.5433 18.5965 12.2208 18.5965Z" fill="black"/>
<path d="M26.4267 29.8048C26.2739 29.8048 26.0193 30.0266 25.8156 30.2996C25.3913 30.8796 25.0519 30.7602 24.6276 30.2825C24.1523 29.7195 23.6092 29.2248 23.0831 28.713C22.6757 28.3206 22.2175 28.1159 21.7422 28.5765C21.3009 29.0201 21.4876 29.4466 21.878 29.839C22.7606 30.7261 23.6262 31.6132 24.4918 32.5004C24.8482 32.8586 25.2895 33.0463 25.6968 32.7051C26.2739 32.2104 26.8001 31.6474 27.3092 31.0844C27.5299 30.8285 27.5299 30.5043 27.3771 30.2143C27.2244 29.9072 26.9698 29.8048 26.4267 29.8048Z" fill="black"/>
<path d="M41.1075 29.8048C40.6831 29.8048 40.4285 30.0607 40.1909 30.3508C39.8006 30.8455 39.4951 30.7602 39.1217 30.3337C38.6125 29.7707 38.0524 29.2418 37.5093 28.713C37.1019 28.3206 36.6267 28.1159 36.1684 28.5765C35.6932 29.0542 35.9478 29.4978 36.3551 29.8901C37.2207 30.7432 38.0694 31.6132 38.935 32.4833C39.4272 32.9781 39.9194 32.9951 40.4116 32.4833C40.8529 32.0397 41.2942 31.5962 41.7185 31.1355C41.9731 30.8626 41.99 30.5214 41.8203 30.1802C41.6676 29.9072 41.413 29.8048 41.1075 29.8048Z" fill="black"/>
<path d="M7.79064 29.1219C7.79064 29.5825 8.11312 29.8384 8.40166 30.0943C8.79203 30.4355 8.809 30.7255 8.40166 31.0497C8.2489 31.1691 8.11312 31.3227 7.99431 31.4762C7.72275 31.8345 7.67183 32.2098 7.99431 32.551C8.33377 32.9263 8.74111 32.9093 9.13148 32.6192C9.25029 32.5339 9.3691 32.4486 9.43699 32.3292C9.84433 31.7833 10.2177 31.8174 10.642 32.3292C11.0154 32.7728 11.5077 33.0799 12.0168 32.5851C12.543 32.0904 12.2714 31.5786 11.8132 31.2032C11.27 30.7426 11.2361 30.3673 11.7962 29.9237C12.1356 29.6507 12.3902 29.2925 12.2035 28.8148C11.9999 28.303 11.3379 28.0812 10.9476 28.5077C10.2686 29.2583 9.74249 29.3607 9.09753 28.5248C8.87689 28.2347 8.48652 28.2177 8.16404 28.4053C7.9434 28.5759 7.79064 28.7977 7.79064 29.1219Z" fill="black"/>
</g>
<defs>
<clipPath id="clip0_1380_10580">
<rect width="49" height="39" fill="white" transform="matrix(-1 0 0 1 49 0)"/>
</clipPath>
</defs>
</svg>
