<svg width="45" height="42" viewBox="0 0 45 42" fill="none" xmlns="http://www.w3.org/2000/svg">
<path d="M27.0751 37.1581C27.0751 38.4606 27.0751 39.763 27.0751 41.0655C27.0751 41.5558 26.966 41.9695 26.4048 42.0002C25.8125 42.0308 25.6722 41.5711 25.6722 41.1114C25.6411 39.3953 25.6255 37.6944 25.6411 35.9783C25.6411 35.3807 25.4228 35.1815 24.8149 35.1815C24.2226 35.1815 24.0512 35.4266 24.0512 35.9629C24.0668 37.4186 24.0512 38.8743 24.0512 40.33C24.0512 40.5905 24.0512 40.8356 24.0356 41.0961C23.9888 41.5558 23.833 41.9848 23.2874 42.0002C22.7263 42.0155 22.5704 41.5864 22.5236 41.1268C22.4925 40.8969 22.5081 40.6671 22.5081 40.4372C22.5081 38.9509 22.5081 37.4799 22.5081 35.9936C22.5081 35.5952 22.4769 35.2581 22.0872 34.9823C21.7443 34.7371 21.7287 34.3234 21.7287 33.9403C21.7287 32.9137 21.6975 31.9024 21.7287 30.8757C21.7755 29.3128 22.5392 28.2402 24.0512 27.6886C25.5787 27.1216 27.0907 26.5087 28.6026 25.8958C29.6937 25.4515 29.9431 23.7813 28.9767 23.1071C27.153 21.8199 26.0619 20.0884 25.719 17.9126C25.6722 17.5908 25.5164 17.4223 25.2514 17.269C24.6747 16.9626 24.2226 16.4722 24.1759 15.844C23.9577 13.377 23.833 10.8947 24.9085 8.535C25.6411 6.94142 26.7322 5.63898 28.2285 4.67364C28.4779 4.50508 28.7117 4.36718 28.7429 3.98411C28.8988 2.0381 30.0055 0.766303 31.8915 0.260648C34.1672 -0.352267 36.5053 0.459845 37.5496 2.2373C37.799 2.66634 38.0016 3.1107 37.9549 3.61636C37.9237 4.10669 38.1108 4.39782 38.5316 4.68896C41.7581 6.88013 42.9116 9.99067 42.6466 13.7295C42.6154 14.1278 42.4284 14.4343 42.0075 14.4803C41.5399 14.5262 41.2594 14.2198 41.2126 13.8061C41.1502 13.1932 41.1658 12.5802 41.1502 11.9673C41.0723 8.44306 38.3446 5.27123 34.9154 4.7196C31.0654 4.09137 27.4959 6.02205 26.1399 9.4084C25.7346 10.4197 25.6411 11.4923 25.532 12.5496C25.4852 12.994 25.6099 13.1472 26.1399 13.1012C27.7142 12.9786 28.587 11.9826 29.3508 10.8334C30.0055 9.86809 30.1613 9.8068 31.1277 10.4504C32.5306 11.3544 34.136 11.6609 35.7415 11.9826C36.6923 12.1665 37.6276 12.381 38.516 12.7335C40.1683 13.4077 41.01 14.6488 41.0879 16.411C41.197 19.1997 40.0903 21.4062 37.8302 23.0917C36.8326 23.8272 37.0508 25.4668 38.1887 25.9265C39.6851 26.5241 41.1814 27.1063 42.6778 27.6886C44.3768 28.3628 44.9847 29.2362 44.9847 31.0137C44.9847 32.0556 44.9847 33.1129 44.9847 34.1548C44.9847 34.4307 45.0158 34.7984 44.7509 34.921C44.1118 35.2428 44.2053 35.7791 44.2053 36.3154C44.2053 37.817 44.2053 39.334 44.2053 40.8356C44.2053 41.3872 44.2209 42.0308 43.4571 42.0155C42.7245 41.9848 42.7245 41.3413 42.7245 40.7897C42.7245 39.2114 42.709 37.6178 42.7401 36.0396C42.7557 35.4113 42.5531 35.1968 41.8984 35.1968C41.2126 35.1968 41.0723 35.4726 41.0879 36.0702C41.1191 37.7098 41.0879 39.334 41.1035 40.9735C41.1035 41.4945 41.0411 42.0155 40.3865 42.0308C39.7786 42.0308 39.6539 41.5098 39.6539 41.0501C39.6383 38.4452 39.6383 35.8404 39.6539 33.2355C39.6539 32.7605 39.7942 32.2548 40.4176 32.2701C40.9788 32.2855 41.1347 32.6992 41.1035 33.1895C41.0879 33.6339 41.3217 33.7565 41.727 33.7565C43.8468 33.7411 43.5039 33.971 43.5195 32.1016C43.5351 29.5733 43.5195 29.5733 41.1347 28.6693C40.4332 28.4088 39.7162 28.1483 39.046 27.8418C38.6095 27.6426 38.3757 27.7039 38.1108 28.1176C37.082 29.6499 35.7727 30.9064 34.1516 31.8411C33.6217 32.1475 33.1696 32.1322 32.6397 31.8258C31.0342 30.9064 29.7249 29.6959 28.7273 28.1636C28.4467 27.7346 28.2129 27.6426 27.7297 27.8418C26.6542 28.3015 25.5631 28.7152 24.472 29.1136C23.6771 29.4201 23.2874 29.9717 23.303 30.8145C23.3186 31.5806 23.3186 32.3467 23.303 33.1129C23.303 33.5726 23.5056 33.7718 23.9577 33.7411C24.2382 33.7258 24.5344 33.7105 24.8149 33.7411C25.3917 33.8024 25.7034 33.6032 25.719 33.0056C25.7346 32.5613 25.9528 32.2395 26.4204 32.2548C26.9348 32.2855 27.0907 32.6532 27.0907 33.1282C27.0751 34.446 27.0751 35.7944 27.0751 37.1581ZM39.6227 16.886C39.6227 15.1085 39.046 14.3424 37.3002 13.8214C36.9573 13.7141 36.5988 13.6528 36.2403 13.5762C34.4634 13.1932 32.6553 12.9173 31.0342 12.0746C30.5666 11.8294 30.364 11.952 30.099 12.3197C29.1949 13.5456 28.0415 14.4037 26.4516 14.5416C26.0152 14.5722 25.719 14.8021 25.6722 15.2464C25.6099 15.7368 25.8593 16.0279 26.3425 16.1198C26.8569 16.2118 27.0907 16.5029 27.1063 17.0239C27.1218 17.2997 27.1998 17.5755 27.2465 17.8513C27.7453 21.0078 30.6913 23.2756 33.9334 23.0151C37.1288 22.724 39.6227 20.0425 39.6227 16.886ZM31.8136 24.2869C31.1433 24.103 31.0654 24.3942 31.0498 24.7313C30.9874 25.574 30.7536 26.3402 30.0055 26.8458C29.7093 27.045 29.8963 27.2442 30.021 27.4281C30.816 28.516 31.72 29.4814 32.8735 30.2169C33.2476 30.462 33.5593 30.462 33.9334 30.2169C35.0401 29.4814 35.9597 28.5467 36.7391 27.4741C36.895 27.2596 37.0352 27.0297 36.7547 26.8152C36.0065 26.2636 35.7571 25.4821 35.7415 24.5934C35.7415 24.2716 35.5856 24.1184 35.2427 24.2103C34.0113 24.5474 32.8111 24.5321 31.8136 24.2869ZM33.4034 1.48648C32.2344 1.59374 31.1901 1.88487 30.5354 2.92683C30.4419 3.06473 30.3016 3.24861 30.4419 3.41716C30.5666 3.58571 30.7692 3.5091 30.9407 3.46313C32.5773 2.98812 34.1984 3.00344 35.835 3.44781C36.0221 3.49377 36.2559 3.647 36.3806 3.40184C36.4897 3.20264 36.3338 3.00344 36.2247 2.85021C35.5233 1.86955 34.4945 1.59374 33.4034 1.48648Z" fill="black"/>
<path d="M1.48081 33.266C1.48081 35.7177 1.48081 38.1694 1.48081 40.621C1.48081 40.9275 1.46523 41.2339 1.38729 41.5251C1.29377 41.8468 1.02879 42.0307 0.685871 42.0001C0.342954 41.9694 0.109148 41.7702 0.0467992 41.4178C0.015625 41.188 0.015625 40.9581 0.015625 40.7283C0.015625 35.7024 0.015625 30.6765 0.015625 25.6352C0.015625 23.9957 0.732632 22.9997 2.32252 22.4941C3.41362 22.1416 4.50471 21.8045 5.59581 21.5287C6.15695 21.3908 6.5778 21.1303 6.87395 20.6247C6.99865 20.4101 7.1857 20.2109 7.37274 20.0577C7.82477 19.6746 7.85594 19.2303 7.43509 18.8779C5.90755 17.5601 5.0035 15.9205 4.69176 13.9439C4.645 13.6374 4.41119 13.5455 4.19297 13.4076C3.00835 12.5648 2.75896 11.3237 3.58507 10.1438C3.81888 9.80671 3.89682 9.46961 3.89682 9.07122C3.9124 7.73813 3.72536 6.40504 3.97475 5.10259C4.5203 2.12995 6.9363 0.122659 10.0537 0.0460442C12.0489 -0.0152473 14.044 7.55305e-05 16.0548 0.0307213C17.442 0.0460442 18.5019 0.628313 19.0943 1.91543C19.1878 2.12996 19.3125 2.31383 19.4995 2.46706C20.5594 3.34046 20.9335 4.48968 20.9335 5.80745C20.9335 6.60423 20.9335 7.3857 20.9335 8.18249C20.9335 9.02525 20.9335 9.80671 21.4323 10.6035C22.0246 11.5688 21.6661 12.6874 20.6685 13.3463C20.2633 13.6221 20.0918 13.9132 20.0139 14.3729C19.7177 16.0278 18.9072 17.4375 17.6602 18.602C16.8653 19.3375 17.0368 19.3988 17.5667 20.2569C18.5019 21.7892 20.1542 21.6819 21.5258 22.2336C22.0714 22.4481 22.6793 22.5247 23.2092 22.8312C24.2068 23.3981 24.768 24.2255 24.768 25.3901C24.768 25.7732 24.6121 26.049 24.2224 26.1256C23.8327 26.2175 23.4586 26.0183 23.4275 25.6812C23.2404 23.9497 21.7596 23.8884 20.5594 23.4441C19.7645 23.1529 19.2189 23.1836 18.7046 23.9957C18.159 24.8538 17.442 25.6046 16.7874 26.4014C15.9301 27.4127 15.2754 27.4893 14.1843 26.7232C14.0752 26.6466 13.9817 26.5546 13.8726 26.4933C13.6855 26.3861 13.5297 26.0796 13.2803 26.2328C13.062 26.3554 13.1711 26.6619 13.1711 26.8764C13.1711 31.2894 13.1711 35.7177 13.1711 40.1307C13.1711 40.5138 13.14 40.8968 13.1088 41.2799C13.0776 41.7089 12.8906 42.046 12.4074 42.0307C11.893 42.0001 11.7215 41.6477 11.7215 41.1726C11.7215 38.9968 11.7215 36.8363 11.7215 34.6604C11.7215 32.0249 11.7215 29.4047 11.7215 26.7691C11.7215 26.5546 11.8462 26.2482 11.5813 26.1562C11.4566 26.1103 11.2228 26.3248 11.0513 26.432C10.8331 26.5699 10.646 26.7385 10.4278 26.8764C9.55494 27.4127 8.90028 27.3514 8.21445 26.5853C7.37274 25.6199 6.56221 24.6086 5.78286 23.5973C5.51788 23.2602 5.26848 23.1529 4.86322 23.2755C4.17738 23.49 3.47596 23.6739 2.77454 23.9038C1.88608 24.1949 1.52757 24.6699 1.51199 25.6046C1.46523 28.1482 1.48081 30.7071 1.48081 33.266ZM13.0465 1.50172C12.0333 1.50172 11.0201 1.47107 10.007 1.50172C7.40392 1.57833 5.47111 3.49369 5.37759 6.03729C5.34642 6.8494 5.362 7.67684 5.37759 8.48895C5.37759 8.78008 5.31524 9.13251 5.76727 9.1938C6.26606 9.25509 6.39075 8.94863 6.4531 8.56556C6.53104 8.09055 6.64015 7.61554 6.74926 7.14053C7.02983 5.89938 7.70007 5.48566 8.96263 5.7768C10.1005 6.03729 11.2539 6.14455 12.4386 6.14455C13.9037 6.14455 15.3222 5.91471 16.725 5.50099C17.1459 5.3784 17.5355 5.4397 17.6914 5.89938C17.8473 6.37439 17.6135 6.68085 17.1614 6.8494C16.99 6.91069 16.8185 6.97198 16.6471 7.03328C14.2311 7.75345 11.7995 7.79942 9.33672 7.33973C8.24562 7.14053 8.24562 7.12521 8.05858 8.18249C7.6689 10.3583 7.6689 10.3583 5.43994 10.6954C5.40877 10.6954 5.39318 10.6954 5.36201 10.7108C4.98791 10.8027 4.67617 10.9713 4.645 11.4003C4.59824 11.814 4.80087 12.1358 5.19055 12.2277C6.01666 12.3963 6.14136 12.9632 6.20371 13.6374C6.59339 18.0045 11.5657 20.5787 15.4469 18.3875C17.2394 17.3762 18.3305 15.8593 18.5955 13.806C18.689 13.0705 18.7357 12.3503 19.7489 12.1511C20.2789 12.0439 20.3568 11.339 19.9048 10.8946C19.5774 10.5575 19.4995 10.2051 19.4995 9.79139C19.4995 8.51959 19.4995 7.23247 19.4995 5.96067C19.4995 4.94936 19.2345 4.04531 18.3461 3.41708C18.0499 3.21788 17.9096 2.91142 17.8005 2.60496C17.5044 1.83882 16.9276 1.50172 16.1171 1.50172C15.0728 1.48639 14.0596 1.48639 13.0465 1.50172ZM9.27437 20.594C9.25878 20.8852 9.38348 21.0844 9.6017 21.2682C10.3966 21.9118 11.1916 22.5553 11.9865 23.2142C12.2827 23.4594 12.5321 23.4288 12.7971 23.1989C13.3582 22.7239 13.9505 22.2489 14.5272 21.7739C14.8078 21.544 15.0884 21.3142 15.3222 21.0537C15.5248 20.8392 15.556 20.5174 15.4157 20.2569C15.2286 19.9198 14.9481 20.1956 14.7454 20.2569C13.1088 20.7626 11.4877 20.7472 9.88227 20.1956C9.46142 20.0577 9.22761 20.0884 9.27437 20.594ZM15.3533 25.6659C15.3845 25.6352 15.4936 25.6046 15.556 25.528C16.2106 24.7312 16.8809 23.9651 17.4732 23.1376C17.8005 22.6779 17.3173 22.3408 17.0523 22.0344C16.7874 21.7126 16.538 22.0344 16.3353 22.2029C15.5716 22.8158 14.8234 23.4288 14.0752 24.057C13.9193 24.1796 13.7011 24.2562 13.7635 24.532C13.7946 24.6546 15.1507 25.6659 15.3533 25.6659ZM11.0201 24.4707C10.9734 24.2715 10.8331 24.1642 10.6928 24.057C9.97579 23.4747 9.27437 22.8771 8.54178 22.3102C8.30797 22.1263 8.07416 21.6207 7.6689 22.0803C7.32598 22.4787 6.9363 22.8771 7.48185 23.4594C7.99623 23.9957 8.46384 24.578 8.88469 25.1756C9.2432 25.6965 9.58611 25.7732 10.0381 25.3135C10.3499 25.007 10.7863 24.8691 11.0201 24.4707Z" fill="black"/>
<path d="M6.14119 35.2275C6.14119 36.959 6.14119 38.7058 6.14119 40.4373C6.14119 40.6671 6.14119 40.897 6.1256 41.1268C6.06325 41.5865 5.93856 42.0309 5.36183 42.0002C4.8007 41.9696 4.69159 41.5405 4.69159 41.0655C4.69159 37.8171 4.64483 34.584 4.72276 31.3355C4.75394 29.9411 4.53572 28.6693 3.77195 27.4741C3.53814 27.1064 3.3511 26.708 3.19523 26.3096C3.05494 25.9265 3.16405 25.6048 3.55373 25.4056C3.92782 25.2217 4.27074 25.3596 4.42661 25.666C5.1592 27.1677 6.28147 28.5008 6.17236 30.3242C6.06325 31.9637 6.14119 33.588 6.14119 35.2275Z" fill="black"/>
<path d="M18.7036 35.1356C18.7036 33.5267 18.7348 31.9178 18.688 30.3089C18.6569 29.3129 18.7816 28.3935 19.3271 27.5355C19.67 26.9992 19.9038 26.4016 20.2156 25.8346C20.4338 25.4516 20.7455 25.1757 21.2287 25.4056C21.6963 25.6354 21.7275 26.0338 21.5249 26.4475C21.182 27.1677 20.8391 27.8879 20.4494 28.5774C20.1376 29.129 20.0285 29.7113 20.0441 30.3395C20.0597 33.7565 20.0597 37.1735 20.0441 40.5905C20.0441 40.8204 20.0441 41.0502 20.0441 41.2801C20.0285 41.6938 19.8415 41.9849 19.405 42.0003C18.9374 42.0003 18.7036 41.7244 18.7036 41.2648C18.7036 40.3454 18.7036 39.426 18.7036 38.5066C18.7036 37.3727 18.7036 36.2542 18.7036 35.1356Z" fill="black"/>
<path d="M33.3561 20.6401C32.6079 20.5788 31.9532 20.303 31.4233 19.7667C31.0959 19.4295 31.0024 19.0465 31.3453 18.6787C31.6727 18.3263 32.0468 18.3876 32.3741 18.6941C33.0443 19.2916 33.699 19.307 34.3692 18.7094C34.7277 18.4029 35.1174 18.311 35.4603 18.7247C35.7565 19.0771 35.6318 19.4295 35.3356 19.7513C34.8213 20.3183 34.151 20.5941 33.3561 20.6401Z" fill="black"/>
<path d="M29.5059 15.7059C29.5214 15.1543 29.6461 14.6333 30.2696 14.618C30.9243 14.6027 31.0334 15.139 31.049 15.6446C31.049 16.1809 30.971 16.7632 30.2696 16.7326C29.6306 16.7326 29.5214 16.1963 29.5059 15.7059Z" fill="black"/>
<path d="M37.2697 15.6909C37.223 16.2119 37.1762 16.7788 36.4748 16.7635C35.8513 16.7328 35.7422 16.2272 35.7422 15.7062C35.7422 15.1699 35.8669 14.6183 36.5371 14.6336C37.1762 14.6336 37.223 15.1852 37.2697 15.6909Z" fill="black"/>
<path d="M12.4066 16.8093C11.5649 16.748 10.879 16.4568 10.3491 15.8286C10.0685 15.4915 10.0373 15.1237 10.3803 14.802C10.7076 14.4955 11.0193 14.5874 11.3622 14.8326C12.3442 15.5375 12.391 15.5375 13.4509 14.8173C13.7938 14.5874 14.1212 14.5261 14.4329 14.8326C14.7758 15.1697 14.7135 15.5068 14.4329 15.8439C13.8874 16.4875 13.1703 16.7326 12.4066 16.8093Z" fill="black"/>
<path d="M10.0529 11.8295C10.0217 12.3811 9.94378 12.9327 9.25795 12.9327C8.61888 12.9327 8.50977 12.3964 8.50977 11.8908C8.50977 11.3698 8.60329 10.8029 9.28912 10.8182C9.91261 10.8182 10.0217 11.3392 10.0529 11.8295Z" fill="black"/>
<path d="M16.2732 11.8602C16.2576 12.3812 16.1641 12.9022 15.525 12.9175C14.8704 12.9328 14.7457 12.3965 14.7457 11.8908C14.7301 11.3545 14.8236 10.7876 15.525 10.7876C16.1641 10.8182 16.2264 11.3699 16.2732 11.8602Z" fill="black"/>
</svg>
