<svg width="38" height="40" viewBox="0 0 38 40" fill="none" xmlns="http://www.w3.org/2000/svg">
<path d="M8.34675 3.91408C9.37363 3.91408 10.4137 3.9404 11.4405 3.90092C12.1515 3.8746 12.6517 4.11149 13.0335 4.71687C13.3627 5.23013 13.7576 5.70391 14.1262 6.19085C14.6265 6.84888 14.6265 6.84888 15.0873 6.20401C17.1015 3.4403 19.7872 1.71627 23.1443 1.0714C24.3292 0.847676 24.6846 1.12405 24.6846 2.32166C24.6846 3.99304 24.6846 5.65127 24.6846 7.32266C24.6846 8.3755 24.6188 8.48078 23.6051 8.83612C21.5382 9.57311 20.2217 11.4551 20.2348 13.6924C20.248 15.9823 21.8278 17.9564 23.9869 18.5486C26.6199 19.2593 29.2661 17.8774 30.1613 15.3111C30.4904 14.3899 30.6221 14.2846 31.5831 14.2846C33.2946 14.2846 35.0061 14.2846 36.7175 14.2846C37.8234 14.2846 38.1262 14.6531 37.9287 15.7586C37.0203 20.9306 32.8733 25.1157 27.7521 26.0633C22.3149 27.0503 16.9962 24.6156 14.3105 19.7857C12.4279 16.4034 12.2173 12.8238 13.5206 9.19145C13.7313 8.61239 13.6786 8.21757 13.2968 7.77012C12.9677 7.38846 12.6254 6.99364 12.3884 6.55935C11.9277 5.71707 11.2562 5.5065 10.3347 5.54599C8.55739 5.61179 6.7801 5.55915 5.00282 5.57231C4.67369 5.57231 4.3314 5.55915 4.08126 5.3091C3.87062 5.09853 3.75213 4.84848 3.85745 4.53262C4.01543 4.11149 4.34456 3.92724 4.77901 3.92724C5.97703 3.91408 7.16189 3.91408 8.34675 3.91408ZM25.514 24.6814C26.6067 24.6156 27.8443 24.484 29.0291 24.0365C32.5705 22.7205 34.9271 20.2858 36.0593 16.6666C36.2304 16.1271 36.1383 15.9033 35.5195 15.9296C34.4926 15.9691 33.4526 15.9691 32.4257 15.9296C31.8859 15.9165 31.6226 16.1007 31.3725 16.5877C29.5425 20.2463 25.1322 21.4571 21.683 19.2593C21.2749 18.996 21.0511 19.0487 20.7351 19.3777C20.0374 20.1147 19.3396 20.8254 18.5892 21.5229C18.1811 21.9045 18.2469 22.1151 18.6682 22.4309C20.6693 23.9181 22.9073 24.6156 25.514 24.6814ZM23.0522 5.07221C23.0522 4.54579 23.0258 4.01936 23.0522 3.49294C23.0785 2.9402 22.9337 2.74279 22.3412 2.92704C19.5897 3.75615 17.4833 5.40122 15.9562 7.8096C15.7324 8.16493 15.7719 8.4413 16.0352 8.75716C16.4038 9.21777 16.7592 9.69155 17.1015 10.1785C17.3912 10.5865 17.3385 10.9681 16.9567 11.284C16.5618 11.613 16.1668 11.4945 15.8509 11.1524C15.6402 10.9286 15.4691 10.6786 15.2979 10.4285C15.1004 10.139 14.9425 10.0206 14.7976 10.468C14.6133 11.0602 14.4817 11.6525 14.429 12.2579C14.3895 12.679 14.5475 12.8501 14.982 12.8501C15.943 12.8369 16.9172 12.8106 17.8783 12.8632C18.4839 12.8896 18.7077 12.679 18.8393 12.0999C19.208 10.4285 20.0505 8.90192 21.5645 8.16493C23.0127 7.45426 23.2365 6.48038 23.0653 5.13801C23.039 5.11169 23.0522 5.08537 23.0522 5.07221ZM16.5618 14.3899C16.1273 14.3899 15.6929 14.3899 15.2453 14.3899C14.4027 14.3899 14.3105 14.4688 14.4422 15.2848C14.745 17.1799 15.4559 18.8908 16.6539 20.4042C16.8909 20.7201 17.0884 20.7727 17.378 20.47C18.1416 19.6804 18.9183 18.9171 19.6951 18.1538C19.9715 17.8906 19.9847 17.68 19.7609 17.3641C19.2606 16.6666 18.9315 15.877 18.7867 15.0216C18.7077 14.561 18.5102 14.3372 17.9968 14.3767C17.5228 14.4162 17.0489 14.3899 16.5618 14.3899Z" fill="black"/>
<path d="M6.38507 38.987C4.63411 38.987 2.86999 38.987 1.11903 38.987C0.210641 38.987 0 38.7633 0 37.8552C0 35.5916 0 33.3412 0 31.0776C0 30.2484 0.263302 29.9721 1.10587 29.9721C3.27811 29.9589 5.45035 29.9589 7.62259 29.9721C8.1097 29.9721 8.41249 29.8405 8.70212 29.4062C9.75533 27.8401 11.2298 27.0241 13.1388 27.0373C14.9819 27.0504 16.825 27.0373 18.6681 27.0373C19.6423 27.0373 19.9583 27.4452 19.7608 28.4191C19.379 30.3537 17.8914 31.5908 15.9034 31.604C15.4821 31.604 15.074 31.5908 14.6527 31.604C14.4948 31.604 14.2578 31.5118 14.192 31.7224C14.1261 31.8935 14.3236 32.0383 14.4289 32.1699C14.8897 32.7489 15.5348 32.9332 16.2326 32.9595C16.7987 32.9727 17.3779 32.9332 17.944 32.9727C18.4048 32.999 18.7339 32.8147 19.0367 32.4989C19.9188 31.5908 20.8272 30.6959 21.7356 29.801C23.1311 28.4191 24.5661 28.1428 26.3565 28.9587C26.6725 29.1035 26.8831 29.0113 27.1464 28.8929C28.6077 28.2744 29.9769 28.4191 31.2144 29.4325C31.8069 29.9194 31.8332 30.2879 31.3461 30.8933C29.266 33.4464 27.1859 35.9864 25.1058 38.5396C24.8689 38.8291 24.5924 38.987 24.2106 38.987C22.407 38.9739 20.6165 38.987 18.8129 38.987C18.1942 38.987 17.7992 38.6449 17.8519 38.1579C17.9177 37.5789 18.3258 37.4341 18.8392 37.4472C20.3269 37.4604 21.8277 37.4341 23.3154 37.4604C23.7235 37.4604 24.0131 37.3551 24.2764 37.0261C25.9484 34.9599 27.6335 32.9069 29.3055 30.8538C29.4108 30.7222 29.6083 30.5906 29.5425 30.4064C29.4635 30.1958 29.2265 30.1958 29.0422 30.1826C28.2918 30.1037 27.673 30.3669 27.1464 30.9065C26.0932 31.9725 25.0268 33.0121 23.9868 34.0782C23.6972 34.3808 23.3812 34.5388 22.9468 34.5388C20.5507 34.5256 18.1678 34.5388 15.7718 34.5256C13.9682 34.5124 12.283 32.7884 12.2699 30.9854C12.2699 30.3537 12.6122 30.0115 13.3231 29.9984C14.271 29.9721 15.2057 29.9984 16.1536 29.9852C16.8645 29.9852 17.4042 29.6431 17.8124 29.0771C17.9835 28.8534 18.0757 28.6165 17.6281 28.6297C15.9693 28.6823 14.2973 28.4849 12.6385 28.735C10.8085 29.0113 9.68951 30.209 9.4657 32.0646C9.39987 32.591 9.28139 33.0516 8.66263 33.078C8.04387 33.1043 7.84639 32.6568 7.82006 32.1172C7.8069 31.7356 7.60942 31.6303 7.26713 31.6435C7.04332 31.6566 6.83268 31.6566 6.60888 31.6435C6.13493 31.604 6.00328 31.8277 6.01645 32.262C6.02961 33.8018 6.02961 35.3284 6.01645 36.8682C6.01645 37.3288 6.17443 37.4867 6.62204 37.4736C8.30717 37.4604 10.0055 37.4604 11.6906 37.4736C12.4542 37.4736 12.7438 37.6973 12.7306 38.25C12.7175 38.7896 12.4278 39.0134 11.6643 39.0134C9.88698 39.0002 8.13603 38.987 6.38507 38.987ZM1.52715 34.4861C1.52715 35.2758 1.54032 36.0654 1.52715 36.855C1.51399 37.263 1.63247 37.4736 2.08008 37.4604C2.69884 37.4341 3.30444 37.4472 3.9232 37.4604C4.31815 37.4736 4.47613 37.3156 4.46297 36.9208C4.4498 35.3416 4.4498 33.7623 4.46297 32.1962C4.46297 31.7619 4.29182 31.6171 3.87054 31.6303C3.27811 31.6566 2.68568 31.6566 2.09325 31.6303C1.67197 31.6171 1.50082 31.7751 1.51399 32.2094C1.55348 32.9595 1.52715 33.7228 1.52715 34.4861ZM21.1036 32.9727C21.6697 32.9069 22.3675 33.2359 22.9073 32.7621C23.684 32.0909 24.3817 31.3276 25.1058 30.6038C25.3428 30.38 25.3033 30.2221 24.9742 30.1826C24.4212 30.1168 23.8156 30.1037 23.4075 30.4985C22.6045 31.275 21.8804 32.1436 21.1036 32.9727Z" fill="black"/>
<path d="M26.0547 6.96716C26.0547 5.36157 26.0547 3.76915 26.0547 2.16356C26.0547 1.17652 26.4101 0.847509 27.4107 1.04492C31.8868 1.90035 35.0859 4.41401 37.0344 8.5201C37.4952 9.49398 37.7848 10.5337 37.9559 11.5997C38.1271 12.5867 37.8243 12.9289 36.8106 12.942C33.6115 12.942 30.4123 12.942 27.2 12.942C26.2522 12.942 26.0547 12.7446 26.0547 11.7708C26.0547 10.1652 26.0547 8.57274 26.0547 6.96716ZM27.595 7.03296C27.595 8.28321 27.6082 9.53346 27.5818 10.7837C27.5687 11.2312 27.7267 11.4023 28.1874 11.4023C30.6625 11.3891 33.1507 11.3891 35.6257 11.4023C36.126 11.4023 36.2445 11.2312 36.0997 10.7706C34.8753 6.74343 32.2554 4.12448 28.2269 2.90055C27.6872 2.72947 27.5687 2.94003 27.5818 3.42697C27.6082 4.62458 27.595 5.82219 27.595 7.03296Z" fill="black"/>
<path d="M8.33305 2.54513C7.14819 2.54513 5.96333 2.53197 4.77847 2.54513C4.2387 2.55829 3.84375 2.34772 3.84375 1.78182C3.84375 1.22908 4.2387 0.992188 4.77847 0.992188C7.14819 0.992188 9.5179 0.992188 11.8876 0.992188C12.4274 0.992188 12.8223 1.21592 12.8223 1.76866C12.8223 2.33456 12.4274 2.54513 11.8876 2.53197C10.7028 2.53197 9.5179 2.54513 8.33305 2.54513Z" fill="black"/>
<path d="M15.3372 38.9865C14.8369 38.9602 14.521 38.697 14.4946 38.2232C14.4815 37.7889 14.7316 37.4862 15.2187 37.4599C15.719 37.4336 16.035 37.6836 16.0744 38.1706C16.1139 38.6443 15.8111 38.9207 15.3372 38.9865Z" fill="black"/>
</svg>
