<svg width="42" height="42" viewBox="0 0 42 42" fill="none" xmlns="http://www.w3.org/2000/svg">
<path d="M0 22.4295C0 21.1841 0 19.9259 0 18.6805C0.0513554 18.3596 0.089872 18.0514 0.154066 17.7305C1.54066 9.48791 6.17549 3.94153 13.9943 1.02711C15.5093 0.462199 17.0885 0.21826 18.6805 0C19.9259 0 21.1841 0 22.4295 0C22.7504 0.0513554 23.0586 0.089872 23.3795 0.154066C31.6478 1.54066 37.207 6.20117 40.1086 14.0457C40.6606 15.535 40.9046 17.1142 41.11 18.6805C41.11 19.9259 41.11 21.1841 41.11 22.4295C41.0586 22.7504 41.0201 23.0586 40.9559 23.3795C39.5437 31.712 34.8446 37.284 26.9231 40.1599C25.4723 40.6863 23.9445 40.9046 22.4295 41.11C21.1841 41.11 19.9259 41.11 18.6805 41.11C18.3596 41.0586 18.0514 41.0201 17.7305 40.9559C9.3852 39.5437 3.8003 34.819 0.937236 26.8846C0.423682 25.4466 0.205422 23.9445 0 22.4295ZM20.478 32.7006C22.7248 32.7006 24.9716 32.7134 27.2184 32.7006C28.7077 32.6877 29.6963 31.789 29.6963 30.3382C29.7219 26.8075 29.7219 23.2768 29.6963 19.7462C29.6834 18.3467 28.759 17.4352 27.3596 17.3838C26.6149 17.3581 26.6278 17.4352 26.6278 16.5878C26.6149 15.4195 26.7176 14.2383 26.4994 13.0828C25.9345 10.0913 23.0714 7.8317 19.8232 8.20403C17.0243 8.525 14.7518 10.7718 14.4565 13.5578C14.341 14.6491 14.4052 15.7404 14.3924 16.8317C14.3924 17.2426 14.2768 17.3966 13.8531 17.3966C12.1841 17.4223 11.311 18.3339 11.311 19.9901C11.311 23.3539 11.311 26.7305 11.311 30.0943C11.311 31.789 12.2354 32.7006 13.943 32.7134C16.1128 32.7006 18.2954 32.7006 20.478 32.7006Z" fill="#0E1133"/>
<path d="M20.5038 17.371C19.2969 17.371 18.1029 17.3581 16.8961 17.3838C16.4852 17.3838 16.3055 17.2682 16.3312 16.8317C16.3825 15.7147 16.2156 14.5849 16.421 13.4679C16.8062 11.388 18.732 9.92442 20.8119 10.0913C22.9175 10.2582 24.6122 12.0171 24.6636 14.1356C24.6893 15.0343 24.6507 15.933 24.6764 16.8317C24.6893 17.2554 24.5224 17.3838 24.1115 17.3838C22.9175 17.3581 21.7106 17.371 20.5038 17.371Z" fill="#0E1133"/>
<path d="M22.6221 23.5208C22.5836 24.0985 22.391 24.6249 21.9416 25.0101C21.672 25.2412 21.5821 25.498 21.595 25.8446C21.6207 26.3839 21.6078 26.9359 21.595 27.4752C21.5821 28.1941 21.1199 28.682 20.4908 28.6692C19.8746 28.6563 19.4509 28.1813 19.4252 27.488C19.4124 27.1799 19.4252 26.8846 19.4252 26.5764C19.4381 25.896 19.4509 25.2797 18.8475 24.7148C18.1927 24.0857 18.2569 23.0329 18.7961 22.2754C19.3353 21.5179 20.2983 21.2098 21.1841 21.5051C22.0315 21.7876 22.6349 22.6349 22.6221 23.5208Z" fill="#0E1133"/>
</svg>
