<svg width="92" height="97" viewBox="0 0 92 97" fill="none" xmlns="http://www.w3.org/2000/svg">
<path d="M43.7673 33.1942C44.4449 33.1942 44.5703 32.9687 44.5703 32.3424C44.5452 28.6597 44.5452 24.977 44.5703 21.2944C44.5703 20.0668 44.8715 19.7161 46.0259 19.3653C47.2556 19.8163 47.4312 20.0668 47.4312 21.5449C47.4312 32.167 47.4312 42.7891 47.4061 53.3862C47.4061 54.1628 47.6069 54.3883 48.3849 54.3883C56.3401 54.3633 64.2703 54.3633 72.2256 54.3633C72.5267 54.3633 72.8529 54.3633 73.1541 54.3883C73.8568 54.4635 74.2583 54.8142 74.3587 55.5658C74.4591 56.3674 74.1328 56.7933 73.4552 57.0689C73.0537 57.2443 72.6522 57.1941 72.2506 57.1941C63.3167 57.1941 54.3576 57.1941 45.4236 57.1941C45.1224 57.1941 44.6456 57.0188 44.5703 57.3445C44.4449 57.8956 44.4198 58.547 44.5452 59.0981C44.6456 59.524 45.1977 59.2985 45.524 59.2985C57.0679 59.2985 68.6118 59.2985 80.1557 59.2985C80.4569 59.2985 80.7831 59.2735 81.0843 59.2484C83.0166 59.2735 84.949 59.2735 86.8813 59.2985C87.3832 59.2985 87.5589 59.1232 87.5087 58.6472C87.4836 58.3716 87.4836 58.096 87.5087 57.7954C87.5589 57.3194 87.4083 57.119 86.9064 57.144C84.9741 57.1941 83.0417 57.1691 81.1094 57.1941C80.6074 57.1691 80.1055 57.1941 79.6036 57.144C78.7253 57.0438 78.1732 56.3925 78.1732 55.5658C78.1983 54.9144 78.8508 54.3633 79.6789 54.3382C80.8584 54.3131 82.063 54.3382 83.2425 54.3131C84.8737 54.2881 84.5725 54.5136 84.6729 52.9353C84.7482 51.9582 84.4471 51.7578 83.4934 51.7578C73.5556 51.7829 63.5927 51.7829 53.6549 51.7578C51.6724 51.7578 50.8693 50.9562 50.8693 48.977C50.8693 46.1461 50.8693 43.2902 50.8693 40.4593C50.8693 38.2296 51.5971 37.4781 53.8306 37.4781C63.7684 37.4781 73.7313 37.4781 83.6691 37.4781C84.1961 37.4781 84.6729 37.5783 84.6729 36.7265C84.6478 27.7328 84.6478 18.739 84.6729 9.7453C84.6729 9.1691 84.5223 8.99374 83.9451 8.99374C72.0248 9.01879 60.1044 8.99374 48.1841 8.99374C47.5065 8.99374 47.4061 9.24426 47.4312 9.82046C47.4563 11.1232 47.4061 12.4509 47.4563 13.7537C47.4814 14.8058 47.0799 15.4823 46.0259 15.7328C44.8464 15.382 44.5703 15.0063 44.5703 13.8038C44.5703 12.4509 44.5452 11.1232 44.5703 9.77035C44.5954 9.21921 44.47 9.01879 43.8677 8.99374C42.5627 8.91858 41.7095 7.9666 41.6844 6.66388C41.6593 5.56159 41.7597 4.48434 41.6593 3.38205C41.5338 1.92902 41.9102 0.80167 43.1901 0C58.3979 0 73.6058 0 88.8137 0C89.5414 0.5762 90.3445 1.07724 90.3445 2.15449C90.3445 3.75783 90.3947 5.33612 90.3194 6.93946C90.2692 8.09186 89.416 8.96868 88.2867 8.99374C87.4836 8.99374 87.4836 9.34447 87.4836 9.94572C87.4836 24.4509 87.5087 38.9311 87.4836 53.4363C87.4836 54.0376 87.5589 54.3131 88.2365 54.3633C89.5414 54.4635 90.2943 55.3403 90.3445 56.6681C90.3947 57.6451 90.3696 58.5971 90.3445 59.5741C90.3194 61.1524 89.6669 61.904 88.0859 62.1545C87.6593 62.2296 87.4585 62.2797 87.4585 62.8058C87.4836 72.7265 87.4836 82.6722 87.4585 92.5929C87.4585 93.119 87.6342 93.2192 88.111 93.1941C88.9893 93.1691 89.8677 93.144 90.746 93.1941C91.5491 93.2442 91.9757 93.7703 92.0008 94.572C92.0008 95.3737 91.5491 95.8497 90.7711 95.9749C90.4951 96.025 90.219 96 89.9179 96C60.6315 96 31.345 96 2.05862 96C1.83276 96 1.63199 96 1.40613 96C0.552888 95.9499 -0.0243083 95.3737 0.000787209 94.572C0.000787209 93.7703 0.603078 93.2192 1.45632 93.1941C2.23428 93.1691 3.03734 93.119 3.7902 93.2192C4.64345 93.3194 4.79402 92.9937 4.79402 92.1921C4.79402 77.5365 4.79402 62.881 4.79402 48.2505C4.79402 46.4718 4.76893 44.6931 4.79402 42.9144C4.79402 42.4384 4.74383 42.2129 4.16664 42.1879C2.51033 42.1628 1.68218 41.286 1.65709 39.6075C1.63199 38.3549 1.63199 37.1023 1.65709 35.8497C1.68218 34.0209 2.53543 33.1691 4.3674 33.1691L43.7673 33.1942ZM81.1345 6.18789C82.3892 6.18789 83.644 6.238 84.8737 6.21294C85.7269 6.18789 86.9064 6.61378 87.3832 6.03758C87.8098 5.51148 87.5087 4.38413 87.5338 3.50731C87.5338 3.48225 87.5338 3.43215 87.5338 3.4071C87.6091 2.95616 87.3832 2.8309 86.9315 2.8309C84.9992 2.85595 83.0668 2.85595 81.1094 2.881C80.7329 2.881 80.3565 2.85595 79.9801 2.85595C68.9632 2.85595 57.9713 2.85595 46.9544 2.85595C46.1514 2.85595 45.0973 2.50522 44.6205 3.03132C44.219 3.48225 44.5452 4.50939 44.47 5.28601C44.3696 6.08768 44.6707 6.238 45.4487 6.238C57.0428 6.21294 68.662 6.21294 80.2561 6.21294C80.5824 6.21294 80.8584 6.18789 81.1345 6.18789ZM7.68 67.666C7.68 75.7829 7.7051 83.8998 7.65491 92.0417C7.65491 92.9186 7.78038 93.3445 8.7842 93.2443C9.83821 93.144 10.9173 93.144 11.9713 93.2443C12.8246 93.3194 12.9751 92.9937 12.9751 92.2171C12.9501 84.4008 12.9501 76.6096 12.9501 68.7933C12.9501 67.0146 13.9037 66.0626 15.6604 66.0626C22.3358 66.0626 28.9861 66.0626 35.6615 66.0626C37.393 66.0626 38.3216 66.9645 38.3467 68.6931C38.3718 69.7202 38.3467 70.7474 38.3467 71.7745C38.3467 78.6138 38.3467 85.453 38.3216 92.2923C38.3216 93.0188 38.4972 93.2443 39.2501 93.2192C40.7056 93.1691 42.1863 93.1691 43.6669 93.2192C44.3696 93.2443 44.5452 93.0438 44.5452 92.3424C44.5202 82.5971 44.5202 72.8518 44.5452 63.1065C44.5452 62.4551 44.4198 62.1795 43.692 62.1044C42.4623 61.9791 41.6844 61.0522 41.6593 59.8246C41.6342 58.7724 41.6342 57.6952 41.6593 56.643C41.6844 55.4405 42.5376 54.4885 43.7422 54.4134C44.4198 54.3633 44.5452 54.1127 44.5452 53.4864C44.5202 50.0543 44.4951 46.6221 44.5452 43.19C44.5452 42.4134 44.3445 42.2129 43.5665 42.2129C31.9222 42.238 20.2779 42.238 8.65873 42.2129C7.85567 42.2129 7.62981 42.3883 7.62981 43.215C7.7051 51.357 7.68 59.499 7.68 67.666ZM66.0521 93.1941C71.9746 93.1941 77.872 93.1691 83.7946 93.1941C84.4721 93.1941 84.698 93.0689 84.698 92.3424C84.6729 82.572 84.6729 72.8017 84.698 63.0063C84.698 62.3048 84.4972 62.1294 83.7946 62.1294C71.9746 62.1545 60.1546 62.1294 48.3096 62.1044C47.5818 62.1044 47.4312 62.3298 47.4312 63.0063C47.4563 72.7766 47.4563 82.547 47.4312 92.3424C47.4312 93.0689 47.632 93.2192 48.3096 93.2192C54.2321 93.1941 60.1295 93.1941 66.0521 93.1941ZM35.536 83.8246C35.536 80.9937 35.536 78.1378 35.536 75.3069C35.536 74.8309 35.4858 74.5804 34.9086 74.5804C32.5245 74.6054 30.1655 74.6054 27.7815 74.5804C27.2545 74.5804 27.0537 74.7056 27.0788 75.2568C27.129 76.3591 27.1039 77.4363 27.0788 78.5386C27.0537 79.5908 26.5518 80.167 25.6986 80.167C24.8704 80.167 24.2932 79.5407 24.2681 78.5386C24.243 77.4864 24.243 76.4092 24.2681 75.357C24.2932 74.7808 24.1426 74.5553 23.5152 74.5553C21.2065 74.6054 18.8726 74.6054 16.5638 74.5553C15.9364 74.5553 15.7858 74.7307 15.7858 75.3319C15.8109 81.0438 15.8109 86.7557 15.7858 92.4676C15.7858 93.0689 15.9615 93.1941 16.5136 93.1941C18.8475 93.1691 21.2065 93.1691 23.5403 93.1941C24.1426 93.1941 24.243 92.9937 24.243 92.4426C24.2179 90.263 24.2179 88.0584 24.243 85.8789C24.243 84.5762 24.7449 83.8747 25.6986 83.8998C26.6271 83.8998 27.0788 84.5261 27.0788 85.8288C27.0788 87.9833 27.1039 90.1378 27.0537 92.2923C27.0537 92.9436 27.1541 93.2192 27.9069 93.1941C30.1906 93.144 32.4743 93.144 34.758 93.1691C35.3603 93.1691 35.5611 93.0438 35.536 92.4175C35.536 89.5616 35.536 86.6806 35.536 83.8246ZM24.6194 36.0752C24.6194 36.0501 24.6194 36.0501 24.6194 36.0251C18.6969 36.0251 12.7995 36.0251 6.87695 36.0251C6.12408 36.0251 5.14536 35.7745 4.69364 36.1503C4.16664 36.6012 4.61835 37.6284 4.49288 38.38C4.3674 39.2317 4.71874 39.382 5.52179 39.382C17.7182 39.3319 29.9146 39.3319 42.111 39.3319C44.47 39.3319 44.4449 39.3319 44.4951 36.952C44.4951 36.2004 44.2692 36.0251 43.5665 36.0251C37.2425 36.0752 30.9435 36.0752 24.6194 36.0752ZM62.1372 44.6931C62.1372 43.4656 62.1121 42.263 62.1623 41.0355C62.1874 40.4593 62.0117 40.309 61.4345 40.309C59.1006 40.334 56.7416 40.334 54.4078 40.309C53.9059 40.309 53.7051 40.3841 53.7051 40.9603C53.7302 43.4154 53.7302 45.8956 53.7051 48.3507C53.7051 48.8017 53.7804 49.0021 54.3074 49.0021C56.7166 48.977 59.1257 48.977 61.5098 49.0021C62.0117 49.0021 62.1623 48.8518 62.1372 48.3507C62.1121 47.1232 62.1372 45.8956 62.1372 44.6931ZM73.405 44.6681C73.405 43.4154 73.38 42.1628 73.405 40.9353C73.405 40.5094 73.3047 40.334 72.8279 40.334C70.3936 40.3591 67.9593 40.3591 65.5251 40.334C65.0733 40.334 64.9479 40.4843 64.9479 40.9102C64.973 43.4154 64.973 45.8956 64.9479 48.4008C64.9479 48.8017 64.9981 49.0271 65.5 49.0271C67.9342 49.0021 70.3685 49.0021 72.8028 49.0271C73.3549 49.0271 73.405 48.7766 73.405 48.3507C73.38 47.0981 73.405 45.8706 73.405 44.6681ZM76.2408 44.5929C76.2408 45.8455 76.2659 47.0981 76.2408 48.3257C76.2157 48.8768 76.4165 49.0021 76.9184 49.0021C79.3025 48.977 81.6615 48.977 84.0455 49.0021C84.5223 49.0021 84.698 48.8768 84.698 48.3758C84.6729 45.9207 84.6729 43.4405 84.698 40.9854C84.698 40.5094 84.5976 40.334 84.0957 40.334C81.6866 40.3591 79.2774 40.3591 76.8933 40.334C76.3914 40.334 76.2659 40.4843 76.2659 40.9603C76.2659 42.1628 76.2408 43.3653 76.2408 44.5929ZM25.6484 68.8434C23.0133 68.8434 20.4034 68.8434 17.7684 68.8434C15.8109 68.8434 15.836 68.8434 15.7858 70.7724C15.7607 71.5741 16.0117 71.7495 16.7897 71.7244C22.3609 71.6994 27.907 71.6994 33.4781 71.6994C35.5862 71.6994 35.5611 71.6994 35.5611 69.595C35.5611 68.9436 35.3352 68.8434 34.758 68.8434C31.7215 68.8685 28.6849 68.8434 25.6484 68.8434Z" fill="#0A0A0D"/>
<path d="M46.0263 19.3651C46.0263 18.1626 46.0263 16.9601 46.0263 15.7576C47.0803 15.5071 47.4819 14.8307 47.4568 13.7785C47.4317 12.4758 47.4568 11.148 47.4317 9.84528C47.4066 9.26908 47.5069 9.01855 48.1845 9.01855C60.1049 9.04361 72.0252 9.04361 83.9456 9.01855C84.5228 9.01855 84.6733 9.19392 84.6733 9.77012C84.6482 18.7639 84.6482 27.7576 84.6733 36.7513C84.6733 37.6282 84.1965 37.5029 83.6695 37.5029C73.7317 37.5029 63.7688 37.5029 53.831 37.5029C51.5975 37.5029 50.8697 38.2294 50.8697 40.4841C50.8697 43.315 50.8697 46.171 50.8697 49.0019C50.8697 50.981 51.6728 51.7826 53.6553 51.7826C63.5931 51.7826 73.556 51.8077 83.4938 51.7826C84.4475 51.7826 84.7486 51.9831 84.6733 52.9601C84.5729 54.5384 84.8741 54.3129 83.2429 54.338C82.0634 54.363 80.8588 54.338 79.6793 54.363C78.8512 54.3881 78.1987 54.9392 78.1736 55.5906C78.1485 56.4173 78.7257 57.0687 79.604 57.1689C80.106 57.219 80.6079 57.219 81.1098 57.219C81.1098 57.8954 81.1098 58.5718 81.1098 59.2733C80.8086 59.2983 80.4824 59.3233 80.1812 59.3233C68.6373 59.3233 57.0934 59.3233 45.5495 59.3233C45.2233 59.3233 44.6712 59.5488 44.5708 59.1229C44.4453 58.5718 44.4704 57.9204 44.5959 57.3693C44.6712 57.0687 45.148 57.219 45.4491 57.219C54.3831 57.219 63.3422 57.219 72.2762 57.219C72.6777 57.219 73.0792 57.2691 73.4808 57.0937C74.1583 56.8181 74.4846 56.3672 74.3842 55.5906C74.2838 54.839 73.8823 54.4883 73.1796 54.4131C72.8785 54.3881 72.5522 54.3881 72.2511 54.3881C64.2958 54.3881 56.3656 54.3881 48.4104 54.4131C47.6073 54.4131 47.4317 54.1877 47.4317 53.411C47.4568 42.7889 47.4568 32.1668 47.4568 21.5697C47.4317 20.0666 47.256 19.816 46.0263 19.3651ZM66.0274 12.2002C65.124 12.2002 64.2205 12.2753 63.3171 12.1751C61.6859 12.0248 60.5315 12.6511 59.8037 14.1041C59.4775 14.7806 58.9505 15.1062 58.1976 15.1814C56.5915 15.3568 55.6379 16.4591 55.6379 18.0874C55.6128 19.4403 55.6379 20.768 55.6379 22.1208C55.6379 23.7743 55.5877 25.4277 56.0143 27.0311C57.2189 31.5655 61.7612 34.8724 66.454 34.672C71.3476 34.4465 75.5135 30.8891 76.2663 26.1793C76.7432 23.2983 76.442 20.3922 76.4169 17.4862C76.4169 16.434 75.388 15.3317 74.334 15.2565C73.2047 15.1563 72.6024 14.5801 72.1005 13.6783C71.5233 12.6511 70.6199 12.1501 69.3902 12.1751C68.286 12.2252 67.1567 12.2002 66.0274 12.2002Z" fill="#578FCB"/>
<path d="M7.67939 67.666C7.67939 59.524 7.70449 51.357 7.6543 43.215C7.6543 42.3883 7.88016 42.1879 8.68321 42.213C20.3275 42.238 31.9718 42.238 43.591 42.213C44.369 42.213 44.5948 42.4134 44.5697 43.19C44.5195 46.6221 44.5446 50.0543 44.5697 53.4864C44.5697 54.0877 44.4443 54.3633 43.7667 54.4134C42.5621 54.4885 41.7089 55.4405 41.6838 56.643C41.6587 57.6952 41.6587 58.7725 41.6838 59.8247C41.7089 61.0522 42.4868 61.9791 43.7165 62.1044C44.4192 62.1796 44.5697 62.4551 44.5697 63.1065C44.5446 72.8518 44.5446 82.5971 44.5697 92.3424C44.5697 93.0439 44.3941 93.2443 43.6914 93.2192C42.2108 93.1691 40.7552 93.1691 39.2746 93.2192C38.5217 93.2443 38.3461 93.0188 38.3461 92.2923C38.3712 85.453 38.3712 78.6138 38.3712 71.7745C38.3712 70.7474 38.3962 69.7203 38.3712 68.6931C38.3461 66.9645 37.4175 66.0626 35.6859 66.0626C29.0105 66.0626 22.3602 66.0626 15.6848 66.0626C13.9282 66.0626 12.9745 67.0146 12.9745 68.7933C12.9745 76.6096 12.9494 84.4008 12.9996 92.2171C12.9996 93.0188 12.8491 93.3194 11.9958 93.2443C10.9418 93.1441 9.8627 93.1441 8.80869 93.2443C7.77977 93.3445 7.6543 92.9436 7.67939 92.0418C7.70449 83.8998 7.67939 75.7829 7.67939 67.666ZM38.3962 54.1879C38.3962 52.2839 38.4213 50.38 38.3712 48.476C38.3461 46.9729 37.4175 46.1462 35.9118 46.1211C33.854 46.0961 31.771 46.1211 29.7132 46.1211C27.806 46.1211 26.9276 46.9979 26.9025 48.9269C26.8774 52.3842 26.8774 55.8664 26.9025 59.3236C26.9025 61.2025 27.7809 62.0793 29.6379 62.1044C31.6456 62.1295 33.6532 62.1295 35.6357 62.1044C37.543 62.0793 38.321 61.2777 38.3461 59.3236C38.3962 57.6451 38.3962 55.9165 38.3962 54.1879ZM24.4432 54.1879C24.4432 52.3591 24.4432 50.5052 24.4432 48.6764C24.4432 47.0981 23.5397 46.1462 21.9838 46.1462C19.8256 46.1211 17.6674 46.1462 15.5092 46.1462C14.0035 46.1462 12.9996 47.0731 12.9996 48.5512C12.9745 52.2589 12.9745 55.9666 12.9996 59.6743C12.9996 61.0773 13.9282 62.0543 15.3084 62.1044C17.5921 62.1545 19.8758 62.1545 22.1595 62.1044C23.615 62.0793 24.4432 61.1274 24.4432 59.6994C24.4432 57.8706 24.4432 56.0167 24.4432 54.1879Z" fill="#FBBD87"/>
<path d="M66.0525 93.1943C60.13 93.1943 54.2325 93.1943 48.31 93.2193C47.6324 93.2193 47.4316 93.069 47.4316 92.3425C47.4567 82.5721 47.4567 72.8018 47.4316 63.0064C47.4316 62.33 47.5822 62.1045 48.31 62.1045C60.1299 62.1295 71.9499 62.1295 83.795 62.1295C84.4977 62.1295 84.6984 62.3049 84.6984 63.0064C84.6733 72.7767 84.6733 82.5471 84.6984 92.3425C84.6984 93.069 84.4726 93.1943 83.795 93.1943C77.8724 93.1692 71.975 93.1943 66.0525 93.1943ZM50.7191 77.3112C50.7191 80.2172 50.7191 83.1233 50.7191 86.0293C50.7191 87.5826 51.5473 88.5345 53.1032 88.5596C56.1147 88.6097 59.101 88.6097 62.1125 88.5596C63.6433 88.5345 64.5468 87.5826 64.5719 86.0544C64.5969 80.2172 64.5969 74.3801 64.5719 68.5179C64.5719 66.9646 63.568 66.0126 62.0121 66.0126C59.101 65.9876 56.19 65.9876 53.2789 66.0126C51.6728 66.0126 50.7191 66.9646 50.7191 68.593C50.7191 71.4991 50.7191 74.4051 50.7191 77.3112ZM81.3356 77.2611C81.3356 74.3801 81.3356 71.5241 81.3356 68.6431C81.3356 66.9646 80.4071 66.0377 78.7508 66.0126C75.8648 65.9876 73.0039 65.9876 70.1179 66.0126C68.4616 66.0126 67.4829 66.9897 67.4829 68.6181C67.4578 74.3801 67.4578 80.1671 67.4829 85.9291C67.4829 87.5575 68.3864 88.5095 70.0176 88.5345C72.9537 88.5847 75.8899 88.5847 78.8261 88.5345C80.4824 88.5095 81.3356 87.5826 81.3356 85.9291C81.3356 83.0732 81.3356 80.1671 81.3356 77.2611Z" fill="#578FCB"/>
<path d="M35.5356 83.8244C35.5356 86.7054 35.5105 89.5614 35.5607 92.4424C35.5607 93.0687 35.385 93.219 34.7827 93.194C32.499 93.1689 30.2153 93.1439 27.9317 93.219C27.1788 93.2441 27.0784 92.9685 27.0784 92.3171C27.1286 90.1626 27.1035 88.0082 27.1035 85.8537C27.1035 84.551 26.6518 83.9497 25.7233 83.9246C24.7696 83.9246 24.2677 84.6011 24.2677 85.9038C24.2677 88.0833 24.2426 90.2879 24.2677 92.4674C24.2677 93.0186 24.1673 93.219 23.565 93.219C21.2312 93.1689 18.8722 93.194 16.5383 93.219C15.9862 93.219 15.8105 93.0938 15.8105 92.4925C15.8356 86.7806 15.8356 81.0687 15.8105 75.3568C15.8105 74.7556 15.9611 74.5551 16.5885 74.5802C18.8973 74.6052 21.2312 74.6303 23.54 74.5802C24.1924 74.5802 24.3179 74.7806 24.2928 75.3818C24.2426 76.434 24.2677 77.5113 24.2928 78.5635C24.3179 79.5656 24.8951 80.1919 25.7233 80.1919C26.5765 80.1919 27.1035 79.6157 27.1035 78.5635C27.1286 77.4612 27.1286 76.3839 27.1035 75.2816C27.0784 74.7305 27.2792 74.5802 27.8062 74.6052C30.1903 74.6303 32.5743 74.6553 34.9333 74.6052C35.5356 74.6052 35.5858 74.8558 35.5607 75.3317C35.5356 78.1376 35.5356 80.9685 35.5356 83.8244Z" fill="#E8DAD6"/>
<path d="M24.6197 36.0756C30.9438 36.0756 37.2428 36.0756 43.5668 36.0506C44.2946 36.0506 44.5204 36.2259 44.4954 36.9775C44.4703 39.3574 44.4954 39.3574 42.1113 39.3574C29.9149 39.3574 17.7185 39.3825 5.52209 39.4075C4.71904 39.4075 4.3677 39.2572 4.49318 38.4055C4.61865 37.6539 4.16694 36.6268 4.69394 36.1758C5.14566 35.8 6.12438 36.0506 6.87725 36.0506C12.7998 36.0506 18.6972 36.0506 24.6197 36.0506C24.6197 36.0506 24.6197 36.0506 24.6197 36.0756Z" fill="#C47036"/>
<path d="M81.135 6.18768C80.859 6.18768 80.5829 6.21273 80.2818 6.21273C68.6876 6.21273 57.0684 6.21273 45.4743 6.23778C44.6964 6.23778 44.4203 6.08747 44.4956 5.2858C44.5709 4.50918 44.2447 3.48204 44.6462 3.0311C45.0979 2.505 46.177 2.85574 46.9801 2.85574C57.997 2.85574 68.9888 2.85574 80.0057 2.85574C80.3821 2.85574 80.7586 2.88079 81.135 2.88079C81.135 3.98308 81.135 5.08538 81.135 6.18768Z" fill="#578FCB"/>
<path d="M62.1372 44.6927C62.1372 45.9203 62.1121 47.1228 62.1372 48.3503C62.1372 48.8263 62.0117 49.0017 61.5098 49.0017C59.1006 48.9767 56.6914 48.9767 54.3074 49.0017C53.7804 49.0017 53.7051 48.8013 53.7051 48.3503C53.7302 45.8952 53.7302 43.4151 53.7051 40.9599C53.7051 40.3837 53.9058 40.3086 54.4078 40.3086C56.7416 40.3336 59.1006 40.3336 61.4345 40.3086C62.0117 40.3086 62.1874 40.4589 62.1623 41.0351C62.087 42.2627 62.1372 43.4652 62.1372 44.6927Z" fill="#E8DAD6"/>
<path d="M73.4044 44.6681C73.4044 45.8956 73.3793 47.0981 73.4044 48.3257C73.4044 48.7516 73.3542 49.0021 72.8021 49.0021C70.3679 48.977 67.9336 48.977 65.4994 49.0021C64.9975 49.0021 64.9473 48.8017 64.9473 48.3758C64.9724 45.8706 64.9724 43.3904 64.9473 40.8852C64.9473 40.4593 65.0476 40.2839 65.5245 40.309C67.9587 40.334 70.393 40.334 72.8272 40.309C73.3041 40.309 73.4044 40.4843 73.4044 40.9102C73.3793 42.1628 73.4044 43.4154 73.4044 44.6681Z" fill="#E8DAD6"/>
<path d="M76.2403 44.5925C76.2403 43.365 76.2654 42.1625 76.2403 40.9349C76.2152 40.4589 76.3658 40.3086 76.8677 40.3086C79.2769 40.3336 81.686 40.3336 84.0701 40.3086C84.5971 40.3086 84.6975 40.484 84.6724 40.9599C84.6473 43.4151 84.6473 45.8952 84.6724 48.3503C84.6724 48.8514 84.4967 48.9766 84.0199 48.9766C81.6358 48.9516 79.2769 48.9516 76.8928 48.9766C76.3658 48.9766 76.1901 48.8514 76.2152 48.3002C76.2654 47.0727 76.2403 45.8451 76.2403 44.5925Z" fill="#E8DAD6"/>
<path d="M25.6489 68.8438C28.6855 68.8438 31.722 68.8688 34.7335 68.8438C35.3107 68.8438 35.5366 68.944 35.5366 69.5953C35.5366 71.6997 35.5616 71.6997 33.4536 71.6997C27.8824 71.6997 22.3363 71.6997 16.7651 71.7248C16.0123 71.7248 15.7362 71.5744 15.7613 70.7728C15.8115 68.8437 15.7864 68.8438 17.7439 68.8438C20.404 68.8438 23.0139 68.8438 25.6489 68.8438Z" fill="#FEE178"/>
<path d="M81.1348 6.18805C81.1348 5.08575 81.1348 3.98346 81.1348 2.88116C83.0671 2.88116 84.9995 2.88116 86.9569 2.83105C87.3835 2.83105 87.6094 2.93126 87.5592 3.40726C87.5592 3.43231 87.5592 3.45736 87.5592 3.50746C87.5341 4.38429 87.8353 5.51164 87.4086 6.03773C86.9569 6.61394 85.7774 6.18805 84.8991 6.2131C83.6443 6.23815 82.3895 6.18805 81.1348 6.18805Z" fill="#2C71B8"/>
<path d="M81.1094 59.2489C81.1094 58.5725 81.1094 57.8961 81.1094 57.1946C83.0417 57.1696 84.9741 57.1946 86.9064 57.1445C87.4334 57.1445 87.5589 57.345 87.5087 57.7959C87.4836 58.0715 87.4836 58.347 87.5087 58.6477C87.5589 59.1237 87.4083 59.299 86.8813 59.299C84.9741 59.274 83.0417 59.274 81.1094 59.2489Z" fill="#2C71B8"/>
<path d="M66.0264 12.2007C67.1557 12.2007 68.285 12.2257 69.4143 12.2007C70.644 12.1506 71.5474 12.6516 72.1246 13.7038C72.6265 14.6057 73.2288 15.1819 74.3581 15.2821C75.4121 15.3573 76.441 16.4846 76.441 17.5118C76.441 20.4178 76.7422 23.3239 76.2905 26.2049C75.5376 30.9147 71.3717 34.4721 66.4781 34.6976C61.7853 34.923 57.243 31.5911 56.0384 27.0566C55.6118 25.4282 55.662 23.7748 55.662 22.1464C55.662 20.7936 55.662 19.4658 55.662 18.113C55.6871 16.4846 56.6407 15.3823 58.2217 15.207C58.9997 15.1318 59.5016 14.8061 59.8278 14.1297C60.5556 12.6767 61.71 12.0754 63.3412 12.2007C64.1944 12.2508 65.123 12.2007 66.0264 12.2007ZM73.6303 21.9961C73.6303 20.7184 73.6303 19.6412 73.6303 18.589C73.6303 18.2633 73.6554 17.9627 73.2037 17.9126C71.6729 17.7372 70.644 16.8353 69.9413 15.5326C69.7154 15.1067 69.4394 14.9815 68.9877 15.0065C67.0804 15.0316 65.1732 15.0316 63.2659 15.0065C62.7138 15.0065 62.4127 15.1819 62.1617 15.6579C61.459 16.9356 60.4301 17.7873 58.9495 17.9376C58.4978 17.9877 58.4225 18.1882 58.4225 18.614C58.4476 20.5681 58.3974 22.5472 58.4476 24.5013C58.5731 28.4345 61.6096 31.5159 65.6751 31.8416C69.2888 32.1422 72.7269 29.4366 73.5049 25.7038C73.7558 24.3761 73.53 23.0733 73.6303 21.9961Z" fill="#0A0A0D"/>
<path d="M38.3959 54.1882C38.3959 55.9168 38.3959 57.6204 38.3959 59.349C38.3709 61.3031 37.5929 62.1047 35.6856 62.1298C33.678 62.1548 31.6704 62.1548 29.6878 62.1298C27.8308 62.1047 26.9524 61.2279 26.9524 59.349C26.9273 55.8918 26.9273 52.4095 26.9524 48.9523C26.9524 47.0233 27.8308 46.1465 29.7631 46.1465C31.8209 46.1465 33.9039 46.1465 35.9617 46.1465C37.4674 46.1465 38.3709 46.9983 38.421 48.5014C38.421 50.3803 38.3709 52.2843 38.3959 54.1882ZM32.6491 49.0024C32.6491 48.9774 32.6491 48.9523 32.6491 48.9273C31.8711 48.9273 31.0932 48.9523 30.3152 48.9273C29.9137 48.9273 29.7631 49.0525 29.7882 49.4534C29.8133 50.3553 29.8133 51.2571 29.7882 52.159C29.7631 52.6601 30.0141 52.7102 30.4156 52.6851C31.846 52.6601 33.2765 52.635 34.7069 52.6851C35.4096 52.7102 35.6605 52.5348 35.5602 51.8333C35.4598 50.8813 35.9617 49.6037 35.3594 49.0776C34.8324 48.6267 33.5776 49.0024 32.6491 49.0024ZM32.4483 55.516C31.7456 55.6413 30.4909 55.0651 29.9388 55.7164C29.462 56.2676 29.8133 57.4951 29.7882 58.4221C29.7882 58.5223 29.7882 58.5974 29.7882 58.6976C29.738 59.1235 29.8886 59.3239 30.3654 59.2989C31.9213 59.2738 33.4772 59.2738 35.0332 59.2989C35.4347 59.2989 35.5853 59.1736 35.5602 58.7728C35.5351 57.921 35.51 57.0943 35.5602 56.2425C35.5853 55.6914 35.4598 55.4659 34.8575 55.4909C34.1297 55.5661 33.402 55.516 32.4483 55.516Z" fill="#0A0A0D"/>
<path d="M24.4428 54.1877C24.4428 56.0165 24.4428 57.8703 24.4428 59.6991C24.4428 61.1271 23.5896 62.0791 22.1591 62.1041C19.8754 62.1543 17.5918 62.1543 15.3081 62.1041C13.9278 62.0791 12.9993 61.1021 12.9993 59.6741C12.9742 55.9664 12.9742 52.2586 12.9993 48.5509C12.9993 47.0728 14.0031 46.1459 15.5088 46.1459C17.667 46.1459 19.8253 46.1208 21.9835 46.1459C23.5394 46.1459 24.4428 47.0979 24.4428 48.6762C24.4428 50.505 24.4428 52.3338 24.4428 54.1877ZM18.6709 52.7096C19.4739 52.7096 20.3021 52.6845 21.1051 52.7096C21.5067 52.7346 21.6321 52.5843 21.6321 52.1835C21.607 51.2816 21.607 50.3797 21.6321 49.4778C21.6321 49.077 21.5317 48.9517 21.1051 48.9517C19.5241 48.9768 17.918 48.9768 16.337 48.9517C15.9355 48.9517 15.7849 49.077 15.81 49.4778C15.8351 50.3797 15.8351 51.2816 15.81 52.1835C15.81 52.5843 15.9355 52.7346 16.337 52.7096C17.1149 52.6845 17.8929 52.7096 18.6709 52.7096ZM18.7712 59.2983C19.5241 59.2983 20.277 59.2482 21.0047 59.2983C21.5067 59.3234 21.6321 59.148 21.6321 58.672C21.607 57.7952 21.607 56.9183 21.6321 56.0666C21.6321 55.6657 21.5317 55.5154 21.1051 55.5154C19.5241 55.5405 17.918 55.5405 16.337 55.5154C15.9104 55.5154 15.81 55.6657 15.81 56.0666C15.8351 56.9684 15.8351 57.8703 15.81 58.7722C15.7849 59.2732 16.0358 59.3234 16.4374 59.3234C17.1902 59.2983 17.9682 59.2983 18.7712 59.2983Z" fill="#0A0A0D"/>
<path d="M50.7188 77.3115C50.7188 74.4054 50.7188 71.4994 50.7188 68.5933C50.7188 66.99 51.6473 66.038 53.2785 66.0129C56.1896 65.9879 59.1006 65.9879 62.0117 66.0129C63.5676 66.0129 64.5715 66.9649 64.5715 68.5181C64.5965 74.3553 64.5965 80.1925 64.5715 86.0547C64.5715 87.5829 63.668 88.5349 62.1121 88.5599C59.1006 88.61 56.1143 88.61 53.1028 88.5599C51.5469 88.5349 50.7188 87.5829 50.7188 86.0296C50.7188 83.1236 50.7188 80.2175 50.7188 77.3115ZM53.5294 77.2864C53.5294 79.8668 53.5294 82.4722 53.5294 85.0526C53.5294 85.5286 53.5796 85.7791 54.1568 85.7791C56.4656 85.729 58.7744 85.729 61.0832 85.7541C61.6604 85.7541 61.7357 85.5286 61.7357 85.0275C61.7106 79.8918 61.7106 74.7311 61.7357 69.5954C61.7357 69.0442 61.6102 68.8438 61.0079 68.8438C58.7493 68.8689 56.5158 68.8689 54.2572 68.8438C53.6298 68.8438 53.4793 69.0442 53.5043 69.6204C53.5545 72.1758 53.5294 74.7311 53.5294 77.2864Z" fill="#0A0A0D"/>
<path d="M81.3344 77.2611C81.3344 80.1671 81.3344 83.0732 81.3344 85.9792C81.3344 87.6327 80.5063 88.5596 78.8249 88.5847C75.8887 88.6348 72.9525 88.6348 70.0164 88.5847C68.3852 88.5596 67.4817 87.6076 67.4817 85.9792C67.4566 80.2172 67.4566 74.4302 67.4817 68.6682C67.4817 67.0147 68.4604 66.0627 70.1167 66.0627C73.0027 66.0377 75.8636 66.0377 78.7496 66.0627C80.431 66.0627 81.3344 67.0147 81.3344 68.6932C81.3344 71.5241 81.3344 74.4051 81.3344 77.2611ZM78.4986 77.3613C78.4986 74.7809 78.4735 72.1755 78.4986 69.5951C78.4986 69.0439 78.3982 68.8435 77.796 68.8435C75.5374 68.8686 73.3039 68.8686 71.0453 68.8435C70.4179 68.8435 70.2673 69.0189 70.2673 69.6452C70.2924 74.7558 70.2924 79.8915 70.2673 85.0022C70.2673 85.6034 70.3928 85.8039 71.0453 85.8039C73.3039 85.7538 75.5374 85.7537 77.796 85.7788C78.3731 85.7788 78.5237 85.6285 78.5237 85.0523C78.4986 82.4719 78.4986 79.9166 78.4986 77.3613Z" fill="#0A0A0D"/>
<path d="M73.6314 21.9954C73.5561 23.0727 73.7569 24.4004 73.4808 25.7031C72.7029 29.4359 69.2899 32.1416 65.651 31.8409C61.6107 31.5153 58.549 28.4338 58.4235 24.5006C58.3733 22.5466 58.4235 20.5674 58.3984 18.6134C58.3984 18.2125 58.4737 17.9871 58.9254 17.937C60.4061 17.7867 61.4601 16.9349 62.1377 15.6572C62.3886 15.1812 62.6898 15.0059 63.2419 15.0059C65.1491 15.056 67.0564 15.0309 68.9636 15.0059C69.4154 15.0059 69.6914 15.1311 69.9173 15.532C70.6199 16.8347 71.6488 17.7365 73.1797 17.9119C73.6314 17.962 73.6063 18.2626 73.6063 18.5883C73.6314 19.6405 73.6314 20.7178 73.6314 21.9954ZM68.1606 28.534C69.4404 28.509 70.2686 27.8075 70.2686 26.7553C70.2686 25.4276 70.5948 24.3002 71.3979 23.223C72.226 22.1457 71.7492 20.7679 70.4443 20.342C69.2397 19.9662 68.3362 19.3649 67.5834 18.3127C66.7301 17.1102 65.2746 17.1603 64.4464 18.3879C63.7689 19.415 62.8905 19.9662 61.7361 20.342C60.3559 20.7679 59.8791 22.1708 60.7574 23.3232C61.5354 24.3503 61.8867 25.4025 61.8365 26.6802C61.7863 27.7324 62.6898 28.6844 63.6685 28.509C65.2746 28.1583 66.8556 27.6823 68.1606 28.534Z" fill="#FEE178"/>
<path d="M32.6497 49.0022C33.5782 49.0022 34.833 48.6264 35.36 49.1024C35.9623 49.6285 35.4604 50.9062 35.5608 51.8581C35.6361 52.5596 35.3851 52.76 34.7075 52.7099C33.2771 52.6598 31.8467 52.6849 30.4162 52.7099C30.0147 52.7099 29.7637 52.6849 29.7888 52.1838C29.8139 51.2819 29.8139 50.3801 29.7888 49.4782C29.7888 49.0773 29.9143 48.927 30.3158 48.9521C31.0938 48.9771 31.8718 48.9521 32.6497 48.9521C32.6497 48.9521 32.6497 48.9771 32.6497 49.0022Z" fill="#E8DAD6"/>
<path d="M32.4499 55.5154C33.4286 55.5154 34.1313 55.5655 34.8591 55.4903C35.4614 55.4402 35.5869 55.6907 35.5618 56.2419C35.5116 57.0686 35.5367 57.9204 35.5618 58.7722C35.5618 59.173 35.4363 59.2983 35.0348 59.2983C33.4788 59.2732 31.9229 59.2732 30.367 59.2983C29.8902 59.2983 29.7396 59.1229 29.7898 58.697C29.7898 58.5968 29.7898 58.5216 29.7898 58.4214C29.8149 57.4945 29.4887 56.2669 29.9404 55.7158C30.4674 55.0895 31.7472 55.6406 32.4499 55.5154Z" fill="#E8DAD6"/>
<path d="M18.6714 52.7097C17.8935 52.7097 17.1155 52.6847 16.3376 52.7097C15.936 52.7348 15.8105 52.5844 15.8105 52.1836C15.8356 51.2817 15.8356 50.3798 15.8105 49.478C15.8105 49.0771 15.936 48.9268 16.3376 48.9519C17.9186 48.9769 19.5247 48.9769 21.1057 48.9519C21.5323 48.9519 21.6327 49.0771 21.6327 49.478C21.6076 50.3798 21.6076 51.2817 21.6327 52.1836C21.6327 52.5844 21.5323 52.7348 21.1057 52.7097C20.2775 52.6847 19.4745 52.6847 18.6714 52.7097Z" fill="#E8DAD6"/>
<path d="M18.7718 59.2982C17.9939 59.2982 17.2159 59.2731 16.4379 59.2982C16.0364 59.2982 15.8105 59.2481 15.8105 58.747C15.8356 57.8451 15.8356 56.9433 15.8105 56.0414C15.8105 55.6406 15.9109 55.4902 16.3376 55.4902C17.9186 55.5153 19.5247 55.5153 21.1057 55.4902C21.5323 55.4902 21.6327 55.6406 21.6327 56.0414C21.6076 56.9182 21.6076 57.795 21.6327 58.6468C21.6578 59.1228 21.5072 59.2982 21.0053 59.2731C20.2524 59.2731 19.4996 59.2982 18.7718 59.2982Z" fill="#E8DAD6"/>
<path d="M53.529 77.2864C53.529 74.7311 53.5541 72.1758 53.5039 69.6205C53.5039 69.0192 53.6294 68.8188 54.2568 68.8439C56.5154 68.894 58.7489 68.894 61.0075 68.8439C61.6097 68.8439 61.7352 69.0443 61.7352 69.5954C61.7101 74.7311 61.7101 79.8919 61.7352 85.0276C61.7352 85.5286 61.6599 85.7541 61.0827 85.7541C58.774 85.729 56.4652 85.729 54.1564 85.7791C53.5792 85.7791 53.529 85.5286 53.529 85.0526C53.529 82.4722 53.529 79.8668 53.529 77.2864Z" fill="#E8DAD6"/>
<path d="M78.4989 77.3612C78.4989 79.9165 78.4738 82.4718 78.524 85.0271C78.524 85.6033 78.3985 85.7536 77.7962 85.7536C75.5376 85.7286 73.3041 85.7286 71.0455 85.7787C70.3931 85.7787 70.2676 85.5783 70.2676 84.977C70.2927 79.8664 70.2927 74.7307 70.2676 69.62C70.2676 69.0188 70.4182 68.8184 71.0455 68.8184C73.3041 68.8685 75.5376 68.8685 77.7962 68.8184C78.3985 68.8184 78.524 69.0188 78.4989 69.5699C78.4989 72.1754 78.4989 74.7557 78.4989 77.3612Z" fill="#E8DAD6"/>
<path d="M68.1591 28.5347C66.8542 27.6829 65.2731 28.1589 63.6419 28.4846C62.6883 28.66 61.7598 27.708 61.81 26.6558C61.8852 25.3781 61.5088 24.3259 60.7309 23.2988C59.8525 22.1464 60.3293 20.7435 61.7096 20.3176C62.864 19.9669 63.7172 19.3907 64.4199 18.3635C65.248 17.136 66.7036 17.0859 67.5568 18.2884C68.3097 19.3406 69.2131 19.9418 70.4177 20.3176C71.7227 20.7435 72.1744 22.1213 71.3713 23.1986C70.5432 24.2758 70.2169 25.4032 70.242 26.731C70.2671 27.7831 69.439 28.4846 68.1591 28.5347ZM68.4603 22.5723C67.3059 22.447 66.6283 21.7957 66.0511 20.8687C65.499 21.8458 64.7461 22.3719 63.6419 22.5973C64.4199 23.399 64.721 24.2758 64.5956 25.4533C65.5994 24.8771 66.5279 25.0024 67.5317 25.3531C67.3812 24.2508 67.6823 23.4241 68.4603 22.5723Z" fill="#0A0A0D"/>
<path d="M68.4609 22.5717C67.708 23.4235 67.3818 24.2502 67.5324 25.3525C66.5286 25.0018 65.6 24.8765 64.5962 25.4527C64.7217 24.3003 64.4205 23.3984 63.6426 22.5968C64.7468 22.3713 65.4996 21.8452 66.0517 20.8682C66.6038 21.7951 67.3065 22.4465 68.4609 22.5717Z" fill="#FEFEFE"/>
</svg>
