<svg width="103" height="98" viewBox="0 0 103 98" fill="none" xmlns="http://www.w3.org/2000/svg">
<path d="M73.5757 41.4443C74.8849 41.4443 75.0595 42.2298 75.0595 43.2772C75.0595 45.8083 75.1467 48.3393 75.0595 50.8704C74.9722 52.0923 75.4086 52.4414 76.6305 52.4414C83.7873 52.3541 90.9441 52.4414 98.101 52.4414C102.028 52.4414 102.814 53.2269 102.814 57.0672C102.814 58.4636 103.512 60.3838 102.203 61.2565C99.7593 62.9148 100.457 65.1841 100.457 67.2788C100.37 70.6826 100.457 74.0865 100.457 77.4903C100.457 78.5377 100.37 79.4105 99.1483 79.6723C97.3155 79.585 97.3155 78.2758 97.3155 76.9667C97.3155 72.8646 97.2282 68.6752 97.3155 64.5731C97.3155 63.1767 96.8791 62.7403 95.4826 62.7403C89.3731 62.8276 83.1764 62.8276 77.0669 62.7403C75.4958 62.7403 75.0595 63.1767 75.0595 64.7477C75.1467 73.4755 75.0595 82.2034 75.0595 91.0185C75.0595 95.0333 75.0595 95.0333 79.0743 94.8587C83.1763 94.8587 87.3657 94.8587 91.4678 94.8587C92.8643 94.8587 94.2607 94.8587 95.6572 94.946C96.8791 95.0333 97.2282 94.5096 97.2282 93.2877C97.1409 90.7567 97.2282 88.2256 97.2282 85.6945C97.2282 84.4726 97.4027 83.4253 98.8865 83.1634C99.9338 83.4253 100.37 84.1235 100.37 85.1708C100.37 88.7493 100.283 92.2404 100.37 95.8188C100.37 97.3898 99.672 98.0008 98.1882 98.0008C97.4027 98.0008 96.6172 98.0008 95.7444 98.0008C65.7207 98.0008 35.6969 98.0008 5.6731 98.0008C2.35652 98.0008 2.26924 98.0008 2.26924 94.6842C2.26924 84.6472 2.26924 74.6101 2.26924 64.5731C2.26924 63.5258 2.4438 62.4784 1.04734 61.9548C0.349114 61.6057 0 60.5583 0 59.5983C0 58.4636 0 57.329 0 56.1944C0 53.576 1.13462 52.4414 3.84025 52.4414C11.1716 52.4414 18.4158 52.3541 25.7471 52.4414C27.4054 52.4414 27.8418 52.0923 27.8418 50.434C27.7545 41.5316 27.7545 32.6292 27.8418 23.7268C27.8418 22.7667 27.9291 21.9812 26.7945 21.4576C25.8344 21.0212 25.4853 19.9738 25.398 18.9265C25.398 18.6647 25.398 18.4028 25.398 18.141C25.2235 13.6898 25.1362 11.3333 31.333 11.8569C32.4676 11.9442 32.6421 11.5078 32.6421 10.5478C32.5549 8.10397 32.6421 5.5729 32.6421 3.1291C32.6421 2.08176 32.3803 0.859861 33.7768 0.510747C35.1732 0.074355 35.6096 1.38353 36.1333 2.16904C37.4425 4.00188 38.6643 5.92201 40.0608 8.01669C40.5845 6.62024 40.3226 5.39834 40.3226 4.26372C40.4099 3.56549 40.3226 2.77999 40.3226 2.08176C40.4099 1.1217 40.8463 0.510747 41.8064 0.510747C42.7664 0.510747 43.3774 1.1217 43.3774 2.16904C43.3774 4.52556 43.3774 6.88207 43.3774 9.15131C43.3774 12.0315 43.3774 12.0315 46.5194 11.8569C45.9957 9.84954 46.083 7.84214 46.1703 5.74745C46.2576 3.39094 47.4795 1.73265 49.5742 0.772582C51.5816 -0.100202 53.9381 0.510747 55.4218 2.08176C56.2073 2.95454 56.9055 3.82733 55.8582 4.87467C54.8981 5.74745 54.0254 5.22378 53.3271 4.351C52.6289 3.47821 51.6688 3.21638 50.6215 3.65277C49.5742 4.08916 49.1378 4.96195 49.225 6.09657C49.225 7.14391 49.225 8.27853 49.225 9.32587C49.225 10.635 49.6614 11.5951 50.9706 11.9442C52.1925 12.2061 53.2398 11.8569 53.7635 10.5478C53.2398 10.3732 52.7162 10.2859 52.2798 10.0241C51.3197 9.32587 51.2324 8.36581 52.1052 7.66758C53.2398 6.79479 54.7236 7.05663 55.9455 7.40574C57.1674 7.75486 57.0801 8.88948 56.9928 9.93682C56.9928 10.5478 56.8183 11.246 56.6437 11.9442C57.6038 12.2061 58.6511 12.1188 59.7857 12.0315C59.1748 10.0241 59.4366 8.10397 59.4366 6.09657C59.4366 2.95454 61.8804 0.510747 64.8479 0.510747C67.7281 0.510747 70.1719 2.86726 70.2591 5.83473C70.3464 7.84214 70.521 9.84954 69.8228 12.0315C71.3065 12.0315 72.7029 12.0315 74.0994 12.0315C76.2814 12.1188 77.416 13.2534 77.5033 15.3481C77.5905 16.57 77.5033 17.7919 77.5033 18.9265C77.5033 19.7993 77.3287 20.7593 76.6305 21.1085C74.7103 22.0685 75.0595 23.7268 75.0595 25.3851C75.0595 28.789 75.0595 32.1928 75.0595 35.5967C75.0595 36.7313 74.7976 37.6041 73.663 37.8659C72.2665 37.6041 71.9174 36.644 71.9174 35.4221C71.9174 31.7564 71.8302 28.0907 72.0047 24.425C72.092 22.6795 71.481 22.3304 69.91 22.3304C58.2147 22.4176 46.5194 22.3304 34.8241 22.3304C30.722 22.3304 30.722 22.3304 30.9838 26.4324C30.9838 27.3052 30.8966 28.178 30.8966 29.0508C30.8966 49.3867 30.8966 69.7225 30.8966 90.0584C30.8966 95.2079 30.8966 95.1206 35.9587 95.1206C37.3552 95.1206 37.7916 94.7715 37.7916 93.375C37.7043 87.8765 37.7916 82.3779 37.7916 76.8794C37.7916 73.5628 39.0135 72.2536 42.33 72.2536C48.4395 72.2536 54.4617 72.2536 60.5712 72.2536C63.8878 72.2536 65.1097 73.5628 65.1097 76.8794C65.1097 82.4652 65.1097 87.9637 65.1097 93.5496C65.1097 94.3351 64.8479 95.2951 66.2443 95.0333C67.379 95.0333 68.5136 95.0333 69.6482 95.1206C71.3938 95.2951 72.0047 94.7715 72.0047 92.8513C71.9174 83.7744 71.9174 74.6974 71.9174 65.6205C71.9174 58.4636 71.9174 51.3068 71.9174 44.15C71.9174 42.8408 71.7429 41.4443 73.5757 41.4443ZM61.7931 94.7715C62.4041 94.4223 62.1422 93.8114 62.1422 93.375C62.1422 87.9637 62.1422 82.4652 62.1422 77.0539C62.1422 76.5303 62.3168 76.0066 61.8804 75.5702C60.0476 74.872 58.1274 75.3956 56.2073 75.3084C52.8035 75.1338 52.8035 75.1338 53.0653 78.4504C53.0653 81.4179 53.0653 84.3853 53.0653 87.2655C53.0653 89.2729 53.0653 91.2803 53.0653 93.2877C52.5416 95.8188 54.3745 94.6842 55.4218 94.8587C57.6038 94.7715 59.6985 94.7715 61.7931 94.7715ZM49.7487 76.0066C50.0105 74.9593 49.1378 75.2211 48.6141 75.2211C46.5194 75.2211 44.512 75.3084 42.4173 75.2211C41.0209 75.1338 40.5845 75.5702 40.5845 76.9667C40.6718 82.5525 40.5845 88.1383 40.5845 93.7241C40.5845 94.0732 40.4099 94.5096 40.9336 94.7715C42.5046 94.7715 44.1629 94.7715 45.7339 94.8587C49.9233 95.1206 49.9233 95.1206 49.6614 90.9312C49.6614 87.9637 49.6614 84.9963 49.6614 82.1161C49.7487 80.0214 49.7487 78.014 49.7487 76.0066ZM93.9116 59.511C95.1335 59.511 96.2681 59.4237 97.49 59.5983C99.3229 59.8601 99.8465 59.1619 99.7593 57.329C99.672 55.8453 99.4101 55.3216 97.9264 55.4962C96.6172 55.6707 95.3081 55.5834 93.9989 55.5834C88.1512 55.5834 82.2163 55.5834 76.3686 55.4962C74.5358 55.4962 75.234 56.7181 75.234 57.5036C75.234 58.2891 74.5358 59.5983 76.3686 59.511C82.2163 59.511 88.0639 59.511 93.9116 59.511ZM68.6881 18.9265C69.9973 18.9265 71.3065 18.8392 72.7029 19.0138C74.0994 19.1883 74.3612 18.6647 74.4485 17.2682C74.5358 15.3481 74.0121 14.6499 72.092 14.9117C70.9574 15.0862 69.8227 14.999 68.6881 14.999C55.6836 14.999 42.5919 14.999 29.5874 14.9117C27.8418 14.9117 28.4528 16.1336 28.5401 16.8318C28.6273 17.6173 27.6673 19.0138 29.5874 19.0138C42.5919 19.0138 55.5964 18.9265 68.6881 18.9265ZM18.0666 61.1693C18.4158 59.9474 19.2885 59.511 20.5104 59.5983C22.5178 59.6855 24.5252 59.511 26.5326 59.5983C28.3655 59.6855 27.6673 58.3764 27.6673 57.5036C27.6673 56.7181 28.3655 55.4089 26.5326 55.4962C19.2013 55.5834 11.7826 55.5834 4.4512 55.4962C2.53107 55.4962 3.14202 56.7181 3.14202 57.5908C3.05475 58.6382 2.79291 59.6855 4.62576 59.5983C7.24411 59.4237 9.86246 59.5983 12.4808 59.511C13.6154 59.511 14.4882 59.7728 14.6628 60.9947C14.5755 62.2166 13.79 62.653 12.6554 62.653C11.608 62.653 10.5607 62.653 9.51335 62.653C5.49854 62.653 5.49854 62.653 5.6731 66.6678C5.58582 67.0169 5.41126 67.2787 5.41126 67.6279C5.41126 76.2684 5.41126 84.909 5.41126 93.5496C5.41126 94.6842 6.02221 94.8587 6.895 94.8587C12.4808 94.8587 18.1539 94.7715 23.7397 94.7715C24.5252 94.7715 25.3107 94.7715 26.1835 94.8587C27.3182 94.946 27.8418 94.5969 27.8418 93.2877C27.7545 83.5998 27.7545 73.9119 27.8418 64.224C27.8418 62.9148 27.3182 62.653 26.1835 62.653C24.3507 62.7403 22.4306 62.653 20.5977 62.653C19.2013 62.8276 18.3285 62.4784 18.0666 61.1693ZM67.1171 7.66758C67.1171 6.96935 67.1171 6.3584 67.1171 5.66017C67.0298 4.26372 66.3316 3.39094 64.9352 3.30366C63.5387 3.21638 62.6659 4.08916 62.5786 5.39834C62.4914 6.88207 62.4914 8.27853 62.5786 9.76226C62.6659 11.0714 63.626 11.7697 64.9352 11.6824C66.2443 11.5951 67.0298 10.8969 67.1171 9.5877C67.1171 8.97676 67.1171 8.36581 67.1171 7.66758ZM38.7516 11.7697C37.9661 10.1987 37.0061 8.8022 35.7842 7.31847C35.5223 11.9442 35.5223 11.9442 38.7516 11.7697Z" fill="#0E1415"/>
<path d="M73.5755 41.445C71.7427 41.5323 71.9172 42.8415 71.9172 44.0634C71.9172 51.2202 71.9172 58.3771 71.9172 65.5339C71.9172 74.6108 71.8299 83.6878 72.0045 92.7647C72.0045 94.6849 71.3936 95.2085 69.648 95.034C68.5134 94.9467 67.3787 94.9467 66.2441 94.9467C66.2441 85.3461 66.2441 75.7455 66.2441 66.1448C67.8151 65.0975 67.8151 63.9629 66.2441 62.9155C66.2441 62.2173 66.2441 61.5191 66.3314 60.8208C67.1169 60.8208 67.9024 60.9081 68.6879 60.8208C69.648 60.7336 70.3462 60.2099 70.2589 59.1626C70.1717 58.2025 69.5607 57.7661 68.6006 57.7661C67.8151 57.7661 67.0296 57.7661 66.2441 57.6788C66.2441 55.846 66.2441 54.0131 66.2441 52.1803C67.9024 51.1329 67.8151 50.0856 66.2441 48.951C66.2441 42.2305 66.1568 35.4228 66.3314 28.7024C66.3314 26.9568 65.9823 26.3459 64.0622 26.3459C53.0651 26.4331 42.068 26.4331 30.9836 26.4331C30.7218 22.3311 30.7218 22.3311 34.8239 22.3311C46.5192 22.3311 58.2145 22.3311 69.9098 22.3311C71.5681 22.3311 72.0918 22.6802 72.0045 24.4257C71.9172 28.0914 72.0045 31.7571 71.9172 35.4228C71.9172 36.732 72.2663 37.6921 73.6628 37.8666C73.6628 38.914 73.6628 40.1359 73.5755 41.445Z" fill="#F4A81C"/>
<path d="M98.9755 83.1628C97.4917 83.3373 97.3172 84.472 97.3172 85.6939C97.3172 88.2249 97.2299 90.756 97.3172 93.2871C97.3172 94.509 96.968 95.0326 95.7461 94.9454C94.3497 94.8581 92.9532 94.8581 91.5568 94.8581C91.5568 92.4143 91.6441 89.8832 91.5568 87.4394C91.5568 86.5666 91.9059 85.5193 91.1204 84.8211C92.9532 83.861 93.826 82.4646 93.6515 80.3699C93.4769 78.4497 93.5642 76.5296 93.6515 74.6095C93.7387 72.7766 93.1278 71.3802 91.5568 70.4201C91.5568 69.9837 91.5568 69.6346 91.5568 69.1982C91.9059 67.1908 91.0331 66.6672 89.113 66.8417C86.931 67.0163 84.7491 66.8417 82.4798 66.8417C82.0434 65.2707 80.7343 65.5325 79.5996 65.5325C78.6396 65.5325 77.6795 65.4453 77.505 66.7544C77.3304 67.9763 78.1159 68.3254 79.1632 68.5C79.1632 69.7219 79.1632 70.8565 79.1632 72.0784C78.8141 75.8314 78.2905 79.4971 79.5124 83.1628C78.9887 83.5992 79.1632 84.2101 79.1632 84.8211C79.1632 88.1376 79.1632 91.4542 79.1632 94.7708C75.1484 94.9454 75.1484 94.9454 75.1484 90.9306C75.1484 82.2027 75.1484 73.4749 75.1484 64.6598C75.1484 63.0887 75.4976 62.6523 77.1558 62.6523C83.2653 62.7396 89.4621 62.7396 95.5716 62.6523C96.968 62.6523 97.4044 63.0887 97.4044 64.4852C97.3172 68.5873 97.4044 72.7766 97.4044 76.8787C97.4044 78.1879 97.4044 79.4971 99.2373 79.5844C98.7136 80.8063 98.9755 82.0282 98.9755 83.1628Z" fill="#E48F1B"/>
<path d="M30.8978 26.2582C41.8949 26.2582 52.892 26.3455 63.9764 26.1709C65.8965 26.1709 66.3329 26.7818 66.2456 28.5274C66.1583 35.2479 66.2456 42.0556 66.1583 48.776C65.2855 48.776 64.4127 48.776 63.6272 48.8633C62.7545 48.9506 62.1435 49.4742 62.2308 50.4343C62.3181 51.3071 62.929 51.8308 63.8018 51.8308C64.5873 51.8308 65.3728 51.8308 66.1583 51.918C66.1583 53.7509 66.1583 55.5837 66.1583 57.4166C64.5873 58.4639 64.7619 59.5985 66.2456 60.5586C66.2456 61.2568 66.2456 61.9551 66.1583 62.6533C65.3728 62.6533 64.5873 62.6533 63.8018 62.7406C62.8417 62.8278 62.1435 63.3515 62.2308 64.3989C62.3181 65.2716 62.929 65.7953 63.8018 65.8826C64.5873 65.9699 65.3728 65.9699 66.1583 65.9699C66.1583 75.5705 66.1583 85.1711 66.1583 94.7718C64.7619 95.1209 65.0237 94.0735 65.0237 93.288C65.0237 87.7022 65.0237 82.2037 65.0237 76.6178C65.0237 73.3013 63.8018 71.9921 60.4852 71.9921C54.3757 71.9921 48.3535 71.9921 42.244 71.9921C38.9274 71.9921 37.7055 73.3013 37.7055 76.6178C37.7055 82.1164 37.6183 87.6149 37.7055 93.1135C37.7055 94.5099 37.2692 94.859 35.8727 94.859C30.8105 94.859 30.8105 94.859 30.8105 89.7969C30.8105 69.461 30.8105 49.1251 30.8105 28.7893C30.8105 28.0037 30.8978 27.131 30.8978 26.2582ZM58.6524 57.0675C58.6524 55.8456 58.6524 54.6237 58.6524 53.489C58.5651 51.1325 57.2559 49.7361 54.9867 49.6488C52.5429 49.5615 50.1864 49.5615 47.7426 49.6488C45.4733 49.7361 44.1641 51.1325 44.0769 53.3145C43.9896 55.7583 43.9896 58.2894 44.0769 60.7332C44.1641 62.8278 45.4733 64.3116 47.568 64.3116C50.0991 64.3989 52.6302 64.3989 55.1612 64.3116C57.1686 64.2243 58.4778 62.8278 58.5651 60.8204C58.7396 59.5985 58.6524 58.2894 58.6524 57.0675ZM58.6524 35.597C58.6524 34.2878 58.7396 33.0659 58.6524 31.7567C58.5651 29.5748 57.3432 28.2656 55.1612 28.1783C52.6302 28.091 50.0991 28.091 47.568 28.1783C45.4733 28.2656 44.1641 29.4875 44.0769 31.4949C43.9896 34.1132 43.9896 36.7316 44.0769 39.3499C44.1641 41.3573 45.386 42.6665 47.3062 42.6665C50.0118 42.7538 52.6302 42.7538 55.3358 42.6665C57.3432 42.5792 58.4778 41.3573 58.5651 39.3499C58.7396 38.128 58.6524 36.9061 58.6524 35.597ZM35.96 28.6147C34.8254 28.702 33.3416 28.2656 33.3416 30.1857C33.3416 31.6694 34.4762 31.7567 35.6109 31.7567C36.8328 31.7567 38.2292 31.844 38.2292 30.0984C38.2292 28.6147 37.0946 28.6147 35.96 28.6147ZM37.8801 36.2952C39.102 36.2952 40.4112 36.3825 40.4985 34.8115C40.4985 33.2404 39.1893 33.2405 38.0547 33.1532C36.8328 33.1532 35.5236 33.2405 35.5236 34.7242C35.4363 36.2952 36.7455 36.3825 37.8801 36.2952ZM36.92 68.4137C38.0547 68.4137 39.3638 68.5882 39.3638 66.9299C39.3638 65.3589 38.1419 65.4462 37.0073 65.4462C35.96 65.4462 34.4762 65.0971 34.4762 66.8427C34.4762 68.5882 35.7854 68.4137 36.92 68.4137Z" fill="#FCCD0E"/>
<path d="M23.6546 94.8585C18.0688 94.8585 12.3957 94.8585 6.80991 94.9458C5.84984 94.9458 5.32617 94.8585 5.32617 93.6366C5.32617 84.9961 5.32617 76.3555 5.32617 67.715C5.32617 67.3658 5.50073 67.104 5.58801 66.7549C9.95193 66.7549 14.3159 66.7549 18.5925 66.7549C23.8292 66.7549 23.8292 66.7549 23.6546 72.0789C22.6946 71.0315 21.7345 69.9842 20.1635 69.9842C17.7197 69.9842 15.3632 69.8969 12.9194 69.9842C10.4756 70.0715 9.2537 71.5552 9.16642 73.999C9.16642 76.2682 9.16642 78.5375 9.16642 80.8067C9.16642 83.3378 10.5629 84.7342 13.1812 84.7342C15.3632 84.7342 17.6324 84.7342 19.8144 84.7342C21.2981 84.7342 22.4327 84.2978 23.3055 83.1632C23.8292 83.5996 23.6546 84.2106 23.6546 84.8215C23.7419 88.2254 23.6546 91.542 23.6546 94.8585ZM10.912 88.3999C9.95193 88.3127 8.64275 88.3127 8.64275 89.8837C8.64275 91.3674 9.95193 91.542 11.1738 91.542C12.3084 91.542 13.6176 91.542 13.7049 89.971C13.6176 88.3127 12.3084 88.3999 10.912 88.3999Z" fill="#F4A81C"/>
<path d="M23.651 94.8594C23.651 91.5428 23.651 88.2262 23.651 84.9097C23.651 84.2987 23.8255 83.6878 23.3019 83.2514C24.5238 79.5857 24.0874 75.8327 23.651 72.167C23.8255 66.843 23.8255 66.843 18.5888 66.843C14.2249 66.843 9.86098 66.843 5.58434 66.843C5.40978 62.8282 5.40978 62.8282 9.42459 62.8282C10.4719 62.8282 11.5193 62.8282 12.5666 62.8282C13.7012 62.8282 14.4867 62.3918 14.574 61.1699C15.7086 61.1699 16.9305 61.2572 18.0652 61.2572C18.327 62.5664 19.1998 62.9155 20.4217 62.9155C22.2545 62.9155 24.1746 62.9155 26.0075 62.9155C27.1421 62.9155 27.6658 63.09 27.6658 64.4865C27.5785 74.1744 27.5785 83.8623 27.6658 93.5502C27.6658 94.8594 27.1421 95.2085 26.0075 95.1212C25.3093 94.8594 24.4365 94.8594 23.651 94.8594Z" fill="#E48F1B"/>
<path d="M68.6874 18.9269C55.6829 18.9269 42.5912 18.9269 29.5867 19.0142C27.6666 19.0142 28.6266 17.6177 28.5393 16.8322C28.4521 16.134 27.8411 14.9121 29.5867 14.9121C42.5912 14.9994 55.6829 14.9994 68.6874 14.9994C68.6874 16.3086 68.6874 17.6177 68.6874 18.9269Z" fill="#D9E7EB"/>
<path d="M79.1607 94.859C79.1607 91.5424 79.1607 88.2258 79.1607 84.9093C79.1607 84.2983 78.9862 83.6874 79.5099 83.251C80.2954 84.2983 81.3427 84.9093 82.7392 84.822C85.5321 84.7347 88.325 84.7347 91.1179 84.7347C91.9907 85.5202 91.5543 86.4803 91.5543 87.3531C91.6416 89.7969 91.5543 92.3279 91.5543 94.7717C87.3649 94.859 83.2628 94.859 79.1607 94.859ZM86.143 91.3679C87.1031 91.2806 88.5868 91.8043 88.6741 89.8841C88.7614 88.4877 87.714 88.3131 86.6667 88.4004C85.5321 88.4877 83.8738 87.8767 83.7865 89.8841C83.7865 91.3679 84.9211 91.3679 86.143 91.3679Z" fill="#F4A81C"/>
<path d="M18.0672 61.1693C16.9326 61.1693 15.7107 61.0821 14.576 61.0821C14.3142 59.8602 13.4414 59.5983 12.3941 59.5983C9.77573 59.5983 7.15737 59.5111 4.53902 59.6856C2.70617 59.7729 3.05529 58.7256 3.05529 57.6782C3.05529 56.7181 2.44434 55.4962 4.36446 55.5835C11.6959 55.6708 19.1145 55.6708 26.4459 55.5835C28.2788 55.5835 27.6678 56.8054 27.5805 57.5909C27.5805 58.3764 28.2788 59.7729 26.4459 59.6856C24.4385 59.5983 22.4311 59.6856 20.4237 59.6856C19.2891 59.5111 18.4163 59.9474 18.0672 61.1693Z" fill="#D9E7EB"/>
<path d="M93.9111 59.5108C88.0634 59.5108 82.1285 59.5108 76.2808 59.5981C74.448 59.5981 75.1462 58.3762 75.1462 57.5907C75.1462 56.8051 74.448 55.496 76.2808 55.5833C82.1285 55.6705 88.0634 55.6705 93.9111 55.6705C93.9111 56.8924 93.9111 58.2016 93.9111 59.5108Z" fill="#D9E7EB"/>
<path d="M49.7493 82.0283C49.7493 84.9958 49.7493 87.9633 49.7493 90.8434C48.2656 91.9781 46.9564 93.3745 45.8218 94.771C44.2508 94.771 42.5925 94.771 41.0215 94.6837C41.0215 93.2 41.1088 91.8035 41.1088 90.3198C43.9017 87.6141 46.8691 84.8212 49.7493 82.0283Z" fill="#A3DDF3"/>
<path d="M53.0664 87.2654C53.0664 84.298 53.0664 81.3305 53.0664 78.4503C54.2883 77.5775 55.2484 76.4429 56.2084 75.3083C58.1286 75.3956 60.0487 74.8719 61.8815 75.5701C61.8815 76.7048 61.7943 77.7521 61.7943 78.8867C58.8268 81.6796 55.9466 84.4725 53.0664 87.2654Z" fill="#A3DDF3"/>
<path d="M49.7496 82.029C46.8694 84.822 43.9892 87.6149 41.0218 90.4078C41.0218 89.0986 40.9345 87.8767 40.9345 86.5675C40.9345 85.6947 40.7599 84.7347 41.5454 83.9492C44.2511 81.3308 46.9567 78.6252 49.7496 76.0068C49.7496 78.0142 49.7496 80.0216 49.7496 82.029Z" fill="#CAEBF8"/>
<path d="M53.0638 87.2654C55.944 84.4725 58.9115 81.6796 61.7917 78.8867C61.7917 80.1959 61.879 81.4178 61.7917 82.727C61.7917 83.5998 61.9662 84.5598 61.1807 85.3453C58.4751 87.9637 55.7695 90.6693 52.9766 93.2877C53.0638 91.2803 53.0638 89.2729 53.0638 87.2654Z" fill="#CAEBF8"/>
<path d="M49.7488 76.007C47.0432 78.6253 44.3375 81.331 41.5446 83.9493C40.7591 84.7348 40.9337 85.6949 40.9337 86.5677C40.9337 87.8768 40.9337 89.0987 41.021 90.4079C41.021 91.8917 40.9337 93.2881 40.9337 94.7718C40.41 94.51 40.5846 94.0736 40.5846 93.7245C40.5846 88.1387 40.5846 82.5529 40.5846 76.967C40.5846 75.5706 41.021 75.1342 42.4174 75.2215C44.5121 75.3088 46.5195 75.2215 48.6142 75.2215C49.1379 75.2215 50.0106 74.9596 49.7488 76.007Z" fill="#9DD1E5"/>
<path d="M53.0666 93.2878C55.7722 90.6695 58.4779 87.9638 61.2708 85.3455C62.0563 84.56 61.8817 83.5999 61.8817 82.7271C61.8817 81.418 61.8817 80.1961 61.8817 78.8869C61.8817 77.7523 61.969 76.7049 61.969 75.5703C62.4927 76.0067 62.2308 76.5304 62.2308 77.054C62.2308 82.4653 62.2308 87.9638 62.2308 93.3751C62.2308 93.8115 62.58 94.4225 61.8817 94.7716C61.8817 92.7642 61.8817 90.7568 61.8817 88.9239C59.6998 90.9313 57.6051 92.9387 55.5104 94.8588C54.3758 94.6843 52.5429 95.8189 53.0666 93.2878Z" fill="#9DD1E5"/>
<path d="M68.6875 18.9261C68.6875 17.6169 68.6875 16.3078 68.6875 14.9986C69.8221 14.9986 70.9567 15.0859 72.0914 14.9113C74.0115 14.6495 74.5352 15.3477 74.4479 17.2678C74.3606 18.6643 74.0988 19.188 72.7023 19.0134C71.3059 18.9261 69.9967 18.9261 68.6875 18.9261Z" fill="#B8C4CD"/>
<path d="M93.9121 59.5109C93.9121 58.2017 93.9121 56.8926 93.9121 55.5834C95.2213 55.5834 96.5305 55.6707 97.8396 55.4961C99.3234 55.3215 99.6725 55.8452 99.6725 57.329C99.7598 59.1618 99.2361 59.7727 97.4032 59.5982C96.3559 59.4236 95.134 59.5109 93.9121 59.5109Z" fill="#B8C4CD"/>
<path d="M55.4219 94.8588C57.5166 92.9386 59.6112 91.0185 61.7932 88.9238C61.7932 90.7567 61.7932 92.7641 61.7932 94.7715C59.6985 94.7715 57.6038 94.7715 55.4219 94.8588Z" fill="#CAEBF8"/>
<path d="M45.8203 94.8592C47.0422 93.4627 48.3514 92.0663 49.7478 90.9316C50.0097 95.0337 50.0097 95.0337 45.8203 94.8592Z" fill="#CAEBF8"/>
<path d="M56.2063 75.3081C55.2462 76.4427 54.2861 77.4901 53.0643 78.4501C52.8024 75.1335 52.8024 75.1335 56.2063 75.3081Z" fill="#CAEBF8"/>
<path d="M66.2435 66.0568C65.458 66.0568 64.6725 66.0568 63.887 65.9695C63.0142 65.8823 62.316 65.4459 62.316 64.4858C62.2287 63.4385 62.9269 62.9148 63.887 62.8275C64.6725 62.7402 65.458 62.7402 66.2435 62.7402C67.8145 63.8749 67.8145 64.9222 66.2435 66.0568Z" fill="#001619"/>
<path d="M66.3321 60.6459C64.9357 59.5986 64.6739 58.5512 66.2449 57.5039C67.0304 57.5039 67.8159 57.5039 68.6014 57.5912C69.5614 57.5912 70.1724 58.1149 70.2597 58.9876C70.347 60.035 69.6487 60.5587 68.6887 60.6459C67.9032 60.7332 67.1177 60.6459 66.3321 60.6459Z" fill="#001619"/>
<path d="M66.2444 52.0053C65.4589 52.0053 64.6734 52.0053 63.8879 51.918C62.9278 51.918 62.4042 51.3944 62.3169 50.5216C62.2296 49.5615 62.8406 49.0378 63.7133 48.9506C64.5861 48.8633 65.4589 48.8633 66.2444 48.8633C67.8154 49.9106 67.9027 50.958 66.2444 52.0053Z" fill="#001619"/>
<path d="M91.0299 84.8223C88.237 84.8223 85.4441 84.8223 82.6511 84.9095C81.2547 84.9095 80.2073 84.3859 79.4218 83.3385C78.1999 79.6728 78.6363 75.9199 79.0727 72.2542C79.9455 71.2941 80.8183 70.2468 82.1275 70.2468C85.2695 70.2468 88.3242 69.8977 91.4663 70.5086C93.0373 71.4687 93.6482 72.8651 93.5609 74.698C93.4737 76.6181 93.3864 78.5382 93.5609 80.4583C93.8228 82.4657 92.8627 83.8622 91.0299 84.8223ZM84.6585 74.4361C84.7458 72.1669 83.1748 73.5633 82.302 73.3888C81.6038 76.0944 81.6911 78.8873 82.302 81.593C84.1349 82.1166 85.0077 81.6802 84.7458 79.5856C84.5713 78.5382 84.6585 77.4909 84.6585 76.4435C84.6585 75.7453 84.6585 75.0471 84.6585 74.4361ZM87.9751 73.3888C87.5387 75.8326 87.9751 78.2764 87.8006 80.7202C87.8006 81.5057 88.0624 81.8548 88.8479 81.7675C89.5461 81.6802 90.5062 82.0294 90.5062 80.8947C90.5062 78.4509 90.8553 76.0071 90.3316 73.5633C89.6334 72.8651 88.7606 73.2142 87.9751 73.3888Z" fill="#051012"/>
<path d="M91.5537 70.3334C88.499 69.7224 85.3569 70.0716 82.2149 70.0716C80.8184 70.0716 80.0329 71.1189 79.1602 72.079C79.1602 70.8571 79.1602 69.7224 79.1602 68.5005C80.3821 68.1514 82.3022 69.1115 82.564 66.755C84.746 66.755 87.0152 66.8423 89.1972 66.755C91.1173 66.5804 91.9901 67.1914 91.641 69.1115C91.4664 69.5479 91.5537 69.9843 91.5537 70.3334Z" fill="#F4A81C"/>
<path d="M82.5675 66.7549C82.3057 69.1115 80.4729 68.1514 79.1637 68.5005C78.1163 68.326 77.4181 67.9768 77.5054 66.7549C77.68 65.4458 78.64 65.5331 79.6001 65.5331C80.7347 65.5331 82.0439 65.1839 82.5675 66.7549Z" fill="#040A0B"/>
<path d="M58.6494 57.0668C58.6494 58.3759 58.7367 59.5978 58.6494 60.907C58.5621 62.9144 57.1656 64.3109 55.2455 64.3982C52.7144 64.4854 50.1834 64.4854 47.6523 64.3982C45.5576 64.3109 44.2484 62.9144 44.1612 60.8197C44.0739 58.3759 44.0739 55.8449 44.1612 53.4011C44.2484 51.2191 45.5576 49.8227 47.8269 49.7354C50.2707 49.6481 52.6272 49.6481 55.071 49.7354C57.4275 49.8227 58.7367 51.2191 58.7367 53.5756C58.7367 54.623 58.7367 55.8449 58.6494 57.0668ZM49.747 53.9247C49.8343 51.6555 48.2632 52.9647 47.3905 52.8774C46.7795 55.583 46.7795 58.2887 47.3905 61.0816C49.2233 61.6052 50.0961 61.1689 49.8343 59.1615C49.747 58.0268 49.747 56.9795 49.747 55.9321C49.747 55.3212 49.747 54.623 49.747 53.9247ZM53.0636 56.3685C53.0636 57.6777 53.0636 58.9869 52.9763 60.3833C52.9763 61.0816 53.2381 61.4307 53.9363 61.2561C54.5473 61.1689 55.6819 61.6925 55.6819 60.5579C55.6819 58.0268 56.2056 55.4085 55.4201 52.8774C53.7618 52.3537 52.6272 52.5283 52.9763 54.7103C53.0636 55.3212 52.9763 55.8449 53.0636 56.3685Z" fill="#051012"/>
<path d="M58.6494 35.597C58.6494 36.9062 58.7367 38.1281 58.6494 39.4373C58.5621 41.4447 57.3402 42.7539 55.4201 42.7539C52.7144 42.8412 50.0961 42.8412 47.3905 42.7539C45.3831 42.6666 44.1612 41.3574 44.1612 39.4373C44.0739 36.8189 44.0739 34.2006 44.1612 31.5822C44.2484 29.5748 45.5576 28.2657 47.6523 28.2657C50.1834 28.1784 52.7144 28.1784 55.2455 28.2657C57.4275 28.3529 58.6494 29.6621 58.7367 31.8441C58.7367 33.066 58.6494 34.3751 58.6494 35.597ZM55.6819 32.6296C56.031 31.2331 55.1582 31.1458 54.1109 31.0586C52.9763 30.9713 52.9763 31.5822 52.9763 32.3677C53.0636 33.2405 53.0636 34.1133 53.0636 34.9861C53.0636 36.1207 53.0636 37.2553 52.9763 38.39C52.889 39.2627 52.9763 39.8737 54.1982 39.8737C55.2455 39.7864 55.8565 39.6119 55.7692 38.39C55.6819 36.4698 55.6819 34.5497 55.6819 32.6296ZM49.8343 35.597C49.8343 34.637 49.747 33.5896 49.8343 32.6296C49.9215 31.6695 49.747 31.1458 48.5251 31.2331C47.4777 31.3204 46.9541 31.5822 46.9541 32.8041C47.0414 34.637 47.0414 36.5571 46.9541 38.39C46.8668 39.6119 47.3905 39.961 48.6124 40.0482C49.9215 40.0482 49.8343 39.35 49.8343 38.5645C49.8343 37.4299 49.8343 36.4698 49.8343 35.597Z" fill="#040A0B"/>
<path d="M35.958 28.6143C37.0926 28.527 38.3145 28.6143 38.2272 30.098C38.2272 31.8436 36.8308 31.7563 35.6089 31.7563C34.4742 31.7563 33.3396 31.669 33.3396 30.1853C33.2523 28.3525 34.7361 28.7016 35.958 28.6143Z" fill="#001619"/>
<path d="M37.8774 36.2944C36.7428 36.3816 35.3463 36.2944 35.4336 34.7234C35.5209 33.2396 36.83 33.1523 37.9647 33.1523C39.0993 33.1523 40.4957 33.2396 40.4085 34.8106C40.4085 36.3816 39.0993 36.2944 37.8774 36.2944Z" fill="#001619"/>
<path d="M36.9184 68.4139C35.7838 68.4139 34.3873 68.5885 34.4746 66.8429C34.5619 65.0974 35.9583 65.4465 37.0057 65.4465C38.053 65.4465 39.3622 65.3592 39.3622 66.9302C39.4495 68.6758 38.053 68.4139 36.9184 68.4139Z" fill="#040A0B"/>
<path d="M23.6523 72.1667C24.0887 75.9197 24.5251 79.5853 23.3032 83.251C22.4304 84.3857 21.2958 84.9093 19.812 84.8221C17.6301 84.7348 15.3608 84.8221 13.1789 84.8221C10.5605 84.8221 9.25134 83.4256 9.16406 80.8945C9.16406 78.6253 9.16406 76.356 9.16406 74.0868C9.16406 71.643 10.4732 70.1593 12.917 70.072C15.3608 69.9847 17.7174 70.072 20.1611 70.072C21.7322 70.072 22.6922 71.0321 23.6523 72.1667ZM20.5103 73.3886C18.5029 72.7776 17.7174 73.4759 18.0665 75.4833C18.1537 76.0942 18.1537 76.6179 18.1537 77.2288C18.1537 78.3634 18.1537 79.4981 18.0665 80.6327C17.9792 81.68 18.5029 81.8546 19.3756 81.7673C20.1611 81.68 20.9467 81.7673 20.9467 80.5454C20.8594 78.6253 20.8594 76.7052 20.8594 74.785C20.8594 74.5232 20.8594 74.2614 20.8594 73.9995C20.8594 73.6504 20.8594 73.4759 20.5103 73.3886ZM12.4806 81.5055C12.5679 81.5927 12.7425 81.5927 12.8298 81.68C13.7025 81.5927 15.0117 82.5528 14.9244 80.72C14.9244 78.2762 15.099 75.8324 14.7499 73.3886C13.9644 73.3013 13.0916 72.8649 12.3061 73.5631C12.0443 76.1815 11.957 78.8871 12.4806 81.5055Z" fill="#051012"/>
<path d="M10.9112 88.4003C12.3077 88.4003 13.6168 88.313 13.6168 89.884C13.6168 91.455 12.3077 91.455 11.0858 91.455C9.86386 91.455 8.55469 91.2805 8.55469 89.7967C8.55469 88.4003 9.95114 88.4003 10.9112 88.4003Z" fill="#040A0B"/>
<path d="M86.1436 91.3675C84.9217 91.3675 83.7871 91.2803 83.7871 89.9711C83.8744 87.9637 85.4454 88.4873 86.6673 88.4873C87.7146 88.4001 88.762 88.5746 88.6747 89.9711C88.5874 91.8039 87.1037 91.2803 86.1436 91.3675Z" fill="#040A0B"/>
<path d="M90.3333 73.5632C90.857 76.007 90.5079 78.4508 90.5079 80.8946C90.5079 82.0292 89.4605 81.6801 88.8496 81.7674C88.0641 81.8547 87.715 81.5056 87.8023 80.7201C87.8895 78.2763 87.5404 75.8325 87.9768 73.3887C88.0641 74.436 88.0641 75.4833 88.1514 76.7925C89.286 75.7452 90.4206 75.047 90.3333 73.5632Z" fill="#98C5D6"/>
<path d="M84.6614 76.4434C84.6614 77.4907 84.5741 78.538 84.7486 79.5854C85.0105 81.6801 84.1377 82.1165 82.3049 81.5928C81.9557 79.3235 82.654 77.578 84.6614 76.4434Z" fill="#CAEBF8"/>
<path d="M84.6605 76.4434C82.6531 77.578 81.9549 79.3236 82.304 81.5928C81.693 78.8872 81.6058 76.0943 82.304 73.3887C82.304 74.3487 82.304 75.2215 82.304 76.5307C83.264 75.6579 83.9623 75.047 84.6605 74.5233C84.6605 75.047 84.6605 75.7452 84.6605 76.4434Z" fill="#9DD1E5"/>
<path d="M90.3325 73.5631C90.3325 75.0468 89.2851 75.6578 88.0632 76.7051C87.976 75.3959 87.976 74.3486 87.8887 73.3012C88.7615 73.214 89.6342 72.8649 90.3325 73.5631Z" fill="#CAEBF8"/>
<path d="M84.6612 74.4351C83.963 75.046 83.352 75.5697 82.3047 76.4425C82.3047 75.2206 82.3047 74.2605 82.3047 73.3004C83.1775 73.5623 84.7485 72.0786 84.6612 74.4351Z" fill="#CAEBF8"/>
<path d="M55.4204 52.8779C56.1186 55.409 55.6822 57.9401 55.6822 60.5584C55.6822 61.6058 54.5476 61.0821 53.9366 61.2567C53.2384 61.3439 52.9766 61.0821 52.9766 60.3839C53.0638 59.0747 53.0638 57.7655 53.0638 56.3691C54.1112 55.409 55.5076 54.7108 55.4204 52.8779Z" fill="#9DD1E5"/>
<path d="M49.7508 55.9326C49.7508 56.98 49.6635 58.0273 49.838 59.0746C50.0999 61.1693 49.2271 61.6057 47.3942 60.9948C47.1324 58.8128 47.6561 57.0672 49.7508 55.9326Z" fill="#CAEBF8"/>
<path d="M49.7464 55.9321C47.6517 57.0667 47.128 58.8122 47.3899 60.9942C46.7789 58.2886 46.7789 55.5829 47.3899 52.79C47.3899 53.7501 47.3899 54.6229 47.3899 55.9321C48.4372 55.0593 49.0481 54.4483 49.7464 53.8374C49.7464 54.6229 49.7464 55.3211 49.7464 55.9321Z" fill="#98C5D6"/>
<path d="M55.4231 52.8778C55.5976 54.6234 54.1139 55.4089 53.0666 56.2816C53.0666 55.758 53.0666 55.2343 52.9793 54.7106C52.6302 52.6159 53.7648 52.4414 55.4231 52.8778Z" fill="#CAEBF8"/>
<path d="M49.7491 53.9258C49.0509 54.5367 48.4399 55.1477 47.3926 56.0205C47.3926 54.7986 47.3926 53.8385 47.3926 52.8784C48.2654 52.9657 49.8364 51.6565 49.7491 53.9258Z" fill="#CAEBF8"/>
<path d="M49.8372 35.5967C49.8372 36.5568 49.8372 37.4296 49.8372 38.3896C49.8372 39.1751 49.9245 39.9606 48.6153 39.8734C47.3934 39.8734 46.957 39.437 46.957 38.2151C47.0443 36.3822 47.0443 34.4621 46.957 32.6293C46.957 31.4946 47.3934 31.1455 48.528 31.0582C49.6627 30.971 49.8372 31.4946 49.8372 32.4547C49.7499 33.502 49.8372 34.5494 49.8372 35.5967Z" fill="#BBD7E2"/>
<path d="M55.6834 32.6299C55.6834 34.55 55.6834 36.4701 55.7707 38.3903C55.858 39.6122 55.247 39.7867 54.1997 39.874C52.9778 39.9613 52.8905 39.3503 52.9778 38.3903C53.0651 37.2556 53.0651 36.121 53.0651 34.9864C53.9378 34.2882 54.8106 33.4154 55.6834 32.6299Z" fill="#9DD1E5"/>
<path d="M55.6822 32.6288C54.8094 33.4143 53.9366 34.1998 53.0638 35.0726C53.0638 34.1998 53.0638 33.327 52.9766 32.4542C52.9766 31.6687 52.9766 31.0578 54.1112 31.145C55.0712 31.2323 56.0313 31.2323 55.6822 32.6288Z" fill="#BBD7E2"/>
<path d="M20.7731 74.7852C20.7731 76.7053 20.7731 78.6254 20.8603 80.5455C20.9476 81.7674 20.1621 81.6802 19.2893 81.7674C18.4165 81.8547 17.8929 81.6802 17.9802 80.6328C18.0674 79.4982 18.0674 78.3636 18.0674 77.2289C19.0275 76.4434 19.9003 75.5707 20.7731 74.7852Z" fill="#A3DDF3"/>
<path d="M14.8364 73.3887C15.1855 75.8325 15.011 78.2763 15.011 80.7201C15.011 82.5529 13.7018 81.5928 12.9163 81.6801C15.011 81.1565 15.4474 79.8473 14.4873 76.8798C12.3926 77.7526 12.4799 79.6727 12.4799 81.5056C11.9562 78.8872 12.0435 76.2689 12.4799 73.5632C12.5672 74.436 12.5672 75.3088 12.6545 76.5307C13.7018 75.3088 14.8364 74.7851 14.8364 73.3887Z" fill="#98C5D6"/>
<path d="M12.4822 81.5056C12.3949 79.6728 12.3949 77.7527 14.4896 76.8799C15.3623 79.8473 14.926 81.2438 12.9186 81.6802C12.744 81.5929 12.5694 81.5056 12.4822 81.5056Z" fill="#CAEBF8"/>
<path d="M20.7742 74.7851C19.9014 75.5706 19.0286 76.3561 18.1558 77.2289C18.1558 76.6179 18.1558 76.0943 18.0685 75.4833C17.7194 73.4759 18.5049 72.7777 20.5123 73.3886C20.5996 73.5632 20.6869 73.825 20.8614 73.9996C20.7742 74.2614 20.7742 74.5233 20.7742 74.7851Z" fill="#CAEBF8"/>
<path d="M14.8389 73.3877C14.8389 74.7841 13.617 75.3078 12.657 76.5297C12.5697 75.3078 12.4824 74.435 12.4824 73.5622C13.1806 72.864 14.0534 73.2131 14.8389 73.3877Z" fill="#CAEBF8"/>
<path d="M20.771 73.9996C20.6837 73.8251 20.5964 73.5632 20.4219 73.3887C20.8583 73.476 20.8583 73.6505 20.771 73.9996Z" fill="#A3DDF3"/>
</svg>
