<svg width="33" height="34" viewBox="0 0 33 34" fill="none" xmlns="http://www.w3.org/2000/svg">
<g clip-path="url(#clip0_1633_5352)">
<path d="M16.5212 29.8337C21.5383 29.8337 26.5697 29.8337 31.5868 29.8337C32.8266 29.8337 33.2303 30.3532 32.9131 31.5653C32.5238 33.0226 31.3273 33.975 29.7991 33.975C20.9328 33.975 12.0664 33.975 3.20013 33.975C1.68637 33.975 0.475358 32.9938 0.100522 31.5364C-0.202231 30.3676 0.201439 29.8337 1.38361 29.8337C6.42949 29.8337 11.4754 29.8337 16.5212 29.8337ZM16.478 33.2968C16.7231 33.2968 16.9537 33.2968 17.1988 33.2968C21.2788 33.2968 25.3587 33.2968 29.4387 33.2968C30.8948 33.2968 31.8607 32.5609 32.2067 31.3344C32.3797 30.7284 32.2067 30.4975 31.5723 30.5119C28.0402 30.5264 24.5081 30.5264 20.976 30.5119C20.6156 30.5119 20.3417 30.5408 20.2552 30.9881C20.1543 31.4643 19.765 31.6663 19.2748 31.6663C17.4295 31.6663 15.5697 31.6663 13.7244 31.6663C13.2054 31.6663 12.8305 31.4354 12.7296 30.9159C12.6575 30.5696 12.4557 30.5119 12.1674 30.5119C8.53434 30.5119 4.91572 30.5119 1.2827 30.5119C0.792527 30.5119 0.677193 30.7284 0.77811 31.2045C1.06645 32.5032 2.07562 33.2968 3.57496 33.2968C7.87116 33.3112 12.1674 33.2968 16.478 33.2968ZM16.4924 30.5119C15.6274 30.5119 14.7624 30.5119 13.8974 30.5119C13.7244 30.5119 13.4649 30.4253 13.4505 30.7284C13.4505 30.9304 13.6523 30.9737 13.8253 30.9737C15.5986 30.9737 17.3718 30.9737 19.1451 30.9737C19.3181 30.9737 19.5199 30.9304 19.5199 30.7284C19.5199 30.4831 19.3037 30.5119 19.1451 30.5119C18.2801 30.5119 17.3862 30.5119 16.4924 30.5119Z" fill="black"/>
<path d="M16.4798 20.1228C16.1194 20.1228 15.759 20.1372 15.3986 20.1228C14.8795 20.1083 14.5047 19.8486 14.4615 19.3147C14.4326 18.8674 14.2452 18.6798 13.856 18.5644C12.7459 18.2037 11.7511 17.6265 10.8861 16.8473C10.6266 16.6164 10.3959 16.5299 10.0499 16.6886C9.5165 16.9627 9.05517 16.7896 8.75242 16.2846C8.37758 15.6641 8.01716 15.0436 7.67116 14.4087C7.39724 13.8893 7.46932 13.4131 7.97391 13.0812C8.3055 12.8648 8.31991 12.6195 8.24783 12.2876C8.01716 11.1188 8.01716 9.95006 8.24783 8.78128C8.31991 8.43497 8.26225 8.2041 7.94508 7.98766C7.44049 7.65578 7.39724 7.16519 7.67116 6.66016C8.01716 6.02526 8.37758 5.4048 8.75242 4.79877C9.04075 4.3226 9.48767 4.16387 9.99226 4.40917C10.3527 4.58233 10.5978 4.51018 10.8861 4.25045C11.7511 3.47126 12.7459 2.89409 13.856 2.53335C14.2164 2.41792 14.4182 2.2592 14.4326 1.84074C14.447 1.30686 14.793 1.00384 15.3265 0.989409C16.0906 0.960551 16.8691 0.97498 17.6332 0.989409C18.1666 1.00384 18.5126 1.30686 18.5414 1.82631C18.5558 2.24477 18.7577 2.41792 19.1181 2.53335C20.2282 2.89409 21.2229 3.47126 22.0879 4.25045C22.3763 4.51018 22.6069 4.59676 22.9818 4.40917C23.5296 4.14944 23.9621 4.35146 24.2649 4.84206C24.6253 5.43366 24.9713 6.03969 25.3029 6.64573C25.5768 7.15076 25.548 7.64136 25.0434 7.97323C24.683 8.2041 24.6685 8.46383 24.7406 8.82457C24.9713 9.96449 24.9713 11.1188 24.7406 12.2588C24.6685 12.6339 24.7262 12.8792 25.0578 13.1101C25.4903 13.3987 25.5912 13.8604 25.3461 14.3222C24.9857 15.0003 24.6109 15.6641 24.1928 16.3134C23.9044 16.7896 23.4431 16.9194 22.9385 16.6597C22.6069 16.4866 22.3763 16.5587 22.1024 16.804C21.2229 17.5976 20.1993 18.1892 19.0748 18.5644C18.8297 18.651 18.6135 18.7231 18.5414 19.0694C18.354 20.0073 18.1954 20.1083 17.2439 20.1083C16.9988 20.1228 16.7393 20.1228 16.4798 20.1228ZM24.6685 14.048C24.6974 13.6584 24.4523 13.5574 24.2505 13.442C23.9477 13.2544 23.8035 13.0379 23.9189 12.6628C24.3081 11.2487 24.3081 9.82019 23.9189 8.39168C23.8324 8.08867 23.8756 7.84337 24.1639 7.7135C24.8848 7.39606 24.7118 6.94875 24.3946 6.44372C24.2072 6.15513 24.0342 5.86654 23.89 5.56352C23.6738 5.10178 23.3854 4.94306 22.9241 5.24608C22.5637 5.49138 22.2609 5.4048 21.9726 5.10178C20.9923 4.10616 19.8245 3.41355 18.4693 3.06724C18.1666 2.99509 17.8927 2.8508 17.9359 2.50449C18.0224 1.71088 17.5899 1.56658 16.9267 1.6243C16.5951 1.65316 16.2491 1.65316 15.9176 1.6243C15.3841 1.59544 15.0814 1.75417 15.1246 2.34577C15.1535 2.69208 15.0237 2.95181 14.6489 3.03838C13.2072 3.42798 11.9818 4.16387 10.9582 5.21722C10.7708 5.4048 10.5257 5.52024 10.3094 5.36151C9.57417 4.84206 9.24259 5.27494 8.96867 5.8954C8.85333 6.15513 8.70917 6.41486 8.53616 6.64573C8.23341 7.07861 8.20458 7.42491 8.76683 7.67021C9.084 7.81451 9.21375 8.05981 9.11284 8.43497C8.72358 9.84905 8.72358 11.2776 9.11284 12.7061C9.18492 12.9658 9.18492 13.2255 8.92542 13.341C8.00274 13.7306 8.37758 14.2644 8.72358 14.8128C8.86775 15.0292 9.01192 15.2601 9.11284 15.5054C9.32909 15.996 9.63184 16.1691 10.122 15.8517C10.4536 15.6352 10.7419 15.693 11.0158 15.9815C12.0106 17.006 13.1928 17.6986 14.5768 18.0449C14.8507 18.1171 15.1246 18.247 15.0814 18.5644C14.9805 19.4735 15.5139 19.5456 16.1915 19.4879C16.5231 19.459 16.8691 19.4735 17.2006 19.4879C17.6908 19.5167 17.9215 19.3147 17.8782 18.8097C17.835 18.3335 18.0801 18.1315 18.5126 18.0161C19.7957 17.6842 20.9058 17.0349 21.8428 16.097C22.1889 15.7362 22.5349 15.6064 22.9818 15.895C23.1692 16.0104 23.4143 16.1258 23.5729 15.9238C24.0486 15.3178 24.3946 14.654 24.6685 14.048Z" fill="black"/>
<path d="M12.1236 24.4083C12.1236 23.658 12.1092 22.9221 12.1236 22.1717C12.138 21.5368 12.4696 21.1905 13.1039 21.1761C13.8248 21.1617 14.5456 21.1617 15.2665 21.1761C15.8575 21.1905 16.2468 21.4791 16.2324 22.0996C16.218 22.72 15.8287 22.9798 15.2376 22.9942C14.906 23.0086 14.56 22.9942 14.2284 23.0086C14.0987 23.0086 13.9978 23.0808 13.9978 23.2251C13.9978 23.3694 14.1131 23.4415 14.2284 23.4415C14.5889 23.4559 14.9493 23.4415 15.3097 23.4704C15.872 23.4992 16.218 23.8023 16.2324 24.365C16.2324 24.9422 15.8864 25.2308 15.3385 25.2885C15.1511 25.3029 14.9493 25.2741 14.7619 25.3029C14.5024 25.3462 14.041 25.1442 14.041 25.5194C14.041 25.9667 14.5312 25.7214 14.8051 25.7646C14.9925 25.7935 15.1944 25.7646 15.3818 25.7791C15.9152 25.8368 16.2324 26.1254 16.2468 26.6593C16.2612 27.2364 15.9296 27.5683 15.3674 27.5828C14.6033 27.6116 13.8248 27.6116 13.0607 27.5828C12.4552 27.5683 12.138 27.2076 12.138 26.616C12.1236 25.9089 12.1236 25.1586 12.1236 24.4083ZM12.8012 24.365C12.8012 25.0143 12.8012 25.6636 12.8012 26.313C12.8012 26.616 12.8444 26.919 13.2337 26.9334C13.8824 26.9623 14.5312 26.9479 15.18 26.9334C15.3241 26.9334 15.4827 26.8901 15.4827 26.7026C15.4827 26.515 15.3241 26.4861 15.1655 26.4717C14.733 26.4573 14.3005 26.4573 13.868 26.4573C13.1904 26.4573 13.2769 25.9667 13.2769 25.5482C13.2769 25.1298 13.1904 24.6247 13.868 24.6392C14.3005 24.6392 14.733 24.6392 15.1655 24.6247C15.3097 24.6247 15.4683 24.5814 15.4683 24.3939C15.4683 24.2063 15.3097 24.1774 15.1655 24.163C14.733 24.1486 14.3005 24.1486 13.868 24.1486C13.1904 24.1486 13.2769 23.658 13.2769 23.2395C13.2769 22.8211 13.1904 22.316 13.868 22.3305C14.3005 22.3305 14.733 22.3305 15.1655 22.316C15.3097 22.316 15.4683 22.2727 15.4827 22.0996C15.4827 21.912 15.3241 21.8687 15.18 21.8687C14.5312 21.8687 13.8824 21.8543 13.2337 21.8687C12.8444 21.8831 12.8012 22.1862 12.8012 22.4892C12.8012 23.1241 12.8012 23.7445 12.8012 24.365Z" fill="black"/>
<path d="M25.4895 24.8268C25.4895 25.4328 25.5039 26.0244 25.4895 26.6304C25.4751 27.222 25.1867 27.6116 24.5812 27.5972C23.9757 27.5972 23.6874 27.2076 23.673 26.616C23.6585 26.2985 23.673 25.9955 23.6586 25.6781C23.6586 25.5338 23.6153 25.3751 23.4279 25.3751C23.2405 25.3751 23.1972 25.5194 23.1972 25.6781C23.1828 26.01 23.1972 26.3563 23.1828 26.6881C23.154 27.2509 22.8656 27.5972 22.289 27.6116C21.7123 27.6261 21.3807 27.2797 21.3807 26.717C21.3519 25.4616 21.3374 24.2207 21.3951 22.9654C21.4384 21.9264 22.3755 21.1761 23.4711 21.1761C24.5524 21.1905 25.4318 21.9697 25.4895 23.0231C25.5183 23.6291 25.4895 24.2351 25.4895 24.8268ZM22.0439 24.87C22.0439 25.4184 22.0439 25.9811 22.0439 26.5294C22.0439 26.6737 22.0871 26.8324 22.2601 26.8469C22.4475 26.8613 22.4908 26.6881 22.4908 26.5438C22.5052 26.212 22.534 25.8657 22.4908 25.5338C22.4187 24.8268 22.7359 24.6247 23.4135 24.6247C24.0766 24.6247 24.4226 24.7979 24.3361 25.5194C24.3073 25.8079 24.3217 26.0965 24.3361 26.3851C24.3506 26.5727 24.3073 26.8324 24.5668 26.8324C24.8407 26.8324 24.7975 26.5727 24.7975 26.3851C24.7975 25.3751 24.8263 24.365 24.7831 23.355C24.7542 22.4748 24.1631 21.8832 23.4135 21.8687C22.6638 21.8687 22.0871 22.4603 22.0295 23.3405C22.015 23.86 22.0439 24.365 22.0439 24.87Z" fill="black"/>
<path d="M2.31941 21.205C2.31941 18.8963 2.31941 16.5876 2.31941 14.2789C2.31941 13.0524 2.83842 12.5185 4.06384 12.5185C4.90002 12.5185 5.75061 12.5185 6.58678 12.5185C6.80303 12.5185 7.04812 12.5185 7.06253 12.8215C7.07695 13.1678 6.80303 13.1822 6.57236 13.1822C5.88036 13.1822 5.17394 13.1822 4.48193 13.1822C3.25651 13.1822 2.997 13.4275 2.997 14.654C2.997 19.0983 2.997 23.5425 2.98259 28.0012C2.98259 28.3475 3.22767 28.9969 2.651 28.9824C2.07433 28.968 2.34825 28.3331 2.33383 27.9868C2.305 25.7358 2.31941 23.4704 2.31941 21.205Z" fill="black"/>
<path d="M30.68 21.306C30.68 23.5714 30.68 25.8224 30.68 28.0878C30.68 28.3042 30.68 28.5207 30.6511 28.7371C30.6367 28.9247 30.5358 29.0401 30.3195 29.0401C30.1033 29.0257 30.0312 28.8958 30.0168 28.7227C30.0024 28.4774 30.0024 28.2465 30.0024 28.0012C30.0024 23.557 30.0024 19.1127 30.0024 14.654C30.0024 13.4708 29.7429 13.2111 28.5607 13.2111C27.8687 13.2111 27.1623 13.2111 26.4703 13.2111C26.2396 13.2111 25.9513 13.24 25.9224 12.8937C25.908 12.5474 26.1819 12.5329 26.427 12.5329C27.3929 12.5329 28.3444 12.5041 29.3104 12.5474C30.1754 12.5906 30.6655 13.1967 30.68 14.1779C30.68 16.5443 30.68 18.9251 30.68 21.306Z" fill="black"/>
<path d="M9.11198 21.1761C11.1447 21.1761 11.9809 22.215 11.4619 24.1486C11.3898 24.4083 11.4619 24.6103 11.534 24.8412C11.9953 26.3418 11.0582 27.5972 9.48682 27.6261C7.56939 27.6549 7.51172 27.5972 7.51172 25.6637C7.51172 24.6969 7.51172 23.7445 7.51172 22.7778C7.51172 21.3204 7.65589 21.1761 9.11198 21.1761ZM8.18931 24.3506C8.18931 24.9999 8.20372 25.6492 8.18931 26.2841C8.17489 26.7891 8.39114 26.9912 8.88131 26.9479C9.1264 26.9334 9.35707 26.9623 9.60215 26.9334C10.6978 26.7891 11.2024 25.8945 10.7411 24.8989C10.5681 24.5237 10.5825 24.2496 10.7555 23.8888C11.2024 22.9221 10.6978 22.0419 9.6454 21.8832C9.35707 21.8399 9.06873 21.8687 8.7804 21.8543C8.34789 21.8399 8.17489 22.0563 8.18931 22.4748C8.20372 23.0952 8.18931 23.7157 8.18931 24.3506Z" fill="black"/>
<path d="M5.34779 13.6873C5.66496 13.6873 5.96772 13.6873 6.28488 13.6873C6.51555 13.6873 6.7318 13.745 6.70297 14.048C6.68855 14.3077 6.48672 14.3366 6.28488 14.351C5.85238 14.3655 5.41988 14.3943 4.98737 14.351C4.30979 14.2933 4.12237 14.5819 4.12237 15.2312C4.1512 19.4879 4.13678 23.7446 4.12237 28.0012C4.12237 28.3475 4.38187 28.9969 3.8052 28.9969C3.22853 28.9969 3.47361 28.362 3.47361 28.0157C3.4592 23.86 3.4592 19.6899 3.4592 15.5342C3.47361 13.7161 3.51686 13.6729 5.34779 13.6873Z" fill="black"/>
<path d="M29.5232 21.6667C29.5232 23.8023 29.5232 25.9522 29.5232 28.0878C29.5232 28.2754 29.5232 28.4774 29.5088 28.665C29.4944 28.8814 29.4367 29.0401 29.1772 29.0401C28.9177 29.0257 28.8745 28.8526 28.8601 28.6505C28.8456 28.4341 28.8456 28.2177 28.8456 28.0012C28.8456 23.7734 28.8456 19.5312 28.8456 15.3034C28.8456 14.3799 28.8312 14.3654 27.923 14.3654C27.5193 14.3654 27.1012 14.3654 26.6975 14.351C26.4957 14.351 26.3083 14.3077 26.2939 14.048C26.2795 13.7883 26.438 13.7017 26.6543 13.7017C27.3463 13.7017 28.0527 13.644 28.7447 13.7161C29.3502 13.7738 29.5377 14.25 29.5377 14.8128C29.5232 17.0926 29.5232 19.3869 29.5232 21.6667Z" fill="black"/>
<path d="M17.8911 25.0865C17.8911 24.7257 17.8767 24.365 17.8911 24.0043C17.92 23.4848 17.9344 23.0375 17.228 22.8788C16.8243 22.7922 16.6801 22.3593 16.7522 21.9409C16.8243 21.5224 17.0982 21.2338 17.5307 21.205C18.3669 21.1761 19.2175 21.1617 20.0536 21.205C20.515 21.2194 20.7889 21.5368 20.8466 21.9986C20.9042 22.4603 20.688 22.8643 20.2555 22.9509C19.7221 23.0519 19.7076 23.3694 19.7221 23.7878C19.7365 24.6969 19.7365 25.6204 19.7221 26.5294C19.7076 27.2509 19.3616 27.6693 18.785 27.626C18.1218 27.5828 17.8911 27.1499 17.9055 26.5438C17.9055 26.0388 17.8911 25.5626 17.8911 25.0865ZM18.5687 24.6103C18.5687 25.1586 18.5543 25.7214 18.5687 26.2697C18.5687 26.4861 18.4822 26.8324 18.8282 26.8324C19.1021 26.818 19.0301 26.5005 19.0445 26.2985C19.0589 25.2885 19.0589 24.2784 19.0445 23.2684C19.0445 22.7489 19.0445 22.2727 19.7797 22.3305C19.9239 22.3449 20.0825 22.2872 20.0969 22.114C20.1113 21.9264 19.9527 21.8831 19.7941 21.8831C19.1454 21.8687 18.4966 21.8687 17.8479 21.8831C17.7037 21.8831 17.5451 21.9264 17.5307 22.0996C17.5163 22.2872 17.6893 22.3449 17.8335 22.3305C18.5399 22.2727 18.612 22.7056 18.5831 23.2539C18.5543 23.6868 18.5687 24.1486 18.5687 24.6103Z" fill="black"/>
<path d="M22.6056 10.6282C22.6056 14.0191 19.8808 16.6741 16.4064 16.6741C13.0184 16.6597 10.3802 13.9326 10.3946 10.4551C10.409 7.10746 13.1338 4.43802 16.5506 4.45245C19.9673 4.45245 22.62 7.15075 22.6056 10.6282ZM21.928 10.5849C21.9568 7.6702 19.4627 5.14506 16.5217 5.13063C13.6239 5.1162 11.1587 7.54034 11.0866 10.4984C11.0145 13.3842 13.4942 15.9238 16.4496 15.9815C19.3618 16.0392 21.8992 13.543 21.928 10.5849Z" fill="black"/>
<path d="M23.3418 24.163C22.8227 24.2207 22.4767 24.0909 22.5056 23.4415C22.5344 22.7489 22.8804 22.3305 23.4571 22.3449C24.0049 22.3593 24.3077 22.7778 24.3509 23.4271C24.3942 24.2207 23.8896 24.1919 23.3418 24.163Z" fill="black"/>
<path d="M9.34167 22.3305C10.0625 22.3305 10.4662 22.6623 10.4806 23.2251C10.495 23.8023 10.0625 24.1341 9.38492 24.163C8.64967 24.1918 8.66408 23.7445 8.66408 23.2251C8.66408 22.7056 8.6785 22.2439 9.34167 22.3305Z" fill="black"/>
<path d="M8.6631 25.4761C8.61985 25.0288 8.67751 24.6103 9.39835 24.6392C10.0615 24.6825 10.4652 24.971 10.4796 25.5338C10.494 26.111 10.0759 26.4861 9.38394 26.4861C8.73518 26.4717 8.6631 26.3851 8.6631 25.4761Z" fill="black"/>
<path d="M15.626 13.7017C15.2511 13.6728 14.8907 13.5285 14.6168 13.2544C13.968 12.6195 13.3049 11.9846 12.6849 11.3209C12.1804 10.7725 12.1804 10.3541 12.6705 9.80577C12.8435 9.60375 13.031 9.41617 13.2328 9.24302C13.8671 8.65141 14.2708 8.66584 14.9051 9.27188C15.7125 10.0366 15.7125 10.0366 16.5054 9.24302C17.0676 8.68027 17.6155 8.11753 18.1922 7.56921C18.7256 7.06418 19.1581 7.07861 19.7059 7.56921C19.8068 7.67022 19.9078 7.77122 20.0087 7.87223C20.9169 8.78128 20.9313 9.09873 20.0231 10.0078C18.9995 11.0323 17.9759 12.0423 16.9667 13.0668C16.6063 13.4275 16.1882 13.6873 15.626 13.7017ZM14.0257 9.61818C13.6653 9.77691 13.377 10.0799 13.1751 10.4262C13.0021 10.7292 13.3193 10.9024 13.4923 11.0756C13.968 11.5517 14.4438 12.0279 14.9195 12.5041C15.5539 13.1101 15.8566 13.1245 16.491 12.4896C17.5146 11.4796 18.5237 10.4407 19.5618 9.44503C19.9798 9.04101 19.9366 8.76685 19.5473 8.37726C19.1437 7.97323 18.8265 7.88666 18.4084 8.3484C17.8894 8.91114 17.3272 9.44503 16.7793 9.99335C15.5683 11.2054 15.7846 11.1477 14.6312 10.0222C14.4726 9.83462 14.3285 9.61818 14.0257 9.61818Z" fill="black"/>
</g>
<defs>
<clipPath id="clip0_1633_5352">
<rect width="33" height="33" fill="white" transform="translate(0 0.974976)"/>
</clipPath>
</defs>
</svg>
