<svg width="471" height="292" viewBox="0 0 471 292" fill="none" xmlns="http://www.w3.org/2000/svg">
<rect x="423" y="0.000244141" width="246" height="257" rx="20" transform="rotate(90 423 0.000244141)" fill="#CCD0FF" fill-opacity="0.05"/>
<rect x="471" y="163" width="129" height="128" rx="20" transform="rotate(90 471 163)" fill="#CCD0FF" fill-opacity="0.05"/>
<g clip-path="url(#clip0_622_1949)">
<g filter="url(#filter0_d_622_1949)">
<path d="M79.135 99.691C79.135 101.729 80.7806 103.382 82.8107 103.382C84.8407 103.382 86.4863 101.729 86.4863 99.691C86.4863 97.6527 84.8407 96.0002 82.8107 96.0002C80.7806 96.0002 79.135 97.6527 79.135 99.691Z" fill="#CCD0FF" fill-opacity="0.3"/>
<path d="M79.135 125.961C79.135 127.999 80.7806 129.652 82.8107 129.652C84.8407 129.652 86.4863 127.999 86.4863 125.961C86.4863 123.922 84.8407 122.27 82.8107 122.27C80.7806 122.27 79.135 123.922 79.135 125.961Z" fill="#CCD0FF" fill-opacity="0.3"/>
<path d="M79.135 152.231C79.135 154.269 80.7806 155.921 82.8107 155.921C84.8407 155.921 86.4863 154.269 86.4863 152.231C86.4863 150.192 84.8407 148.54 82.8107 148.54C80.7806 148.54 79.135 150.192 79.135 152.231Z" fill="#CCD0FF" fill-opacity="0.3"/>
<path d="M86.4863 178.5C86.4863 176.438 84.8647 174.81 82.8107 174.81C80.7566 174.81 79.135 176.438 79.135 178.5C79.135 180.563 80.7566 182.191 82.8107 182.191C84.8647 182.191 86.4863 180.563 86.4863 178.5Z" fill="#CCD0FF" fill-opacity="0.3"/>
<path d="M86.4863 204.77C86.4863 202.707 84.8647 201.079 82.8107 201.079C80.7566 201.079 79.135 202.707 79.135 204.77C79.135 206.832 80.7566 208.461 82.8107 208.461C84.8647 208.461 86.4863 206.832 86.4863 204.77Z" fill="#CCD0FF" fill-opacity="0.3"/>
<path d="M86.4863 231.04C86.4863 228.977 84.8647 227.349 82.8107 227.349C80.7566 227.349 79.135 228.977 79.135 231.04C79.135 233.102 80.7566 234.73 82.8107 234.73C84.8647 234.73 86.4863 233.102 86.4863 231.04Z" fill="#CCD0FF" fill-opacity="0.3"/>
<path d="M86.4863 257.309C86.4863 255.247 84.8647 253.619 82.8107 253.619C80.7566 253.619 79.135 255.247 79.135 257.309C79.135 259.372 80.7566 261 82.8107 261C84.8647 261 86.4863 259.372 86.4863 257.309Z" fill="#CCD0FF" fill-opacity="0.3"/>
<path d="M52.757 99.691C52.757 101.729 54.4027 103.382 56.4327 103.382C58.4627 103.382 60.1084 101.729 60.1084 99.691C60.1084 97.6527 58.4627 96.0002 56.4327 96.0002C54.4027 96.0002 52.757 97.6527 52.757 99.691Z" fill="#CCD0FF" fill-opacity="0.3"/>
<path d="M52.757 125.961C52.757 127.999 54.4027 129.652 56.4327 129.652C58.4627 129.652 60.1084 127.999 60.1084 125.961C60.1084 123.922 58.4627 122.27 56.4327 122.27C54.4027 122.27 52.757 123.922 52.757 125.961Z" fill="#CCD0FF" fill-opacity="0.3"/>
<path d="M52.757 152.231C52.757 154.269 54.4027 155.921 56.4327 155.921C58.4627 155.921 60.1084 154.269 60.1084 152.231C60.1084 150.192 58.4627 148.54 56.4327 148.54C54.4027 148.54 52.757 150.192 52.757 152.231Z" fill="#CCD0FF" fill-opacity="0.3"/>
<path d="M60.1084 178.5C60.1084 176.438 58.4868 174.81 56.4327 174.81C54.3787 174.81 52.757 176.438 52.757 178.5C52.757 180.563 54.3787 182.191 56.4327 182.191C58.4868 182.191 60.1084 180.563 60.1084 178.5Z" fill="#CCD0FF" fill-opacity="0.3"/>
<path d="M60.1084 204.77C60.1084 202.707 58.4868 201.079 56.4327 201.079C54.3787 201.079 52.757 202.707 52.757 204.77C52.757 206.832 54.3787 208.461 56.4327 208.461C58.4868 208.461 60.1084 206.832 60.1084 204.77Z" fill="#CCD0FF" fill-opacity="0.3"/>
<path d="M60.1084 231.04C60.1084 228.977 58.4868 227.349 56.4327 227.349C54.3787 227.349 52.757 228.977 52.757 231.04C52.757 233.102 54.3787 234.73 56.4327 234.73C58.4868 234.73 60.1084 233.102 60.1084 231.04Z" fill="#CCD0FF" fill-opacity="0.3"/>
<path d="M60.1084 257.309C60.1084 255.247 58.4868 253.619 56.4327 253.619C54.3787 253.619 52.757 255.247 52.757 257.309C52.757 259.372 54.3787 261 56.4327 261C58.4868 261 60.1084 259.372 60.1084 257.309Z" fill="#CCD0FF" fill-opacity="0.3"/>
<path d="M26.3781 99.691C26.3781 101.729 28.0238 103.382 30.0538 103.382C32.0838 103.382 33.7295 101.729 33.7295 99.691C33.7295 97.6527 32.0838 96.0002 30.0538 96.0002C28.0238 96.0002 26.3781 97.6527 26.3781 99.691Z" fill="#CCD0FF" fill-opacity="0.3"/>
<path d="M26.3781 125.961C26.3781 127.999 28.0238 129.652 30.0538 129.652C32.0838 129.652 33.7295 127.999 33.7295 125.961C33.7295 123.922 32.0838 122.27 30.0538 122.27C28.0238 122.27 26.3781 123.922 26.3781 125.961Z" fill="#CCD0FF" fill-opacity="0.3"/>
<path d="M26.3781 152.231C26.3781 154.269 28.0238 155.921 30.0538 155.921C32.0838 155.921 33.7295 154.269 33.7295 152.231C33.7295 150.192 32.0838 148.54 30.0538 148.54C28.0238 148.54 26.3781 150.192 26.3781 152.231Z" fill="#CCD0FF" fill-opacity="0.3"/>
<path d="M33.7295 178.5C33.7295 176.438 32.1079 174.81 30.0538 174.81C27.9998 174.81 26.3781 176.438 26.3781 178.5C26.3781 180.563 27.9998 182.191 30.0538 182.191C32.1079 182.191 33.7295 180.563 33.7295 178.5Z" fill="#CCD0FF" fill-opacity="0.3"/>
<path d="M33.7295 204.77C33.7295 202.707 32.1079 201.079 30.0538 201.079C27.9998 201.079 26.3781 202.707 26.3781 204.77C26.3781 206.832 27.9998 208.461 30.0538 208.461C32.1079 208.461 33.7295 206.832 33.7295 204.77Z" fill="#CCD0FF" fill-opacity="0.3"/>
<path d="M33.7295 231.04C33.7295 228.977 32.1079 227.349 30.0538 227.349C27.9998 227.349 26.3781 228.977 26.3781 231.04C26.3781 233.102 27.9998 234.73 30.0538 234.73C32.1079 234.73 33.7295 233.102 33.7295 231.04Z" fill="#CCD0FF" fill-opacity="0.3"/>
<path d="M33.7295 257.309C33.7295 255.247 32.1079 253.619 30.0538 253.619C27.9998 253.619 26.3781 255.247 26.3781 257.309C26.3781 259.372 27.9998 261 30.0538 261C32.1079 261 33.7295 259.372 33.7295 257.309Z" fill="#CCD0FF" fill-opacity="0.3"/>
<path d="M0.000208217 99.691C0.000208127 101.729 1.64587 103.382 3.67589 103.382C5.70591 103.382 7.35156 101.729 7.35156 99.691C7.35156 97.6527 5.70591 96.0002 3.67589 96.0002C1.64587 96.0002 0.000208306 97.6527 0.000208217 99.691Z" fill="#CCD0FF" fill-opacity="0.3"/>
<path d="M0.000208217 125.961C0.000208127 127.999 1.64587 129.652 3.67589 129.652C5.70591 129.652 7.35156 127.999 7.35156 125.961C7.35156 123.922 5.70591 122.27 3.67589 122.27C1.64587 122.27 0.000208306 123.922 0.000208217 125.961Z" fill="#CCD0FF" fill-opacity="0.3"/>
<path d="M0.000208217 152.231C0.000208127 154.269 1.64587 155.921 3.67589 155.921C5.70591 155.921 7.35156 154.269 7.35156 152.231C7.35156 150.192 5.70591 148.54 3.67589 148.54C1.64587 148.54 0.000208306 150.192 0.000208217 152.231Z" fill="#CCD0FF" fill-opacity="0.3"/>
<path d="M7.24316 178.5C7.24316 176.438 5.62153 174.809 3.56748 174.809C1.51342 174.809 -0.10819 176.438 -0.10819 178.5C-0.10819 180.563 1.51342 182.191 3.56748 182.191C5.62153 182.191 7.24316 180.563 7.24316 178.5Z" fill="#CCD0FF" fill-opacity="0.3"/>
<path d="M7.24316 204.77C7.24316 202.707 5.62153 201.079 3.56748 201.079C1.51342 201.079 -0.10819 202.707 -0.10819 204.77C-0.10819 206.832 1.51342 208.461 3.56748 208.461C5.62153 208.461 7.24316 206.832 7.24316 204.77Z" fill="#CCD0FF" fill-opacity="0.3"/>
<path d="M7.24316 231.04C7.24316 228.977 5.62153 227.349 3.56748 227.349C1.51342 227.349 -0.10819 228.977 -0.10819 231.04C-0.10819 233.102 1.51342 234.73 3.56748 234.73C5.62153 234.73 7.24316 233.102 7.24316 231.04Z" fill="#CCD0FF" fill-opacity="0.3"/>
<path d="M7.24316 257.309C7.24316 255.247 5.62153 253.619 3.56748 253.619C1.51342 253.619 -0.10819 255.247 -0.10819 257.309C-0.10819 259.372 1.51342 261 3.56748 261C5.62153 261 7.24316 259.372 7.24316 257.309Z" fill="#CCD0FF" fill-opacity="0.3"/>
<path d="M184.649 99.691C184.649 101.729 186.294 103.382 188.324 103.382C190.354 103.382 192 101.729 192 99.691C192 97.6527 190.354 96.0002 188.324 96.0002C186.294 96.0002 184.649 97.6527 184.649 99.691Z" fill="#CCD0FF" fill-opacity="0.3"/>
<path d="M184.649 125.961C184.649 127.999 186.294 129.652 188.324 129.652C190.354 129.652 192 127.999 192 125.961C192 123.922 190.354 122.27 188.324 122.27C186.294 122.27 184.649 123.922 184.649 125.961Z" fill="#CCD0FF" fill-opacity="0.3"/>
<path d="M184.649 152.231C184.649 154.269 186.294 155.921 188.324 155.921C190.354 155.921 192 154.269 192 152.231C192 150.192 190.354 148.54 188.324 148.54C186.294 148.54 184.649 150.192 184.649 152.231Z" fill="#CCD0FF" fill-opacity="0.3"/>
<path d="M192 178.5C192 176.438 190.378 174.81 188.324 174.81C186.27 174.81 184.649 176.438 184.649 178.5C184.649 180.563 186.27 182.191 188.324 182.191C190.378 182.191 192 180.563 192 178.5Z" fill="#CCD0FF" fill-opacity="0.3"/>
<path d="M192 204.77C192 202.707 190.378 201.079 188.324 201.079C186.27 201.079 184.649 202.707 184.649 204.77C184.649 206.832 186.27 208.461 188.324 208.461C190.378 208.461 192 206.832 192 204.77Z" fill="#CCD0FF" fill-opacity="0.3"/>
<path d="M192 231.04C192 228.977 190.378 227.349 188.324 227.349C186.27 227.349 184.649 228.977 184.649 231.04C184.649 233.102 186.27 234.73 188.324 234.73C190.378 234.73 192 233.102 192 231.04Z" fill="#CCD0FF" fill-opacity="0.3"/>
<path d="M184.649 257.309C184.649 259.372 186.27 261 188.324 261C190.378 261 192 259.372 192 257.309C192 255.247 190.378 253.619 188.324 253.619C186.27 253.619 184.649 255.247 184.649 257.309Z" fill="#CCD0FF" fill-opacity="0.3"/>
<path d="M158.271 99.691C158.271 101.729 159.916 103.382 161.946 103.382C163.976 103.382 165.622 101.729 165.622 99.691C165.622 97.6527 163.976 96.0002 161.946 96.0002C159.916 96.0002 158.271 97.6527 158.271 99.691Z" fill="#CCD0FF" fill-opacity="0.3"/>
<path d="M158.271 125.961C158.271 127.999 159.916 129.652 161.946 129.652C163.976 129.652 165.622 127.999 165.622 125.961C165.622 123.922 163.976 122.27 161.946 122.27C159.916 122.27 158.271 123.922 158.271 125.961Z" fill="#CCD0FF" fill-opacity="0.3"/>
<path d="M158.271 152.231C158.271 154.269 159.916 155.921 161.946 155.921C163.976 155.921 165.622 154.269 165.622 152.231C165.622 150.192 163.976 148.54 161.946 148.54C159.916 148.54 158.271 150.192 158.271 152.231Z" fill="#CCD0FF" fill-opacity="0.3"/>
<path d="M165.622 178.5C165.622 176.438 164 174.81 161.946 174.81C159.892 174.81 158.271 176.438 158.271 178.5C158.271 180.563 159.892 182.191 161.946 182.191C164 182.191 165.622 180.563 165.622 178.5Z" fill="#CCD0FF" fill-opacity="0.3"/>
<path d="M165.622 204.77C165.622 202.707 164 201.079 161.946 201.079C159.892 201.079 158.271 202.707 158.271 204.77C158.271 206.832 159.892 208.461 161.946 208.461C164 208.461 165.622 206.832 165.622 204.77Z" fill="#CCD0FF" fill-opacity="0.3"/>
<path d="M165.622 231.04C165.622 228.977 164 227.349 161.946 227.349C159.892 227.349 158.271 228.977 158.271 231.04C158.271 233.102 159.892 234.73 161.946 234.73C164 234.73 165.622 233.102 165.622 231.04Z" fill="#CCD0FF" fill-opacity="0.3"/>
<path d="M165.622 257.309C165.622 255.247 164 253.619 161.946 253.619C159.892 253.619 158.271 255.247 158.271 257.309C158.271 259.372 159.892 261 161.946 261C164 261 165.622 259.372 165.622 257.309Z" fill="#CCD0FF" fill-opacity="0.3"/>
<path d="M131.892 99.691C131.892 101.729 133.537 103.382 135.567 103.382C137.598 103.382 139.243 101.729 139.243 99.691C139.243 97.6527 137.598 96.0002 135.567 96.0002C133.537 96.0002 131.892 97.6527 131.892 99.691Z" fill="#CCD0FF" fill-opacity="0.3"/>
<path d="M131.892 125.961C131.892 127.999 133.537 129.652 135.567 129.652C137.598 129.652 139.243 127.999 139.243 125.961C139.243 123.922 137.598 122.27 135.567 122.27C133.537 122.27 131.892 123.922 131.892 125.961Z" fill="#CCD0FF" fill-opacity="0.3"/>
<path d="M131.892 152.231C131.892 154.269 133.537 155.921 135.567 155.921C137.598 155.921 139.243 154.269 139.243 152.231C139.243 150.192 137.598 148.54 135.567 148.54C133.537 148.54 131.892 150.192 131.892 152.231Z" fill="#CCD0FF" fill-opacity="0.3"/>
<path d="M139.243 178.5C139.243 176.438 137.622 174.81 135.567 174.81C133.513 174.81 131.892 176.438 131.892 178.5C131.892 180.563 133.513 182.191 135.567 182.191C137.622 182.191 139.243 180.563 139.243 178.5Z" fill="#CCD0FF" fill-opacity="0.3"/>
<path d="M139.243 204.77C139.243 202.707 137.622 201.079 135.567 201.079C133.513 201.079 131.892 202.707 131.892 204.77C131.892 206.832 133.513 208.461 135.567 208.461C137.622 208.461 139.243 206.832 139.243 204.77Z" fill="#CCD0FF" fill-opacity="0.3"/>
<path d="M139.243 231.04C139.243 228.977 137.622 227.349 135.567 227.349C133.513 227.349 131.892 228.977 131.892 231.04C131.892 233.102 133.513 234.73 135.567 234.73C137.622 234.73 139.243 233.102 139.243 231.04Z" fill="#CCD0FF" fill-opacity="0.3"/>
<path d="M139.243 257.309C139.243 255.247 137.622 253.619 135.567 253.619C133.513 253.619 131.892 255.247 131.892 257.309C131.892 259.372 133.513 261 135.567 261C137.622 261 139.243 259.372 139.243 257.309Z" fill="#CCD0FF" fill-opacity="0.3"/>
<path d="M105.514 99.691C105.514 101.729 107.16 103.382 109.19 103.382C111.22 103.382 112.865 101.729 112.865 99.691C112.865 97.6527 111.22 96.0002 109.19 96.0002C107.16 96.0002 105.514 97.6527 105.514 99.691Z" fill="#CCD0FF" fill-opacity="0.3"/>
<path d="M105.514 125.961C105.514 127.999 107.16 129.652 109.19 129.652C111.22 129.652 112.865 127.999 112.865 125.961C112.865 123.922 111.22 122.27 109.19 122.27C107.16 122.27 105.514 123.922 105.514 125.961Z" fill="#CCD0FF" fill-opacity="0.3"/>
<path d="M105.514 152.231C105.514 154.269 107.16 155.921 109.19 155.921C111.22 155.921 112.865 154.269 112.865 152.231C112.865 150.192 111.22 148.54 109.19 148.54C107.16 148.54 105.514 150.192 105.514 152.231Z" fill="#CCD0FF" fill-opacity="0.3"/>
<path d="M112.865 178.5C112.865 176.438 111.244 174.81 109.19 174.81C107.136 174.81 105.514 176.438 105.514 178.5C105.514 180.563 107.136 182.191 109.19 182.191C111.244 182.191 112.865 180.563 112.865 178.5Z" fill="#CCD0FF" fill-opacity="0.3"/>
<path d="M112.865 204.77C112.865 202.707 111.244 201.079 109.19 201.079C107.136 201.079 105.514 202.707 105.514 204.77C105.514 206.832 107.136 208.461 109.19 208.461C111.244 208.461 112.865 206.832 112.865 204.77Z" fill="#CCD0FF" fill-opacity="0.3"/>
<path d="M112.865 231.04C112.865 228.977 111.244 227.349 109.19 227.349C107.136 227.349 105.514 228.977 105.514 231.04C105.514 233.102 107.136 234.73 109.19 234.73C111.244 234.73 112.865 233.102 112.865 231.04Z" fill="#CCD0FF" fill-opacity="0.3"/>
<path d="M112.865 257.309C112.865 255.247 111.244 253.619 109.19 253.619C107.136 253.619 105.514 255.247 105.514 257.309C105.514 259.372 107.136 261 109.19 261C111.244 261 112.865 259.372 112.865 257.309Z" fill="#CCD0FF" fill-opacity="0.3"/>
</g>
</g>
<defs>
<filter id="filter0_d_622_1949" x="-40.1084" y="56.0002" width="292.108" height="265" filterUnits="userSpaceOnUse" color-interpolation-filters="sRGB">
<feFlood flood-opacity="0" result="BackgroundImageFix"/>
<feColorMatrix in="SourceAlpha" type="matrix" values="0 0 0 0 0 0 0 0 0 0 0 0 0 0 0 0 0 0 127 0" result="hardAlpha"/>
<feOffset dx="10" dy="10"/>
<feGaussianBlur stdDeviation="25"/>
<feComposite in2="hardAlpha" operator="out"/>
<feColorMatrix type="matrix" values="0 0 0 0 0 0 0 0 0 0 0 0 0 0 0 0 0 0 0.25 0"/>
<feBlend mode="normal" in2="BackgroundImageFix" result="effect1_dropShadow_622_1949"/>
<feBlend mode="normal" in="SourceGraphic" in2="effect1_dropShadow_622_1949" result="shape"/>
</filter>
<clipPath id="clip0_622_1949">
<rect width="165" height="192" fill="white" transform="translate(192 96.0002) rotate(90)"/>
</clipPath>
</defs>
</svg>
