<svg width="338" height="338" viewBox="0 0 338 338" fill="none" xmlns="http://www.w3.org/2000/svg">
<g filter="url(#filter0_d_787_12346)">
<rect x="238" y="60" width="178" height="178" rx="20" transform="rotate(90 238 60)" fill="white" fill-opacity="0.75" shape-rendering="crispEdges"/>
</g>
<path d="M211.312 174.793C212.95 174.998 213.768 176.021 213.563 177.658C213.563 178.067 213.563 178.681 213.973 178.886C217.042 181.137 217.452 184.411 217.042 187.89C216.838 189.322 216.428 190.755 215.61 191.983C215.201 192.597 215.405 192.801 216.019 193.006C221.954 195.462 224.614 199.964 224.614 206.307C224.614 208.763 224.614 211.219 224.614 213.674C224.614 217.767 222.568 219.814 218.475 219.814C207.22 219.814 195.965 219.814 184.709 219.814C183.277 219.814 183.072 220.223 183.072 221.451C183.072 225.953 181.026 227.999 176.524 227.999C158.311 227.999 140.303 227.999 122.09 227.999C117.588 227.999 115.542 225.953 115.542 221.451C115.542 220.223 115.337 219.814 113.904 219.814C103.059 219.814 92.2128 219.814 81.367 219.814C78.0928 219.814 75.4325 218.995 74 215.925C74 212.447 74 208.763 74 205.284C74.6139 205.08 74.4093 204.466 74.4093 204.056C75.8417 199.35 78.7067 195.871 83.4134 194.029C87.9154 192.187 92.4175 190.141 97.3288 188.709C97.5334 188.709 97.9427 188.709 97.7381 188.299C97.5334 186.867 98.1473 185.639 96.9195 184.411C93.8499 181.546 92.2128 177.863 92.2128 173.77C92.2128 171.928 92.2128 170.086 92.2128 168.245C92.2128 167.631 92.0082 167.222 91.3943 167.017C88.3247 166.198 86.6876 163.947 86.6876 160.673C86.6876 157.399 86.6876 154.125 86.6876 151.055C86.6876 144.916 91.1896 140.005 97.3288 139.8C102.445 139.595 107.765 139.595 112.881 139.8C116.156 139.8 118.407 141.642 119.43 144.916C119.634 145.53 119.839 145.734 120.453 145.734C124.136 145.939 126.387 148.599 126.592 152.078C126.592 155.557 126.592 159.036 126.592 162.31C126.592 164.357 125.774 165.789 123.932 166.608C123.113 167.017 123.113 167.426 123.113 168.04C123.113 170.905 123.318 173.565 122.909 176.43C122.295 179.704 120.658 182.365 118.407 184.411C117.793 185.025 117.179 187.481 117.588 188.299C117.793 188.709 118.202 188.504 118.407 188.709C123.932 190.55 129.457 192.597 134.573 195.052C135.187 195.462 136.005 195.871 136.415 196.485C137.233 197.508 138.256 197.099 139.075 196.689C139.894 196.485 139.28 195.666 139.484 195.052C139.689 193.825 139.28 193.006 138.256 192.187C135.392 189.322 133.754 185.844 133.754 181.751C133.754 179.909 133.754 178.272 133.754 176.43C133.754 175.612 133.55 175.202 132.731 174.998C129.866 174.179 128.229 171.928 128.229 169.063C128.229 165.175 127.82 161.082 128.434 157.194C129.457 150.85 135.392 146.758 141.735 147.781C142.963 147.985 143.372 148.804 143.782 149.827V150.032C143.372 151.669 142.349 152.283 140.712 152.078C140.303 152.078 139.689 152.078 139.28 152.078C135.596 152.283 132.731 155.148 132.731 158.831C132.731 162.106 132.731 165.584 132.731 168.859C132.731 170.086 133.345 170.905 134.778 170.905C136.619 170.905 138.666 170.905 140.507 170.905C143.782 170.905 147.261 171.11 150.535 170.905C152.99 170.905 155.037 169.677 156.265 167.631C156.879 166.608 157.902 165.789 159.13 166.198C160.562 166.403 160.971 167.426 161.176 168.859C161.176 169.882 161.79 170.496 162.608 170.905C163.427 171.314 164.041 171.314 164.041 170.086C164.041 167.017 164.041 163.743 164.041 160.673C164.041 159.036 163.427 158.627 161.995 158.422C159.13 158.217 157.902 157.194 157.083 154.329C156.674 153.101 156.06 152.488 154.832 152.283C154.218 152.283 153.4 152.283 152.786 152.283C150.944 152.283 150.33 151.669 149.921 150.032C150.126 148.599 151.149 147.986 152.581 147.986C154.014 147.986 155.446 147.986 156.879 148.395C159.13 149.213 160.562 150.646 161.176 152.897C161.381 153.715 161.585 153.92 162.404 153.92C166.087 154.329 168.338 156.785 168.338 160.264C168.338 163.743 168.338 167.017 168.338 170.496C168.338 172.542 167.52 174.179 165.678 174.998C164.859 175.407 165.064 175.816 164.859 176.43C164.859 179.295 165.064 182.16 164.45 185.025C163.836 188.095 162.404 190.755 160.153 192.597C158.72 193.825 159.334 195.257 159.334 196.485C159.334 196.894 159.744 196.894 159.948 196.894C161.585 197.508 162.608 197.303 163.836 195.871C164.859 194.643 166.292 193.825 167.724 193.211C168.748 192.801 168.748 192.597 168.338 191.778C166.701 188.709 166.497 185.23 167.724 181.955C168.134 180.932 168.543 179.909 169.362 179.5C170.794 178.681 170.794 177.658 170.794 176.226C170.794 171.519 170.589 166.812 170.999 161.901C171.817 152.078 180.207 143.688 190.03 142.46C202.718 140.823 215.405 151.055 214.177 166.403C214.177 167.835 213.359 168.449 212.131 168.654C210.494 168.245 209.88 167.631 209.88 165.994C209.88 165.175 209.88 164.357 209.88 163.743C209.675 158.831 207.834 154.534 204.15 151.26C200.671 148.19 196.578 146.553 191.872 147.167C188.802 146.962 186.142 148.19 183.686 149.623C178.161 153.101 175.705 158.422 175.501 164.766C175.501 169.268 175.501 173.565 175.501 178.067C175.501 179.704 174.887 180.932 173.659 181.955C171.203 184.002 170.794 187.685 172.636 190.346C173.045 190.96 173.659 191.369 174.273 190.96C175.705 190.346 177.138 189.732 178.57 189.322C180.003 188.709 181.435 188.299 182.868 187.685C184.095 187.276 184.3 185.639 183.482 184.82C182.254 183.797 181.435 182.365 180.412 181.137C179.798 179.5 178.98 177.863 178.98 176.021C178.775 173.361 178.775 170.496 178.775 167.835C178.775 164.561 179.184 163.947 182.458 163.947C183.277 163.947 184.095 163.947 184.709 163.947C187.37 163.947 189.621 163.129 190.439 160.059C190.644 159.036 191.462 158.422 192.69 158.422C193.918 158.422 194.737 159.036 194.941 160.059C195.76 162.719 197.602 163.743 200.057 163.743C201.285 163.743 202.718 163.743 203.945 163.743C205.173 163.743 206.196 164.357 206.401 165.584C206.401 169.063 206.81 172.747 206.196 176.226C205.787 179.295 204.355 181.955 201.899 184.207C200.671 185.434 200.876 186.867 202.513 187.685C205.173 188.709 207.629 189.732 210.289 190.755C210.698 190.96 211.108 191.164 211.722 190.755C213.973 188.913 213.973 183.797 211.722 182.16C210.903 181.546 210.494 180.932 210.085 179.909C208.447 177.658 209.266 175.612 211.312 174.793ZM148.693 197.508C147.261 197.303 145.828 197.303 144.396 196.689C144.191 196.689 143.577 196.28 143.577 196.894C143.577 198.122 143.168 199.35 144.6 200.168C145.419 200.578 146.237 201.396 146.851 202.01C147.465 202.624 147.874 202.829 148.693 202.419C151.353 203.238 152.581 201.192 154.218 199.759C154.832 199.145 154.423 197.917 154.423 196.894C154.423 196.28 154.014 196.689 153.604 196.689C152.172 197.303 150.33 197.303 148.693 197.508ZM127.411 206.512C123.318 207.945 120.658 210.81 120.044 215.107C119.634 217.767 119.839 220.223 119.839 222.883C119.839 223.702 120.248 224.111 121.067 224.111C122.704 224.111 124.341 224.111 125.978 224.111C130.889 224.111 135.801 224.111 140.917 224.111C141.531 224.111 141.94 223.906 141.94 223.292C142.349 220.837 142.963 218.586 143.372 216.335C143.577 215.312 142.554 213.265 141.735 213.061C140.507 213.061 139.689 212.447 138.87 211.628C137.029 209.991 134.982 208.763 133.345 206.921C131.503 205.08 129.866 205.08 127.82 206.307C127.82 206.307 127.615 206.307 127.411 206.512ZM169.362 197.713C168.134 197.917 167.11 198.736 166.292 199.759C167.315 200.168 168.338 200.578 169.362 200.987C169.975 201.191 170.794 201.601 171.408 201.805C177.956 203.852 182.049 208.149 183.072 215.107C183.072 215.721 183.482 215.925 184.095 215.925C185.733 215.925 187.37 215.925 189.007 215.925C189.621 215.925 189.825 215.721 189.825 215.107C190.03 210.196 190.03 210.196 186.756 206.717C186.551 206.512 186.142 206.307 186.142 205.898C184.709 203.443 182.663 203.033 180.003 203.852C177.342 204.67 175.501 202.829 175.91 199.964C176.115 198.327 176.319 196.894 176.729 195.052C173.864 195.871 171.613 196.689 169.362 197.713ZM108.175 184.82C112.677 184.82 116.974 181.546 118.202 177.044C118.816 174.793 118.407 172.337 118.611 170.086C118.816 168.245 118.611 166.812 116.769 165.789C116.156 165.38 115.951 165.175 115.132 165.789C113.086 167.426 110.63 168.04 107.97 168.04C106.333 168.04 104.696 168.04 103.059 168.04C101.217 168.04 99.3752 168.04 97.5334 168.04C96.7149 168.04 96.5102 168.245 96.5102 169.063C96.5102 171.11 96.5102 172.951 96.5102 174.998C96.9195 180.728 102.035 185.23 108.175 184.82ZM149.716 193.006C154.423 192.801 158.311 189.732 159.744 185.434C160.357 183.183 160.153 180.728 160.153 178.477C160.357 176.635 160.153 174.998 158.311 173.975C157.697 173.565 157.492 173.361 156.879 173.975C154.628 175.612 152.172 176.43 149.512 176.43C147.874 176.43 146.237 176.43 144.6 176.43C142.759 176.43 140.917 176.43 139.075 176.43C138.256 176.43 138.052 176.635 138.052 177.453C138.052 179.295 138.052 181.137 138.052 182.979C138.256 188.709 143.577 193.211 149.716 193.006ZM84.6412 215.721C89.5525 215.721 94.4638 215.721 99.3752 215.721C100.194 215.721 100.398 215.312 100.398 214.698C100.808 212.447 101.217 210.4 101.626 208.149C102.035 206.307 101.012 204.875 99.3752 204.466C98.5566 204.261 97.9427 203.852 97.5334 203.443C95.0778 201.396 92.8267 199.554 90.3711 197.508C89.7572 196.894 89.1432 196.894 88.3247 197.303C87.5061 197.713 86.8922 197.917 86.0737 198.327C82.1855 199.35 79.7299 202.01 78.7067 205.898C77.8881 208.763 78.502 211.833 78.2974 214.902C78.2974 215.721 78.9113 215.925 79.5252 215.925C81.367 215.721 83.0041 215.721 84.6412 215.721ZM98.7613 163.333C102.035 163.333 105.31 163.333 108.379 163.333C110.835 163.333 112.881 162.106 114.314 160.059C114.928 159.036 115.746 158.217 117.179 158.422C118.611 158.627 119.225 159.65 119.225 161.082C119.225 162.106 119.839 162.719 120.658 163.129C121.476 163.538 121.885 163.538 121.885 162.31C121.885 159.036 121.885 155.762 121.885 152.692C121.885 151.464 121.271 150.646 120.044 150.646C117.179 150.646 115.542 149.213 114.928 146.553C114.723 145.325 113.904 144.916 112.677 144.711C108.789 144.507 104.9 144.507 101.012 144.711C99.7844 144.711 98.7613 144.711 97.5334 144.711C94.0546 144.916 91.1896 147.781 90.985 151.26C90.985 154.534 90.985 158.013 90.985 161.287C90.985 162.515 91.5989 163.333 93.0314 163.333C94.8731 163.333 96.9195 163.333 98.7613 163.333ZM207.629 194.848C207.834 196.894 208.243 198.531 208.447 200.373C208.652 202.624 206.81 204.67 204.764 203.852C201.694 202.624 199.443 203.443 197.806 206.103C197.806 206.307 197.602 206.307 197.602 206.512C194.327 209.991 194.327 209.991 194.532 214.902C194.532 215.721 194.941 215.925 195.555 215.925C203.332 215.925 211.312 215.925 219.089 215.925C220.112 215.925 220.521 215.516 220.521 214.493C220.521 211.628 220.521 208.558 220.521 205.694C220.316 202.419 218.884 199.759 216.019 198.327C213.154 196.894 210.494 196.076 207.629 194.848ZM167.52 223.906C170.589 223.906 173.864 223.906 176.933 223.906C178.366 223.906 178.775 223.292 178.775 222.065C178.775 220.223 178.775 218.586 178.775 216.744C178.57 212.037 176.319 208.558 172.022 206.717C170.999 206.307 169.771 205.898 168.748 205.489C167.929 205.08 167.52 205.284 166.906 205.694C164.859 207.535 162.608 209.172 160.562 211.014C159.539 211.833 158.516 212.856 156.879 212.856C156.674 212.856 156.469 213.061 156.265 213.265C155.855 214.288 155.037 215.312 155.446 216.744C156.06 218.79 156.469 220.837 156.674 222.883C156.879 224.111 157.288 224.111 158.311 224.111C161.381 223.906 164.45 223.906 167.52 223.906ZM201.49 172.337C201.49 171.314 201.49 170.496 201.49 169.473C201.49 168.449 201.08 168.245 200.262 168.245C197.397 168.245 194.532 167.631 192.486 165.584C192.281 165.38 192.076 165.175 191.667 165.584C189.416 167.835 186.551 168.449 183.482 168.449C182.663 168.449 182.663 168.859 182.663 169.473C182.663 171.314 182.663 173.361 182.663 175.202C182.868 179.704 186.142 183.388 190.644 184.002C195.146 184.616 199.443 182.16 201.08 177.863C201.694 176.021 201.49 174.179 201.49 172.337ZM115.337 215.107C115.746 215.107 115.746 214.902 115.746 214.698C116.769 208.354 120.453 204.261 126.387 202.215C128.434 201.396 130.276 200.578 132.527 199.759C130.685 198.531 128.843 198.122 127.206 197.303C126.387 196.894 125.978 197.099 125.364 197.713C123.113 199.759 120.658 201.601 118.407 203.443C117.793 204.056 117.179 204.466 116.156 204.67C114.928 204.875 113.7 206.307 113.904 207.535C114.109 209.991 114.723 212.651 115.337 215.107ZM187.37 187.685C189.007 192.597 190.439 196.894 191.872 201.396C193.509 197.099 194.941 193.006 196.374 188.709C196.578 188.095 196.578 187.685 195.555 187.89C193.1 188.709 190.439 188.504 187.37 187.685ZM102.24 188.504C102.035 189.527 101.831 190.755 102.24 191.164C103.877 192.597 104.9 194.438 107.356 194.643C109.402 194.848 110.63 193.415 111.858 192.392C112.677 191.778 113.086 189.527 112.677 188.709C112.472 188.299 112.267 188.504 112.063 188.504C108.993 189.527 105.719 189.527 102.24 188.504ZM149.512 223.906C150.126 223.906 150.739 223.906 151.353 223.906C152.581 224.111 152.581 223.497 152.377 222.679C152.172 221.451 151.763 220.018 151.558 218.79C151.353 217.563 150.944 217.358 149.716 217.153C148.079 217.153 147.465 217.563 147.465 219.2C147.465 219.814 147.261 220.223 147.261 220.837C146.442 223.906 146.442 223.906 149.512 223.906ZM107.765 204.875C108.379 204.67 109.402 205.284 109.812 204.67C110.426 203.852 110.835 203.033 111.04 202.01C111.244 200.782 108.993 198.94 107.765 199.145C107.151 199.145 106.333 198.736 105.924 199.35C105.31 200.168 104.286 200.987 104.286 202.01C104.286 202.829 104.9 203.852 105.514 204.67C106.128 205.08 107.151 204.67 107.765 204.875ZM107.765 215.721C108.379 215.721 108.993 215.721 109.607 215.721C110.63 215.721 111.04 215.721 110.63 214.493C110.221 213.265 110.016 211.833 109.812 210.605C109.607 209.377 109.198 209.172 107.97 208.968C106.333 208.968 105.514 209.377 105.514 211.014C105.514 211.628 105.31 212.242 105.105 212.651C104.696 215.721 104.696 215.721 107.765 215.721ZM149.307 212.856C151.353 212.856 152.786 211.628 152.786 209.991C152.786 208.763 150.739 206.921 149.512 206.921C148.079 206.921 145.828 208.763 146.033 209.991C146.237 210.81 146.647 211.833 147.056 212.447C147.67 213.265 148.693 212.651 149.307 212.856ZM197.397 199.759C199.239 198.327 201.08 198.531 203.127 198.94C203.741 199.145 203.536 198.531 203.536 198.327C203.331 196.689 203.127 195.257 202.922 193.62C202.718 192.392 201.49 192.597 200.467 192.187C199.648 191.983 199.648 192.801 199.648 193.415C198.829 195.257 198.216 197.303 197.397 199.759ZM186.551 199.759C185.733 197.508 185.119 195.871 184.709 194.029C184.095 191.983 184.095 191.983 182.049 192.801C181.435 193.006 181.231 193.415 181.231 194.029C181.026 195.462 180.821 196.689 180.617 198.122C180.412 198.94 180.617 199.145 181.435 198.94C183.072 198.327 184.709 198.531 186.551 199.759ZM94.2592 195.052C95.6917 196.28 96.9195 197.303 98.352 198.327C100.194 199.964 100.194 199.964 101.626 197.713C101.831 197.303 102.445 197.099 101.831 196.485C99.5798 193.62 97.9427 193.211 94.6685 194.643C94.6685 194.848 94.4638 194.848 94.2592 195.052ZM121.271 195.257C117.793 193.415 117.793 193.415 115.337 195.462C113.291 197.099 113.291 197.099 114.928 199.35C115.337 199.964 115.542 199.964 116.156 199.554C117.793 198.122 119.43 196.689 121.271 195.257ZM136.005 203.238C137.233 204.261 138.666 205.284 139.894 206.512C141.94 208.149 141.735 208.149 143.168 206.103C143.782 205.284 143.577 205.08 142.963 204.466C140.917 202.419 138.87 200.782 136.005 203.238ZM162.813 203.238C160.562 202.01 158.72 201.192 156.674 203.647C155.037 205.284 154.832 205.284 156.265 207.126C156.469 207.331 156.469 207.535 156.674 207.535C156.879 208.149 157.288 207.945 157.697 207.74C159.334 206.307 160.971 204.875 162.813 203.238Z" fill="#040404"/>
<path d="M191.258 147.374C195.965 146.76 200.058 148.397 203.536 151.467C207.22 154.741 209.266 158.834 209.266 163.95C209.266 164.768 209.266 165.587 209.266 166.201C209.266 167.838 209.88 168.452 211.517 168.861C211.517 170.907 211.517 172.749 211.313 174.795C209.062 175.409 208.448 177.456 209.471 180.321C209.88 181.139 210.289 181.958 211.108 182.572C213.359 184.209 213.359 189.325 211.108 191.166C210.494 191.576 210.289 191.371 209.676 191.166C207.015 190.143 204.56 189.12 201.899 188.097C200.262 187.483 200.058 186.05 201.285 184.618C203.536 182.367 205.174 179.707 205.583 176.637C205.992 173.158 205.787 169.475 205.787 165.996C205.787 164.563 204.764 164.154 203.332 164.154C202.104 164.154 200.671 164.154 199.444 164.154C196.783 164.154 194.942 163.131 194.328 160.471C193.918 159.447 193.304 158.834 192.077 158.834C191.053 158.834 190.03 159.447 189.826 160.471C189.007 163.54 186.961 164.359 184.096 164.359C183.277 164.359 182.459 164.359 181.845 164.359C182.049 158.424 184.505 153.513 189.212 149.829C189.826 148.806 190.849 148.397 191.258 147.374Z" fill="#AE6C6C"/>
<path d="M149.512 150.443C149.921 152.285 150.535 152.694 152.377 152.694C152.991 152.694 153.809 152.694 154.423 152.694C155.651 152.899 156.265 153.512 156.674 154.74C157.493 157.605 158.516 158.424 161.586 158.833C163.018 159.038 163.632 159.447 163.632 161.084C163.632 164.154 163.632 167.428 163.632 170.497C163.632 171.725 163.018 171.725 162.2 171.316C161.381 170.907 160.767 170.293 160.767 169.27C160.767 168.042 160.153 167.019 158.721 166.609C157.288 166.405 156.47 167.019 155.856 168.042C154.628 170.088 152.582 171.316 150.126 171.316C146.852 171.316 143.373 171.316 140.099 171.316C140.099 170.702 139.894 170.088 139.894 169.474C139.894 166.2 139.894 162.926 139.894 159.447C139.894 155.354 142.554 152.08 146.442 150.648C146.647 150.648 146.852 150.443 146.852 150.238C147.875 150.443 148.693 150.443 149.512 150.443Z" fill="#F9C56C"/>
<path d="M147.056 150.443C147.056 150.648 146.852 150.853 146.647 150.853C142.759 152.08 140.098 155.559 140.098 159.652C140.098 162.926 140.098 166.201 140.098 169.679C140.098 170.293 140.303 170.907 140.303 171.521C138.461 171.521 136.415 171.521 134.573 171.521C133.345 171.521 132.527 170.907 132.527 169.475C132.527 166.201 132.527 162.722 132.527 159.447C132.527 155.764 135.596 152.899 139.075 152.694C139.485 152.694 140.098 152.694 140.508 152.694C142.145 152.899 143.168 152.285 143.577 150.648L143.782 150.443C145.01 150.443 146.033 150.443 147.056 150.443Z" fill="#D7AA5D"/>
<path d="M207.629 194.848C210.494 196.075 213.154 196.894 215.815 198.122C218.68 199.554 220.317 202.215 220.317 205.489C220.521 208.354 220.317 211.423 220.317 214.288C220.317 215.312 219.907 215.721 218.884 215.721C211.108 215.721 203.127 215.721 195.351 215.721C194.532 215.721 194.328 215.516 194.328 214.698C194.123 209.786 194.123 209.786 197.397 206.307C197.397 206.103 197.602 206.103 197.602 205.898C199.239 203.238 201.49 202.419 204.559 203.647C206.606 204.466 208.652 202.419 208.243 200.168C208.243 198.531 207.834 196.894 207.629 194.848Z" fill="#DAEAF8"/>
<path d="M101.012 144.711C104.9 144.302 108.788 144.506 112.677 144.711C113.904 144.711 114.518 145.325 114.928 146.553C115.541 149.213 117.179 150.645 120.044 150.645C121.271 150.645 121.885 151.464 121.885 152.692C121.885 155.966 121.885 159.24 121.885 162.31C121.885 163.333 121.271 163.333 120.657 163.128C119.839 162.719 119.225 162.105 119.225 161.082C119.02 159.65 118.611 158.626 117.179 158.422C115.746 158.217 114.928 159.036 114.314 160.059C112.881 162.105 111.039 163.333 108.379 163.333C105.105 163.333 101.831 163.333 98.7611 163.333C98.1472 161.287 98.5565 159.445 98.5565 157.398C98.5565 154.738 98.3519 152.078 98.7611 149.622C99.1704 147.576 100.398 146.348 101.012 144.711Z" fill="#7B6C79"/>
<path d="M167.52 223.907C164.451 223.907 161.381 223.907 158.311 223.907C157.288 223.907 156.879 223.703 156.674 222.68C156.47 220.633 156.06 218.587 155.447 216.54C155.037 215.108 155.856 214.289 156.265 213.062C156.265 212.857 156.47 212.652 156.879 212.652C158.516 212.652 159.539 211.629 160.562 210.81C162.609 208.969 164.86 207.332 166.906 205.49C167.52 204.876 167.929 204.876 168.748 205.285C169.771 205.695 170.999 206.104 172.022 206.513C176.32 208.355 178.775 211.834 178.775 216.54C178.775 218.382 178.775 220.019 178.775 221.861C178.775 223.293 178.366 223.907 176.934 223.703C173.864 223.907 170.59 223.907 167.52 223.907Z" fill="#DAEAF8"/>
<path d="M201.49 172.337C201.49 174.178 201.695 176.02 200.876 177.657C199.239 181.955 195.146 184.41 190.439 183.796C185.937 183.182 182.663 179.499 182.458 174.997C182.458 173.155 182.458 171.109 182.458 169.267C182.458 168.653 182.663 168.244 183.277 168.244C186.347 168.244 189.212 167.835 191.463 165.379C191.872 164.97 192.077 165.174 192.281 165.379C194.532 167.63 197.192 168.039 200.057 168.039C201.081 168.039 201.49 168.244 201.285 169.267C201.49 170.495 201.49 171.518 201.49 172.337Z" fill="#EFAEA1"/>
<path d="M127.82 206.307C129.867 204.875 131.504 205.079 133.345 206.921C134.983 208.558 137.029 209.991 138.871 211.628C139.689 212.242 140.508 212.856 141.736 213.06C142.554 213.06 143.577 215.107 143.373 216.335C142.963 218.79 142.35 221.041 141.94 223.292C141.736 223.906 141.531 224.111 140.917 224.111C136.006 224.111 131.094 224.111 125.978 224.111C125.978 222.474 125.978 221.041 125.978 219.404C125.978 215.107 125.365 211.014 127.411 206.921V206.717C127.616 206.512 127.82 206.512 127.82 206.307Z" fill="#DAEAF8"/>
<path d="M86.0735 198.326C86.892 197.917 87.5059 197.712 88.3245 197.303C89.143 196.894 89.757 196.894 90.3709 197.507C92.6219 199.554 95.0776 201.396 97.5332 203.442C98.1471 203.851 98.7611 204.261 99.375 204.465C101.217 204.874 102.035 206.307 101.626 208.149C101.217 210.4 100.807 212.446 100.398 214.697C100.194 215.311 100.194 215.72 99.375 215.72C94.4636 215.72 89.5523 215.72 84.641 215.72C85.0503 209.786 83.6178 203.851 86.0735 198.326Z" fill="#DAEAF8"/>
<path d="M144.6 176.02C146.237 176.02 147.874 176.02 149.511 176.02C152.172 176.02 154.832 175.406 156.878 173.564C157.492 173.155 157.697 173.36 158.311 173.564C160.153 174.588 160.357 176.225 160.153 178.066C159.948 180.317 160.357 182.773 159.743 185.024C158.516 189.526 154.423 192.596 149.716 192.596C149.716 191.982 149.102 191.573 148.693 191.163C146.646 189.117 145.419 186.661 145.009 183.796C144.395 181.545 144.805 178.68 144.6 176.02Z" fill="#FDDBCD"/>
<path d="M103.264 167.835C104.901 167.835 106.538 167.835 108.175 167.835C110.835 167.835 113.291 167.221 115.337 165.584C115.951 165.175 116.156 165.379 116.974 165.584C118.611 166.607 118.816 168.244 118.816 169.881C118.611 172.132 119.021 174.588 118.407 176.839C117.179 181.341 112.882 184.615 108.379 184.615C108.175 184.411 107.97 184.206 107.766 184.001C105.515 181.75 104.082 179.09 103.468 176.021C102.854 173.36 103.264 170.7 103.264 167.835Z" fill="#FBCCBC"/>
<path d="M191.258 147.373C190.849 148.396 189.826 148.601 189.212 149.215C184.71 153.103 182.05 157.81 181.845 163.744C178.571 163.949 178.162 164.358 178.162 167.632C178.162 170.293 177.957 173.157 178.366 175.818C178.571 177.66 179.185 179.297 179.799 180.934C179.185 181.343 178.776 182.162 178.571 182.775C177.752 184.822 178.162 186.868 178.162 189.119C176.729 189.733 175.297 190.347 173.864 190.756C173.046 191.166 172.636 190.756 172.227 190.142C170.385 187.482 170.795 184.003 173.25 181.752C174.478 180.729 175.092 179.501 175.092 177.864C175.092 173.362 175.092 169.065 175.092 164.563C175.092 158.014 177.752 152.898 183.278 149.419C185.324 148.396 188.189 147.373 191.258 147.373Z" fill="#845050"/>
<path d="M101.013 144.712C100.194 146.35 98.9663 147.577 98.557 149.419C98.1477 152.079 98.3524 154.74 98.3524 157.195C98.3524 159.242 98.1477 161.084 98.557 163.13C96.7153 163.13 94.6689 163.13 92.8271 163.13C91.3947 163.13 90.7808 162.516 90.7808 161.084C90.7808 157.809 90.7808 154.33 90.7808 151.056C90.7808 147.577 93.8503 144.712 97.3292 144.508C98.7617 144.712 99.9895 144.712 101.013 144.712Z" fill="#655D67"/>
<path d="M169.361 197.713C171.612 196.689 173.863 195.871 176.524 194.848C176.319 196.689 176.114 198.122 175.705 199.759C175.296 202.624 177.138 204.466 179.798 203.647C182.458 202.829 184.505 203.238 185.937 205.694C186.142 205.898 186.346 206.103 186.551 206.512C190.03 209.991 190.03 209.991 189.621 214.902C189.621 215.516 189.416 215.925 188.802 215.721C187.165 215.721 185.528 215.721 183.891 215.721C183.277 215.721 183.072 215.721 182.868 214.902C181.844 207.945 177.752 203.647 171.203 201.601C170.589 201.396 169.771 200.987 169.157 200.782C169.361 199.759 169.361 198.736 169.361 197.713Z" fill="#DAEAF8"/>
<path d="M103.264 167.837C103.264 170.702 103.059 173.363 103.468 176.228C103.878 179.297 105.515 181.958 107.766 184.209C107.971 184.413 108.175 184.618 108.38 184.822C102.241 185.232 97.1247 180.73 96.9201 174.591C96.7154 172.544 96.9201 170.702 96.9201 168.656C96.9201 167.837 97.1247 167.633 97.9432 167.633C99.3757 167.837 101.217 167.837 103.264 167.837Z" fill="#EFAEA1"/>
<path d="M144.6 176.023C144.804 178.684 144.395 181.549 144.804 184.209C145.214 187.074 146.441 189.53 148.488 191.576C148.897 191.985 149.511 192.19 149.511 193.008C143.372 193.418 138.256 188.711 138.051 182.572C138.051 180.73 138.051 178.888 138.051 177.047C138.051 176.228 138.256 176.023 139.074 176.023C140.916 176.023 142.758 176.023 144.6 176.023Z" fill="#FBCCBC"/>
<path d="M127.411 206.514C125.364 210.811 126.183 214.904 125.978 219.201C125.978 220.838 125.978 222.271 125.978 223.908C124.341 223.908 122.704 223.908 121.067 223.908C120.249 223.908 119.635 223.499 119.839 222.68C119.839 220.02 119.635 217.564 120.044 214.904C120.862 210.606 123.318 207.946 127.411 206.514Z" fill="#B6D7F2"/>
<path d="M86.0734 198.328C83.6177 204.058 85.0502 209.993 84.6409 215.722C83.0038 215.722 81.3667 215.722 79.7296 215.722C78.911 215.722 78.2971 215.518 78.5017 214.699C78.5017 211.63 78.0925 208.765 78.911 205.695C79.7296 202.012 82.1852 199.351 86.0734 198.328Z" fill="#B6D7F2"/>
<path d="M115.337 215.11C114.928 212.655 114.314 209.994 113.905 207.539C113.7 206.311 114.928 204.878 116.156 204.674C116.974 204.469 117.588 204.06 118.407 203.446C120.658 201.604 123.114 199.558 125.365 197.716C125.978 197.307 126.388 197.102 127.206 197.307C128.843 198.125 130.89 198.535 132.527 199.763C130.276 200.581 128.434 201.4 126.388 202.218C120.453 204.469 116.565 208.357 115.747 214.701C115.747 214.906 115.542 215.11 115.337 215.11Z" fill="#DAEAF8"/>
<path d="M187.37 187.686C190.439 188.504 193.1 188.709 195.76 187.89C196.783 187.686 196.783 188.095 196.578 188.709C195.146 193.006 193.713 197.099 192.076 201.396C190.439 196.894 189.007 192.392 187.37 187.686Z" fill="#EFAEA1"/>
<path d="M102.241 188.504C105.515 189.527 108.994 189.527 112.268 188.709C112.472 188.709 112.677 188.504 112.882 188.913C113.291 189.732 112.677 191.983 112.063 192.597C110.631 193.62 109.608 195.052 107.561 194.848C105.106 194.643 103.878 192.801 102.445 191.369C101.831 190.755 102.241 189.527 102.241 188.504Z" fill="#EFAEA1"/>
<path d="M149.512 223.907C146.442 223.907 146.442 223.907 147.056 220.838C147.261 220.224 147.261 219.815 147.261 219.201C147.261 217.564 148.079 217.154 149.512 217.154C150.74 217.154 151.149 217.564 151.354 218.791C151.558 220.019 151.763 221.452 152.172 222.68C152.377 223.498 152.377 224.112 151.149 223.907C150.74 223.907 150.126 223.907 149.512 223.907Z" fill="#AE6C6C"/>
<path d="M107.765 204.875C106.946 204.671 106.128 205.285 105.514 204.671C104.9 203.852 104.286 203.033 104.286 202.01C104.286 200.987 105.309 200.169 105.923 199.35C106.333 198.736 107.151 199.145 107.765 199.145C108.993 199.145 111.244 200.987 111.039 202.01C110.835 203.033 110.425 203.852 109.811 204.671C109.402 205.285 108.584 204.671 107.765 204.875Z" fill="#FCDE2F"/>
<path d="M107.765 215.72C104.696 215.72 104.696 215.72 105.31 212.855C105.514 212.241 105.719 211.628 105.719 211.218C105.719 209.581 106.537 209.172 108.175 209.172C109.402 209.172 109.812 209.581 110.016 210.809C110.221 212.037 110.426 213.469 110.835 214.697C111.244 215.72 110.835 215.925 109.812 215.925C108.993 215.72 108.379 215.72 107.765 215.72Z" fill="#F7C514"/>
<path d="M149.307 212.856C148.693 212.652 147.67 213.266 147.056 212.447C146.442 211.629 146.033 210.81 146.033 209.991C145.828 208.764 148.079 206.922 149.512 206.922C150.74 206.922 152.786 208.764 152.786 209.991C152.786 211.629 151.354 212.856 149.307 212.856Z" fill="#AE6C6C"/>
<path d="M197.396 199.76C198.215 197.509 198.829 195.463 199.443 193.417C199.648 193.007 199.443 191.984 200.261 192.189C201.08 192.394 202.308 192.394 202.717 193.621C203.126 195.054 203.126 196.691 203.331 198.328C203.331 198.737 203.536 199.147 202.922 198.942C201.285 198.328 199.238 198.328 197.396 199.76Z" fill="#B6D7F2"/>
<path d="M186.551 199.76C184.709 198.532 183.072 198.327 181.23 198.736C180.412 198.941 180.207 198.941 180.412 197.918C180.616 196.485 180.821 195.258 181.026 193.825C181.026 193.211 181.23 193.007 181.844 192.597C183.891 191.779 183.891 191.779 184.504 193.825C185.323 195.872 185.937 197.509 186.551 199.76Z" fill="#B6D7F2"/>
<path d="M177.956 189.527C177.956 187.481 177.547 185.23 178.366 183.184C178.57 182.365 178.98 181.751 179.593 181.342C180.412 182.57 181.435 184.002 182.663 185.025C183.686 185.844 183.277 187.481 182.049 187.89C180.821 188.504 179.389 188.913 177.956 189.527Z" fill="#AE6C6C"/>
<path d="M148.693 197.509C150.33 197.305 151.967 197.305 153.604 196.895C153.809 196.895 154.423 196.486 154.423 197.1C154.423 198.123 154.832 199.351 154.218 199.965C152.786 201.397 151.353 203.444 148.693 202.625C148.693 200.783 148.693 199.146 148.693 197.509Z" fill="#FBCCBC"/>
<path d="M94.2588 195.052C94.4634 194.848 94.6681 194.848 94.6681 194.848C97.9423 193.415 99.5794 193.824 101.83 196.689C102.24 197.303 101.83 197.508 101.626 197.917C100.193 200.168 100.193 200.168 98.3516 198.531C96.9191 197.303 95.6913 196.28 94.2588 195.052Z" fill="#B6D7F2"/>
<path d="M121.271 195.257C119.43 196.69 117.792 198.122 116.155 199.555C115.746 199.964 115.337 199.964 114.928 199.35C113.29 197.099 113.29 197.099 115.337 195.462C117.792 193.415 117.792 193.415 121.271 195.257Z" fill="#B6D7F2"/>
<path d="M136.005 203.236C138.87 200.781 140.916 202.213 142.963 204.26C143.577 204.873 143.781 205.283 143.167 205.897C141.735 207.943 141.735 207.943 139.893 206.306C138.461 205.487 137.233 204.464 136.005 203.236Z" fill="#B6D7F2"/>
<path d="M162.813 203.24C160.971 204.672 159.334 206.105 157.493 207.537C157.083 207.946 156.674 207.946 156.469 207.332C156.469 207.128 156.265 206.923 156.06 206.923C154.832 205.081 155.037 205.081 156.469 203.444C158.72 201.398 160.562 202.012 162.813 203.24Z" fill="#B6D7F2"/>
<path d="M148.693 197.508C148.693 199.145 148.693 200.782 148.693 202.624C147.875 202.829 147.465 202.624 146.851 202.215C146.237 201.601 145.419 200.782 144.6 200.373C143.168 199.554 143.782 198.327 143.577 197.099C143.577 196.485 143.986 196.689 144.396 196.894C145.828 197.099 147.261 197.303 148.693 197.508Z" fill="#EFAEA1"/>
<path d="M169.362 197.713C169.362 198.736 169.362 199.759 169.362 200.987C168.338 200.578 167.315 200.169 166.292 199.759C167.111 198.736 168.134 197.918 169.362 197.713Z" fill="#B6D7F2"/>
<path d="M127.82 206.307C127.82 206.511 127.615 206.511 127.411 206.511C127.615 206.307 127.82 206.307 127.82 206.307Z" fill="#B6D7F2"/>
<path d="M122.499 99.2824C121.476 97.236 123.727 94.1664 126.797 93.7572C130.48 93.1432 133.959 92.734 137.642 92.3247C138.87 92.1201 139.484 91.7108 139.893 90.6876C141.326 87.618 142.758 84.7531 144.191 81.8881C145.009 80.0464 146.237 78.6139 148.284 78C148.897 78 149.511 78 150.125 78C152.172 78.6139 153.4 80.0464 154.218 82.0928C155.651 85.1623 157.083 88.0273 158.516 90.8922C158.925 91.9154 159.539 92.1201 160.562 92.3247C164.041 92.734 167.52 93.3479 170.794 93.7572C174.887 94.3711 178.365 97.4407 175.705 100.51C173.045 103.58 170.18 106.445 169.157 107.877C168.134 109.31 165.064 111.765 166.087 114.835C166.906 117.291 166.906 119.951 167.52 122.611C167.929 124.862 167.724 126.909 165.882 128.341C164.041 129.774 161.994 129.364 160.153 128.341C157.083 126.704 154.013 125.067 150.739 123.43C149.921 123.02 149.307 123.02 148.284 123.43C145.214 125.271 141.94 126.704 138.666 128.546C136.619 129.569 134.777 129.774 132.936 128.341C131.094 127.113 130.889 125.271 131.299 123.02C131.913 119.542 132.526 115.858 133.14 112.379C133.345 111.356 133.14 110.742 132.322 110.128C132.117 109.719 124.341 102.761 122.499 99.2824ZM137.028 96.6221C133.959 97.0314 131.094 97.4407 128.024 97.8499C127.615 97.8499 127.206 97.6453 127.001 98.2592C126.797 98.6685 127.41 98.8731 127.615 99.2824C130.071 101.738 132.731 104.398 135.391 106.649C137.233 108.286 137.847 110.333 137.233 112.789C136.619 116.267 136.005 119.746 135.391 123.43C135.391 123.839 135.187 124.248 135.391 124.453C135.801 124.658 136.005 124.453 136.415 124.248C139.689 122.611 142.963 120.769 146.237 118.928C148.488 117.7 150.535 117.904 152.786 119.132C155.651 120.769 158.72 122.202 161.79 123.839C162.199 124.044 162.608 124.453 163.018 124.248C163.427 124.044 163.222 123.43 163.018 122.816C162.404 119.337 161.994 115.858 161.176 112.584C160.562 110.128 161.38 108.082 163.222 106.445C165.882 104.194 168.134 101.533 170.794 99.0778C170.998 98.8731 171.612 98.4638 171.408 98.0546C171.203 97.6453 170.794 97.8499 170.385 97.6453C167.724 97.236 165.269 96.8267 162.608 96.6221C158.72 96.2128 155.241 95.5989 154.013 91.3015C152.581 88.4366 151.353 85.5716 149.921 82.7067C149.716 82.502 149.716 81.8881 149.307 82.0928C148.897 82.0928 148.897 82.502 148.693 82.9113C147.056 86.1855 145.419 89.4598 143.986 92.5293C143.577 93.5525 142.963 94.3711 142.144 95.1896C140.507 96.2128 138.666 96.2128 137.028 96.6221Z" fill="#070807"/>
<path d="M153.809 91.5059C155.241 95.8033 158.515 96.6218 162.404 96.8265C165.064 97.0311 167.52 97.4404 170.18 97.8497C170.589 97.8497 170.998 97.8497 171.203 98.2589C171.408 98.8728 170.794 99.0775 170.589 99.2821C168.133 101.738 165.678 104.193 163.017 106.649C161.176 108.286 160.357 110.333 160.971 112.788C161.79 116.267 162.199 119.541 162.813 123.02C162.813 123.429 163.222 124.043 162.813 124.453C162.404 124.657 161.994 124.248 161.585 124.043C158.515 122.406 155.65 120.974 152.581 119.337C150.33 118.109 148.284 117.7 146.032 119.132C145.623 118.927 145.623 118.518 145.828 118.109C146.237 116.267 146.442 114.425 146.851 112.584C147.26 110.947 147.056 109.719 145.623 108.491C142.963 106.035 140.303 103.58 137.847 100.919C136.21 99.2821 136.21 98.8728 137.028 96.8265C138.665 96.4172 140.507 96.4172 141.94 95.394C144.395 94.9847 146.646 94.5754 149.102 94.3708C151.353 94.1662 152.786 93.3476 153.809 91.5059Z" fill="#FCDE2F"/>
<path d="M137.028 96.6211C136.21 98.6675 136.21 99.0768 137.847 100.714C140.507 103.17 142.963 105.83 145.623 108.285C146.851 109.513 147.056 110.741 146.851 112.378C146.442 114.22 146.237 116.062 145.828 117.903C145.828 118.313 145.623 118.722 146.033 118.927C142.758 120.768 139.484 122.406 136.21 124.247C136.005 124.452 135.596 124.657 135.187 124.452C134.982 124.247 134.982 123.838 135.187 123.429C135.801 119.95 136.415 116.471 137.028 112.788C137.438 110.332 137.028 108.49 135.187 106.648C132.526 104.193 130.071 101.737 127.41 99.2814C127.206 99.0768 126.592 98.8721 126.797 98.2582C127.001 97.8489 127.41 97.8489 127.82 97.8489C131.094 97.4396 133.959 97.0304 137.028 96.6211Z" fill="#F7C514"/>
<path d="M153.809 91.5056C152.786 93.3474 151.354 94.1659 149.103 94.3705C146.647 94.5752 144.191 94.9845 141.94 95.3937C142.759 94.5752 143.168 93.7566 143.782 92.7334C145.419 89.4592 147.056 86.185 148.489 83.1154C148.694 82.9108 148.693 82.2969 149.103 82.2969C149.512 82.2969 149.512 82.7062 149.717 82.9108C151.149 85.7757 152.582 88.6407 153.809 91.5056Z" fill="#F7C514"/>
<defs>
<filter id="filter0_d_787_12346" x="0" y="0" width="338" height="338" filterUnits="userSpaceOnUse" color-interpolation-filters="sRGB">
<feFlood flood-opacity="0" result="BackgroundImageFix"/>
<feColorMatrix in="SourceAlpha" type="matrix" values="0 0 0 0 0 0 0 0 0 0 0 0 0 0 0 0 0 0 127 0" result="hardAlpha"/>
<feOffset dx="20" dy="20"/>
<feGaussianBlur stdDeviation="40"/>
<feComposite in2="hardAlpha" operator="out"/>
<feColorMatrix type="matrix" values="0 0 0 0 0 0 0 0 0 0 0 0 0 0 0 0 0 0 0.25 0"/>
<feBlend mode="normal" in2="BackgroundImageFix" result="effect1_dropShadow_787_12346"/>
<feBlend mode="normal" in="SourceGraphic" in2="effect1_dropShadow_787_12346" result="shape"/>
</filter>
</defs>
</svg>
