<svg width="338" height="338" viewBox="0 0 338 338" fill="none" xmlns="http://www.w3.org/2000/svg">
<g filter="url(#filter0_d_803_9944)">
<rect x="238" y="60" width="178" height="178" rx="20" transform="rotate(90 238 60)" fill="white" fill-opacity="0.75" shape-rendering="crispEdges"/>
</g>
<path d="M123.165 101.364C123.165 103.983 123.165 106.414 123.165 109.033C123.165 109.781 122.978 110.155 122.23 109.968C121.109 109.781 119.426 110.529 118.678 109.781C118.117 109.22 118.491 107.724 118.491 106.601C118.491 102.861 118.491 98.9327 118.491 95.1919C118.491 94.2567 118.117 94.0696 117.369 94.0696C116.247 94.0696 115.125 94.0696 114.004 94.0696C112.508 94.0696 111.012 94.0696 109.703 95.3789C108.02 97.0623 105.029 96.5012 103.533 94.6307C102.037 92.7603 102.224 90.1417 104.094 88.2713C105.964 86.5879 108.768 86.5879 110.264 88.4584C111.012 89.2065 111.573 89.3936 112.508 89.3936C114.191 89.3936 116.06 89.3936 117.743 89.3936C121.295 89.3936 122.978 91.0769 122.978 94.6307C123.165 96.8752 123.165 99.1197 123.165 101.364Z" fill="#0E0D0D"/>
<path d="M173.648 101.179C173.648 98.9342 173.648 96.5027 173.648 94.2582C173.648 91.0785 175.517 89.2081 178.696 89.2081C180.753 89.2081 182.809 89.2081 184.679 89.2081C185.427 89.2081 185.801 89.021 186.362 88.4599C188.232 86.4024 191.036 86.4024 193.093 88.2728C194.963 90.1433 194.963 92.9489 193.093 94.8193C191.223 96.6897 188.232 96.6897 186.362 94.6323C185.801 94.0711 185.427 93.8841 184.679 93.8841C182.809 93.8841 181.127 93.8841 179.257 93.8841C178.322 93.8841 178.135 94.0711 178.135 95.0063C178.135 99.4953 178.135 104.171 178.135 108.66C178.135 109.596 177.948 110.157 176.826 109.97C175.704 109.783 174.209 110.531 173.648 109.783C173.087 109.222 173.461 107.725 173.461 106.603C173.461 104.92 173.648 103.049 173.648 101.179Z" fill="#0E0D0D"/>
<path d="M98.6719 123.996C96.2413 123.996 93.9976 123.996 91.5669 123.996C88.5754 123.996 86.7057 122.126 86.7057 119.133C86.7057 117.076 86.7057 115.018 86.7057 113.148C86.7057 112.4 86.5187 111.839 85.9578 111.277C83.9011 109.407 83.9011 106.601 85.7708 104.731C87.6405 102.861 90.4451 102.861 92.3148 104.731C94.1846 106.601 93.9976 109.407 92.1279 111.277C91.5669 111.839 91.38 112.213 91.38 112.961C91.38 114.644 91.38 116.515 91.38 118.198C91.38 119.133 91.7539 119.32 92.5018 119.32C96.9891 119.32 101.663 119.32 106.151 119.32C107.086 119.32 107.46 119.507 107.273 120.442C107.086 121.565 107.647 123.061 107.086 123.622C106.338 124.37 105.029 123.809 103.907 123.809C102.037 123.996 100.355 123.996 98.6719 123.996Z" fill="#0E0D0D"/>
<path d="M198.141 123.996C195.71 123.996 193.093 123.996 190.662 123.996C189.914 123.996 189.353 123.809 189.54 122.874C189.727 121.751 188.979 120.255 189.727 119.507C190.288 118.946 191.784 119.32 192.906 119.32C196.832 119.32 200.572 119.32 204.498 119.32C205.433 119.32 205.62 119.133 205.433 118.198C205.433 117.075 205.433 115.953 205.433 114.644C205.433 113.148 205.62 111.651 204.124 110.342C202.441 108.846 203.002 105.853 204.872 104.17C206.742 102.486 209.359 102.673 211.229 104.544C212.912 106.227 213.099 109.033 211.229 110.716C210.294 111.464 210.107 112.399 210.294 113.335C210.294 115.018 210.294 116.888 210.294 118.572C210.294 121.751 208.425 123.622 205.246 123.622C202.815 123.996 200.385 123.996 198.141 123.996Z" fill="#0E0D0D"/>
<path d="M98.6719 174.311C101.29 174.311 103.72 174.311 106.338 174.311C107.086 174.311 107.46 174.498 107.46 175.246C107.46 178.8 107.46 178.8 104.094 178.8C100.168 178.8 96.4282 178.8 92.5018 178.8C91.567 178.8 91.38 178.987 91.38 179.922C91.38 181.792 91.38 183.663 91.38 185.346C91.38 185.907 91.5669 186.281 91.9409 186.655C93.9976 188.526 94.1846 191.518 92.1279 193.389C90.2581 195.259 87.4536 195.259 85.5838 193.389C83.7141 191.518 83.7141 188.526 85.9578 186.655C86.5187 186.281 86.5187 185.907 86.5187 185.346C86.5187 183.289 86.5187 181.231 86.5187 179.361C86.5187 175.994 88.3884 174.311 91.7539 174.311C93.9976 174.311 96.2413 174.311 98.6719 174.311Z" fill="#0E0D0D"/>
<path d="M198.141 174.311C200.385 174.311 202.815 174.311 205.059 174.311C208.238 174.311 210.107 176.182 210.107 179.361C210.107 181.419 210.107 183.476 210.107 185.347C210.107 186.095 210.294 186.469 210.855 187.03C212.912 188.9 212.912 191.706 211.042 193.763C209.172 195.634 206.368 195.634 204.498 193.763C202.628 191.893 202.628 188.9 204.685 187.03C205.246 186.469 205.433 186.095 205.433 185.347C205.433 183.476 205.433 181.793 205.433 179.922C205.433 178.987 205.246 178.8 204.311 178.8C199.824 178.8 195.15 178.8 190.662 178.8C189.727 178.8 189.166 178.613 189.353 177.491C189.54 176.369 188.792 174.872 189.54 174.311C190.101 173.75 191.597 174.124 192.719 174.124C194.589 174.311 196.458 174.311 198.141 174.311Z" fill="#0E0D0D"/>
<path d="M123.165 193.203C123.165 195.634 123.165 197.879 123.165 200.31C123.165 203.303 121.295 205.173 118.304 205.173C116.247 205.173 114.191 205.173 112.134 205.173C111.573 205.173 111.012 205.36 110.451 205.922C108.581 207.979 105.777 208.166 103.72 206.109C101.85 204.238 101.85 201.433 103.72 199.562C105.59 197.692 108.581 197.879 110.451 199.936C110.825 200.31 111.199 200.497 111.76 200.497C113.63 200.497 115.499 200.497 117.369 200.497C118.304 200.497 118.304 200.31 118.304 199.375C118.304 194.699 118.304 190.21 118.304 185.534C118.304 184.599 118.491 184.225 119.426 184.412C120.548 184.599 122.043 184.038 122.604 184.599C123.352 185.347 122.791 186.656 122.791 187.778C123.352 189.649 123.165 191.332 123.165 193.203Z" fill="#0E0D0D"/>
<path d="M173.648 193.203C173.648 190.584 173.648 188.153 173.648 185.534C173.648 184.786 173.835 184.412 174.77 184.412C178.322 184.412 178.322 184.412 178.322 187.779C178.322 191.52 178.322 195.448 178.322 199.188C178.322 200.311 178.696 200.498 179.631 200.311C181.314 200.311 182.996 200.311 184.679 200.311C185.427 200.311 185.801 200.124 186.362 199.562C188.232 197.505 191.036 197.505 192.906 199.375C194.776 201.246 194.776 204.051 192.906 205.922C191.036 207.792 188.232 207.792 186.362 205.735C185.801 205.174 185.24 204.987 184.492 204.987C182.435 204.987 180.566 204.987 178.509 204.987C175.33 204.987 173.648 203.116 173.648 199.937C173.461 197.879 173.648 195.448 173.648 193.203Z" fill="#0F0D0D"/>
<path d="M145.976 101.552C145.976 99.8685 145.976 85.0922 145.976 83.4089C145.976 81.7255 145.976 80.2292 144.667 78.9199C142.984 77.2365 143.545 74.4309 145.415 72.9345C147.285 71.4382 150.089 71.6252 151.772 73.3086C153.455 74.992 153.455 77.7976 151.772 79.481C150.837 80.2292 150.65 81.1644 150.65 82.0996C150.65 86.5886 150.65 104.358 150.65 108.847C150.65 109.782 150.463 110.156 149.341 110.156C145.789 110.156 145.789 110.156 145.789 106.602C145.976 104.732 145.976 103.235 145.976 101.552Z" fill="#161414"/>
<path d="M87.4535 151.492C85.7708 151.492 84.088 151.492 82.4053 151.492C80.7225 151.492 79.2268 151.492 77.9179 152.802C76.2352 154.485 73.4306 153.924 71.9348 152.054C70.4391 150.183 70.626 147.378 72.3088 145.694C73.9915 144.011 76.7961 144.011 78.4789 145.694C79.2268 146.629 80.1616 146.816 81.0965 146.816C85.5838 146.816 101.476 146.816 105.964 146.816C106.899 146.816 107.273 147.003 107.273 147.939C107.273 151.492 107.273 151.492 103.72 151.492C102.037 151.492 89.1363 151.492 87.4535 151.492Z" fill="#161414"/>
<path d="M197.954 146.816C199.824 146.816 212.725 146.816 214.595 146.816C216.09 146.816 217.399 146.816 218.708 145.507C220.391 143.824 223.382 144.385 224.878 146.255C226.374 148.126 226.187 150.931 224.504 152.615C222.821 154.298 220.017 154.298 218.334 152.615C217.586 151.679 216.651 151.492 215.717 151.679C211.229 151.679 195.524 151.679 191.036 151.679C189.914 151.679 189.54 151.492 189.54 150.37C189.54 147.003 189.54 147.003 192.906 147.003C194.589 146.816 196.271 146.816 197.954 146.816Z" fill="#161514"/>
<path d="M150.837 193.015C150.837 195.446 150.837 212.841 150.837 215.272C150.837 215.834 151.024 216.395 151.398 216.769C153.455 218.639 153.455 221.445 151.585 223.502C149.715 225.373 146.911 225.373 145.041 223.502C143.171 221.632 143.358 218.826 145.415 216.956C145.976 216.395 145.976 216.021 145.976 215.272C145.976 210.409 145.976 190.77 145.976 185.907C145.976 184.972 146.163 184.598 147.285 184.598C150.837 184.598 150.837 184.598 150.837 187.964C150.837 189.648 150.837 191.331 150.837 193.015Z" fill="#161514"/>
<path d="M132.327 102.675C132.327 100.617 132.327 85.4671 132.327 83.4096C132.327 81.7262 133.262 80.791 134.757 80.791C136.066 80.791 137.001 81.7262 137.001 83.4096C137.001 87.5245 137.001 104.919 137.001 109.034C137.001 109.782 136.814 109.969 136.066 109.969C132.327 110.157 132.327 110.157 132.327 106.416C132.327 105.293 132.327 103.984 132.327 102.675Z" fill="#100E0E"/>
<path d="M159.812 102.675C159.812 100.617 159.812 85.6541 159.812 83.5966C159.812 81.7262 160.747 80.791 162.242 80.791C163.738 80.791 164.486 81.9133 164.486 83.5966C164.486 87.7116 164.486 104.732 164.486 108.847C164.486 109.595 164.299 109.969 163.364 109.969C159.625 109.969 159.625 109.969 159.625 106.416C159.812 105.293 159.812 103.984 159.812 102.675Z" fill="#100E0E"/>
<path d="M88.9493 137.838C86.8926 137.838 85.0229 137.838 82.9662 137.838C81.0964 137.838 79.9746 136.903 79.9746 135.407C79.9746 133.91 81.0964 133.162 82.7792 133.162C86.7056 133.162 102.037 133.162 105.964 133.162C106.899 133.162 107.086 133.349 107.086 134.284C107.086 137.838 107.086 137.838 103.72 137.838C102.598 137.838 90.0711 137.838 88.9493 137.838Z" fill="#100E0E"/>
<path d="M196.645 137.838C194.589 137.838 192.532 137.838 190.475 137.838C189.727 137.838 189.54 137.651 189.54 136.903C189.353 133.162 189.353 133.162 193.093 133.162C196.271 133.162 210.668 133.162 214.034 133.162C215.903 133.162 216.838 134.097 216.838 135.407C216.838 136.903 215.903 137.651 214.034 137.838C211.977 137.838 198.702 137.838 196.645 137.838Z" fill="#100F0E"/>
<path d="M88.7623 165.147C86.7056 165.147 84.8359 165.147 82.7792 165.147C81.0964 165.147 80.1616 164.212 79.9746 162.902C79.9746 161.406 80.9095 160.471 82.5922 160.471C86.7056 160.471 102.037 160.471 106.338 160.471C107.086 160.471 107.273 160.658 107.273 161.406C107.46 165.147 107.46 165.147 103.72 165.147C102.411 165.147 89.8841 165.147 88.7623 165.147Z" fill="#100E0E"/>
<path d="M132.327 191.707C132.327 189.649 132.327 187.592 132.327 185.534C132.327 184.599 132.514 184.412 133.449 184.412C137.001 184.412 137.001 184.412 137.001 187.966C137.001 191.146 137.001 205.735 137.001 208.915C137.001 210.037 136.627 210.972 135.505 211.533C134.01 212.094 132.327 210.972 132.327 209.289C132.327 207.231 132.327 193.764 132.327 191.707Z" fill="#100F0E"/>
<path d="M196.645 165.147C194.589 165.147 192.532 165.147 190.475 165.147C189.727 165.147 189.54 164.96 189.54 164.212C189.353 160.471 189.353 160.471 193.093 160.471C196.271 160.471 210.855 160.471 214.034 160.471C215.343 160.471 216.277 160.845 216.651 162.154C217.212 163.65 216.09 165.147 214.221 165.147C212.164 165.334 198.889 165.147 196.645 165.147Z" fill="#100F0E"/>
<path d="M164.486 191.706C164.486 193.764 164.486 207.044 164.486 209.101C164.486 210.785 163.551 211.72 162.055 211.72C160.747 211.72 159.812 210.785 159.812 209.101C159.812 204.986 159.812 189.462 159.812 185.347C159.812 184.599 159.999 184.412 160.747 184.412C164.486 184.225 164.486 184.225 164.486 187.966C164.486 189.275 164.486 190.584 164.486 191.706Z" fill="#100F0E"/>
<path d="M152.707 118.198C153.081 117.45 153.455 117.263 154.203 117.45C156.072 118.011 157.568 118.572 159.251 119.507C160.373 120.255 161.121 121.378 161.121 122.687C161.121 123.996 161.121 125.493 161.121 126.802C161.121 127.363 161.308 127.363 161.682 127.363C167.104 127.363 172.339 127.363 177.761 127.363C181.314 127.363 183.37 129.607 183.37 133.161C183.37 137.65 183.37 142.326 183.37 147.002C183.37 148.499 182.996 149.808 181.875 150.93C181.501 151.304 181.688 151.491 181.688 151.865C181.688 158.973 181.688 165.894 181.688 173.001C181.688 175.62 180.192 177.49 177.761 178.238C177.2 178.425 176.639 178.425 176.078 178.425C172.526 178.425 168.973 178.425 165.421 178.425C164.486 178.425 164.299 178.238 163.925 177.303C164.112 176.555 164.486 176.368 165.234 176.368C168.786 176.368 172.339 176.368 175.704 176.368C177.948 176.368 179.257 175.059 179.257 172.814C179.257 166.829 179.257 160.656 179.257 154.484C179.257 153.923 179.257 153.549 179.257 152.801C179.07 152.988 178.883 152.988 178.696 153.175C177.013 154.297 175.33 155.045 173.461 155.98C167.104 158.599 160.56 159.534 153.829 160.095C153.268 160.095 153.081 160.282 153.081 160.843C152.894 164.21 149.902 166.455 146.724 165.519C144.667 164.958 143.171 162.901 142.984 160.843C142.984 160.469 142.984 160.282 142.423 160.282C138.871 160.095 135.318 159.721 131.579 158.786C130.083 158.412 128.587 158.225 127.279 157.664C126.718 157.477 126.531 157.103 126.531 156.541C126.531 155.98 126.905 155.793 127.466 155.606C127.84 155.419 128.027 155.606 128.213 155.793C132.514 156.916 137.001 157.664 141.489 158.038C142.984 158.225 142.984 158.225 142.984 156.541C142.984 156.354 142.984 156.167 142.984 155.98C142.984 154.297 143.919 153.175 145.789 153.175C147.472 153.175 148.967 153.175 150.463 153.175C151.959 153.175 153.081 154.11 153.081 155.606C153.081 155.98 153.081 156.167 153.081 156.354C153.081 156.541 153.081 156.916 153.081 157.103C152.894 157.851 153.268 157.851 153.829 157.851C154.577 157.664 155.511 157.664 156.259 157.664C160.747 157.29 165.047 156.541 169.347 155.045C173.087 153.923 176.639 152.24 179.631 149.808C180.379 149.247 180.753 148.686 180.753 147.751C180.94 147.376 180.94 147.189 180.94 146.815C180.94 142.139 180.94 137.463 180.94 132.787C180.94 130.73 179.631 129.42 177.574 129.42C157.755 129.42 138.123 129.42 118.304 129.42C116.247 129.42 114.938 130.73 114.938 132.787C114.938 137.463 114.938 142.139 114.938 146.815C114.938 147.189 114.938 147.376 115.125 147.751C115.125 148.686 115.686 149.247 116.247 149.808C118.304 151.491 120.922 152.801 123.352 153.923C124.1 154.297 124.287 154.858 124.1 155.419C123.913 155.98 123.352 156.167 122.417 155.793C120.922 155.232 119.613 154.671 118.304 153.923C117.743 153.549 117.182 153.175 116.434 152.988C116.434 153.175 116.434 153.362 116.434 153.362C116.434 160.095 116.434 166.642 116.434 173.375C116.434 173.562 116.434 173.936 116.621 174.123C116.995 175.807 118.304 176.742 119.987 176.742C133.262 176.742 146.724 176.742 159.999 176.742C160.934 176.742 161.121 176.929 161.495 177.677C161.308 178.425 160.934 178.799 160.186 178.799C146.724 178.799 133.262 178.799 119.8 178.799C116.621 178.799 114.378 176.555 114.378 173.375C114.378 166.268 114.378 159.347 114.378 152.24C114.378 151.865 114.191 151.491 114.004 151.117C113.443 150.556 113.256 149.995 112.882 149.247C112.695 149.06 112.882 148.873 112.508 148.686C112.508 143.074 112.508 137.65 112.508 132.039C112.695 131.852 112.695 131.665 112.695 131.665C113.443 129.233 115.499 127.737 117.93 127.737C123.352 127.737 128.774 127.737 134.197 127.737C134.758 127.737 134.944 127.55 134.944 126.989C134.944 125.68 134.944 124.183 134.944 122.874C134.944 121.565 135.505 120.63 136.627 119.881C139.245 118.198 142.236 117.263 145.228 117.076C146.35 116.889 147.472 116.889 148.593 116.889C149.528 117.076 149.715 117.263 149.902 118.011C149.715 118.572 149.154 118.946 148.593 118.946C147.472 118.759 146.35 118.946 145.415 119.133C142.797 119.507 140.18 120.068 137.936 121.565C137.375 121.939 137.001 122.5 137.001 123.248C137.001 124.183 137.001 125.118 137.001 126.054C137.001 127.924 137.001 127.924 138.871 127.924C139.432 127.924 139.432 127.737 139.432 127.363C139.432 126.428 139.432 125.493 139.432 124.557C139.432 123.809 139.806 123.435 140.367 123.061C142.049 122.313 143.919 121.752 145.789 121.565C148.967 121.191 152.146 121.752 154.951 123.061C155.511 123.435 155.885 123.809 155.885 124.557C155.885 125.119 155.885 125.493 155.885 126.241C155.885 128.111 155.885 128.111 157.755 128.111C158.129 128.111 158.316 127.924 158.316 127.55C158.316 126.054 158.316 124.744 158.316 123.435C158.316 122.687 157.942 122.313 157.568 121.939C156.072 121.191 154.764 120.442 153.268 120.068C153.268 119.32 152.707 118.946 152.707 118.198ZM148.406 127.55C150.276 127.55 152.146 127.55 154.016 127.55C154.39 127.55 154.577 127.363 154.577 126.989C154.577 126.428 154.577 125.867 154.577 125.118C154.577 124.557 154.39 124.37 154.016 124.183C150.463 123.061 147.098 122.874 143.545 123.996C142.423 124.37 142.423 124.37 142.423 125.68C142.423 126.054 142.423 126.615 142.423 126.989C142.423 127.55 142.61 127.55 142.984 127.55C144.667 127.363 146.537 127.55 148.406 127.55ZM148.593 155.045C147.846 155.045 147.098 155.045 146.35 155.045C145.789 155.045 145.602 155.232 145.602 155.793C145.602 157.29 145.602 158.786 145.602 160.282C145.602 161.966 146.911 163.275 148.593 163.275C150.276 163.275 151.585 162.153 151.585 160.282C151.772 158.599 151.585 157.103 151.585 155.606C151.585 155.232 151.398 155.045 151.024 155.045C150.089 155.232 149.341 155.045 148.593 155.045Z" fill="#030303"/>
<path d="M162.242 177.304C161.868 176.368 161.681 176.368 160.747 176.368C147.472 176.368 134.01 176.368 120.735 176.368C119.052 176.368 117.743 175.433 117.369 173.75C117.182 173.563 117.182 173.376 117.182 173.002C117.182 166.268 117.182 159.722 117.182 152.988C117.182 152.801 117.182 152.801 117.182 152.614C117.743 152.988 118.304 153.362 119.052 153.549C120.361 154.297 121.669 155.046 123.165 155.42C123.913 155.794 124.474 155.607 124.848 155.046C125.222 154.485 124.848 153.923 124.1 153.549C121.482 152.427 119.052 151.305 116.995 149.434C116.247 148.873 115.873 148.312 115.873 147.377C116.06 147.377 116.247 147.564 116.247 147.564C119.239 149.996 122.791 151.679 126.531 152.988C129.896 154.11 133.262 154.859 136.627 155.233C138.871 155.607 141.302 155.794 143.732 155.794C143.919 157.29 143.919 157.29 142.236 157.29C137.749 156.916 133.262 156.355 128.961 155.046C128.587 154.859 128.4 154.859 128.213 154.859C127.653 155.046 127.466 155.233 127.279 155.794C127.279 156.355 127.653 156.729 128.026 156.916C129.522 157.29 130.831 157.664 132.327 158.038C135.879 158.786 139.432 159.161 143.171 159.535C143.732 159.535 143.732 159.909 143.732 160.096C143.919 162.34 145.415 164.211 147.472 164.772C150.65 165.52 153.829 163.275 153.829 160.096C153.829 159.535 154.016 159.535 154.577 159.348C161.308 158.974 167.852 157.851 174.209 155.233C176.078 154.485 177.761 153.549 179.444 152.427C179.631 152.24 179.818 152.24 180.005 152.053C180.005 152.614 180.005 153.175 180.005 153.736C180.005 159.722 180.005 165.894 180.005 172.066C180.005 174.311 178.696 175.62 176.452 175.62C172.9 175.62 169.347 175.62 165.982 175.62C165.234 175.62 164.86 175.994 164.673 176.555C163.551 177.304 162.99 177.304 162.242 177.304Z" fill="#375E7D"/>
<path d="M152.707 118.199C152.707 118.947 153.081 119.321 153.642 119.321C155.137 119.695 156.633 120.256 157.942 121.192C158.503 121.566 158.877 121.94 158.69 122.688C158.69 124.184 158.69 125.493 158.69 126.803C158.69 127.177 158.503 127.364 158.129 127.364C156.259 127.364 156.259 127.551 156.259 125.493C156.259 124.932 156.259 124.558 156.259 123.81C156.259 123.062 155.885 122.688 155.324 122.314C152.333 121.005 149.341 120.63 146.163 120.817C144.293 121.005 142.423 121.379 140.741 122.314C139.993 122.688 139.806 123.062 139.806 123.81C139.806 124.745 139.806 125.681 139.806 126.616C139.806 126.99 139.619 127.177 139.245 127.177C137.375 127.177 137.375 127.364 137.375 125.306C137.375 124.371 137.375 123.436 137.375 122.501C137.375 121.753 137.749 121.379 138.31 120.817C140.554 119.321 143.171 118.76 145.789 118.386C146.911 118.199 148.033 118.199 148.967 118.199C149.715 118.386 150.089 118.012 150.276 117.264C151.585 118.012 152.146 118.199 152.707 118.199Z" fill="#E3814C"/>
<path d="M143.358 156.354C141.115 156.354 138.684 155.98 136.253 155.793C132.888 155.232 129.335 154.671 126.157 153.549C122.604 152.426 119.052 150.743 115.873 148.125C115.686 147.937 115.686 147.937 115.499 147.937C115.312 147.563 115.312 147.376 115.312 147.002C115.312 142.326 115.312 137.65 115.312 132.974C115.312 130.917 116.621 129.607 118.678 129.607C138.497 129.607 158.129 129.607 177.948 129.607C180.005 129.607 181.314 130.917 181.314 132.974C181.314 137.65 181.314 142.326 181.314 147.002C181.314 147.376 181.314 147.563 181.127 147.937C180.566 148.125 180.192 148.499 179.631 148.873C176.826 150.93 173.835 152.239 170.469 153.362C167.104 154.484 163.738 155.232 160.186 155.606C157.942 155.98 155.511 156.354 153.081 156.354C153.081 155.98 153.081 155.793 153.081 155.606C152.894 154.11 151.959 153.175 150.463 153.175C148.78 153.175 147.285 153.175 145.789 153.175C144.106 153.175 142.984 154.11 142.984 155.98C143.358 155.98 143.358 156.167 143.358 156.354Z" fill="#407193"/>
<path d="M148.593 155.045C149.341 155.045 150.089 155.045 150.837 155.045C151.211 155.045 151.398 155.232 151.398 155.606C151.398 157.289 151.398 158.786 151.398 160.282C151.211 161.965 150.089 163.275 148.406 163.275C146.724 163.275 145.415 162.152 145.415 160.282C145.415 158.786 145.415 157.289 145.415 155.793C145.415 155.232 145.602 155.045 146.163 155.045C146.911 155.232 147.659 155.045 148.593 155.045Z" fill="#FADE7A"/>
<path d="M153.642 156.354C156.072 156.354 158.316 155.98 160.747 155.606C164.299 155.045 167.665 154.484 171.03 153.362C174.209 152.239 177.387 150.743 180.192 148.873C180.753 148.499 180.94 148.125 181.688 147.938C181.688 148.873 181.127 149.434 180.566 149.995C177.387 152.427 173.835 154.11 170.282 155.232C165.982 156.728 161.682 157.29 157.194 157.851C156.446 158.038 155.511 158.038 154.764 158.038C154.203 158.225 153.829 157.851 154.016 157.29C153.642 156.915 153.455 156.541 153.642 156.354Z" fill="#375E7D"/>
<defs>
<filter id="filter0_d_803_9944" x="0" y="0" width="338" height="338" filterUnits="userSpaceOnUse" color-interpolation-filters="sRGB">
<feFlood flood-opacity="0" result="BackgroundImageFix"/>
<feColorMatrix in="SourceAlpha" type="matrix" values="0 0 0 0 0 0 0 0 0 0 0 0 0 0 0 0 0 0 127 0" result="hardAlpha"/>
<feOffset dx="20" dy="20"/>
<feGaussianBlur stdDeviation="40"/>
<feComposite in2="hardAlpha" operator="out"/>
<feColorMatrix type="matrix" values="0 0 0 0 0 0 0 0 0 0 0 0 0 0 0 0 0 0 0.25 0"/>
<feBlend mode="normal" in2="BackgroundImageFix" result="effect1_dropShadow_803_9944"/>
<feBlend mode="normal" in="SourceGraphic" in2="effect1_dropShadow_803_9944" result="shape"/>
</filter>
</defs>
</svg>
