<svg width="178" height="178" viewBox="0 0 178 178" fill="none" xmlns="http://www.w3.org/2000/svg">
<rect x="178" width="178" height="178" rx="20" transform="rotate(90 178 0)" fill="white" fill-opacity="0.75"/>
<g clip-path="url(#clip0_777_6854)">
<path d="M152 67.1402C152 74.3031 151.806 81.466 152 88.6288C152.194 97.3405 150.061 105.471 146.377 113.409C135.713 136.252 118.456 151.933 94.8015 160.838C90.1481 162.581 85.6885 162.387 81.0351 160.451C55.0534 150.191 37.2153 132.187 27.5206 105.858C25.7756 101.019 25 95.9853 25 90.9519C25 74.4967 25 57.8478 25 41.3925C25 36.3591 27.9084 33.0681 32.5618 32.6809C40.1237 32.1001 47.1038 29.5834 53.8901 26.2924C58.1557 24.3565 62.0336 22.0334 65.9115 19.7103C68.8199 17.968 72.116 17 75.6061 17C83.7496 17 91.8931 17.1936 100.231 17C104.69 17 108.568 18.1615 112.252 20.4846C118.263 24.1629 124.467 27.4539 131.06 29.777C135.325 31.3258 139.591 32.2937 144.05 32.6809C148.898 33.0681 151.806 36.3591 151.806 41.0053C152 49.717 152 58.4286 152 67.1402Z" fill="black"/>
<path d="M30.4287 67.7213C30.4287 75.465 30.4287 83.2086 30.4287 90.9523C30.4287 95.5985 31.2043 100.051 32.7554 104.504C42.2562 129.671 59.7066 146.707 84.9127 155.999C87.4333 156.967 89.9539 156.773 92.4745 155.805C113.027 148.062 129.12 135.091 139.591 115.345C143.468 107.795 146.183 99.8575 146.571 91.1459C146.765 86.8868 146.571 82.8214 146.571 78.5624C146.571 66.1726 146.571 53.7827 146.571 41.5865C146.571 38.8762 145.989 38.489 143.468 38.1018C140.366 37.7146 137.07 37.1338 133.968 36.3595C124.855 33.8428 116.517 29.5838 108.568 24.5504C106.435 23.1953 104.108 22.4209 101.394 22.4209C92.6684 22.4209 84.1371 22.4209 75.4119 22.4209C72.8913 22.4209 70.5646 23.1953 68.4318 24.5504C66.2989 25.9055 64.1661 27.2607 61.8394 28.4222C53.1142 33.262 44.0012 36.9403 34.1127 38.1018C30.6226 38.489 30.6226 38.6826 30.6226 42.1672C30.4287 50.6852 30.4287 59.2033 30.4287 67.7213Z" fill="#72CE72" stroke="black" stroke-width="0.75" stroke-miterlimit="10"/>
<path d="M75.9936 129.283C76.3814 117.28 76.5753 105.471 76.9631 93.4685C76.9631 91.9198 77.157 90.3711 77.157 89.0159C77.3509 87.6608 76.7692 87.08 75.6058 86.4992C67.8501 82.4338 63.0028 76.2389 61.4516 67.5273C58.931 53.7823 67.6562 37.5206 84.5249 35.1975C100.424 33.068 113.803 43.7155 115.548 59.59C116.711 71.0119 111.088 81.6594 100.812 86.4992C99.4547 87.08 98.873 88.048 98.873 89.4031C98.873 90.9518 98.6791 92.6941 98.873 94.2429C99.0669 96.7596 98.0974 98.8891 96.1585 100.438C95.189 101.212 93.6379 101.987 93.6379 103.148C93.444 104.31 95.189 105.084 95.9646 106.052C97.5158 107.794 98.0974 109.537 98.2913 111.86C98.2913 115.925 96.9341 118.829 93.8318 121.346C92.0867 122.507 92.2806 122.701 93.8318 124.056C94.4135 124.443 94.8013 124.83 95.189 125.411C98.0974 128.315 98.873 132.187 97.3219 136.059C97.128 136.639 96.7402 137.22 96.3524 137.607C94.0257 139.543 91.5051 141.479 88.9845 143.222C87.0455 144.577 84.5249 144.383 82.7799 142.641C80.8409 140.705 79.0959 138.769 77.157 136.833C76.3814 135.865 75.9936 134.897 75.9936 133.542C75.9936 131.993 75.9936 130.638 75.9936 129.283Z" fill="black"/>
<path d="M88.4029 83.9826C100.424 83.9826 110.313 74.4967 110.313 62.6876C110.313 50.1041 101.2 40.6182 88.7907 40.6182C76.1877 40.6182 66.8808 49.717 66.8808 62.3004C66.6869 74.3031 76.3816 83.9826 88.4029 83.9826Z" fill="#FBE400"/>
<path d="M81.8111 127.347C81.6172 128.896 81.6172 130.638 81.6172 132.187C81.6172 132.768 81.6172 133.155 82.005 133.736C83.1683 134.897 84.3317 136.253 85.495 137.608C86.0767 138.189 86.4645 138.189 87.0462 137.801C88.2096 136.833 89.5668 135.865 90.9241 134.897C92.6691 133.542 92.863 131.413 91.1179 129.671C89.9546 128.509 88.4034 127.347 87.434 125.992C85.8828 123.863 85.8828 121.927 87.434 119.797C88.4034 118.636 89.3729 117.668 90.5363 116.7C91.8935 115.732 92.4752 114.377 92.4752 112.634C92.4752 111.279 92.0874 110.311 91.1179 109.343C90.3424 108.763 89.5668 107.988 88.9851 107.02C86.4645 103.923 86.4645 101.793 89.3729 99.0831C91.8935 96.76 93.6386 94.4369 93.2508 90.7586C93.0569 89.0163 93.2508 89.0163 91.5057 89.2099C89.3729 89.5971 87.434 89.5971 85.3012 89.2099C82.5867 88.8227 82.5867 88.8227 82.5867 91.3394C82.3928 103.536 82.005 115.538 81.8111 127.347Z" fill="#FBE400"/>
<path d="M75.9941 55.3311C75.9941 49.3298 80.6476 44.6836 86.6583 44.6836C92.6689 44.6836 97.3224 49.3298 97.3224 55.3311C97.3224 61.3325 92.4751 66.3658 86.6583 66.1722C80.8415 66.1722 75.9941 61.3325 75.9941 55.3311Z" fill="black"/>
<path d="M86.8523 50.2979C83.9439 50.2979 81.6172 52.4274 81.6172 55.3312C81.6172 58.0415 83.9439 60.5582 86.6584 60.5582C89.3729 60.5582 91.6996 58.4287 91.6996 55.5248C91.8935 52.4274 89.7607 50.2979 86.8523 50.2979Z" fill="#72CE72"/>
</g>
<defs>
<clipPath id="clip0_777_6854">
<rect width="127" height="145" fill="white" transform="translate(25 17)"/>
</clipPath>
</defs>
</svg>
