<svg width="178" height="178" viewBox="0 0 178 178" fill="none" xmlns="http://www.w3.org/2000/svg">
<rect x="178" width="178" height="178" rx="20" transform="rotate(90 178 0)" fill="white" fill-opacity="0.75"/>
<path d="M61.8362 149.886C61.643 148.727 60.8701 148.533 59.904 148.533C52.5617 148.533 45.2195 148.533 37.8772 148.533C32.0806 148.533 27.8298 144.862 26.8638 139.452C26.2841 135.588 26.4773 135.395 30.3417 135.395C43.6737 135.395 57.0057 135.395 70.3378 135.395C71.3039 135.395 71.8835 135.588 71.8835 136.747C71.8835 139.839 74.2021 141.964 77.1004 142.157C84.0563 142.157 91.0121 142.157 97.9679 142.157C101.059 142.157 103.185 139.839 103.185 136.747C103.185 135.781 103.378 135.395 104.537 135.395C118.449 135.395 132.361 135.395 146.272 135.395C148.205 135.395 148.205 135.588 148.205 137.327C148.205 144.089 143.761 148.533 136.998 148.533C115.164 148.533 93.5239 148.533 71.6903 148.533C70.7242 148.533 69.5649 148.533 69.5649 149.886C68.792 149.886 67.826 149.886 67.0531 149.886C66.8599 149.113 66.4734 148.533 65.7006 148.533C64.9277 148.533 64.5412 149.113 64.5412 149.886C63.3819 149.886 62.6091 149.886 61.8362 149.886ZM91.5918 144.476C76.5208 144.476 61.4498 144.476 46.1855 144.476C45.7991 144.476 45.4127 144.476 45.0262 144.476C44.4466 144.476 44.0601 144.862 43.8669 145.442C43.8669 146.215 44.0601 146.601 44.6398 146.794C45.2195 146.988 45.6059 146.988 46.1855 146.988C75.9411 146.988 105.697 146.988 135.259 146.988C136.418 146.988 137.771 146.988 138.93 146.794C142.601 146.215 146.272 142.157 146.272 138.486C146.272 137.52 145.886 136.94 144.92 136.94C144.147 136.94 143.567 137.52 143.567 138.293C143.374 142.157 140.283 144.669 136.225 144.669C121.541 144.476 106.663 144.476 91.5918 144.476ZM38.65 146.988C39.2297 146.988 39.6161 146.988 40.0026 146.988C40.7754 146.988 41.5483 146.601 41.3551 145.635C41.3551 144.862 40.7754 144.283 39.8094 144.476C39.0365 144.476 38.0704 144.476 37.2975 144.476C36.5246 144.476 36.1382 144.862 36.1382 145.635C35.945 146.215 36.3314 146.601 36.9111 146.988C37.4907 147.181 38.0704 146.988 38.65 146.988Z" fill="#72C0E5"/>
<path d="M64.3477 149.888C64.3477 149.115 64.7341 148.535 65.507 148.535C66.4731 148.535 66.6663 149.115 66.8595 149.888C66.6663 150.661 66.2798 151.047 65.507 151.047C64.9273 151.047 64.3477 150.467 64.3477 149.888Z" fill="#0A0A0A"/>
<path d="M114.198 66.8018C122.12 66.8018 130.042 66.8018 137.964 66.8018C140.283 66.8018 141.828 68.3475 141.828 70.6661C141.828 71.0526 141.828 71.2458 141.828 71.6322C141.828 91.5337 141.828 111.435 141.828 131.337C141.828 132.496 141.635 132.882 140.283 132.882C104.924 132.882 69.5649 132.882 34.3993 132.882C33.24 132.882 32.8535 132.496 32.8535 131.337C32.8535 111.435 32.8535 91.3404 32.8535 71.439C32.8535 68.1543 34.206 66.8018 37.4907 66.8018C45.2195 66.8018 52.755 66.8018 60.4837 66.8018" fill="#71C0E6"/>
<path d="M60.6757 71.4421C53.9131 71.4421 47.1504 71.4421 40.3878 71.4421C38.2624 71.4421 37.876 71.6353 37.876 73.7607C37.876 77.6251 37.876 81.2962 37.876 85.1606C37.876 86.1267 38.0692 86.8995 39.2285 87.0928V94.6283C38.2624 94.8215 37.876 95.4011 37.876 96.3672C37.876 106.221 37.876 115.882 37.876 125.736C37.876 127.089 38.2624 127.475 39.8082 127.475C50.6284 127.475 61.4486 127.475 72.2688 127.475C92.9431 127.475 113.617 127.475 134.485 127.475C136.61 127.475 136.804 127.282 136.804 124.963C136.804 107.767 136.804 90.7639 136.804 73.5675C136.804 71.4421 136.61 71.0557 134.485 71.0557C127.722 71.0557 120.96 71.0557 114.004 71.0557L60.6757 71.4421Z" fill="#E7F6FD"/>
<path d="M87.5331 135.203C91.5906 135.203 95.455 135.203 99.5126 135.203C100.479 135.203 100.672 135.396 100.672 136.362C100.672 138.294 99.5126 139.261 97.7736 139.261C91.011 139.261 84.2484 139.261 77.4857 139.261C76.1332 139.261 75.1671 138.681 74.7807 137.328C74.201 135.589 74.3942 135.01 76.3264 135.01C79.9976 135.203 83.6687 135.203 87.5331 135.203Z" fill="#4BA2C4"/>
<path d="M91.5907 144.478C106.662 144.478 121.539 144.478 136.61 144.478C140.668 144.478 143.76 141.966 143.953 138.102C143.953 137.329 144.532 136.749 145.305 136.749C146.271 136.749 146.658 137.522 146.658 138.295C146.658 141.966 142.987 146.023 139.316 146.603C138.156 146.796 136.804 146.796 135.644 146.796C105.889 146.796 76.1333 146.796 46.5709 146.796C45.9913 146.796 45.6048 146.796 45.0252 146.603C44.2523 146.41 44.0591 145.83 44.2523 145.251C44.2523 144.671 44.6387 144.285 45.4116 144.285C45.7981 144.285 46.1845 144.285 46.5709 144.285C61.4487 144.478 76.5197 144.478 91.5907 144.478Z" fill="#C4E2F6"/>
<path d="M38.65 146.987C38.2635 146.987 37.4907 147.18 36.911 146.794C36.3314 146.601 35.9449 146.214 36.1382 145.442C36.3314 144.862 36.5246 144.282 37.2975 144.282C38.0703 144.282 39.0364 144.282 39.8093 144.282C40.7754 144.282 41.1618 144.669 41.355 145.442C41.355 146.214 40.7754 146.601 40.0025 146.794C39.6161 146.987 39.2296 146.987 38.65 146.987Z" fill="#C4E2F6"/>
<path d="M113.233 64.0967C121.348 64.0967 129.27 64.0967 137.385 64.0967C142.022 64.0967 144.534 66.6085 144.534 71.2457C144.534 90.954 144.534 110.855 144.534 130.564C144.534 132.689 144.534 132.689 146.66 132.689C147.239 132.689 147.626 132.689 148.205 132.882C149.751 133.269 150.717 134.428 150.91 135.974C151.877 144.475 145.694 151.238 137.192 151.238C115.358 151.238 93.5247 151.238 71.8843 151.238C70.9182 151.238 69.9521 151.238 69.7589 150.079C69.9521 148.726 70.9182 148.726 71.8843 148.726C93.7179 148.726 115.358 148.726 137.192 148.726C143.955 148.726 148.399 144.282 148.399 137.519C148.399 135.587 148.399 135.587 146.466 135.587C132.555 135.587 118.643 135.587 104.731 135.587C103.572 135.587 103.379 135.781 103.379 136.94C103.379 140.031 101.253 142.35 98.1619 142.35C91.2061 142.35 84.2502 142.35 77.2944 142.35C74.2029 142.35 72.0775 140.031 72.0775 136.94C72.0775 135.587 71.6911 135.587 70.5318 135.587C57.1997 135.587 43.8677 135.587 30.5357 135.587C26.6713 135.587 26.4781 135.781 27.0577 139.645C28.0238 145.248 32.2746 148.726 38.0712 148.726C45.4134 148.726 52.7557 148.726 60.098 148.726C61.0641 148.726 61.837 148.919 62.0302 150.079C61.837 150.852 61.4505 151.238 60.6777 151.238C52.3693 151.238 44.2541 151.624 35.9458 151.045C29.7628 150.658 24.7391 145.055 24.5459 138.872C24.5459 138.292 24.5459 137.519 24.5459 136.94C24.5459 134.235 25.8984 132.882 28.6035 132.882C30.7289 132.882 30.7289 132.882 30.7289 130.757C30.7289 111.049 30.7289 91.3404 30.7289 71.6322C30.7289 66.8017 33.2407 64.2899 38.0712 64.2899C45.9931 64.2899 54.1082 64.2899 62.0302 64.2899L113.233 64.0967ZM60.6777 66.8017C52.9489 66.8017 45.4134 66.8017 37.6847 66.8017C34.4 66.8017 33.0475 68.1543 33.0475 71.439C33.0475 91.3404 33.0475 111.435 33.0475 131.337C33.0475 132.496 33.2407 132.882 34.5932 132.882C69.9521 132.882 105.311 132.882 140.477 132.882C141.636 132.882 142.022 132.496 142.022 131.337C142.022 111.435 142.022 91.5336 142.022 71.6322C142.022 71.2457 142.022 71.0525 142.022 70.6661C141.829 68.3475 140.477 66.8017 138.158 66.8017C130.236 66.8017 122.314 66.8017 114.392 66.8017M60.6777 74.144C54.3015 74.144 47.9253 74.144 41.7423 74.144C40.583 74.144 40.583 74.5304 40.583 75.4965C40.583 78.7812 40.583 82.2592 40.583 85.5439C40.583 86.51 40.1966 87.0896 39.2305 87.2828C38.0712 87.0896 37.8779 86.3167 37.8779 85.3507C37.8779 81.4863 37.8779 77.8151 37.8779 73.9508C37.8779 71.8254 38.0712 71.6322 40.3898 71.6322C47.1524 71.6322 53.915 71.6322 60.6777 71.6322H114.199C120.962 71.6322 127.724 71.6322 134.68 71.6322C136.806 71.6322 136.999 71.8254 136.999 74.144C136.999 91.3404 136.999 108.344 136.999 125.54C136.999 127.859 136.806 128.052 134.68 128.052C114.006 128.052 93.3315 128.052 72.4639 128.052C61.6437 128.052 50.8235 128.052 40.0033 128.052C38.4576 128.052 38.0712 127.665 38.0712 126.313C38.0712 116.459 38.0712 106.798 38.0712 96.9437C38.0712 95.9776 38.4576 95.398 39.4237 95.2048C40.583 95.398 40.7762 96.1709 40.7762 97.1369C40.7762 106.218 40.7762 115.299 40.7762 124.187C40.7762 125.154 40.9694 125.54 42.1287 125.54C72.6572 125.54 102.992 125.54 133.521 125.54C134.68 125.54 134.873 125.154 134.873 124.187C134.873 115.879 134.873 107.571 134.873 99.2623C134.873 91.3404 134.873 83.4185 134.873 75.6898C134.873 75.1101 135.067 74.5304 134.1 74.5304C127.724 74.5304 121.155 74.5304 114.779 74.5304L60.6777 74.144ZM87.5349 135.201C83.6706 135.201 79.9994 135.201 76.1351 135.201C74.2029 135.201 74.0097 135.781 74.5893 137.519C74.9758 138.872 75.9419 139.452 77.2944 139.452C84.057 139.452 90.8196 139.452 97.5823 139.452C99.5145 139.452 100.481 138.292 100.481 136.553C100.481 135.587 100.287 135.394 99.3212 135.394C95.4569 135.201 91.5925 135.201 87.5349 135.201Z" fill="#070808"/>
<path d="M103.57 118.972C104.536 120.904 104.536 122.836 104.536 124.962C104.536 128.053 104.536 131.145 104.536 134.236C104.536 134.816 104.343 135.009 103.763 135.009C94.4889 135.009 85.2144 135.009 75.94 135.009C75.3603 135.009 75.1671 134.816 75.1671 134.236C75.1671 131.145 75.1671 128.053 75.1671 124.962C75.1671 124.382 74.9739 124.189 74.3942 124.189C71.496 123.996 68.5977 123.803 65.6994 123.416C63.3808 123.03 61.6418 121.677 60.4825 119.745C60.0961 119.165 59.9029 119.165 59.3232 119.165C55.8453 119.165 52.3674 119.165 48.8895 119.165C46.3776 119.165 44.6387 117.426 44.6387 114.915C44.6387 95.5928 44.6387 76.271 44.6387 57.1424C44.6387 54.6306 46.3776 52.8916 48.8895 52.8916C73.4281 52.8916 97.9668 52.8916 122.505 52.8916C125.211 52.8916 126.756 54.6306 126.756 57.1424C126.756 76.4642 126.756 95.5928 126.756 114.915C126.756 117.426 125.017 119.165 122.505 119.165C116.516 118.972 110.14 118.972 103.57 118.972ZM70.3367 102.355C71.6892 101.969 72.6553 101.389 73.8146 100.616C74.9739 99.8436 75.5535 99.0707 75.3603 97.7182C75.3603 97.3317 75.3603 96.9453 75.3603 96.5589C75.3603 94.8199 76.1332 93.2741 77.2925 91.9216C77.4857 91.7284 77.6789 91.7284 77.6789 91.342C74.5875 91.342 71.496 91.342 68.2113 91.342C68.9841 92.1148 69.3706 92.8877 69.757 93.6606C69.757 94.047 69.9502 94.047 70.3367 94.2402C73.0417 95.5928 73.4281 98.8775 71.496 101.003C71.1095 101.389 70.5299 101.776 70.3367 102.355ZM85.9873 71.2473C73.4281 71.2473 60.869 71.2473 48.503 71.2473C47.7302 71.2473 47.5369 71.4405 47.5369 72.2134C47.5369 86.3183 47.5369 100.423 47.5369 114.335C47.5369 114.528 47.5369 114.721 47.5369 114.915C47.5369 115.687 48.1166 116.267 48.8895 116.267C52.3674 116.267 55.6521 116.267 59.13 116.267C59.5165 116.267 59.5165 116.267 59.5165 115.881C59.5165 112.209 59.5165 108.538 59.5165 104.867C59.5165 104.481 59.3232 104.288 58.9368 104.094C52.7538 101.003 49.4691 94.8199 50.4352 87.864C51.2081 80.3285 57.7775 74.3388 65.313 73.9524C74.201 73.5659 81.5433 80.3285 82.123 89.2166C82.123 89.7962 82.3162 89.7962 82.8958 89.7962C85.4076 89.7962 87.7263 89.7962 90.2381 89.7962C93.5228 89.7962 96.2279 92.1148 96.8075 95.2063C97.1939 97.7182 97.194 100.037 96.6143 102.549C96.0346 105.833 94.1025 108.152 91.2042 109.891C90.6245 110.084 90.4313 110.471 90.6245 111.05C90.8178 111.63 91.011 112.403 91.2042 112.982C91.2042 113.562 91.5906 113.755 91.9771 113.755C93.3296 113.755 94.4889 113.755 95.8414 113.755C97.9668 113.755 99.899 114.528 101.638 115.881C102.024 116.267 102.411 116.267 102.99 116.267C109.753 116.267 116.323 116.267 123.085 116.267C124.438 116.267 124.824 115.881 124.824 114.528C124.824 100.423 124.824 86.3183 124.824 72.0202C124.824 71.2473 124.631 71.2473 124.051 71.2473C111.106 71.2473 98.5465 71.2473 85.9873 71.2473ZM85.9873 68.7355C98.5465 68.7355 111.106 68.7355 123.472 68.7355C124.244 68.7355 124.438 68.7355 124.438 67.7694C124.438 64.2915 124.438 60.6203 124.438 57.1424C124.438 55.7899 124.051 55.4034 122.699 55.4034C98.16 55.4034 73.8146 55.4034 49.2759 55.4034C47.9234 55.4034 47.5369 55.7899 47.5369 57.1424C47.5369 60.6203 47.5369 64.2915 47.5369 67.7694C47.5369 68.5423 47.7302 68.7355 48.503 68.7355C60.869 68.7355 73.4281 68.7355 85.9873 68.7355ZM85.9873 132.304C88.4991 132.304 90.8178 132.304 93.3296 132.304C93.9092 132.304 94.1025 132.111 94.1025 131.531C94.1025 128.826 94.1025 126.121 94.1025 123.416C94.1025 121.484 94.1025 121.484 96.0346 121.484C96.8075 121.484 96.8075 121.677 96.8075 122.257C96.8075 125.348 96.8075 128.44 96.8075 131.531C96.8075 132.111 97.0007 132.111 97.3872 132.111C98.7397 132.111 100.092 132.111 101.445 132.111C102.024 132.111 102.024 131.918 102.024 131.531C102.024 128.826 102.024 126.121 102.024 123.416C102.024 118.972 99.3193 116.267 94.8753 116.267C86.7602 116.267 78.8382 116.267 70.7231 116.267C69.757 116.267 68.7909 116.46 67.8248 116.847C66.8587 117.426 66.8587 117.426 66.2791 116.267C65.6994 114.915 65.6994 114.915 66.8587 114.335C67.2452 114.142 67.6316 113.948 67.4384 113.369C67.4384 110.084 67.4384 106.606 67.4384 103.321C67.4384 102.935 67.2452 102.742 66.8587 102.742C65.5062 102.742 64.1537 102.742 62.8012 102.742C62.2215 102.742 62.2215 102.935 62.2215 103.321C62.2215 107.186 62.2215 111.243 62.2215 115.108C62.2215 117.813 64.3469 120.131 67.2452 120.325C70.7231 120.518 74.0078 120.904 77.4857 121.098C78.0654 121.098 78.2586 121.291 78.2586 121.87C78.2586 124.962 78.2586 127.86 78.2586 130.952C78.2586 131.531 78.4518 131.725 79.0315 131.725C81.1569 132.304 83.4755 132.304 85.9873 132.304ZM85.9873 92.5013C84.6348 92.5013 83.2823 92.5013 81.9297 92.5013C79.8043 92.5013 78.0654 94.2402 78.0654 96.3656C78.0654 97.5249 78.0654 98.8775 78.0654 100.037C78.0654 102.355 78.8382 104.481 80.384 106.027C81.9297 107.572 83.8619 108.538 86.1805 108.345C87.7263 108.345 89.0788 107.959 90.2381 106.993C92.1703 105.64 93.3296 103.901 93.716 101.583C94.1025 99.8436 93.9092 97.9114 93.9092 96.1724C93.9092 93.8538 92.1703 92.1148 89.8517 92.1148C88.4991 92.5013 87.3398 92.5013 85.9873 92.5013ZM64.7333 83.0336C64.7333 81.4879 64.7333 79.7489 64.7333 78.2031C64.7333 76.6574 64.7333 76.6574 63.1876 77.0438C53.9131 78.976 49.6623 90.3759 55.4589 97.9114C55.8453 98.2978 56.0385 98.491 56.425 97.9114C57.3911 96.9453 58.3571 95.9792 59.3232 95.0131C59.5165 94.8199 59.7097 94.4335 59.7097 94.2402C60.2893 92.1148 61.6419 90.7623 63.7672 90.1827C64.5401 89.9894 64.9266 89.603 64.9266 88.8301C64.7333 86.898 64.7333 84.9658 64.7333 83.0336ZM67.4384 76.6574C67.4384 76.8506 67.4384 76.8506 67.4384 76.8506C67.4384 80.5218 67.4384 84.3861 67.4384 88.0573C67.4384 88.4437 67.6316 88.6369 68.018 88.6369C71.6892 88.6369 75.1671 88.6369 78.8382 88.6369C79.2247 88.6369 79.4179 88.4437 79.2247 88.0573C79.0315 86.7047 78.645 85.5454 78.2586 84.3861C75.94 79.9421 72.4621 77.4303 67.4384 76.6574ZM75.5535 102.549C73.8146 103.708 72.2688 104.674 70.3367 105.06C69.9502 105.254 69.9502 105.447 69.9502 105.833C69.9502 108.152 69.9502 110.664 69.9502 112.982C69.9502 113.562 70.1434 113.755 70.7231 113.755C73.4281 113.755 76.3264 113.755 79.0315 113.755C80.9636 113.755 80.9636 113.755 81.3501 112.016C81.3501 111.823 81.5433 111.437 81.5433 111.243C81.7365 110.664 81.5433 110.277 80.9636 109.891C78.0654 108.345 76.3264 105.833 75.5535 102.549ZM65.1198 100.423C65.5062 100.423 65.8926 100.423 66.2791 100.423C67.6316 100.616 68.5977 100.23 69.3706 99.0707C69.9502 98.491 69.9502 97.9114 69.757 97.3317C69.5638 96.7521 68.9841 96.5589 68.2113 96.5589C67.052 96.5589 67.052 96.5589 67.052 95.3995C67.052 95.2063 67.052 95.2063 67.052 95.0131C67.052 93.4674 65.8926 92.5013 64.5401 92.5013C62.9944 92.5013 61.8351 93.6606 61.8351 95.0131C61.8351 96.5589 61.8351 98.2978 61.8351 99.8436C61.8351 100.23 62.0283 100.423 62.4147 100.423C63.3808 100.423 64.3469 100.423 65.1198 100.423ZM85.9873 113.755C86.567 113.755 87.1466 113.755 87.7263 113.755C87.9195 113.755 88.1127 113.755 88.1127 113.369C87.9195 112.789 87.7263 112.016 87.5331 111.437C87.5331 111.05 87.3398 111.243 86.9534 111.243C86.1805 111.243 85.4077 111.243 84.6348 111.243C84.4416 111.243 84.2483 111.243 84.0551 111.63C83.8619 112.403 83.2823 113.176 83.6687 113.755C83.8619 114.142 84.828 113.755 85.6009 113.948C85.7941 113.755 85.7941 113.755 85.9873 113.755ZM59.3232 101.196C59.5165 100.23 59.5165 99.0707 59.3232 98.491C57.3911 100.23 57.3911 100.23 59.3232 101.196Z" fill="#020202"/>
<path d="M85.9872 71.248C98.5464 71.248 111.106 71.248 123.665 71.248C124.244 71.248 124.438 71.4413 124.438 72.0209C124.438 86.1258 124.438 100.231 124.438 114.529C124.438 115.881 124.051 116.268 122.699 116.268C115.936 116.268 109.367 116.268 102.604 116.268C102.024 116.268 101.638 116.075 101.251 115.881C99.7057 114.529 97.5803 113.756 95.4549 113.756C94.1023 113.756 92.943 113.756 91.5905 113.756C91.0109 113.756 90.8176 113.563 90.8176 112.983C90.6244 112.403 90.6244 111.631 90.238 111.051C90.0448 110.471 90.238 110.085 90.8176 109.892C93.7159 108.346 95.6481 105.834 96.2277 102.549C96.8074 100.038 96.6142 97.7189 96.421 95.2071C96.0345 91.9224 93.1363 89.797 89.8516 89.797C87.3397 89.797 85.0211 89.797 82.5093 89.797C82.1228 89.797 81.9296 89.797 81.7364 89.2173C81.35 80.3293 74.0077 73.5667 64.9264 73.9531C57.3909 74.3395 50.8215 80.3293 50.0487 87.8648C49.2758 94.8206 52.5605 101.004 58.5502 104.095C58.9367 104.288 59.1299 104.482 59.1299 104.868C59.1299 108.539 59.1299 112.21 59.1299 115.881C59.1299 116.268 59.1299 116.268 58.7435 116.268C55.2655 116.268 51.9808 116.268 48.5029 116.268C47.73 116.268 47.1504 115.688 47.1504 114.915C47.1504 114.722 47.1504 114.529 47.1504 114.336C47.1504 100.231 47.1504 86.1258 47.1504 72.2141C47.1504 71.4413 47.3436 71.248 48.1165 71.248C60.8689 71.248 73.428 71.248 85.9872 71.248ZM100.479 101.776C100.479 105.641 100.479 109.312 100.479 113.176C100.479 113.756 100.672 113.949 101.251 113.949C107.821 113.949 114.583 113.949 121.153 113.949C121.733 113.949 121.926 113.756 121.926 113.176C121.926 111.244 121.926 111.244 119.994 111.244C119.414 111.244 119.221 111.051 119.221 110.471C119.221 105.061 119.221 99.8443 119.221 94.4342C119.221 92.6952 119.221 92.6952 117.288 92.6952C116.516 92.6952 116.516 92.8885 116.516 93.6613C116.516 98.8782 116.516 104.288 116.516 109.505C116.516 111.437 116.516 111.437 114.583 111.437C114.004 111.437 113.811 111.244 113.811 110.665C113.811 107.959 113.811 105.448 113.811 102.743C113.811 100.81 113.811 100.81 111.878 100.81C111.299 100.81 111.299 101.004 111.299 101.39C111.299 104.095 111.299 106.8 111.299 109.505C111.299 111.437 111.299 111.437 109.367 111.437C108.787 111.437 108.594 111.244 108.594 110.665C108.594 106.22 108.594 101.776 108.594 97.3325C108.594 95.4003 108.594 95.5935 106.662 95.4003C105.889 95.4003 105.889 95.5935 105.889 96.1732C105.889 100.617 105.889 105.061 105.889 109.505C105.889 111.437 105.889 111.244 104.15 111.437C103.57 111.437 103.377 111.244 103.377 110.665C103.377 104.482 103.377 98.2986 103.377 92.1156C103.377 90.1834 103.377 90.1834 101.445 90.1834C100.865 90.1834 100.672 90.3766 100.672 90.9563C100.479 94.241 100.479 98.1053 100.479 101.776ZM111.106 76.6582C114.004 76.6582 116.902 76.6582 119.8 76.6582C121.732 76.6582 121.732 76.6582 121.732 74.726C121.732 74.1463 121.539 73.9531 120.96 73.9531C114.777 73.9531 108.594 73.9531 102.411 73.9531C100.479 73.9531 100.479 73.9531 100.479 75.8853C100.479 76.4649 100.672 76.6582 101.251 76.6582C104.536 76.6582 107.821 76.6582 111.106 76.6582ZM111.299 84.5801C108.4 84.5801 105.502 84.5801 102.604 84.5801C100.672 84.5801 100.672 84.5801 100.672 86.5123C100.672 87.0919 100.865 87.2851 101.445 87.2851C107.628 87.2851 113.811 87.2851 119.994 87.2851C121.926 87.2851 121.926 87.2851 121.926 85.353C121.926 84.7733 121.733 84.5801 121.153 84.5801C117.868 84.5801 114.583 84.5801 111.299 84.5801ZM113.811 81.875C115.936 81.875 117.868 81.875 119.994 81.875C121.926 81.875 121.926 81.875 121.926 79.9429C121.926 79.3632 121.733 79.17 121.153 79.17C116.709 79.17 112.265 79.17 107.821 79.17C105.889 79.17 105.889 79.17 105.889 81.1022C105.889 81.6818 106.082 81.875 106.662 81.875C108.98 81.875 111.299 81.875 113.811 81.875ZM102.024 81.875C103.377 81.875 103.377 81.875 103.377 80.7157C103.377 79.3632 103.377 79.3632 102.024 79.3632C100.672 79.3632 100.672 79.3632 100.672 80.5225C100.479 81.875 100.479 81.875 102.024 81.875Z" fill="#FDE8A6"/>
<path d="M85.9875 68.7334C73.4283 68.7334 60.8691 68.7334 48.5032 68.7334C47.7303 68.7334 47.5371 68.5402 47.5371 67.7673C47.5371 64.2894 47.5371 60.6183 47.5371 57.1403C47.5371 55.7878 47.9235 55.4014 49.2761 55.4014C73.8147 55.4014 98.1602 55.4014 122.699 55.4014C124.051 55.4014 124.438 55.7878 124.438 57.1403C124.438 60.6183 124.438 64.2894 124.438 67.7673C124.438 68.5402 124.245 68.7334 123.472 68.7334C110.913 68.7334 98.5466 68.7334 85.9875 68.7334ZM109.753 58.1064C106.082 58.1064 102.218 58.1064 98.5466 58.1064C97.967 58.1064 97.7738 58.1064 97.7738 58.6861C97.7738 60.8115 97.7738 63.1301 97.7738 65.2555C97.7738 65.8351 97.967 66.0284 98.3534 66.0284C105.889 66.0284 113.424 66.0284 120.96 66.0284C121.54 66.0284 121.733 65.8351 121.733 65.2555C121.733 63.1301 121.733 61.0047 121.733 58.8793C121.733 58.2996 121.54 58.1064 120.96 58.1064C117.289 58.1064 113.618 58.1064 109.753 58.1064ZM58.1641 62.164C58.1641 61.0047 58.1641 59.8454 58.1641 58.6861C58.1641 58.2996 58.1641 58.1064 57.5844 58.1064C55.2658 58.1064 52.9472 58.1064 50.6286 58.1064C50.2422 58.1064 50.0489 58.2996 50.0489 58.6861C50.0489 61.0047 50.0489 63.3233 50.0489 65.6419C50.0489 66.0284 50.2422 66.2216 50.6286 66.2216C52.9472 66.2216 55.2658 66.2216 57.5844 66.2216C57.9709 66.2216 58.1641 66.0284 58.1641 65.6419C58.1641 64.2894 58.1641 63.3233 58.1641 62.164ZM68.7911 62.164C68.7911 61.0047 68.7911 59.8454 68.7911 58.6861C68.7911 58.2996 68.5979 58.1064 68.2114 58.1064C65.8928 58.1064 63.5742 58.1064 61.2556 58.1064C60.8691 58.1064 60.6759 58.2996 60.6759 58.6861C60.6759 61.0047 60.6759 63.3233 60.6759 65.6419C60.6759 66.0284 60.8691 66.2216 61.2556 66.2216C63.5742 66.2216 65.8928 66.2216 68.2114 66.2216C68.5979 66.2216 68.7911 66.0284 68.7911 65.6419C68.7911 64.2894 68.7911 63.3233 68.7911 62.164ZM75.3605 58.1064C74.2012 58.1064 73.0419 58.1064 71.8826 58.1064C71.4961 58.1064 71.3029 58.2996 71.3029 58.6861C71.3029 61.0047 71.3029 63.1301 71.3029 65.4487C71.3029 65.8351 71.4961 66.0284 71.8826 66.0284C74.2012 66.0284 76.3266 66.0284 78.6452 66.0284C79.0316 66.0284 79.2248 65.8351 79.2248 65.4487C79.2248 63.1301 79.2248 61.0047 79.2248 58.6861C79.2248 58.1064 79.0316 58.1064 78.6452 58.1064C77.4859 58.1064 76.5198 58.1064 75.3605 58.1064Z" fill="#6DC6AC"/>
<path d="M85.9873 132.303C83.6687 132.303 81.1569 132.303 78.8383 132.303C78.2586 132.303 78.0654 132.109 78.0654 131.53C78.0654 128.438 78.0654 125.54 78.0654 122.449C78.0654 121.869 77.8722 121.676 77.2925 121.676C73.8146 121.482 70.5299 121.096 67.052 120.903C64.3469 120.71 62.0283 118.391 62.0283 115.686C62.0283 111.822 62.0283 107.764 62.0283 103.9C62.0283 103.513 62.0283 103.127 62.608 103.32C63.9605 103.32 65.313 103.32 66.6656 103.32C67.052 103.32 67.2452 103.513 67.2452 103.9C67.2452 107.184 67.2452 110.662 67.2452 113.947C67.2452 114.527 66.8588 114.72 66.6656 114.913C65.313 115.493 65.313 115.493 66.0859 116.845C66.6656 118.005 66.6656 118.005 67.6316 117.425C68.5977 116.845 69.3706 116.845 70.5299 116.845C78.6451 116.845 86.567 116.845 94.6822 116.845C99.1262 116.845 101.831 119.55 101.831 123.994C101.831 126.699 101.831 129.404 101.831 132.109C101.831 132.496 101.831 132.882 101.252 132.689C99.899 132.689 98.5465 132.689 97.194 132.689C96.6143 132.689 96.6143 132.496 96.6143 132.109C96.6143 129.018 96.6143 125.926 96.6143 122.835C96.6143 122.255 96.6143 122.062 95.8415 122.062C93.9093 122.062 93.9093 122.062 93.9093 123.994C93.9093 126.699 93.9093 129.404 93.9093 132.109C93.9093 132.689 93.7161 132.882 93.1364 132.882C90.8178 132.303 88.306 132.303 85.9873 132.303Z" fill="#52C0E8"/>
<path d="M85.9872 92.502C87.3397 92.502 88.6922 92.502 90.0448 92.502C92.3634 92.502 94.1023 94.2409 94.1023 96.5595C94.1023 98.2985 94.2956 100.231 93.9091 101.97C93.5227 104.288 92.3634 106.027 90.4312 107.38C89.2719 108.153 87.9194 108.539 86.3736 108.732C84.055 108.925 82.1228 107.959 80.5771 106.414C78.8381 104.868 78.0653 102.743 78.2585 100.424C78.2585 99.2646 78.2585 97.912 78.2585 96.7527C78.2585 94.6273 79.9974 92.8884 82.1228 92.8884C83.2821 92.5019 84.6347 92.502 85.9872 92.502Z" fill="#B17947"/>
<path d="M64.7346 83.0344C64.7346 84.9666 64.7346 86.7055 64.7346 88.6377C64.7346 89.4106 64.3482 89.797 63.5753 89.9902C61.4499 90.5699 60.0974 91.9224 59.5177 94.0478C59.5177 94.4342 59.3245 94.6275 59.1313 94.8207C58.1652 95.7868 57.1991 96.7528 56.233 97.7189C55.8466 98.1054 55.6534 98.1054 55.2669 97.7189C49.6636 90.1834 53.9144 78.9768 62.9956 76.8514C64.5414 76.465 64.5414 76.465 64.5414 78.0107C64.7346 79.7497 64.7346 81.4886 64.7346 83.0344Z" fill="#F4806E"/>
<path d="M67.4393 76.6553C72.2698 77.4281 75.9409 79.94 78.0663 84.384C78.6459 85.5433 79.0324 86.7026 79.0324 88.0551C79.0324 88.4416 79.0324 88.6348 78.646 88.6348C74.9748 88.6348 71.4969 88.6348 67.8257 88.6348C67.4393 88.6348 67.2461 88.6348 67.2461 88.0551C67.2461 84.384 67.2461 80.5196 67.2461 76.8485C67.4393 76.8485 67.4393 76.8485 67.4393 76.6553Z" fill="#E5E7EB"/>
<path d="M75.5555 102.548C76.3283 105.833 78.0673 108.344 80.9656 109.89C81.5452 110.277 81.7384 110.663 81.5452 111.243C81.5452 111.436 81.352 111.629 81.352 112.016C80.9656 113.754 80.9656 113.754 79.0334 113.754C76.3283 113.754 73.4301 113.754 70.725 113.754C70.1454 113.754 69.9521 113.561 69.9521 112.982C69.9521 110.663 69.9521 108.151 69.9521 105.833C69.9521 105.446 69.9521 105.253 70.3386 105.06C72.2708 104.673 74.0097 103.707 75.5555 102.548Z" fill="#FCE7A6"/>
<path d="M65.1198 100.424C64.3469 100.424 63.3808 100.424 62.608 100.424C62.2215 100.424 62.0283 100.231 62.0283 99.8442C62.0283 98.2985 62.0283 96.5595 62.0283 95.0138C62.0283 93.468 63.1876 92.502 64.7334 92.502C66.0859 92.502 67.2452 93.6613 67.2452 95.0138C67.2452 95.207 67.2452 95.207 67.2452 95.4002C67.2452 96.3663 67.2452 96.5595 68.4045 96.5595C68.9842 96.5595 69.5638 96.7527 69.9503 97.3324C70.1435 97.9121 70.1435 98.4917 69.5638 99.0714C68.791 100.231 67.8249 100.617 66.4723 100.424C66.0859 100.424 65.5062 100.424 65.1198 100.424Z" fill="#EECFB3"/>
<path d="M70.1449 102.356C70.5314 101.97 70.9178 101.39 71.3042 101.004C73.4296 98.8783 72.85 95.5936 70.1449 94.241C69.9517 94.0478 69.7585 94.0478 69.5653 93.6614C69.3721 92.6953 68.7924 91.9224 68.0195 91.3428C71.3042 91.3428 74.3957 91.3428 77.4872 91.3428C77.4872 91.536 77.1008 91.7292 77.1008 91.9224C75.7482 93.275 75.1686 94.8207 75.1686 96.5597C75.1686 96.9461 75.1686 97.3325 75.1686 97.719C75.555 99.0715 74.7822 100.038 73.6229 100.617C72.6568 101.39 71.4975 101.97 70.1449 102.356Z" fill="#6AC5AB"/>
<path d="M85.9888 113.755H85.7956C85.2159 113.755 84.0566 114.141 83.8634 113.562C83.477 112.982 84.0566 112.016 84.2498 111.436C84.2498 111.05 84.443 111.05 84.8295 111.05C85.6024 111.05 86.3752 111.05 87.1481 111.05C87.3413 111.05 87.5345 111.05 87.7277 111.243C87.921 111.823 88.1142 112.596 88.3074 113.175C88.3074 113.562 88.3074 113.562 87.921 113.562C87.1481 113.755 86.5684 113.755 85.9888 113.755Z" fill="#3BADD7"/>
<path d="M59.3251 101.195C57.3929 100.229 57.3929 100.229 59.3251 98.4902C59.5183 99.0699 59.5183 100.229 59.3251 101.195Z" fill="#68C5AA"/>
<path d="M100.478 101.775C100.478 98.1034 100.478 94.4323 100.478 90.7612C100.478 90.1815 100.672 89.9883 101.251 89.9883C103.183 89.9883 103.183 89.9883 103.183 91.9205C103.183 98.1034 103.183 104.286 103.183 110.469C103.183 111.242 103.377 111.242 103.956 111.242C105.695 111.242 105.695 111.242 105.695 109.31C105.695 104.866 105.695 100.422 105.695 95.978C105.695 95.3984 105.695 95.2052 106.468 95.2052C108.4 95.2052 108.4 95.2052 108.4 97.1373C108.4 101.581 108.4 106.025 108.4 110.469C108.4 111.049 108.594 111.242 109.173 111.242C111.105 111.242 111.105 111.242 111.105 109.31C111.105 106.605 111.105 103.9 111.105 101.195C111.105 100.615 111.299 100.615 111.685 100.615C113.617 100.615 113.617 100.615 113.617 102.547C113.617 105.252 113.617 107.764 113.617 110.469C113.617 111.049 113.81 111.242 114.39 111.242C116.322 111.242 116.322 111.242 116.322 109.31C116.322 104.093 116.322 98.6831 116.322 93.4662C116.322 92.8866 116.322 92.5001 117.095 92.5001C119.027 92.5001 119.027 92.5001 119.027 94.2391C119.027 99.6492 119.027 104.866 119.027 110.276C119.027 110.856 119.221 111.049 119.8 111.049C121.732 111.049 121.732 111.049 121.732 112.981C121.732 113.561 121.539 113.754 120.959 113.754C114.39 113.754 107.627 113.754 101.058 113.754C100.478 113.754 100.285 113.561 100.285 112.981C100.478 109.31 100.478 105.446 100.478 101.775Z" fill="#010101"/>
<path d="M111.106 76.6582C107.822 76.6582 104.537 76.6582 101.252 76.6582C100.673 76.6582 100.479 76.465 100.479 75.8853C100.479 73.9531 100.479 73.9531 102.412 73.9531C108.595 73.9531 114.778 73.9531 120.961 73.9531C121.54 73.9531 121.733 74.1463 121.733 74.726C121.733 76.6582 121.733 76.6582 119.801 76.6582C116.903 76.6582 114.005 76.6582 111.106 76.6582Z" fill="#010101"/>
<path d="M111.299 84.5801C114.584 84.5801 117.868 84.5801 121.153 84.5801C121.733 84.5801 121.926 84.7733 121.926 85.353C121.926 87.2851 121.926 87.2851 119.994 87.2851C113.811 87.2851 107.628 87.2851 101.445 87.2851C100.865 87.2851 100.672 87.0919 100.672 86.5123C100.672 84.5801 100.672 84.5801 102.604 84.5801C105.309 84.5801 108.401 84.5801 111.299 84.5801Z" fill="#010101"/>
<path d="M113.812 81.874C111.493 81.874 108.981 81.874 106.663 81.874C106.083 81.874 105.89 81.6808 105.89 81.1011C105.89 79.1689 105.89 79.1689 107.822 79.1689C112.266 79.1689 116.71 79.1689 121.154 79.1689C121.734 79.1689 121.927 79.3622 121.927 79.9418C121.927 81.874 121.927 81.874 119.995 81.874C117.869 81.874 115.744 81.874 113.812 81.874Z" fill="#010101"/>
<path d="M102.024 81.8732C100.672 81.8732 100.672 81.8732 100.672 80.5206C100.672 79.3613 100.672 79.3613 102.024 79.3613C103.377 79.3613 103.377 79.3613 103.377 80.7139C103.184 81.8732 103.184 81.8732 102.024 81.8732Z" fill="#010101"/>
<path d="M109.754 58.1074C113.425 58.1074 117.29 58.1074 120.961 58.1074C121.54 58.1074 121.734 58.3006 121.734 58.8803C121.734 61.0057 121.734 63.1311 121.734 65.2565C121.734 65.8361 121.734 66.0294 120.961 66.0294C113.425 66.0294 105.89 66.0294 98.3543 66.0294C97.7746 66.0294 97.5814 65.8361 97.7746 65.2565C97.7746 63.1311 97.7746 60.8125 97.7746 58.6871C97.7746 58.1074 97.9678 58.1074 98.5475 58.1074C102.412 58.1074 106.083 58.1074 109.754 58.1074ZM109.754 63.3243C112.266 63.3243 114.778 63.3243 117.29 63.3243C119.222 63.3243 119.222 63.3243 119.222 61.3921C119.222 60.8125 119.029 60.6193 118.449 60.6193C113.232 60.6193 107.822 60.6193 102.605 60.6193C100.673 60.6193 100.673 60.6193 100.673 62.5514C100.673 63.1311 100.866 63.3243 101.446 63.3243C104.151 63.3243 106.856 63.3243 109.754 63.3243Z" fill="#010101"/>
<path d="M58.164 62.165C58.164 63.3243 58.164 64.4836 58.164 65.6429C58.164 66.0294 58.164 66.2226 57.5843 66.2226C55.2657 66.2226 52.9471 66.2226 50.6285 66.2226C50.242 66.2226 50.0488 66.2226 50.0488 65.6429C50.0488 63.3243 50.0488 61.0057 50.0488 58.6871C50.0488 58.3006 50.0488 58.1074 50.6285 58.1074C52.9471 58.1074 55.2657 58.1074 57.5843 58.1074C57.9708 58.1074 58.164 58.3006 58.164 58.6871C58.164 59.8464 58.164 61.0057 58.164 62.165ZM52.7539 61.9718C52.7539 63.3243 52.7539 63.3243 54.1064 63.3243C55.2657 63.3243 55.2657 63.3243 55.2657 62.165C55.2657 60.8125 55.2657 60.8125 53.9132 60.8125C52.7539 60.6193 52.7539 60.6193 52.7539 61.9718Z" fill="#010101"/>
<path d="M68.7909 62.165C68.7909 63.3243 68.7909 64.4836 68.7909 65.6429C68.7909 66.0294 68.5977 66.2226 68.2113 66.2226C65.8927 66.2226 63.574 66.2226 61.2554 66.2226C60.869 66.2226 60.6758 66.0294 60.6758 65.6429C60.6758 63.3243 60.6758 61.0057 60.6758 58.6871C60.6758 58.3006 60.869 58.1074 61.2554 58.1074C63.574 58.1074 65.8927 58.1074 68.2113 58.1074C68.5977 58.1074 68.7909 58.3006 68.7909 58.6871C68.7909 59.6532 68.7909 61.0057 68.7909 62.165ZM66.0859 61.9718C66.0859 60.6193 66.0859 60.6193 64.7334 60.6193C63.3808 60.6193 63.3808 60.6193 63.3808 61.9718C63.3808 63.3243 63.3808 63.3243 64.7334 63.3243C66.0859 63.3243 66.0859 63.3243 66.0859 61.9718Z" fill="#010101"/>
<path d="M75.3603 58.1074C76.5196 58.1074 77.4857 58.1074 78.645 58.1074C79.0315 58.1074 79.4179 58.1074 79.2247 58.6871C79.2247 61.0057 79.2247 63.1311 79.2247 65.4497C79.2247 66.0294 79.0315 66.0294 78.645 66.0294C76.3264 66.0294 74.201 66.0294 71.8824 66.0294C71.3027 66.0294 71.3027 65.8361 71.3027 65.4497C71.3027 63.1311 71.3027 61.0057 71.3027 58.6871C71.3027 58.1074 71.496 58.1074 71.8824 58.1074C73.0417 58.1074 74.201 58.1074 75.3603 58.1074ZM75.3603 63.3243C76.7128 63.3243 76.7128 63.3243 76.7128 61.9718C76.7128 60.6193 76.7128 60.6193 75.3603 60.6193C74.0078 60.6193 74.0078 60.6193 74.0078 61.9718C74.0078 63.3243 74.0078 63.3243 75.3603 63.3243Z" fill="#010101"/>
<path d="M109.754 63.3261C106.856 63.3261 104.151 63.3261 101.252 63.3261C100.673 63.3261 100.479 63.1329 100.479 62.5533C100.479 60.6211 100.479 60.6211 102.412 60.6211C107.629 60.6211 113.039 60.6211 118.256 60.6211C118.835 60.6211 119.028 60.8143 119.028 61.394C119.028 63.3261 119.028 63.3261 117.096 63.3261C114.778 63.3261 112.266 63.3261 109.754 63.3261Z" fill="#E6E8EB"/>
<path d="M52.7549 61.9728C52.7549 60.8135 52.7549 60.8135 53.9142 60.8135C55.2667 60.8135 55.2667 60.8135 55.2667 62.166C55.2667 63.3253 55.2667 63.3253 54.1074 63.3253C52.7549 63.3253 52.7549 63.3253 52.7549 61.9728Z" fill="#E6E8EB"/>
<path d="M66.0869 61.9736C66.0869 63.3261 66.0869 63.3261 64.7344 63.3261C63.3818 63.3261 63.3818 63.3261 63.3818 61.9736C63.3818 60.6211 63.3818 60.6211 64.7344 60.6211C66.0869 60.6211 66.0869 60.6211 66.0869 61.9736Z" fill="#E6E8EB"/>
<path d="M75.3613 63.3261C74.0088 63.3261 74.0088 63.3261 74.0088 61.9736C74.0088 60.6211 74.0088 60.6211 75.3613 60.6211C76.7138 60.6211 76.7138 60.6211 76.7138 61.9736C76.7138 63.3261 76.7138 63.3261 75.3613 63.3261Z" fill="#E6E8EB"/>
<path d="M74.202 35.4999C74.202 37.4321 74.202 39.1711 74.202 41.1032C74.202 42.8422 73.4291 43.6151 71.8834 43.6151C68.019 43.6151 64.1547 43.6151 60.2903 43.6151C58.7445 43.6151 57.9717 42.8422 57.9717 41.2965C57.9717 37.4321 57.9717 33.5677 57.9717 29.7034C57.9717 27.9644 58.7445 27.3848 60.4835 27.3848C64.3479 27.3848 68.2122 27.3848 72.0766 27.3848C73.8155 27.3848 74.5884 28.1576 74.5884 29.8966C74.202 31.6356 74.202 33.5677 74.202 35.4999ZM65.8936 39.5575C67.0529 39.5575 68.2122 39.5575 69.1783 39.5575C69.9512 39.5575 70.1444 39.3643 69.9512 38.5914C69.9512 36.466 69.9512 34.3406 69.9512 32.2152C69.9512 31.4423 69.758 31.2491 68.9851 31.2491C66.8597 31.2491 64.7343 31.2491 62.6089 31.2491C61.836 31.2491 61.6428 31.4423 61.6428 32.2152C61.6428 34.3406 61.6428 36.466 61.6428 38.5914C61.6428 39.3643 61.836 39.7507 62.6089 39.5575C63.9614 39.3643 64.9275 39.5575 65.8936 39.5575Z" fill="#020202"/>
<path d="M76.3283 37.4346C77.6809 37.4346 78.8402 37.4346 80.1927 37.4346C81.5452 37.4346 82.3181 38.2074 82.3181 39.56C82.3181 42.265 82.3181 44.9701 82.3181 47.6751C82.3181 49.0276 81.5452 49.8005 80.1927 49.8005C77.4876 49.8005 74.7826 49.8005 72.0775 49.8005C70.725 49.8005 69.9521 49.0276 69.9521 47.6751C69.9521 44.9701 69.9521 42.265 69.9521 39.56C69.9521 38.2074 70.725 37.4346 72.0775 37.4346C73.6233 37.4346 74.9758 37.4346 76.3283 37.4346ZM78.2605 43.6175C78.2605 41.4921 78.2605 41.4921 76.3283 41.4921C74.2029 41.4921 74.2029 41.4921 74.2029 43.6175C74.2029 45.7429 74.2029 45.7429 76.3283 45.7429C78.2605 45.7429 78.2605 45.7429 78.2605 43.6175Z" fill="#020202"/>
<path d="M65.8935 39.5574C64.9274 39.5574 63.7681 39.5574 62.802 39.5574C62.0292 39.5574 61.8359 39.3642 61.8359 38.5913C61.8359 36.4659 61.8359 34.3405 61.8359 32.2151C61.8359 31.4422 62.0292 31.249 62.802 31.249C64.9274 31.249 67.0528 31.249 69.1782 31.249C69.9511 31.249 70.1443 31.4422 70.1443 32.2151C70.1443 34.3405 70.1443 36.4659 70.1443 38.5913C70.1443 39.171 69.9511 39.5574 69.3714 39.5574C68.2121 39.5574 67.0528 39.5574 65.8935 39.5574Z" fill="#E37373"/>
<path d="M78.2588 43.6174C78.2588 45.5496 78.2588 45.5496 76.3266 45.5496C74.2012 45.5496 74.2012 45.5496 74.2012 43.4242C74.2012 41.2988 74.2012 41.2988 76.3266 41.2988C78.2588 41.492 78.2588 41.492 78.2588 43.6174Z" fill="#E37373"/>
<path d="M20.4863 65.6452C20.4863 64.0994 20.4863 62.3605 20.4863 60.8147C20.4863 59.269 21.2592 58.4961 22.8049 58.4961C26.0896 58.4961 29.3744 58.4961 32.6591 58.4961C34.0116 58.4961 34.7845 59.269 34.7845 60.8147C34.7845 64.0994 34.7845 67.3841 34.7845 70.6688C34.7845 72.0213 34.0116 72.9874 32.6591 72.9874C29.3744 72.9874 25.8964 72.9874 22.6117 72.9874C21.2592 72.9874 20.4863 72.2146 20.4863 70.862C20.4863 68.9299 20.4863 67.1909 20.4863 65.6452ZM24.7371 65.4519C24.7371 66.418 24.3507 67.7706 24.9303 68.3502C25.51 69.1231 26.8625 68.5434 28.0218 68.5434C30.9201 68.5434 30.9201 68.5434 30.9201 65.6452C30.9201 64.6791 31.3065 63.3265 30.7269 62.7469C30.1472 61.974 28.7947 62.5537 27.6354 62.5537C24.5439 62.5537 24.5439 62.5537 24.7371 65.4519Z" fill="#020202"/>
<path d="M26.6693 95.3992C24.9303 95.3992 23.1914 95.3992 21.4524 95.3992C20.6795 95.3992 20.4863 95.2059 20.4863 94.4331C20.4863 90.9551 20.4863 87.4772 20.4863 83.9993C20.4863 83.2264 20.6795 83.0332 21.4524 83.0332C24.9303 83.0332 28.4083 83.0332 31.8862 83.0332C32.6591 83.0332 32.8523 83.2264 32.8523 83.9993C32.8523 87.4772 32.8523 90.9551 32.8523 94.4331C32.8523 95.2059 32.6591 95.3992 31.8862 95.3992C30.1472 95.3992 28.4083 95.3992 26.6693 95.3992Z" fill="#95CF9A"/>
<path d="M16.2363 103.513C15.077 103.513 14.1109 103.513 12.9516 103.513C12.1787 103.513 12.1787 103.32 12.1787 102.74C12.1787 100.615 12.1787 98.2961 12.1787 96.1707C12.1787 95.3978 12.3719 95.2046 12.9516 95.3978C13.338 95.3978 13.5312 95.3978 13.9177 95.3978C14.6905 95.3978 15.4634 95.2046 16.0431 95.591C16.6227 95.9775 16.2363 96.9436 16.2363 97.7164C16.4295 99.0689 17.2024 99.8418 18.7481 99.6486C20.1006 99.4554 20.4871 100.035 20.2939 101.388C20.1006 103.899 20.2939 103.899 17.782 103.899C17.3956 103.513 16.8159 103.513 16.2363 103.513Z" fill="#A6D6AD"/>
<path d="M24.7375 65.4493C24.7375 62.551 24.7375 62.3578 27.6358 62.551C28.6019 62.551 30.1476 62.1646 30.7273 62.7442C31.3069 63.3239 30.9205 64.6764 30.9205 65.6425C30.9205 68.5407 30.9205 68.734 28.0222 68.5407C27.0561 68.5407 25.5104 68.9272 24.9307 68.3475C24.3511 67.7679 24.7375 66.4153 24.7375 65.4493Z" fill="#A6D6AD"/>
<path d="M26.6702 78.9766C29.3752 78.9766 31.887 78.9766 34.5921 78.9766C36.3311 78.9766 37.1039 79.7494 37.1039 81.4884C37.1039 86.7053 37.1039 91.9222 37.1039 96.9458C37.1039 98.6848 36.3311 99.4577 34.5921 99.4577C31.6938 99.4577 28.6023 99.4577 25.7041 99.4577C24.9312 99.4577 24.738 99.6509 24.738 100.424C24.738 101.969 24.738 103.708 24.738 105.254C24.738 106.8 23.9651 107.573 22.4194 107.573C18.555 107.573 14.4974 107.573 10.6331 107.573C9.08732 107.573 8.31445 106.8 8.31445 105.254C8.31445 101.39 8.31445 97.3323 8.31445 93.4679C8.31445 91.9222 9.08732 91.1493 10.6331 91.1493C12.1788 91.1493 13.9178 91.1493 15.4635 91.1493C16.2364 91.1493 16.6228 90.9561 16.4296 90.1832C16.4296 87.2849 16.4296 84.3867 16.4296 81.4884C16.4296 79.5562 17.2025 78.9766 18.9414 78.9766C21.4533 78.9766 23.9651 78.9766 26.6702 78.9766ZM26.6702 95.4001C28.4091 95.4001 30.1481 95.4001 31.887 95.4001C32.6599 95.4001 32.8531 95.2069 32.8531 94.434C32.8531 90.9561 32.8531 87.4782 32.8531 84.0002C32.8531 83.2274 32.6599 83.0341 31.887 83.0341C28.4091 83.0341 24.9312 83.0341 21.4533 83.0341C20.6804 83.0341 20.4872 83.2274 20.4872 84.0002C20.4872 87.4782 20.4872 90.9561 20.4872 94.434C20.4872 95.2069 20.6804 95.4001 21.4533 95.4001C23.1922 95.4001 24.9312 95.4001 26.6702 95.4001ZM16.2364 103.515C16.816 103.515 17.3957 103.515 17.9753 103.515C20.4872 103.515 20.4872 103.515 20.4872 101.003C20.4872 99.6509 20.1007 99.2644 18.9414 99.2644C17.3957 99.4577 16.6228 98.6848 16.4296 97.3323C16.4296 96.5594 16.816 95.5933 16.2364 95.2069C15.6567 94.8204 14.8839 95.2069 14.111 95.0137C13.7246 95.0137 13.5313 95.0137 13.1449 95.0137C12.5652 95.0137 12.1788 95.2069 12.372 95.7865C12.372 97.9119 12.372 100.231 12.372 102.356C12.372 102.936 12.5652 103.322 13.1449 103.129C14.111 103.515 15.2703 103.515 16.2364 103.515Z" fill="#020202"/>
<path d="M164.628 110.855C164.628 112.594 164.628 114.526 164.628 116.265C164.628 116.845 164.434 117.038 163.855 117.038C160.184 117.038 156.706 117.038 153.035 117.038C152.455 117.038 152.262 116.845 152.262 116.265C152.262 112.594 152.262 109.116 152.262 105.445C152.262 104.865 152.455 104.672 153.035 104.672C156.706 104.672 160.184 104.672 163.855 104.672C164.434 104.672 164.628 104.865 164.628 105.445C164.628 107.377 164.628 109.116 164.628 110.855Z" fill="#FDE08B"/>
<path d="M144.146 100.616C144.146 99.4569 144.146 98.2976 144.146 97.3315C144.146 96.7518 144.34 96.5586 144.919 96.5586C147.238 96.5586 149.363 96.5586 151.682 96.5586C152.262 96.5586 152.455 96.7518 152.455 97.3315C152.455 97.7179 152.455 98.1043 152.455 98.2976C152.455 99.0704 152.648 99.8433 152.455 100.423C152.068 101.003 151.102 100.616 150.329 100.616C148.977 100.809 148.204 101.582 148.397 103.128C148.59 104.481 148.011 104.867 146.852 104.867C144.34 104.674 144.34 104.867 144.34 102.355C144.146 101.775 144.146 101.196 144.146 100.616Z" fill="#F2D684"/>
<path d="M149.17 123.223C146.078 123.223 146.078 123.223 146.078 120.132C146.078 119.552 146.078 118.779 146.078 118.2C146.078 117.04 146.658 116.654 147.817 117.04C148.01 117.04 148.204 117.234 148.204 117.427C148.204 117.62 148.204 117.813 148.204 118.007C148.204 120.518 148.783 121.098 151.102 121.098C151.875 121.098 152.261 121.291 152.261 122.257C152.261 123.223 151.875 123.223 151.102 123.223C150.522 123.223 149.749 123.223 149.17 123.223Z" fill="#F2D684"/>
<path d="M148.205 92.5009C150.137 92.5009 151.876 92.5009 153.808 92.5009C155.547 92.5009 156.32 93.2738 156.32 95.0127C156.32 96.5585 156.32 97.911 156.32 99.4568C156.32 100.423 156.513 101.003 157.673 100.809C160.378 100.616 163.276 100.809 165.981 100.809C167.913 100.809 168.686 101.582 168.686 103.321C168.686 108.538 168.686 113.562 168.686 118.779C168.686 120.518 167.913 121.29 166.174 121.29C163.276 121.29 160.185 121.29 157.286 121.29C156.513 121.29 156.32 121.484 156.32 122.256C156.32 123.223 156.32 124.382 156.32 125.348C156.32 126.7 155.547 127.473 154.195 127.473C150.91 127.473 147.432 127.473 144.147 127.473C142.795 127.473 142.022 126.7 142.022 125.348C142.022 122.063 142.022 118.585 142.022 115.301C142.022 113.948 142.795 113.175 144.341 113.175C145.307 113.175 146.466 113.175 147.432 113.175C148.205 113.175 148.205 112.982 148.205 112.209C148.205 108.924 148.205 108.924 145.114 108.924C144.147 108.924 143.181 108.924 142.215 108.924C140.863 108.924 140.09 108.152 140.09 106.799C140.09 102.741 140.09 98.6839 140.09 94.6263C140.09 93.2738 140.863 92.5009 142.408 92.5009C144.147 92.3077 146.273 92.5009 148.205 92.5009ZM164.629 110.857C164.629 109.118 164.629 107.185 164.629 105.447C164.629 104.867 164.435 104.674 163.856 104.674C160.185 104.674 156.707 104.674 153.035 104.674C152.456 104.674 152.263 104.867 152.263 105.447C152.263 109.118 152.263 112.596 152.263 116.267C152.263 116.846 152.456 117.04 153.035 117.04C156.707 117.04 160.185 117.04 163.856 117.04C164.435 117.04 164.629 116.846 164.629 116.267C164.629 114.528 164.629 112.789 164.629 110.857ZM144.147 100.616C144.147 101.196 144.147 101.775 144.147 102.355C144.147 104.867 144.147 104.867 146.659 104.867C148.012 104.867 148.398 104.48 148.205 103.128C148.012 101.582 148.785 100.809 150.137 100.616C150.91 100.616 151.876 101.002 152.263 100.423C152.649 99.8432 152.263 99.0703 152.263 98.2975C152.263 97.911 152.263 97.5246 152.263 97.3314C152.263 96.7517 152.069 96.5585 151.49 96.5585C149.171 96.5585 147.046 96.5585 144.727 96.5585C144.147 96.5585 143.954 96.7517 143.954 97.3314C144.147 98.2975 144.147 99.4568 144.147 100.616ZM149.171 123.223C149.944 123.223 150.524 123.223 151.296 123.223C152.069 123.223 152.456 123.223 152.456 122.256C152.456 121.29 152.069 121.097 151.296 121.097C148.785 121.097 148.398 120.518 148.398 118.006C148.398 117.812 148.398 117.619 148.398 117.426C148.398 117.233 148.398 117.04 148.012 117.04C146.852 116.653 146.273 117.04 146.273 118.199C146.273 118.779 146.273 119.551 146.273 120.131C146.08 123.223 146.08 123.223 149.171 123.223Z" fill="#020202"/>
<path d="M96.0361 84.9654C96.0361 82.4535 96.0361 34.3423 96.0361 31.8304C96.0361 30.4779 96.4226 29.1254 97.5819 28.1593C98.548 27.1932 99.9005 27 101.253 27C113.039 27 125.019 27 136.805 27C142.408 27 143.375 28.739 143.375 32.9898C143.375 37.2405 143.375 43.2303 143.375 43.2303C143.375 44.0032 143.568 44.3896 144.341 44.1964C145.5 44.1964 146.659 44.1964 147.819 44.1964C150.33 44.1964 152.842 45.7421 152.842 48.0608C152.842 48.0608 152.649 87.284 152.456 87.6704C151.683 89.2162 150.33 90.3755 148.398 90.5687C147.819 90.5687 147.432 90.5687 146.852 90.5687C131.975 90.5687 116.904 90.5687 102.026 90.5687C98.7412 90.3755 96.0361 89.6026 96.0361 84.9654ZM101.833 58.6877C101.833 66.9961 101.833 75.4977 101.833 83.8061C101.833 84.5789 102.026 84.7722 102.799 84.7722C109.561 84.7722 116.131 84.7722 122.893 84.7722C124.246 84.7722 124.246 84.7722 124.246 83.4196C124.246 82.0671 124.439 82.2603 123.087 82.2603C122.507 82.2603 121.927 82.2603 121.348 82.2603C116.71 82.2603 112.073 82.2603 107.436 82.2603C105.504 82.2603 104.538 81.2942 104.538 79.3621C104.538 77.8163 104.538 76.2706 104.538 74.7248C104.538 72.7926 105.504 71.8266 107.436 71.8266C110.914 71.8266 114.199 71.8266 117.677 71.8266C119.609 71.8266 121.541 71.8266 123.473 71.8266C124.246 71.8266 124.439 71.6333 124.246 71.0537C124.246 70.8605 124.246 70.6672 124.246 70.474C124.246 69.1215 124.439 69.3147 122.893 69.3147C117.677 69.3147 112.653 69.3147 107.436 69.3147C105.117 69.3147 104.345 68.5418 104.345 66.2232C104.345 64.8707 104.345 63.325 104.345 61.9724C104.345 59.6538 105.117 58.881 107.436 58.881C112.46 58.881 117.29 58.881 122.314 58.881C124.246 58.881 124.246 58.881 124.246 56.9488C124.246 56.3691 124.053 56.1759 123.473 56.1759C122.121 56.1759 120.768 56.1759 119.415 56.1759C115.358 56.1759 111.3 56.1759 107.243 56.1759C105.311 56.1759 104.345 55.2098 104.345 53.2776C104.345 51.7319 104.345 50.3794 104.345 48.8336C104.345 46.515 105.117 45.7421 107.436 45.7421C113.233 45.7421 119.029 45.7421 124.826 45.7421C125.212 45.7421 125.792 45.7421 126.178 45.3557C127.144 44.5828 128.11 44.3896 129.27 44.3896C131.588 44.3896 134.1 44.3896 136.419 44.3896C137.192 44.3896 137.385 44.1964 137.385 43.4235C137.385 40.332 137.385 37.2405 137.385 33.9558C137.385 32.9898 137.192 32.9898 136.419 32.9898C125.212 32.9898 114.005 32.9898 102.799 32.9898C101.833 32.9898 101.833 33.183 101.833 33.9558C101.833 42.071 101.833 50.3794 101.833 58.6877ZM125.212 88.4433C125.019 88.0569 124.826 87.8636 124.632 87.4772C124.439 86.5111 123.666 86.3179 122.893 86.3179C115.744 86.3179 108.789 86.3179 101.639 86.3179C100.094 86.3179 99.7073 85.9315 99.7073 84.3857C99.7073 66.9961 99.7073 49.6065 99.7073 32.4101C99.7073 31.0576 100.094 30.6711 101.446 30.6711C113.426 30.6711 125.405 30.6711 137.385 30.6711C138.737 30.6711 139.317 31.0576 139.317 32.6033C139.317 36.0812 139.317 39.7524 139.317 43.2303C139.317 44.0032 139.703 44.0032 140.283 44.0032C140.863 44.0032 141.249 44.0032 141.249 43.2303C141.249 39.3659 141.249 35.5016 141.249 31.8304C141.249 29.8983 140.283 28.739 138.351 28.739C125.792 28.739 113.426 28.739 100.867 28.739C98.9344 28.739 97.9683 29.7051 97.9683 31.8304C97.9683 49.7997 97.9683 67.5758 97.9683 85.545C97.9683 87.4772 98.7412 88.2501 100.673 88.4433C101.06 88.4433 101.639 88.4433 102.026 88.4433C109.368 88.4433 116.904 88.4433 124.246 88.4433C124.439 88.4433 124.826 88.4433 125.212 88.4433ZM126.178 67.1893C126.178 73.1791 126.178 79.1688 126.178 85.1586C126.178 87.284 127.337 88.4433 129.27 88.4433C135.453 88.4433 141.829 88.4433 148.012 88.4433C149.944 88.4433 151.103 87.0908 151.103 84.9654C151.103 73.1791 151.103 61.1996 151.103 49.4133C151.103 47.0947 149.944 45.9354 147.625 45.9354C141.636 45.9354 135.839 45.9354 129.849 45.9354C127.337 45.9354 126.178 47.0947 126.178 49.6065C126.178 55.403 126.178 61.3928 126.178 67.1893ZM124.439 47.2879C124.246 47.2879 124.246 47.2879 124.053 47.2879C118.449 47.2879 112.653 47.2879 107.05 47.2879C106.277 47.2879 106.277 47.6743 106.277 48.254C106.277 49.7997 106.277 51.3455 106.277 52.8912C106.277 53.6641 106.663 54.0505 107.436 54.0505C112.846 54.0505 118.063 54.0505 123.473 54.0505C124.246 54.0505 124.246 53.8573 124.246 53.0844C124.246 51.1522 124.053 49.2201 124.439 47.2879ZM115.358 60.4267C112.653 60.4267 109.948 60.4267 107.243 60.4267C106.47 60.4267 106.277 60.6199 106.277 61.3928C106.277 62.9385 106.277 64.4843 106.277 66.2232C106.277 66.8029 106.47 67.1893 107.243 67.1893C112.653 67.1893 118.256 67.1893 123.666 67.1893C124.246 67.1893 124.439 66.9961 124.439 66.4165C124.439 64.6775 124.439 62.9385 124.439 61.1996C124.439 60.4267 124.246 60.4267 123.473 60.4267C120.768 60.4267 118.063 60.4267 115.358 60.4267ZM115.358 73.5655C112.653 73.5655 109.948 73.5655 107.243 73.5655C106.47 73.5655 106.277 73.7587 106.277 74.5316C106.277 76.0774 106.277 77.6231 106.277 79.1688C106.277 79.9417 106.47 80.3281 107.436 80.3281C112.846 80.3281 118.256 80.3281 123.473 80.3281C124.053 80.3281 124.246 80.1349 124.246 79.5553C124.246 77.8163 124.246 76.2706 124.246 74.5316C124.246 73.7587 124.053 73.5655 123.28 73.5655C120.768 73.5655 118.063 73.5655 115.358 73.5655Z" fill="#070808"/>
<path d="M101.833 58.6881C101.833 50.3797 101.833 42.0713 101.833 33.763C101.833 32.9901 102.026 32.7969 102.799 32.7969C114.006 32.7969 125.212 32.7969 136.419 32.7969C137.192 32.7969 137.578 32.9901 137.385 33.763C137.385 36.8545 137.385 39.9459 137.385 43.2306C137.385 44.0035 137.192 44.1967 136.419 44.1967C134.1 44.1967 131.589 44.1967 129.27 44.1967C128.111 44.1967 127.145 44.3899 126.178 45.1628C125.792 45.5493 125.406 45.5493 124.826 45.5493C119.029 45.5493 113.233 45.5493 107.436 45.5493C105.118 45.5493 104.345 46.3221 104.345 48.6407C104.345 50.1865 104.345 51.539 104.345 53.0848C104.345 55.0169 105.311 55.983 107.243 55.983C111.301 55.983 115.358 55.983 119.416 55.983C120.768 55.983 122.121 55.983 123.473 55.983C124.053 55.983 124.246 55.983 124.246 56.7559C124.246 58.6881 124.246 58.6881 122.314 58.6881C117.29 58.6881 112.46 58.6881 107.436 58.6881C105.118 58.6881 104.345 59.4609 104.345 61.7796C104.345 63.1321 104.345 64.6778 104.345 66.0304C104.345 68.349 105.118 69.1218 107.436 69.1218C112.653 69.1218 117.677 69.1218 122.894 69.1218C124.439 69.1218 124.246 68.9286 124.246 70.2811C124.246 70.4744 124.246 70.6676 124.246 70.8608C124.246 71.4405 124.053 71.8269 123.473 71.6337C121.541 71.6337 119.609 71.6337 117.677 71.6337C114.199 71.6337 110.914 71.6337 107.436 71.6337C105.504 71.6337 104.538 72.5998 104.538 74.5319C104.538 76.0777 104.538 77.6234 104.538 79.1692C104.538 81.1014 105.504 82.0674 107.436 82.0674C112.074 82.0674 116.711 82.0674 121.348 82.0674C121.928 82.0674 122.507 82.0674 123.087 82.0674C124.44 82.0674 124.246 81.8742 124.246 83.2267C124.246 84.5793 124.246 84.5793 122.894 84.5793C116.131 84.5793 109.562 84.5793 102.799 84.5793C102.026 84.5793 101.833 84.3861 101.833 83.6132C101.833 75.3048 101.833 66.9964 101.833 58.6881ZM106.857 37.0477C107.243 37.0477 107.63 37.0477 108.016 37.0477C108.596 37.0477 108.982 36.6612 108.982 36.0816C108.982 35.5019 108.596 35.1155 108.016 35.1155C107.243 35.1155 106.47 35.1155 105.697 35.1155C105.118 35.1155 104.924 35.5019 104.924 36.0816C104.924 36.6612 105.311 37.0477 105.891 37.0477C106.084 37.0477 106.47 37.0477 106.857 37.0477ZM120.189 35.1155C119.802 35.1155 119.416 35.1155 119.029 35.1155C118.45 35.1155 118.063 35.5019 118.063 36.0816C118.063 36.6612 118.45 37.0477 119.029 37.0477C119.802 37.0477 120.575 37.0477 121.155 37.0477C121.734 37.0477 122.121 36.6612 122.121 36.0816C122.121 35.5019 121.734 35.1155 121.155 35.1155C120.768 35.1155 120.382 35.1155 120.189 35.1155ZM113.426 37.0477C113.813 37.0477 114.199 37.0477 114.585 37.0477C115.165 37.0477 115.551 36.6612 115.551 36.0816C115.551 35.5019 115.165 35.1155 114.779 35.1155C114.006 35.1155 113.233 35.1155 112.267 35.1155C111.687 35.1155 111.494 35.5019 111.494 36.0816C111.494 36.6612 111.88 36.8545 112.46 37.0477C112.653 37.0477 113.04 37.0477 113.426 37.0477Z" fill="#EBF2FA"/>
<path d="M125.211 88.4436C124.825 88.4436 124.438 88.4436 124.052 88.4436C116.71 88.4436 109.174 88.4436 101.832 88.4436C101.446 88.4436 100.866 88.4436 100.479 88.4436C98.5473 88.2504 97.7744 87.4775 97.7744 85.5453C97.7744 67.5761 97.7744 49.8 97.7744 31.8307C97.7744 29.8986 98.7405 28.7393 100.673 28.7393C113.232 28.7393 125.598 28.7393 138.157 28.7393C140.089 28.7393 141.055 29.7053 141.055 31.8307C141.055 35.6951 141.055 39.5595 141.055 43.2306C141.055 44.0035 140.669 44.0035 140.089 44.0035C139.509 44.0035 139.123 44.0035 139.123 43.2306C139.123 39.7527 139.123 36.0815 139.123 32.6036C139.123 31.0579 138.737 30.6714 137.191 30.6714C125.211 30.6714 113.232 30.6714 101.252 30.6714C99.8998 30.6714 99.5134 31.0579 99.5134 32.4104C99.5134 49.8 99.5134 67.1896 99.5134 84.386C99.5134 85.9318 99.8998 86.3182 101.446 86.3182C108.595 86.3182 115.55 86.3182 122.7 86.3182C123.666 86.3182 124.245 86.3182 124.438 87.4775C124.825 87.8639 125.018 88.0572 125.211 88.4436Z" fill="#5188C7"/>
<path d="M126.178 67.1905C126.178 61.394 126.178 55.4042 126.178 49.6077C126.178 47.0958 127.337 45.9365 129.849 45.9365C135.839 45.9365 141.635 45.9365 147.625 45.9365C149.944 45.9365 151.103 47.0958 151.103 49.4144C151.103 61.2007 151.103 73.1803 151.103 84.9665C151.103 87.0919 149.944 88.4445 148.011 88.4445C141.828 88.4445 135.452 88.4445 129.269 88.4445C127.337 88.4445 126.178 87.2852 126.178 85.1598C126.178 79.17 126.178 73.1802 126.178 67.1905ZM149.364 67.1905C149.364 61.5872 149.364 55.7906 149.364 50.1873C149.364 48.6416 148.591 47.8687 147.045 47.6755C145.886 47.6755 144.727 47.6755 143.374 47.6755C142.215 47.6755 141.249 48.0619 140.669 49.2212C140.283 50.1873 139.51 50.5738 138.544 50.5738C137.578 50.5738 136.805 50.1873 136.418 49.2212C135.839 48.0619 135.066 47.6755 133.906 47.6755C132.747 47.6755 131.781 47.6755 130.622 47.6755C128.69 47.6755 127.917 48.4484 127.917 50.3805C127.917 61.5872 127.917 72.7938 127.917 84.0005C127.917 85.9326 128.69 86.7055 130.622 86.7055C136.032 86.7055 141.442 86.7055 146.852 86.7055C148.784 86.7055 149.557 85.9326 149.557 84.0005C149.364 78.3971 149.364 72.7938 149.364 67.1905Z" fill="#568DCA"/>
<path d="M124.439 47.2881C124.052 49.2203 124.246 51.1524 124.246 53.0846C124.246 53.6643 124.052 54.0507 123.473 54.0507C118.063 54.0507 112.846 54.0507 107.436 54.0507C106.663 54.0507 106.276 53.8575 106.276 52.8914C106.276 51.3457 106.276 49.7999 106.276 48.2542C106.276 47.6745 106.47 47.2881 107.049 47.2881C112.653 47.2881 118.449 47.2881 124.052 47.2881C124.246 47.2881 124.246 47.2881 124.439 47.2881Z" fill="#72D0F1"/>
<path d="M115.356 60.4277C118.062 60.4277 120.767 60.4277 123.278 60.4277C123.858 60.4277 124.245 60.621 124.245 61.2006C124.245 62.9396 124.245 64.6785 124.245 66.4175C124.245 66.9971 124.051 67.1904 123.472 67.1904C118.062 67.1904 112.458 67.1904 107.048 67.1904C106.468 67.1904 106.082 66.9971 106.082 66.2243C106.082 64.6785 106.082 63.1328 106.082 61.3938C106.082 60.621 106.275 60.4277 107.048 60.4277C109.946 60.4277 112.651 60.4277 115.356 60.4277Z" fill="#EFC34B"/>
<path d="M115.358 73.5645C118.063 73.5645 120.574 73.5645 123.28 73.5645C124.052 73.5645 124.246 73.7577 124.246 74.5305C124.246 76.2695 124.246 77.8152 124.246 79.5542C124.246 80.1339 124.052 80.3271 123.473 80.3271C118.063 80.3271 112.653 80.3271 107.436 80.3271C106.663 80.3271 106.276 80.1339 106.276 79.1678C106.276 77.622 106.276 76.0763 106.276 74.5305C106.276 73.7577 106.47 73.5645 107.242 73.5645C109.948 73.5645 112.653 73.5645 115.358 73.5645Z" fill="#F1657C"/>
<path d="M149.363 67.1909C149.363 72.7943 149.363 78.3976 149.363 84.1941C149.363 86.1263 148.59 86.8992 146.658 86.8992C141.248 86.8992 135.838 86.8992 130.428 86.8992C128.496 86.8992 127.723 86.1263 127.723 84.1941C127.723 72.9875 127.723 61.7808 127.723 50.5742C127.723 48.642 128.496 47.8691 130.428 47.8691C131.587 47.8691 132.553 47.8691 133.712 47.8691C134.872 47.8691 135.838 48.2556 136.224 49.4149C136.611 50.381 137.384 50.7674 138.35 50.7674C139.316 50.7674 140.089 50.381 140.475 49.4149C141.055 48.2556 141.828 47.8691 143.18 47.8691C144.339 47.8691 145.499 47.8691 146.851 47.8691C148.397 47.8691 149.17 48.642 149.17 50.381C149.363 55.7911 149.363 61.5876 149.363 67.1909ZM147.431 67.1909C147.431 61.5876 147.431 55.9843 147.431 50.5742C147.431 49.6081 147.238 49.4149 146.272 49.6081C145.305 49.6081 144.339 49.6081 143.373 49.6081C142.794 49.6081 142.6 49.8013 142.407 50.1878C141.634 51.7335 140.282 52.5064 138.543 52.5064C136.804 52.5064 135.451 51.7335 134.679 50.1878C134.485 49.8013 134.099 49.6081 133.712 49.6081C132.746 49.6081 131.587 49.6081 130.621 49.6081C129.848 49.6081 129.655 49.8013 129.655 50.5742C129.655 61.7808 129.655 72.9875 129.655 84.1941C129.655 84.967 129.848 85.1602 130.621 85.1602C136.031 85.1602 141.248 85.1602 146.658 85.1602C147.431 85.1602 147.624 84.967 147.624 84.1941C147.431 78.3976 147.431 72.7943 147.431 67.1909Z" fill="#070808"/>
<path d="M147.432 67.189C147.432 72.7923 147.432 78.3956 147.432 83.8057C147.432 84.5786 147.239 84.7718 146.466 84.7718C141.056 84.7718 135.839 84.7718 130.429 84.7718C129.656 84.7718 129.463 84.5786 129.463 83.8057C129.463 72.5991 129.463 61.3925 129.463 50.1858C129.463 49.4129 129.656 49.2197 130.429 49.2197C131.395 49.2197 132.554 49.2197 133.52 49.2197C134.1 49.2197 134.293 49.4129 134.487 49.7994C135.259 51.3451 136.612 52.118 138.351 52.118C140.09 52.118 141.442 51.3451 142.215 49.7994C142.408 49.2197 142.795 49.2197 143.181 49.2197C144.147 49.2197 145.114 49.2197 146.08 49.2197C146.853 49.2197 147.239 49.4129 147.239 50.1858C147.432 56.1756 147.432 61.7789 147.432 67.189ZM138.544 76.077C136.805 76.077 134.873 76.077 133.134 76.077C131.782 76.077 131.009 76.8499 131.009 78.2024C131.009 78.9753 131.009 79.9414 131.009 80.7142C131.009 82.0668 131.782 82.8396 133.134 82.8396C136.805 82.8396 140.476 82.8396 144.147 82.8396C145.5 82.8396 146.08 81.8736 146.08 80.7142C146.08 79.9414 146.08 79.1685 146.08 78.3956C146.08 76.6567 145.307 76.077 143.761 76.077C142.022 76.077 140.283 76.077 138.544 76.077ZM138.544 74.3381C140.09 74.3381 141.829 74.3381 143.375 74.3381C145.5 74.3381 146.08 73.7584 146.08 71.633C146.08 71.0534 146.08 70.2805 146.08 69.7008C146.08 68.3483 145.307 67.5754 143.954 67.5754C140.283 67.5754 136.612 67.5754 132.941 67.5754C131.782 67.5754 131.009 68.3483 130.815 69.7008C130.815 70.4737 130.815 71.2466 130.815 72.0194C130.815 73.5652 131.588 74.3381 133.134 74.3381C135.066 74.3381 136.805 74.3381 138.544 74.3381ZM138.737 65.8365C140.476 65.8365 142.215 65.8365 143.954 65.8365C145.5 65.8365 146.273 65.0636 146.273 63.5179C146.273 62.745 146.273 61.7789 146.273 61.006C146.273 59.6535 145.5 58.8806 144.147 58.8806C140.476 58.8806 136.998 58.8806 133.327 58.8806C131.975 58.8806 131.202 59.6535 131.202 61.006C131.202 61.7789 131.202 62.5518 131.202 63.3246C131.202 65.0636 131.975 65.8365 133.714 65.8365C135.259 65.8365 136.998 65.8365 138.737 65.8365ZM143.375 55.7891C143.761 55.7891 144.147 55.7891 144.534 55.7891C145.114 55.7891 145.5 55.4027 145.5 54.823C145.5 54.2434 145.114 53.857 144.534 53.857C143.761 53.857 143.181 53.857 142.408 53.857C141.829 53.857 141.442 54.2434 141.442 54.823C141.442 55.4027 141.829 55.7891 142.408 55.7891C142.602 55.7891 142.988 55.7891 143.375 55.7891Z" fill="#E6ECF4"/>
<path d="M138.543 76.0781C140.282 76.0781 142.021 76.0781 143.76 76.0781C145.499 76.0781 146.079 76.851 146.079 78.3967C146.079 79.1696 146.079 79.9425 146.079 80.7154C146.079 82.0679 145.306 82.8408 144.147 82.8408C140.475 82.8408 136.804 82.8408 133.133 82.8408C131.781 82.8408 131.201 81.8747 131.008 80.7154C131.008 79.9425 131.008 78.9764 131.008 78.2035C131.008 76.851 131.781 76.0781 133.133 76.0781C135.065 76.0781 136.804 76.0781 138.543 76.0781ZM138.543 81.1018C139.703 81.1018 140.862 81.1018 142.214 81.1018C144.34 81.1018 144.34 81.1018 144.34 78.9764C144.34 78.2035 144.147 78.0103 143.374 78.0103C140.669 78.0103 137.964 78.0103 135.065 78.0103C132.747 78.0103 132.747 78.0103 132.747 80.3289C132.747 80.9086 132.94 81.1018 133.52 81.1018C135.259 81.1018 136.998 81.1018 138.543 81.1018Z" fill="#070808"/>
<path d="M138.543 74.3388C136.804 74.3388 135.065 74.3388 133.326 74.3388C131.781 74.3388 131.008 73.5659 131.008 72.0202C131.008 71.2473 131.008 70.4744 131.008 69.7016C131.008 68.5423 131.781 67.5762 133.133 67.5762C136.804 67.5762 140.475 67.5762 144.147 67.5762C145.499 67.5762 146.079 68.349 146.272 69.7016C146.272 70.2812 146.272 71.0541 146.272 71.6337C146.272 73.7591 145.692 74.3388 143.567 74.3388C141.828 74.3388 140.282 74.3388 138.543 74.3388ZM138.737 69.5084C137.577 69.5084 136.418 69.5084 135.065 69.5084C132.94 69.5084 132.94 69.5084 132.94 71.6337C132.94 72.4066 133.133 72.5998 133.906 72.5998C136.611 72.5998 139.316 72.5998 142.214 72.5998C144.533 72.5998 144.533 72.5998 144.533 70.2812C144.533 69.7016 144.34 69.5084 143.76 69.5084C142.021 69.5084 140.282 69.5084 138.737 69.5084Z" fill="#070808"/>
<path d="M138.737 65.8367C136.998 65.8367 135.259 65.8367 133.52 65.8367C131.781 65.8367 131.201 65.0638 131.008 63.3249C131.008 62.552 131.008 61.7791 131.008 61.0063C131.008 59.6537 131.974 58.8809 133.133 58.8809C136.804 58.8809 140.282 58.8809 143.953 58.8809C145.306 58.8809 146.079 59.6537 146.079 61.0063C146.079 61.7791 146.079 62.7452 146.079 63.5181C146.079 65.0638 145.306 65.8367 143.76 65.8367C142.214 65.8367 140.475 65.8367 138.737 65.8367ZM138.543 63.9045C139.703 63.9045 140.862 63.9045 142.021 63.9045C144.34 63.9045 144.34 63.9045 144.34 61.5859C144.34 61.0063 144.147 60.813 143.567 60.813C140.669 60.813 137.964 60.813 135.065 60.813C132.747 60.813 132.94 60.813 132.94 63.1317C132.94 63.7113 133.133 63.9045 133.713 63.9045C135.259 63.9045 136.998 63.9045 138.543 63.9045Z" fill="#070808"/>
<path d="M143.375 55.7906C142.988 55.7906 142.602 55.7906 142.408 55.7906C141.829 55.7906 141.442 55.4041 141.442 54.8245C141.442 54.2448 141.829 53.8584 142.408 53.8584C143.181 53.8584 143.761 53.8584 144.534 53.8584C145.114 53.8584 145.5 54.2448 145.5 54.8245C145.5 55.4041 145.114 55.7906 144.534 55.7906C143.954 55.7906 143.761 55.7906 143.375 55.7906Z" fill="#070808"/>
<path d="M106.856 37.0455C106.47 37.0455 106.083 37.0455 105.89 37.0455C105.31 37.0455 104.924 36.659 104.924 36.0794C104.924 35.4997 105.31 35.1133 105.89 35.1133C106.663 35.1133 107.242 35.1133 108.015 35.1133C108.595 35.1133 108.981 35.4997 108.981 36.0794C108.981 36.659 108.595 37.0455 108.015 37.0455C107.629 37.0455 107.242 37.0455 106.856 37.0455Z" fill="#070808"/>
<path d="M113.425 37.0455C113.039 37.0455 112.652 37.0455 112.459 37.0455C111.88 37.0455 111.493 36.659 111.493 36.0794C111.493 35.4997 111.88 35.1133 112.459 35.1133C113.232 35.1133 113.812 35.1133 114.585 35.1133C115.164 35.1133 115.551 35.4997 115.551 36.0794C115.551 36.659 115.164 37.0455 114.585 37.0455C114.198 37.0455 113.812 37.0455 113.425 37.0455Z" fill="#070808"/>
<path d="M120.188 37.0455C119.802 37.0455 119.415 37.0455 119.222 37.0455C118.642 37.0455 118.256 36.659 118.256 36.0794C118.256 35.4997 118.642 35.1133 119.222 35.1133C119.995 35.1133 120.574 35.1133 121.347 35.1133C121.927 35.1133 122.313 35.4997 122.313 36.0794C122.313 36.659 121.927 37.0455 121.347 37.0455C120.961 37.0455 120.574 37.0455 120.188 37.0455Z" fill="#070808"/>
<path d="M138.544 81.1022C136.998 81.1022 135.259 81.1022 133.713 81.1022C133.134 81.1022 132.94 80.909 132.94 80.3294C132.94 78.0107 132.94 78.0107 135.259 78.0107C137.964 78.0107 140.669 78.0107 143.567 78.0107C144.34 78.0107 144.534 78.204 144.534 78.9768C144.534 81.1022 144.534 81.1022 142.408 81.1022C140.862 81.1022 139.703 81.1022 138.544 81.1022Z" fill="#F1657C"/>
<path d="M138.737 69.5078C140.476 69.5078 142.022 69.5078 143.761 69.5078C144.34 69.5078 144.534 69.701 144.534 70.2807C144.534 72.5993 144.534 72.5993 142.215 72.5993C139.51 72.5993 136.805 72.5993 133.907 72.5993C133.327 72.5993 132.94 72.4061 132.94 71.6332C132.94 69.5078 132.94 69.5078 135.066 69.5078C136.225 69.5078 137.384 69.5078 138.737 69.5078Z" fill="#EFC34B"/>
<path d="M138.544 63.905C136.805 63.905 135.259 63.905 133.52 63.905C132.94 63.905 132.747 63.7117 132.747 63.1321C132.747 60.8135 132.747 60.8135 134.872 60.8135C137.771 60.8135 140.476 60.8135 143.374 60.8135C143.954 60.8135 144.147 61.0067 144.147 61.5863C144.147 63.905 144.147 63.905 141.828 63.905C140.862 63.905 139.703 63.905 138.544 63.905Z" fill="#72D0F1"/>
</svg>
