<svg width="32" height="32" viewBox="0 0 32 32" fill="none" xmlns="http://www.w3.org/2000/svg">
<path fill-rule="evenodd" clip-rule="evenodd" d="M30.1451 0H19.1161C19.0202 0.031968 18.9243 0.0639361 18.7964 0.15984C17.9013 0.543457 17.2939 1.37463 17.2939 2.36563V16.3037C17.2939 17.6144 18.3169 18.6693 19.6596 18.6693H29.6016C30.9443 18.6693 31.9673 17.6464 31.9673 16.2717V2.62138C31.9673 1.18282 31.4878 0.47952 30.1451 0ZM0.0634766 15.057V30.0819C0.351189 31.009 0.926614 31.6484 1.88565 31.8402C2.01353 31.8722 2.17337 31.8722 2.33321 31.8722H12.4031C13.6819 31.8722 14.7368 30.8811 14.7368 29.6024V15.5045C14.7368 14.2897 13.6819 13.2348 12.4671 13.2348C9.07846 13.2028 5.72182 13.2028 2.33321 13.2348C1.31023 13.2348 0.606933 13.7782 0.191349 14.7053C0.175365 14.7693 0.151389 14.8252 0.127413 14.8811C0.103437 14.9371 0.0794606 14.993 0.0634766 15.057ZM12.9149 0C13.9059 0.31968 14.5453 0.959041 14.7051 1.98202C14.7371 2.10989 14.7371 2.26973 14.7371 2.42957V8.21578C14.7371 9.65434 13.7141 10.6773 12.2755 10.6773C11.2209 10.6773 10.1662 10.6738 9.11154 10.6702L9.11069 10.6702C7.0008 10.6631 4.89091 10.656 2.78102 10.6773C1.34246 10.7093 0.415383 9.97402 0.0957031 8.82318V1.79021C0.319479 0.863137 0.926872 0.255744 1.85395 0H12.9149ZM19.6598 31.9361H24.6469H29.6658C30.9765 31.9361 31.9995 30.9131 31.9995 29.6024V23.5924C31.9995 22.2818 30.9765 21.2268 29.6658 21.2268H19.6918C18.3811 21.2268 17.3262 22.2818 17.3262 23.5924V29.6024C17.3262 30.9131 18.3491 31.9361 19.6598 31.9361Z" fill="#B1B2FF"/>
</svg>
