<svg width="25" height="33" viewBox="0 0 25 33" fill="none" xmlns="http://www.w3.org/2000/svg">
<path d="M0.696289 16.6549C0.696289 12.0928 0.696289 7.4655 0.696289 2.90339C0.696289 1.99096 1.02215 1.27406 1.93458 0.883019C2.19527 0.752673 2.45596 0.6875 2.78183 0.6875C6.36635 0.6875 9.95087 0.6875 13.4702 0.6875C13.7961 0.6875 13.8613 0.752673 13.8613 1.07854C13.8613 3.3596 13.8613 5.57548 13.8613 7.85654C13.8613 9.48587 14.904 10.7893 16.4682 11.1152C16.7941 11.1804 17.1199 11.1804 17.4458 11.1804C19.5965 11.1804 21.7472 11.1804 23.8979 11.1804C24.4193 11.1804 24.4193 11.1804 24.4193 11.7018C24.4193 17.9584 24.4193 24.215 24.4193 30.4064C24.4193 31.9054 23.3114 32.6875 22.1382 32.6875C15.7513 32.6875 9.36431 32.6875 2.97735 32.6875C1.54354 32.6875 0.696289 31.8403 0.696289 30.4064C0.696289 25.8443 0.696289 21.217 0.696289 16.6549ZM18.7492 24.6712C18.7492 26.3005 18.7492 27.9299 18.7492 29.5592C18.7492 29.8199 18.8144 29.9502 19.0751 29.8851C19.792 29.8851 20.5089 29.8851 21.2258 29.8851C21.4865 29.8851 21.5517 29.8199 21.5517 29.5592C21.5517 26.3005 21.5517 22.9767 21.5517 19.7181C21.5517 19.4574 21.4865 19.3922 21.2258 19.3922C20.5089 19.3922 19.8572 19.3922 19.1403 19.3922C18.8144 19.3922 18.7492 19.5225 18.7492 19.8484C18.7492 21.4126 18.7492 23.0419 18.7492 24.6712ZM19.8572 14.7649C19.8572 14.439 19.7268 14.2435 19.401 14.1783C19.0751 14.1132 18.8796 14.2435 18.6841 14.439C17.511 15.6121 16.403 16.7201 15.2299 17.8932C14.904 18.2191 14.904 18.2191 14.6433 17.8932C13.6657 16.9156 12.623 15.8728 11.6454 14.8952C11.124 14.3739 10.8633 14.3739 10.3419 14.8952C8.45189 16.7853 6.4967 18.7405 4.60668 20.6305C4.47633 20.7608 4.41116 20.8912 4.28081 21.0215C4.08529 21.4126 4.34598 21.8688 4.73702 21.8688C4.99771 21.8688 5.19323 21.7384 5.38875 21.6081C7.08325 19.8484 8.84293 18.1539 10.6026 16.3942C11.0588 15.938 10.9285 15.938 11.3847 16.3942C12.4275 17.437 13.405 18.4146 14.4478 19.4574C14.8389 19.8484 15.1647 19.8484 15.4906 19.5225C16.9244 18.0887 18.293 16.7201 19.7268 15.2863C19.792 15.0908 19.9224 14.9604 19.8572 14.7649ZM11.3847 26.3657C11.3847 25.3229 11.3847 24.215 11.3847 23.1722C11.3847 22.9115 11.3195 22.7812 11.0588 22.7812C10.3419 22.7812 9.62501 22.7812 8.9081 22.7812C8.64741 22.7812 8.58224 22.9115 8.58224 23.1722C8.58224 25.3229 8.58224 27.4736 8.58224 29.6244C8.58224 29.9502 8.71258 30.0154 8.97328 30.0154C9.69018 30.0154 10.3419 30.0154 11.0588 30.0154C11.3847 30.0154 11.4499 29.8851 11.4499 29.6244C11.3847 28.4512 11.3847 27.4085 11.3847 26.3657ZM6.30118 9.55104C6.36635 9.55104 6.36635 9.55104 6.30118 9.55104C6.30118 9.81174 6.30118 10.0724 6.30118 10.2679C6.30118 10.5286 6.236 10.5938 5.97531 10.5286C5.64945 10.4635 5.32358 10.2679 5.06289 10.1376C4.86737 10.0073 4.73702 9.74656 4.47633 9.81174C4.28081 9.87691 4.15046 10.1376 4.02012 10.2679C3.8246 10.4635 3.88977 10.5938 4.08529 10.7242C4.60668 11.1152 5.19323 11.3759 5.84497 11.5062C6.17083 11.5714 6.30118 11.7018 6.236 12.0276C6.236 12.2231 6.30118 12.2883 6.4967 12.2883C6.69222 12.2883 6.82256 12.2231 6.75739 12.0276C6.69222 11.7018 6.88774 11.5714 7.2136 11.5714C8.58224 11.3759 9.36431 10.2028 8.97328 9.02966C8.77776 8.4431 8.25637 8.18241 7.73499 7.92172C7.40912 7.79137 6.95291 7.85654 6.82256 7.53068C6.82256 7.20481 6.88774 6.7486 6.88774 6.42273C6.88774 5.57548 6.95291 5.51031 7.73499 5.83618C7.9305 5.90135 8.12602 6.22722 8.38672 6.09687C8.58224 5.96652 8.71258 5.70583 8.84293 5.51031C8.97328 5.37996 8.9081 5.24962 8.77776 5.18445C8.32154 4.92375 7.80016 4.72823 7.27877 4.66306C7.08325 4.66306 6.88774 4.59789 6.88774 4.33719C6.88774 4.20685 6.75739 4.14168 6.62704 4.14168C6.4967 4.14168 6.36635 4.14168 6.36635 4.27202C6.36635 4.66306 6.10566 4.59789 5.84497 4.66306C4.93254 4.79341 4.28081 5.51031 4.15046 6.29239C4.02012 7.33516 4.41116 7.92172 5.45393 8.31275C5.71462 8.4431 6.10566 8.37793 6.236 8.63862C6.43152 8.89931 6.30118 9.22518 6.30118 9.55104ZM3.43356 26.9523C3.43356 27.7995 3.43356 28.7119 3.43356 29.5592C3.43356 29.8199 3.49873 29.9502 3.75943 29.9502C4.47633 29.9502 5.19323 29.9502 5.91014 29.9502C6.17083 29.9502 6.236 29.8851 6.236 29.6244C6.236 27.8647 6.236 26.1702 6.236 24.4105C6.236 24.1498 6.10566 24.0846 5.84497 24.0846C5.12806 24.0846 4.41116 24.0846 3.75943 24.0846C3.43356 24.0846 3.36839 24.215 3.36839 24.4757C3.43356 25.2578 3.43356 26.105 3.43356 26.9523ZM13.6006 27.995C13.6006 28.5164 13.6006 29.0378 13.6006 29.5592C13.6006 29.8199 13.6657 29.8851 13.9264 29.8851C14.6433 29.8851 15.4254 29.8851 16.1423 29.8851C16.403 29.8851 16.4682 29.8199 16.4682 29.5592C16.4682 28.5164 16.4682 27.4737 16.4682 26.4309C16.4682 26.2354 16.403 26.105 16.1423 26.105C15.4254 26.105 14.6433 26.105 13.9264 26.105C13.7309 26.105 13.6006 26.1702 13.6006 26.4309C13.6657 27.0174 13.6006 27.5388 13.6006 27.995Z" fill="#B1B2FF"/>
<path d="M15.1003 4.59812C15.1003 3.49018 15.1003 2.31706 15.1003 1.20912C15.1003 1.07877 15.0351 0.948427 15.1655 0.948427C15.2958 0.883253 15.361 1.0136 15.4261 1.07877C15.6217 1.20912 15.8824 1.40464 16.0127 1.60016C18.5545 4.14191 21.0962 6.68366 23.638 9.22541C23.7683 9.35576 23.8335 9.42093 23.9638 9.55128C24.029 9.68163 24.1593 9.7468 24.0942 9.87714C24.029 10.0075 23.8987 9.94232 23.7683 9.94232C22.4648 9.94232 21.1614 9.94232 19.8579 9.94232C19.0107 9.94232 18.1634 9.94232 17.3162 9.94232C15.9475 9.94232 15.0351 8.89955 15.1003 7.72643C15.1003 6.68366 15.1003 5.64089 15.1003 4.59812Z" fill="#B1B2FF"/>
<path d="M6.8877 9.68126C6.8877 9.48574 6.8877 9.22505 6.8877 9.02953C6.8877 8.83401 6.95287 8.76884 7.14839 8.83401C7.34391 8.89918 7.47425 8.96436 7.66977 9.0947C7.99564 9.3554 8.12599 9.68126 7.99564 10.0071C7.86529 10.333 7.40908 10.6589 7.08321 10.6589C6.95287 10.6589 6.8877 10.5285 6.8877 10.4633C6.8877 10.1375 6.8877 9.94195 6.8877 9.68126Z" fill="#B1B2FF"/>
<path d="M6.36601 6.55307C6.36601 6.74859 6.36601 7.00929 6.36601 7.20481C6.36601 7.33515 6.30084 7.40032 6.17049 7.33515C5.71428 7.26998 5.32324 6.87894 5.32324 6.4879C5.32324 6.09686 5.64911 5.70582 6.10532 5.64065C6.30084 5.57548 6.36601 5.64065 6.36601 5.83617C6.36601 6.09686 6.36601 6.29238 6.36601 6.55307Z" fill="#B1B2FF"/>
</svg>
