<svg width="33" height="21" viewBox="0 0 33 21" fill="none" xmlns="http://www.w3.org/2000/svg">
<path d="M17.5938 18.2712C17.6071 17.7872 17.6071 17.2898 17.6204 16.8058C17.6604 16.8327 17.7004 16.8461 17.727 16.873C18.0602 17.3704 18.5667 17.4914 19.0731 17.3167C19.6062 17.115 19.7795 16.631 19.7395 16.0529C19.6995 15.5286 19.7662 15.5958 20.2193 15.5958C21.6587 15.5958 23.0981 15.6092 24.5509 15.5958C25.4571 15.5958 26.1235 14.8967 26.1369 13.9825C26.1369 13.6733 26.1369 13.3506 26.1369 13.0414C26.1369 11.9524 25.4971 11.2936 24.4176 11.2936C22.9915 11.2936 21.5788 11.2802 20.1527 11.2936C19.8595 11.2936 19.7129 11.2667 19.7262 10.9037C19.7395 10.4601 19.473 10.1105 19.0731 9.97607C18.6866 9.84163 18.2335 9.84163 17.9136 10.2181C17.8336 10.3122 17.7137 10.3928 17.6204 10.4735C17.6204 9.6803 17.6071 8.87364 17.6071 8.08043C18.1402 8.02665 18.1402 8.02665 18.1402 7.52921C18.1402 6.81666 18.1402 6.09067 18.1402 5.37812C18.1402 4.20847 18.1402 3.05226 18.1402 1.8826C18.1402 1.19694 18.2735 1.07594 18.9665 1.07594C19.2597 1.07594 19.5396 1.07594 19.8328 1.07594C20.2593 1.07594 20.2726 1.04906 20.2726 1.50616C20.2726 2.85059 20.2726 4.19502 20.2593 5.53945C20.2593 5.82178 20.3259 5.92934 20.6325 5.91589C21.792 5.90245 22.9382 5.90245 24.0977 5.91589C24.5242 5.91589 24.5375 5.94278 24.5375 5.47223C24.5375 4.1278 24.5375 2.78337 24.5242 1.43894C24.5242 1.14317 24.6042 1.0625 24.8974 1.0625C26.63 1.07594 28.3626 1.0625 30.0952 1.07594C30.8016 1.07594 30.9215 1.21039 30.9215 1.94982C30.9215 3.4287 30.9215 4.90757 30.9215 6.38644C30.9215 7.7981 30.9082 9.20975 30.8949 10.6214C30.7749 10.6617 30.7749 10.7155 30.8949 10.7558C30.8949 10.85 30.8949 10.9306 30.8949 11.0247C30.6416 10.9978 30.615 11.2264 30.5617 11.3608C30.3751 11.7776 30.2685 12.2347 30.0552 12.6246C29.1756 14.2514 28.176 15.7571 26.7233 16.9537C25.5771 17.9082 24.3909 18.7686 23.0048 19.3199C22.7383 19.4274 22.525 19.6156 22.2318 19.6425C22.1252 19.656 22.1385 19.777 22.1252 19.8576C22.0319 19.8576 21.9519 19.8576 21.8586 19.8576C21.8053 19.7366 21.7653 19.7501 21.7254 19.8576C20.7258 19.8711 19.7395 19.8845 18.7399 19.8711C18.3268 19.8711 18.1535 19.6694 18.1269 19.2526C18.1135 19.0106 18.1135 18.7686 18.1269 18.5132C18.1402 18.2981 18.0336 18.2443 17.847 18.2578C17.767 18.2981 17.687 18.2712 17.5938 18.2712Z" fill="#43BB90"/>
<path d="M14.407 4.8807C14.407 5.32436 14.3937 5.75458 14.3937 6.19824C14.2871 6.11757 14.1804 6.03691 14.1005 5.9428C13.7673 5.56636 13.3275 5.56636 12.9409 5.7008C12.5544 5.83524 12.2746 6.1848 12.3012 6.62846C12.3145 6.99145 12.1546 7.01834 11.8747 7.01834C10.4353 7.0049 8.99592 7.0049 7.55652 7.01834C6.57027 7.01834 5.91721 7.69056 5.90388 8.69888C5.90388 8.99465 5.90388 9.27699 5.90388 9.57276C5.90388 10.6617 6.54361 11.3205 7.62316 11.3205C9.02258 11.3205 10.422 11.3205 11.8081 11.3205C12.2612 11.3205 12.3279 11.2399 12.2879 11.7776C12.2479 12.2347 12.3945 12.5977 12.701 12.9338C12.7544 13.2968 12.5411 13.5792 12.3812 13.848C11.8614 14.7354 11.195 15.5286 10.502 16.2815C9.96885 16.8596 9.35577 17.3705 8.71604 17.8276C7.98301 18.3519 7.19667 18.8224 6.35702 19.1989C5.7706 19.4678 5.14419 19.6022 4.58443 19.9249C3.65148 19.9249 2.71854 19.9518 1.78559 19.9383C1.29247 19.9383 1.13253 19.7501 1.1192 19.2392C1.1192 19.1451 1.1192 19.0644 1.1192 18.9703C1.1192 13.3506 1.1192 7.74434 1.1192 2.12462C1.1192 1.99017 1.10588 1.85573 1.1192 1.72129C1.14586 1.34485 1.33245 1.15663 1.70563 1.14318C1.97218 1.12974 2.23874 1.14318 2.50529 1.14318C3.25165 1.14318 3.25165 1.14318 3.25165 1.86917C3.25165 3.10605 3.25165 4.32948 3.25165 5.56636C3.25165 5.98313 3.26498 5.98313 3.63816 5.98313C4.811 5.98313 5.98384 5.96969 7.17002 5.99658C7.47656 5.99658 7.55652 5.87558 7.52987 5.60669C7.51654 5.47225 7.52987 5.3378 7.52987 5.20336C7.52987 3.99337 7.52987 2.78339 7.52987 1.5734C7.52987 1.15663 7.54319 1.15663 7.90304 1.14318C9.67564 1.14318 11.4482 1.14318 13.2208 1.14318C13.7273 1.14318 13.9005 1.3314 13.9139 1.82884C13.9272 2.2725 13.9139 2.72961 13.9139 3.17327C13.9139 3.67071 13.9272 4.15471 13.9139 4.65215C13.9139 4.86725 13.9938 4.93448 14.1938 4.92103C14.2337 4.85381 14.3137 4.86725 14.407 4.8807Z" fill="#F58665"/>
<path d="M14.4073 4.88044C14.314 4.867 14.2341 4.85355 14.1408 4.867C13.9542 4.88044 13.8609 4.81322 13.8609 4.59811C13.8742 4.10067 13.8609 3.61668 13.8609 3.11924C13.8609 2.67557 13.8742 2.21847 13.8609 1.77481C13.8476 1.27737 13.6743 1.10259 13.1678 1.08915C11.3953 1.0757 9.62266 1.08915 7.85006 1.08915C7.47688 1.08915 7.47688 1.10259 7.47688 1.51936C7.47688 2.72935 7.47688 3.93934 7.47688 5.14933C7.47688 5.28377 7.46356 5.41821 7.47688 5.55266C7.50354 5.82154 7.4369 5.94254 7.11703 5.94254C5.94419 5.9291 4.77135 5.94254 3.58517 5.9291C3.212 5.9291 3.19867 5.91565 3.19867 5.51232C3.19867 4.27545 3.19867 3.05201 3.19867 1.81514C3.19867 1.08915 3.19867 1.08915 2.45231 1.08915C2.18576 1.08915 1.9192 1.0757 1.65264 1.08915C1.27947 1.11604 1.10621 1.29081 1.06622 1.66725C1.05289 1.80169 1.06622 1.93614 1.06622 2.07058C1.06622 7.6903 1.06622 13.2966 1.06622 18.9163C1.06622 19.0104 1.06622 19.0911 1.06622 19.1852C1.07955 19.6961 1.23948 19.8843 1.73261 19.8843C2.66556 19.8843 3.5985 19.8708 4.53145 19.8708C7.41025 19.8708 10.289 19.8843 13.1678 19.8843C13.2078 19.8843 13.2611 19.8843 13.3011 19.8843C13.6343 19.8439 13.8209 19.6692 13.8476 19.3331C13.8609 19.1717 13.8476 19.0238 13.8476 18.8625C13.8476 17.545 13.8476 16.2274 13.8476 14.9099C13.8476 14.5469 13.8609 14.5469 14.2607 14.52C14.3007 14.52 14.354 14.5066 14.394 14.5066C14.5006 14.5066 14.6206 14.52 14.7272 14.52C14.8605 14.52 14.9271 14.5872 14.9138 14.7217C14.9138 14.8964 14.9138 15.0847 14.9138 15.2594C14.9138 16.577 14.8738 17.8945 14.9271 19.2255C14.9671 20.1532 14.1541 21.0002 13.1812 20.9867C9.36943 20.9464 5.54436 20.9464 1.73261 20.9867C0.826322 21.0002 0 20.1935 0 19.2255C0.0266556 13.4041 0.0266556 7.58275 0 1.77481C0 0.806816 0.812995 0.000157924 1.74594 0.000157924C5.57101 0.0404908 9.38276 0.0404908 13.1945 0.000157924C14.1674 -0.0132864 15.0071 0.833705 14.9404 1.76136C14.8871 2.60835 14.9271 3.45534 14.9271 4.31578C14.9271 4.82666 14.9271 4.82666 14.4073 4.88044ZM6.41066 2.97135C6.41066 2.43358 6.41066 1.8958 6.41066 1.35803C6.41066 1.15637 6.34402 1.08915 6.14411 1.08915C5.611 1.10259 5.07788 1.10259 4.54477 1.08915C4.34486 1.08915 4.27822 1.15637 4.27822 1.35803C4.27822 2.43358 4.27822 3.50912 4.27822 4.58467C4.27822 4.78633 4.34486 4.85355 4.54477 4.85355C5.07788 4.84011 5.611 4.84011 6.14411 4.85355C6.34402 4.85355 6.41066 4.78633 6.41066 4.58467C6.39733 4.04689 6.41066 3.50912 6.41066 2.97135Z" fill="#020202"/>
<path d="M30.8942 10.6349C30.9075 9.2232 30.9075 7.81155 30.9208 6.3999C30.9208 4.92102 30.9208 3.44215 30.9208 1.96328C30.9208 1.22384 30.8009 1.0894 30.0945 1.0894C28.3619 1.0894 26.6293 1.0894 24.8967 1.07595C24.6035 1.07595 24.5235 1.15662 24.5235 1.45239C24.5368 2.79682 24.5235 4.14125 24.5368 5.48568C24.5368 5.95623 24.5235 5.92934 24.097 5.92934C22.9375 5.92934 21.7913 5.9159 20.6318 5.92934C20.3386 5.92934 20.2586 5.83523 20.2586 5.5529C20.2719 4.20847 20.2586 2.86404 20.2719 1.51961C20.2719 1.06251 20.2586 1.07595 19.8321 1.0894C19.5389 1.0894 19.259 1.0894 18.9658 1.0894C18.2728 1.0894 18.1395 1.22384 18.1395 1.89605C18.1395 3.06571 18.1395 4.22192 18.1395 5.39157C18.1395 6.10412 18.1395 6.83011 18.1395 7.54266C18.1395 8.0401 18.1395 8.0401 17.6064 8.09388C17.4998 8.08043 17.3798 8.08043 17.2732 8.08043C17.1399 8.08043 17.0733 8.01321 17.0733 7.87877C17.0733 7.77121 17.0733 7.65022 17.0733 7.54266C17.0733 5.64701 17.1133 3.73792 17.0599 1.84228C17.02 0.807065 17.8729 -0.0130372 18.8725 0.000407099C22.6443 0.04074 26.416 0.04074 30.1878 0.000407099C31.2274 -0.0130372 32.0137 0.833954 32.0137 1.82883C31.9737 7.59644 31.9737 13.3775 32.0137 19.1451C32.0137 20.1803 31.214 21.0004 30.2011 20.987C26.4294 20.9466 22.6576 20.9466 18.8859 20.987C17.8729 21.0004 16.9533 20.1803 17.0733 19.1585C17.0866 19.051 17.0733 18.93 17.0733 18.8224C17.0733 18.3115 17.0733 18.3115 17.6064 18.2712C17.6997 18.2847 17.7796 18.2981 17.8729 18.2847C18.0595 18.2712 18.1662 18.325 18.1528 18.5401C18.1395 18.7821 18.1395 19.0241 18.1528 19.2795C18.1795 19.6963 18.3527 19.898 18.7659 19.898C19.7655 19.898 20.7517 19.8845 21.7513 19.8845C21.7913 19.8845 21.8446 19.8845 21.8846 19.8845C21.9779 19.8845 22.0579 19.8845 22.1512 19.8845C22.2578 19.898 22.3777 19.9114 22.4844 19.9114C25.03 19.9114 27.5889 19.898 30.1345 19.9249C30.6943 19.9249 30.9741 19.656 30.9608 19.0913C30.9208 17.4108 30.9475 15.7302 30.9475 14.0631C30.9475 13.0548 30.9342 12.0465 30.9208 11.0516C30.9208 10.9575 30.9208 10.8768 30.9208 10.7827C30.8942 10.7155 30.8942 10.6752 30.8942 10.6349ZM23.4573 2.98504C23.4573 2.44727 23.4573 1.9095 23.4573 1.37173C23.4573 1.18351 23.4173 1.07595 23.2041 1.0894C22.6709 1.10284 22.1378 1.10284 21.6047 1.0894C21.3515 1.07595 21.3248 1.19695 21.3248 1.41206C21.3382 2.46071 21.3248 3.52281 21.3248 4.57147C21.3248 4.75969 21.3648 4.86724 21.5781 4.8538C22.1112 4.84036 22.6443 4.84036 23.1774 4.8538C23.4306 4.86724 23.4706 4.7328 23.4573 4.53114C23.4573 4.02025 23.4573 3.50937 23.4573 2.98504Z" fill="#020202"/>
<path d="M12.6761 12.9068C12.3695 12.5842 12.2229 12.2212 12.2629 11.7506C12.3029 11.2263 12.2363 11.2935 11.7831 11.2935C10.3837 11.2935 8.98428 11.2935 7.59819 11.2935C6.51864 11.2935 5.87891 10.6348 5.87891 9.54577C5.87891 9.24999 5.87891 8.96766 5.87891 8.67189C5.89223 7.66357 6.5453 6.99135 7.53155 6.99135C8.97095 6.99135 10.4104 6.97791 11.8498 6.99135C12.143 6.99135 12.2896 6.96446 12.2762 6.60147C12.2629 6.1578 12.5295 5.80825 12.916 5.67381C13.3025 5.53937 13.7556 5.53937 14.0755 5.91581C14.1555 6.00992 14.2754 6.09058 14.3687 6.17125C14.9151 6.74935 15.4483 7.35435 16.0347 7.87868C16.7544 8.53745 16.901 9.59955 16.0747 10.46C15.4749 11.1053 14.8752 11.7506 14.3554 12.4766C13.9156 13.0547 13.3558 13.2698 12.6761 12.9068ZM10.3037 8.08034C9.39744 8.08034 8.49115 8.0669 7.57153 8.08034C7.14505 8.08034 6.95846 8.26856 6.9318 8.68533C6.91847 8.99455 6.91847 9.31722 6.9318 9.62644C6.94513 10.0163 7.13172 10.1911 7.49157 10.2314C7.6515 10.2449 7.79811 10.2314 7.95804 10.2314C9.62401 10.2314 11.29 10.2314 12.9426 10.2314C13.2225 10.2314 13.3425 10.2987 13.3158 10.5944C13.2892 10.9978 13.3158 11.4011 13.3158 11.8044C13.3158 11.8447 13.3425 11.8851 13.3558 11.9254C13.3958 11.8985 13.4358 11.8851 13.4624 11.8582C13.7023 11.5893 13.9289 11.3204 14.1555 11.0515C14.5553 10.5944 14.9551 10.1508 15.3416 9.69366C15.6348 9.3441 15.6748 9.11555 15.4349 8.86011C14.7952 8.17445 14.1288 7.52912 13.4624 6.85691C13.3691 6.7628 13.3158 6.78969 13.3158 6.91069C13.3158 7.20646 13.3025 7.48879 13.3158 7.78457C13.3291 8.02656 13.2358 8.09378 13.0093 8.08034C12.1296 8.0669 11.21 8.08034 10.3037 8.08034Z" fill="#020202"/>
<path d="M17.6043 10.5004C17.7109 10.4197 17.8175 10.339 17.8975 10.2449C18.2307 9.86847 18.6705 9.86847 19.057 10.0029C19.4435 10.1374 19.7234 10.4869 19.7101 10.9306C19.6968 11.2936 19.8434 11.3205 20.1366 11.3205C21.5627 11.307 22.9754 11.307 24.4015 11.3205C25.481 11.3205 26.1074 11.9792 26.1208 13.0682C26.1208 13.3774 26.1208 13.7001 26.1208 14.0093C26.1074 14.9235 25.441 15.6092 24.5347 15.6226C23.0953 15.6361 21.6559 15.6226 20.2032 15.6226C19.7501 15.6226 19.6834 15.542 19.7234 16.0797C19.7634 16.6578 19.5901 17.1418 19.057 17.3435C18.5506 17.5317 18.0441 17.3973 17.7109 16.8998C17.6843 16.873 17.6443 16.8461 17.6043 16.8326C17.0579 16.0797 16.4048 15.421 15.8051 14.7084C15.3386 14.1572 15.1786 13.5522 15.4585 12.8665C15.5518 12.638 15.7251 12.4632 15.8983 12.2884C16.4714 11.67 17.0445 11.0785 17.6043 10.5004ZM21.6826 14.5336C22.5889 14.5336 23.4952 14.5471 24.4148 14.5336C24.8146 14.5336 25.0279 14.3589 25.0545 14.0093C25.0812 13.6329 25.0812 13.243 25.0545 12.8665C25.0279 12.5977 24.8546 12.4229 24.5747 12.3826C24.4281 12.3557 24.2682 12.3691 24.1083 12.3691C22.5622 12.3691 21.0029 12.3691 19.4569 12.3691C18.6839 12.3691 18.6839 12.3691 18.6705 11.549C18.6705 11.4818 18.6705 11.4146 18.6705 11.3473C18.6572 11.2532 18.6439 11.1726 18.6439 11.0785C18.5772 11.1188 18.4973 11.1591 18.4306 11.2129C17.8442 11.791 17.2578 12.3826 16.6847 12.9741C16.2982 13.3774 16.2849 13.5657 16.658 14.0093C17.0046 14.4261 17.3511 14.816 17.7109 15.2193C18.0041 15.5554 18.3107 15.8781 18.6039 16.2007C18.7372 15.7705 18.6439 15.3269 18.6572 14.8966C18.6572 14.6143 18.7238 14.5068 19.017 14.5068C19.91 14.5471 20.7896 14.5336 21.6826 14.5336Z" fill="#020202"/>
<path d="M12.6729 12.9069C13.3526 13.2698 13.9124 13.0547 14.3789 12.517C14.3922 13.1892 14.3922 13.848 14.4055 14.5202C14.3655 14.5202 14.3122 14.5336 14.2722 14.5336C13.8724 14.5739 13.8591 14.5739 13.8591 14.9235C13.8591 16.241 13.8591 17.5586 13.8591 18.8761C13.8591 19.0375 13.8724 19.1853 13.8591 19.3467C13.8324 19.6828 13.6458 19.8576 13.3126 19.8979C13.2727 19.8979 13.2194 19.8979 13.1794 19.8979C10.3006 19.8979 7.42177 19.8844 4.54297 19.8844C5.10274 19.5618 5.72914 19.4273 6.31556 19.1585C7.15521 18.782 7.92823 18.3115 8.67458 17.7871C9.31431 17.33 9.94072 16.8191 10.4605 16.241C11.1535 15.4882 11.8199 14.6949 12.3397 13.8076C12.513 13.5387 12.7262 13.2698 12.6729 12.9069Z" fill="#D97254"/>
<path d="M30.8947 11.0248C30.908 12.0331 30.9213 13.0414 30.9213 14.0363C30.9213 15.7168 30.8947 17.3974 30.9347 19.0645C30.948 19.6291 30.6681 19.9114 30.1083 19.898C27.5627 19.8711 25.0038 19.8846 22.4582 19.8846C22.3516 19.8846 22.2316 19.8711 22.125 19.8577C22.1383 19.777 22.125 19.6426 22.2316 19.6426C22.5248 19.6157 22.7514 19.4274 23.0046 19.3199C24.3907 18.7687 25.5769 17.9082 26.7231 16.9537C28.1625 15.7572 29.1754 14.2379 30.055 12.6246C30.2683 12.2347 30.3749 11.7776 30.5615 11.3609C30.6148 11.2264 30.6415 10.9979 30.8947 11.0248Z" fill="#28A57C"/>
<path d="M30.8936 10.6348C30.8936 10.6751 30.8936 10.7289 30.8936 10.7692C30.7737 10.7154 30.787 10.6751 30.8936 10.6348Z" fill="#28A57C"/>
<path d="M21.8559 19.8711C21.816 19.8711 21.7626 19.8711 21.7227 19.8711C21.7626 19.7635 21.816 19.7501 21.8559 19.8711Z" fill="#28A57C"/>
<path d="M6.40979 2.97156C6.40979 3.50933 6.40979 4.0471 6.40979 4.58487C6.40979 4.78654 6.34315 4.85376 6.14323 4.85376C5.61012 4.84032 5.07701 4.84032 4.5439 4.85376C4.34398 4.85376 4.27734 4.78654 4.27734 4.58487C4.27734 3.50933 4.27734 2.43379 4.27734 1.35824C4.27734 1.15658 4.34398 1.08936 4.5439 1.08936C5.07701 1.1028 5.61012 1.1028 6.14323 1.08936C6.34315 1.08936 6.40979 1.15658 6.40979 1.35824C6.39646 1.89601 6.40979 2.43379 6.40979 2.97156Z" fill="#FABEAD"/>
<path d="M23.4567 2.98504C23.4567 3.49592 23.4567 4.02025 23.4567 4.53113C23.4567 4.74624 23.43 4.86724 23.1768 4.8538C22.6437 4.84035 22.1106 4.84035 21.5774 4.8538C21.3642 4.8538 21.3242 4.75969 21.3242 4.57147C21.3242 3.52281 21.3242 2.46071 21.3242 1.41206C21.3242 1.19695 21.3509 1.07595 21.6041 1.08939C22.1372 1.10284 22.6703 1.10284 23.2034 1.08939C23.4167 1.08939 23.4567 1.1835 23.4567 1.37172C23.4567 1.90949 23.4567 2.44727 23.4567 2.98504Z" fill="#AEDCCC"/>
<path d="M10.3006 8.08037C11.2069 8.08037 12.1132 8.08037 13.0328 8.08037C13.2593 8.08037 13.3526 8.01315 13.3393 7.7846C13.326 7.48882 13.3393 7.20649 13.3393 6.91072C13.3393 6.77628 13.406 6.76283 13.4859 6.85694C14.139 7.51571 14.8054 8.17448 15.4584 8.86014C15.6983 9.11559 15.6583 9.34414 15.3651 9.69369C14.9786 10.1508 14.5788 10.5945 14.179 11.0516C13.9391 11.3205 13.7125 11.5893 13.4859 11.8582C13.4593 11.8851 13.4193 11.8986 13.3793 11.9254C13.366 11.8851 13.3393 11.8448 13.3393 11.8044C13.3393 11.4011 13.3127 10.9978 13.3393 10.5945C13.3526 10.2852 13.2327 10.2315 12.9661 10.2315C11.3002 10.2449 9.63419 10.2315 7.98155 10.2315C7.82161 10.2315 7.67501 10.2449 7.51508 10.2315C7.15523 10.2046 6.96864 10.0164 6.95531 9.62647C6.94198 9.31725 6.94198 8.99459 6.95531 8.68537C6.98196 8.26859 7.16855 8.09382 7.59504 8.08037C8.488 8.06693 9.39429 8.08037 10.3006 8.08037Z" fill="#F0E4D1"/>
<path d="M21.684 14.5337C20.7911 14.5337 19.9114 14.5471 19.0185 14.5202C18.7119 14.5202 18.6586 14.6278 18.6586 14.9101C18.6586 15.3403 18.7386 15.784 18.6053 16.2142C18.3121 15.8915 18.0056 15.5689 17.7123 15.2328C17.3525 14.8294 17.006 14.4396 16.6595 14.0228C16.2863 13.5791 16.2863 13.3909 16.6861 12.9876C17.2592 12.396 17.8456 11.8179 18.432 11.2264C18.4854 11.1726 18.5653 11.1323 18.6453 11.0919C18.6586 11.186 18.6719 11.2667 18.6719 11.3608C18.6719 11.428 18.6719 11.4952 18.6719 11.5625C18.6853 12.3826 18.6853 12.3826 19.4583 12.3826C21.0043 12.3826 22.5637 12.3826 24.1097 12.3826C24.2696 12.3826 24.4162 12.3691 24.5762 12.396C24.8427 12.4363 25.0293 12.5977 25.056 12.88C25.0826 13.2565 25.0826 13.6463 25.056 14.0228C25.0293 14.3723 24.8161 14.5337 24.4162 14.5471C23.4966 14.5337 22.5903 14.5337 21.684 14.5337Z" fill="#F0E4D1"/>
</svg>
