<svg width="178" height="178" viewBox="0 0 178 178" fill="none" xmlns="http://www.w3.org/2000/svg">
<rect x="178" y="-0.000976562" width="178" height="178" rx="20" transform="rotate(90 178 -0.000976562)" fill="white" fill-opacity="0.75"/>
<path d="M70.651 95.7546C73.7171 98.2075 76.7833 100.456 80.667 101.682C81.2803 101.887 81.2803 102.091 80.8715 102.705C80.667 102.909 80.4626 103.318 80.2582 103.727C79.2362 105.157 79.2362 105.975 80.2582 107.406C81.4847 109.041 82.7111 110.676 83.9376 112.312C84.3464 112.925 84.5508 113.538 84.3464 114.356C81.8935 123.759 79.645 143.586 77.1921 152.989C76.7833 154.42 77.1921 155.238 78.0097 156.26C79.645 157.895 81.2803 159.53 83.12 161.37C79.0318 161.37 74.7392 159.735 71.0598 157.895C69.4245 157.077 67.176 155.033 65.3363 153.194C64.3143 152.172 64.9275 150.741 64.9275 149.514C64.9275 139.703 64.9275 129.891 64.9275 120.079C64.9275 115.582 62.4746 112.721 57.9776 112.107C51.2321 111.29 44.4865 110.676 37.741 109.859C34.2661 109.45 30.9955 109.041 27.5205 108.632C24.25 108.224 21.5927 105.157 21.5927 101.887C21.5927 91.462 21.5927 81.0371 21.5927 70.6122C21.5927 69.5901 21.7971 69.3857 22.8191 69.3857C25.272 69.3857 27.7249 69.3857 30.1779 69.3857C31.1999 69.3857 31.1999 69.7946 31.1999 70.6122C31.1999 77.1533 31.1999 83.8988 31.1999 90.4399C31.1999 95.1414 34.2661 98.0031 38.9675 98.0031C45.713 98.0031 52.6629 98.0031 59.4084 98.0031C61.2481 98.0031 61.8614 97.5943 62.4746 95.5502C65.3363 95.7546 67.9936 95.7546 70.651 95.7546Z" fill="#4075BA"/>
<path d="M115.212 95.7543C115.621 97.594 116.234 98.2072 118.278 98.2072C125.228 98.2072 132.178 98.2072 139.333 98.2072C143.421 98.2072 146.487 94.9366 146.487 91.0529C146.487 84.5117 146.487 77.7662 146.487 71.2251C146.487 69.7943 146.896 69.5898 148.327 69.5898C150.575 69.5898 152.824 69.5898 155.277 69.5898C156.094 69.5898 156.299 69.7943 156.299 70.6119C156.299 81.0368 156.299 91.6661 156.299 102.091C156.299 105.362 153.437 108.428 150.166 108.836C141.99 109.859 133.813 110.676 125.637 111.494C123.389 111.698 121.14 111.903 118.892 112.311C115.417 112.925 112.964 115.786 112.964 119.466C112.964 129.482 112.964 139.498 112.964 149.31C112.964 150.74 113.373 151.354 112.759 152.376C110.102 155.851 101.312 161.165 96.4065 161.165C95.9977 161.165 95.3845 161.165 94.5668 161.165C96.4065 159.326 98.0418 157.69 99.6771 156.26C100.699 155.237 101.108 154.215 100.699 152.785C98.2462 143.382 95.9977 123.758 93.5448 114.356C93.3404 113.538 93.5448 112.925 93.9536 112.311C95.1801 110.881 96.2021 109.245 97.4286 107.814C98.8594 105.77 99.0639 105.362 97.4286 103.317C96.6109 102.295 96.6109 101.887 98.0418 101.478C101.517 100.456 104.583 98.2072 107.24 95.9587C109.898 95.7543 112.555 95.7543 115.212 95.7543Z" fill="#4075BA"/>
<path d="M136.88 23.8002C137.084 22.3693 137.697 21.5517 138.924 21.3473C139.128 21.3473 139.333 21.3473 139.537 21.3473C141.581 21.3473 141.581 21.3473 141.581 19.0987C141.581 17.6679 142.194 16.8502 143.421 16.6458C144.443 16.4414 145.465 16.8502 146.078 17.8723C146.487 18.4855 146.487 19.0987 146.282 19.5076C146.078 21.1428 146.691 21.5517 148.122 21.3473C148.327 21.3473 148.735 21.3473 148.94 21.3473C150.166 21.5517 150.984 22.3693 150.984 23.8002C150.984 25.0266 150.166 25.8443 148.94 26.0487C148.122 26.2531 146.896 25.6399 146.487 26.2531C146.078 26.8663 146.487 27.8884 146.282 28.9104C146.078 30.1369 145.26 30.9545 143.83 30.9545C142.603 30.9545 141.785 30.1369 141.581 28.9104C141.377 28.0928 141.99 26.8663 141.377 26.4575C140.763 26.0487 139.741 26.4575 138.719 26.2531C137.493 26.0487 136.88 25.231 136.88 23.8002Z" fill="#0A0909"/>
<path d="M33.4485 26.2568C35.0837 26.2568 36.1058 27.0745 36.3102 28.3009C36.3102 28.5053 36.3102 28.7098 36.3102 28.9142C36.3102 30.9583 36.3102 30.9583 38.3543 30.9583C39.9896 30.9583 41.0116 31.7759 41.0116 33.2068C41.0116 34.6376 39.9896 35.6597 38.3543 35.6597C38.1499 35.6597 37.9455 35.6597 37.5366 35.6597C36.3102 35.4553 36.1058 35.8641 36.1058 37.0905C36.1058 37.4994 36.1058 37.9082 36.1058 38.5214C35.9014 39.7479 34.8793 40.7699 33.6529 40.5655C32.4264 40.5655 31.6088 39.7479 31.4044 38.5214C31.1999 37.7038 31.8132 36.4773 31.1999 36.0685C30.5867 35.6597 29.5647 36.0685 28.747 35.8641C27.5206 35.6597 26.4985 34.6376 26.7029 33.4112C26.7029 32.1847 27.5206 31.3671 28.747 31.1627C29.5647 30.9583 30.7911 31.5715 31.1999 30.9583C31.6088 30.345 31.1999 29.323 31.4044 28.5053C31.6088 27.0745 32.4264 26.4612 33.4485 26.2568Z" fill="#0A0909"/>
<path d="M127.272 64.6836C128.499 64.6836 129.521 65.5012 129.725 66.7277C129.725 66.9321 129.725 66.9321 129.725 67.1365C129.725 69.385 129.725 69.385 131.769 69.385C133.405 69.385 134.427 70.4071 134.427 71.8379C134.427 73.2688 133.405 74.2908 131.769 74.2908C131.769 74.2908 131.769 74.2908 131.565 74.2908C129.521 74.2908 129.521 74.2908 129.521 76.3349C129.521 78.1746 128.703 79.1967 127.068 79.1967C125.637 79.1967 124.615 78.1746 124.615 76.5394C124.615 76.3349 124.615 76.1305 124.615 75.7217C124.82 74.6997 124.411 74.2908 123.389 74.4953C123.184 74.4953 123.184 74.4953 122.98 74.4953C120.936 74.4953 119.914 73.6776 119.914 72.0423C119.914 70.4071 120.936 69.385 122.98 69.5894C124.615 69.7938 124.82 69.1806 124.82 67.7497C124.82 65.7056 125.637 64.6836 127.272 64.6836Z" fill="#0A0909"/>
<path d="M51.0277 83.6944C49.3924 83.6944 48.3704 82.8768 48.3704 81.6503C48.3704 81.4459 48.3704 81.2415 48.3704 81.0371C48.3704 78.993 48.3704 78.993 46.3263 78.993C44.691 78.993 43.6689 78.1754 43.6689 76.7445C43.6689 75.3136 44.691 74.2916 46.3263 74.2916C46.5307 74.2916 46.7351 74.2916 47.1439 74.2916C48.3704 74.496 48.5748 74.0872 48.5748 72.8607C48.5748 72.4519 48.5748 72.0431 48.5748 71.4298C48.7792 70.2034 49.5968 69.3857 50.8233 69.3857C52.0497 69.3857 53.0718 70.2034 53.2762 71.4298C53.4806 72.2475 52.8674 73.4739 53.4806 73.8828C54.0938 74.2916 55.1159 73.8828 55.9335 74.0872C57.16 74.2916 57.9776 75.1092 57.9776 76.3357C57.9776 77.5621 57.16 78.5842 55.9335 78.7886C55.1159 78.993 53.8894 78.3798 53.4806 78.993C53.0718 79.6062 53.4806 80.6283 53.2762 81.4459C52.8674 83.0812 52.0497 83.6944 51.0277 83.6944Z" fill="#0A0909"/>
<path d="M110.511 74.6999C110.92 80.0146 109.489 85.3292 105.809 90.0307C100.699 96.5718 91.5007 99.6379 83.5287 97.3894C75.148 95.1409 68.8113 87.9866 67.7892 79.6058C67.3804 76.5396 67.5848 73.2691 67.5848 70.2029C67.5848 69.5897 67.7892 69.3853 68.4024 69.3853C69.8333 69.3853 71.0598 69.3853 72.4906 69.1809C75.148 68.7721 77.6009 67.5456 79.4406 65.5015C80.8714 64.0706 82.0979 62.8442 83.5287 61.4133C84.142 60.8001 84.5508 60.5957 85.164 61.4133C86.5949 62.8442 88.0258 64.275 89.4566 65.7059C91.9095 68.1588 94.7713 69.1809 98.2462 69.1809C102.13 69.1809 105.809 69.1809 109.693 69.1809C110.715 69.1809 110.92 69.3853 110.92 70.4073C110.511 71.8382 110.511 73.0647 110.511 74.6999ZM89.0478 93.5056C91.5007 93.3012 93.7492 92.2792 95.5889 90.2351C96.4066 89.4174 96.4066 88.3954 95.7933 87.3733C95.1801 86.5557 94.3625 86.1469 93.136 86.3513C92.5228 86.5557 91.9095 86.9645 91.5007 87.5777C89.661 89.0086 88.4346 89.0086 86.5949 87.5777C86.3905 87.3733 86.1861 87.1689 85.7773 86.9645C84.7552 86.1469 83.5287 86.1469 82.5067 87.1689C81.6891 87.9866 81.4846 89.4174 82.5067 90.4395C84.142 92.2792 86.3905 93.3012 89.0478 93.5056ZM81.6891 75.5176C81.6891 75.1088 81.6891 74.6999 81.6891 74.0867C81.4846 72.6558 80.667 71.8382 79.2361 71.8382C78.0097 71.8382 76.9876 72.8603 76.7832 74.2911C76.7832 74.6999 76.7832 75.1088 76.7832 75.722C76.7832 78.1749 77.6009 79.197 79.2361 79.197C81.0758 78.9925 81.6891 77.9705 81.6891 75.5176ZM100.904 75.5176C100.904 72.8603 100.086 71.8382 98.4507 71.8382C96.8154 71.8382 96.2021 72.8603 95.9977 75.3132C95.9977 77.9705 96.8154 78.9925 98.4507 78.9925C100.29 78.9925 100.904 77.9705 100.904 75.5176Z" fill="#F9C8BD"/>
<path d="M115.417 26.4607C115.417 32.7974 115.417 38.5209 115.417 44.4488C115.417 45.4708 115.212 45.6752 114.19 45.6752C97.4285 45.6752 80.4625 45.6752 63.7009 45.6752C63.0877 45.6752 62.4745 45.6752 62.6789 44.8576C62.6789 38.9297 62.6789 33.0018 62.6789 26.6651C63.7009 27.8916 64.5186 28.9136 65.1318 29.9357C67.5847 33.2062 69.8332 36.2724 72.2861 39.5429C73.717 41.587 75.3523 41.587 76.7832 39.5429C79.8493 35.4548 82.9154 31.571 85.7772 27.4828C86.3904 26.6651 86.7992 26.0519 88.0257 26.6651C88.4345 26.8695 88.8433 26.8695 89.2521 26.6651C90.8874 26.0519 91.7051 27.074 92.5227 28.096C95.3844 31.9798 98.2462 35.6592 101.108 39.5429C102.743 41.587 104.174 41.587 105.809 39.5429C108.671 35.6592 111.737 31.7754 114.599 27.8916C114.599 27.2784 114.803 26.8695 115.417 26.4607Z" fill="#F8A223"/>
<path d="M89.0478 50.1709C97.4286 50.1709 105.605 50.1709 113.986 50.1709C115.008 50.1709 115.621 50.3753 115.417 51.6018C115.212 54.2591 114.599 55.0767 111.942 55.0767C96.611 55.0767 81.4847 55.0767 66.1539 55.0767C63.2922 55.0767 62.2702 53.8503 62.679 50.9885C62.8834 50.1709 63.2922 50.3753 63.701 50.3753C66.1539 50.3753 68.6069 50.3753 71.0598 50.3753C76.9877 50.1709 82.9155 50.1709 89.0478 50.1709Z" fill="#ED8C23"/>
<path d="M95.7933 152.786C95.7933 153.399 95.3845 153.603 95.18 153.808C93.3404 155.647 91.5007 157.487 89.661 159.327C89.0478 159.94 88.8433 159.94 88.2301 159.327C86.3904 157.487 84.5507 155.647 82.7111 153.808C82.3022 153.399 82.0978 152.99 82.3022 152.377C84.3463 144.405 86.186 126.417 88.2301 118.445C88.2301 118.036 88.2301 117.423 89.0478 117.423C89.8654 117.423 89.661 118.036 89.8654 118.445C91.9095 126.417 93.7492 144.609 95.7933 152.786Z" fill="#F07577"/>
<path d="M28.3382 64.6823C26.4985 64.6823 24.6588 64.6823 22.8191 64.6823C22.4103 64.6823 22.0015 64.8868 22.0015 64.2735C20.775 59.9809 24.4544 55.2795 28.9514 55.0751C32.6308 54.8707 36.1057 57.9368 36.3101 61.6162C36.5145 63.4559 35.4925 64.4779 33.6528 64.6823C31.8131 64.6823 29.9734 64.6823 28.3382 64.6823Z" fill="#F8C7BC"/>
<path d="M149.758 64.6844C147.918 64.6844 146.283 64.6844 144.443 64.6844C142.603 64.6844 141.581 63.4579 141.786 61.6183C142.194 57.9389 145.465 55.0771 149.144 55.0771C152.824 55.0771 155.89 58.1433 156.094 61.8227C156.299 64.6844 156.299 64.6844 153.437 64.6844C152.21 64.6844 150.984 64.6844 149.758 64.6844Z" fill="#F8C7BC"/>
<path d="M90.2742 59.7803C97.0198 59.7803 103.97 59.7803 110.715 59.7803C111.533 59.7803 112.146 59.7803 112.964 59.7803C114.19 59.5759 115.417 59.1671 115.212 61.4156C115.008 63.4597 114.395 64.6862 112.555 64.6862C110.92 64.6862 109.489 64.6862 107.853 64.6862C104.787 64.6862 101.926 64.6862 98.8594 64.6862C95.7933 64.8906 93.3404 63.8685 91.5007 61.62C91.0919 61.0068 90.4786 60.598 90.0698 60.1892C90.2742 59.9848 90.2742 59.9848 90.2742 59.7803Z" fill="#F27678"/>
<path d="M78.0098 59.9808C75.5568 63.2513 72.6951 65.091 68.6069 64.6822C67.3804 64.4778 66.154 64.6822 64.9275 64.6822C63.9055 64.6822 63.0878 64.2734 62.679 63.2513C62.2702 62.2293 62.4746 61.0028 62.679 59.9808C62.679 59.7764 62.8834 59.7764 63.0878 59.7764C68.1981 60.1852 73.1039 59.572 78.0098 59.9808Z" fill="#F17678"/>
<path d="M89.0479 102.909C89.8655 103.113 90.8876 102.5 91.7052 103.318C93.1361 104.953 93.3405 105.157 91.9096 106.997C91.092 108.019 90.2744 109.041 89.4567 110.268C89.0479 110.677 88.8435 110.881 88.4347 110.268C87.4126 108.837 86.1862 107.406 85.1641 105.771C84.5509 104.953 86.1862 102.909 87.2082 102.909C87.8214 102.909 88.4347 102.909 89.0479 102.909Z" fill="#EC7476"/>
<path d="M62.679 19.0994C62.679 20.3259 61.4526 21.5523 60.2261 21.5523C58.9997 21.5523 57.7732 20.3259 57.7732 19.0994C57.7732 17.8729 58.9997 16.6465 60.2261 16.6465C61.4526 16.6465 62.679 17.8729 62.679 19.0994Z" fill="#E58723"/>
<path d="M91.2964 19.101C91.2964 20.3275 90.2743 21.554 89.0479 21.554C87.8214 21.554 86.595 20.5319 86.595 19.3054C86.595 18.079 87.617 16.8525 88.8435 16.8525C90.2743 16.6481 91.2964 17.8746 91.2964 19.101Z" fill="#E58723"/>
<path d="M120.118 19.1007C120.118 20.3272 119.096 21.5536 117.87 21.5536C116.643 21.5536 115.417 20.5316 115.417 19.3051C115.417 18.0787 116.439 16.8522 117.665 16.8522C118.892 16.6478 120.118 17.6699 120.118 19.1007Z" fill="#E58723"/>
<path d="M89.0478 93.5056C86.3905 93.3012 84.142 92.2791 82.3023 90.235C81.4847 89.213 81.4847 87.9865 82.3023 86.9645C83.12 86.1468 84.3464 85.9424 85.5729 86.76C85.7773 86.9645 86.1861 87.1689 86.3905 87.3733C88.2302 88.8041 89.4567 88.8041 91.2963 87.3733C91.9096 86.9645 92.3184 86.3512 92.9316 86.1468C93.9537 85.9424 94.9757 86.3512 95.5889 87.1689C96.2022 88.1909 96.2022 89.213 95.3845 90.0306C93.7493 92.0747 91.7052 93.0967 89.0478 93.5056Z" fill="#110C0B"/>
<path d="M81.689 75.5176C81.689 77.9705 81.0758 78.9925 79.2361 78.9925C77.6008 78.9925 76.7832 77.9705 76.7832 75.5176C76.7832 75.1088 76.7832 74.6999 76.7832 74.0867C76.7832 72.6558 77.8052 71.8382 79.2361 71.6338C80.4626 71.6338 81.4846 72.6558 81.689 73.8823C81.8934 74.4955 81.689 74.9043 81.689 75.5176Z" fill="#130D0C"/>
<path d="M100.904 75.5173C100.904 77.9702 100.29 78.9922 98.4507 78.9922C96.8154 78.9922 95.9978 77.9702 95.9978 75.3129C95.9978 72.8599 96.611 71.8379 98.4507 71.8379C100.29 71.8379 100.904 72.8599 100.904 75.5173Z" fill="#130D0C"/>
<path d="M70.651 95.7545C67.176 92.0751 64.5187 87.9869 63.2922 83.0811C62.2702 79.1973 62.4746 75.1091 62.679 71.2253C62.679 69.7944 62.4746 68.9768 61.0437 68.3636C58.7952 67.1371 57.7732 65.093 57.7732 62.4357C57.9776 58.7563 57.9776 55.0769 57.7732 51.602C57.5688 43.63 57.7732 35.4536 57.7732 27.4816C57.7732 26.664 57.5688 26.0508 56.7511 25.4375C53.2761 23.5979 52.0497 19.3053 53.8894 15.8303C55.7291 12.3553 59.8173 10.9245 63.2922 12.5597C66.7672 14.195 68.4025 18.2832 66.9716 21.7582C66.5628 22.7802 66.7672 23.5979 67.3804 24.4155C69.6289 27.2772 71.8774 30.3434 74.1259 33.4095C74.5348 34.0228 74.7392 34.2272 75.3524 33.4095C77.8053 30.139 80.0538 26.8684 82.7111 23.8023C83.12 23.189 82.9156 22.7802 82.7111 22.167C80.8715 18.2832 82.9156 13.5818 86.7993 12.1509C90.8875 10.7201 95.1801 13.173 96.2022 17.2612C96.611 18.8964 96.4066 20.5317 95.589 21.9626C95.3845 22.5758 95.1801 22.9846 95.589 23.5979C98.0419 26.8684 100.495 29.9346 102.948 33.2051C103.357 33.8183 103.561 33.8183 104.174 33.2051C106.627 29.9346 109.08 26.664 111.533 23.5979C111.942 22.9846 111.737 22.5758 111.533 21.9626C109.693 17.8744 111.737 13.3774 115.621 12.1509C119.709 10.7201 124.002 13.173 125.024 17.4656C125.842 20.3273 124.206 23.5979 121.549 25.2331C120.731 25.642 120.527 26.2552 120.527 27.2772C120.527 35.658 120.527 43.8344 120.527 52.2152C120.527 53.2373 120.527 54.2593 120.118 55.2814C119.505 56.5078 120.323 57.7343 120.323 59.1651C120.527 60.596 120.527 61.8225 120.527 63.2533C120.323 65.7062 119.096 67.5459 116.848 68.7724C116.03 69.1812 115.826 69.7944 115.826 70.6121C115.826 74.2915 116.234 78.1752 115.417 81.8546C114.395 87.1693 111.942 91.6663 108.058 95.5501C107.854 95.7545 107.854 95.9589 107.649 95.9589C104.787 98.2074 101.926 100.456 98.4507 101.478C97.0198 101.887 97.2242 102.296 97.8375 103.318C99.4727 105.362 99.2683 105.771 97.8375 107.815C96.611 109.246 95.589 110.881 94.3625 112.312C93.9537 112.925 93.7493 113.538 93.9537 114.356C96.4066 123.759 98.6551 143.382 101.108 152.785C101.517 154.216 101.108 155.238 100.086 156.26C98.4507 157.895 96.8154 159.326 94.9757 161.166C95.7934 161.166 113.168 152.785 113.168 151.354C113.168 141.338 113.168 129.278 113.168 119.466C113.168 115.991 115.417 112.925 119.096 112.312C121.345 111.903 123.593 111.698 125.842 111.494C134.018 110.676 142.194 109.654 150.371 108.837C153.641 108.428 156.503 105.566 156.503 102.091C156.503 91.6663 156.503 81.037 156.503 70.6121C156.503 69.7944 156.299 69.59 155.481 69.59C153.232 69.59 150.984 69.59 148.531 69.59C147.305 69.59 146.691 69.7944 146.691 71.2253C146.691 77.7664 146.691 84.5119 146.691 91.053C146.691 95.1412 143.421 98.2074 139.537 98.2074C132.587 98.2074 125.637 98.2074 118.483 98.2074C116.643 98.2074 116.03 97.7986 115.417 95.7545C115.826 93.9148 116.439 93.3016 118.483 93.3016C125.228 93.3016 131.769 93.3016 138.515 93.3016C141.172 93.3016 141.786 92.4839 141.786 89.8266C141.786 83.2855 141.786 76.7444 141.786 69.9989C141.786 69.3856 141.99 68.9768 141.172 68.568C137.289 66.3195 136.062 63.0489 137.493 58.7563C139.333 53.0329 144.852 49.3535 150.575 50.1711C156.503 50.9888 160.796 56.099 161 62.0269C161 75.1091 161 88.3957 161 101.478C161 107.406 156.503 112.516 150.575 113.129C140.763 114.356 130.952 115.378 120.936 116.4C118.483 116.604 117.87 117.422 117.87 119.875C117.87 130.504 117.87 141.338 117.87 151.967C117.87 154.624 104.583 165.458 89.2523 165.458C74.3303 165.458 60.4305 154.624 60.4305 151.967C60.4305 141.338 60.4305 130.709 60.4305 119.875C60.4305 117.217 59.8173 116.604 57.1599 116.195C49.3924 115.378 41.4204 114.356 33.6528 113.538C31.1999 113.334 28.5426 113.129 26.0897 112.516C20.9794 111.085 17.3 106.384 17.3 101.069C17.3 87.9869 17.3 74.7003 17.3 61.6181C17.3 54.6681 22.8191 49.5579 29.769 49.7623C36.1057 49.7623 41.4204 55.4858 41.216 62.0269C41.216 64.8886 39.7851 66.9327 37.3322 68.1592C36.719 68.568 36.5146 68.9768 36.5146 69.59C36.5146 76.3355 36.5146 83.0811 36.5146 90.031C36.5146 92.0751 37.5366 92.8927 39.5807 92.8927C46.3262 92.8927 53.0717 92.8927 60.0217 92.8927C61.8614 92.8927 62.679 93.506 63.0878 95.3457C62.4746 97.1853 62.0658 97.7986 60.0217 97.7986C53.2761 97.7986 46.3262 97.7986 39.5807 97.7986C34.8793 97.7986 31.8131 94.7324 31.8131 90.2354C31.8131 83.6943 31.8131 76.9488 31.8131 70.4077C31.8131 69.59 31.6087 69.1812 30.7911 69.1812C28.3382 69.1812 25.8853 69.1812 23.4323 69.1812C22.4103 69.1812 22.2059 69.3856 22.2059 70.4077C22.2059 80.8326 22.2059 91.2575 22.2059 101.682C22.2059 104.953 24.8632 108.019 28.1338 108.428C31.6087 108.837 34.8793 109.246 38.3542 109.654C45.0998 110.472 51.8453 111.085 58.5908 111.903C63.0878 112.516 65.5407 115.378 65.5407 119.875C65.5407 129.686 65.5407 141.542 65.5407 151.354C65.5407 152.58 79.8494 161.166 83.7332 161.166C81.8935 159.326 80.2582 157.691 78.623 156.055C77.6009 155.238 77.3965 154.216 77.8053 152.785C80.2582 143.382 82.5067 123.554 84.9596 114.151C85.1641 113.334 84.9597 112.72 84.5508 112.107C83.3244 110.472 82.0979 108.837 80.8715 107.201C79.645 105.771 79.645 104.953 80.8715 103.522C81.0759 103.113 81.2803 102.909 81.4847 102.5C81.8935 102.091 81.8935 101.682 81.2803 101.478C76.7833 100.456 73.7171 98.2074 70.651 95.7545ZM110.511 74.7003C110.511 72.8606 110.511 71.8385 110.511 70.6121C110.511 69.59 110.306 69.3856 109.284 69.3856C105.401 69.3856 101.721 69.3856 97.8375 69.3856C94.3625 69.3856 91.5008 68.1592 89.0478 65.9107C87.617 64.4798 86.1861 63.0489 84.7552 61.6181C84.142 61.0048 83.7332 61.0048 83.12 61.6181C81.8935 63.0489 80.4626 64.2754 79.0318 65.7062C76.9877 67.7503 74.7392 68.9768 72.0818 69.3856C70.8554 69.59 69.4245 69.59 67.9936 69.59C67.3804 69.59 67.176 69.7944 67.176 70.4077C67.3804 73.4738 66.9716 76.7444 67.3804 79.8105C68.6069 88.1913 74.7392 95.3456 83.12 97.5942C91.2963 99.8427 100.29 96.7765 105.401 90.2354C109.489 85.3296 110.92 80.0149 110.511 74.7003ZM115.417 26.4596C115.008 27.0728 114.803 27.2772 114.599 27.4816C111.737 31.3654 108.671 35.2492 105.809 39.133C104.174 41.1771 102.743 41.1771 101.108 39.133C98.2463 35.2492 95.3845 31.5698 92.5228 27.6861C91.7052 26.4596 90.8875 25.642 89.2523 26.2552C88.8434 26.4596 88.4346 26.4596 88.0258 26.2552C87.0037 25.8464 86.3905 26.4596 85.7773 27.0728C82.7111 31.161 79.8494 35.0448 76.7833 39.133C75.3524 41.1771 73.7171 41.1771 72.2863 39.133C69.8333 35.8624 67.5848 32.7963 65.1319 29.5257C64.3143 28.5037 63.701 27.4816 62.679 26.2552C62.679 32.5919 62.679 38.5198 62.679 44.4476C62.679 45.4697 63.0878 45.2653 63.701 45.2653C80.4626 45.2653 97.4286 45.2653 114.19 45.2653C115.008 45.2653 115.417 45.0609 115.417 44.0388C115.212 38.5198 115.417 32.5919 115.417 26.4596ZM89.0478 50.1711C83.12 50.1711 76.9877 50.1711 71.0598 50.1711C68.6069 50.1711 66.154 50.1711 63.701 50.1711C63.2922 50.1711 62.679 49.9667 62.679 50.7843C62.2702 53.6461 63.2922 54.8725 66.154 54.8725C81.4847 54.8725 96.611 54.8725 111.942 54.8725C114.599 54.8725 115.212 54.0549 115.417 51.3976C115.417 50.1711 115.008 49.9667 113.986 49.9667C105.605 50.1711 97.2242 50.1711 89.0478 50.1711ZM95.7934 152.785C95.7934 152.58 95.7934 152.58 95.589 152.376C93.5449 144.404 91.7052 126.212 89.6611 118.24C89.6611 117.831 89.6611 117.217 88.8434 117.217C88.0258 117.217 88.2302 117.831 88.0258 118.24C85.9817 126.212 84.142 144.2 82.0979 152.172C81.8935 152.785 82.0979 153.194 82.5067 153.602C84.3464 155.442 86.1861 157.282 88.0258 159.121C88.639 159.735 89.0478 159.735 89.4567 159.121C91.2963 157.282 93.136 155.442 94.9757 153.602C95.589 153.602 95.7934 153.398 95.7934 152.785ZM28.3382 64.6842C30.1779 64.6842 31.8131 64.6842 33.6528 64.6842C35.4925 64.6842 36.5146 63.4577 36.3101 61.6181C36.1057 57.9387 32.6308 54.8725 28.9514 55.077C24.4544 55.2814 20.775 59.9828 22.0015 64.2754C22.2059 64.8886 22.6147 64.6842 22.8191 64.6842C24.6588 64.6842 26.4985 64.6842 28.3382 64.6842ZM149.758 64.6842C150.984 64.6842 152.21 64.6842 153.437 64.6842C156.299 64.6842 156.299 64.6842 156.094 61.8225C155.89 58.1431 152.824 55.077 149.144 55.077C145.465 55.077 142.194 57.9387 141.786 61.6181C141.581 63.4577 142.603 64.6842 144.443 64.6842C146.283 64.6842 147.918 64.6842 149.758 64.6842ZM90.2743 59.7784C90.2743 59.9828 90.0699 59.9828 90.0699 60.1872C90.4787 60.596 91.0919 61.0048 91.5008 61.6181C93.5449 63.8666 95.9978 64.8886 98.8595 64.6842C101.926 64.4798 104.787 64.6842 107.854 64.6842C109.489 64.6842 110.92 64.6842 112.555 64.6842C114.395 64.6842 115.008 63.4577 115.212 61.4136C115.417 59.3695 114.19 59.7784 112.964 59.7784C112.146 59.7784 111.533 59.7784 110.715 59.7784C103.97 59.7784 97.2242 59.7784 90.2743 59.7784ZM78.0097 59.9828C72.8995 59.7784 68.1981 60.1872 63.2922 59.7784C63.0878 59.7784 62.8834 59.7784 62.8834 59.9828C62.679 61.0048 62.4746 62.2313 62.8834 63.2533C63.2922 64.2754 64.1099 64.6842 65.1319 64.6842C66.3584 64.6842 67.5848 64.6842 68.8113 64.6842C72.8995 65.093 75.7612 63.0489 78.0097 59.9828ZM89.0478 102.909C88.4346 102.909 87.8214 102.909 87.2082 102.909C86.1861 102.909 84.5508 105.157 85.1641 105.771C86.1861 107.201 87.4126 108.632 88.4346 110.268C88.8434 110.881 89.0478 110.676 89.4567 110.268C90.2743 109.246 91.0919 108.223 91.9096 106.997C93.3404 105.157 93.3404 104.953 91.7052 103.318C90.8875 102.5 89.8655 103.113 89.0478 102.909ZM62.679 19.1009C62.679 17.8744 61.6569 16.6479 60.2261 16.6479C58.9996 16.6479 57.7732 17.67 57.7732 19.1009C57.7732 20.3273 58.7952 21.5538 60.2261 21.5538C61.4525 21.5538 62.679 20.3273 62.679 19.1009ZM91.2963 19.1009C91.2963 17.8744 90.0699 16.6479 88.8434 16.8523C87.617 16.8523 86.3905 18.0788 86.5949 19.3053C86.5949 20.5317 87.8214 21.7582 89.0478 21.5538C90.2743 21.5538 91.2963 20.3273 91.2963 19.1009ZM120.118 19.1009C120.118 17.8744 118.892 16.6479 117.665 16.8523C116.439 16.8523 115.212 18.0788 115.417 19.3053C115.417 20.5317 116.643 21.7582 117.87 21.5538C119.096 21.3494 120.118 20.3273 120.118 19.1009Z" fill="#060505"/>
</svg>
