<svg width="125" height="125" viewBox="0 0 125 125" fill="none" xmlns="http://www.w3.org/2000/svg">
<rect width="125" height="125" rx="5" fill="white" fill-opacity="0.5"/>
<rect x="7.69223" y="7.69238" width="109.615" height="109.615" rx="5" fill="#7171FF" fill-opacity="0.5"/>
<path d="M62.0079 113.057C47.9905 113.057 33.9732 113.057 19.9558 113.057C16.8038 113.057 16.0621 112.316 16.025 109.164C16.025 108.422 16.025 107.68 16.025 106.939C16.025 104.38 16.6184 103.638 19.14 103.379C19.8446 103.305 20.1412 103.082 20.1041 102.378C20.0671 101.933 20.1041 101.525 20.1041 101.08C20.1041 82.4269 20.1041 63.7742 20.1041 45.1214C20.1041 41.9694 20.1042 41.9694 23.3304 41.9694C29.5232 41.9694 35.679 41.8952 41.8718 42.0065C43.5777 42.0436 44.2081 41.7098 44.1339 39.8186C43.9856 35.1832 43.9856 30.5478 44.1339 25.9125C44.171 24.1325 43.726 23.4279 41.9089 23.6875C41.0189 23.7987 40.0548 23.9842 40.166 22.3896C40.2402 21.2771 40.4627 20.9434 41.6123 20.9434C55.2588 20.9804 68.9053 20.9804 82.5518 20.9434C83.5531 20.9434 83.9239 21.1659 83.9239 22.2413C83.9239 23.3538 83.6643 23.7246 82.4777 23.6875C79.9931 23.6504 79.9931 23.7246 79.9931 26.2833C79.9931 30.9928 80.0302 35.6653 79.956 40.3748C79.956 41.5986 80.3269 41.9323 81.5135 41.8952C88.1143 41.8581 94.7151 41.8581 101.353 41.8581C103.8 41.8581 103.949 42.0436 103.949 44.491C103.949 63.4033 103.949 82.2786 103.912 101.191C103.912 102.526 103.949 103.342 105.692 103.305C107.027 103.268 107.88 104.343 107.954 105.752C108.028 107.05 107.991 108.348 107.991 109.646C107.954 111.945 107.027 112.909 104.765 112.909C99.5729 112.946 94.3813 112.909 89.1897 112.909C80.1785 113.057 71.0932 113.057 62.0079 113.057ZM96.495 44.8619C91.6001 44.8248 86.7422 44.8989 81.8473 44.7506C80.2898 44.7135 79.919 45.1214 79.919 46.6789C79.9931 63.0325 79.956 79.4232 79.956 95.7768C79.956 98.1872 80.0673 100.56 80.1415 102.971C80.5494 103.713 81.2539 103.342 81.8102 103.342C87.5581 103.379 93.3059 103.305 99.0538 103.416C100.797 103.453 101.316 103.082 101.316 101.228C101.242 83.9473 101.279 66.6666 101.279 49.3489C101.279 44.6394 101.279 44.6394 96.495 44.8619ZM43.8743 103.008C43.9114 102.452 44.0227 101.933 44.0227 101.376C44.0597 90.6964 44.0597 80.0165 44.0968 69.3366C44.0968 61.6604 44.0968 54.0214 44.0968 46.3452C44.0968 45.5664 44.2822 44.7877 42.9473 44.8248C37.8298 44.8989 32.7124 44.899 27.5578 44.899C26.5195 44.8619 25.4441 44.936 24.4058 44.8248C23.145 44.6765 22.737 45.0844 22.737 46.4193C22.7741 64.8867 22.7741 83.354 22.737 101.784C22.737 103.119 23.145 103.416 24.4058 103.416C30.3761 103.342 36.3836 103.416 42.3539 103.379C42.9102 103.342 43.5406 103.675 43.8743 103.008ZM52.7742 95.1093C52.8113 92.0314 52.8484 88.9535 52.8855 85.8756C52.9226 83.2427 53.108 83.0202 55.6667 82.9832C57.7434 82.9832 59.8571 82.9461 61.9337 82.909C64.1587 82.9461 66.3837 82.9461 68.6087 82.9832C70.8336 82.9832 71.1303 83.3169 71.1674 85.579C71.1674 90.066 71.1674 94.5901 71.1674 99.0771C71.1674 103.342 71.1674 103.268 75.3948 103.342C76.804 103.379 77.249 103.008 77.249 101.525C77.2119 76.2341 77.2119 50.9064 77.249 25.6158C77.249 24.2067 76.9894 23.7246 75.4319 23.7246C66.4949 23.7987 57.5209 23.7246 48.5839 23.7246C48.0647 23.7246 47.4714 23.5392 46.9893 23.91C46.9522 24.5775 46.841 25.245 46.841 25.9125C46.841 41.1165 46.841 56.3576 46.841 71.5616C46.841 80.3132 46.878 89.0648 46.878 97.8163C46.6555 103.564 46.6555 103.564 51.5876 103.268C51.6617 103.268 51.6988 103.268 51.773 103.268C52.5517 103.342 52.8855 103.008 52.8484 102.192C52.8484 99.893 52.8113 97.4826 52.7742 95.1093ZM62.045 110.35C75.8028 110.35 89.5605 110.313 103.318 110.387C104.95 110.387 105.469 110.017 105.358 108.348C105.247 106.939 105.432 106.012 103.392 106.049C75.8028 106.123 48.213 106.123 20.6233 106.049C18.8062 106.049 18.6579 106.716 18.6579 108.2C18.6579 109.757 18.8433 110.425 20.7346 110.425C34.5294 110.313 48.2872 110.35 62.045 110.35ZM60.5987 94.4789C60.5987 92.6989 60.5987 90.9189 60.5987 89.1018C60.5987 85.8015 60.5987 85.9127 57.3725 85.8015C55.8892 85.7644 55.7038 86.2835 55.7038 87.5814C55.778 91.6976 55.7409 95.8509 55.7409 99.9671C55.7409 103.416 55.7409 103.342 59.2267 103.379C60.4875 103.379 60.5987 102.897 60.5987 101.895C60.5617 99.4109 60.5987 96.9634 60.5987 94.4789ZM63.4912 94.5159C63.4912 96.3701 63.4912 98.2242 63.4912 100.078C63.4912 103.379 63.4912 103.305 66.7174 103.379C67.9782 103.416 68.3862 103.119 68.3491 101.784C68.2378 97.668 68.312 93.5147 68.312 89.3985C68.312 85.6902 68.312 85.7273 64.6037 85.8385C63.5283 85.8756 63.417 86.2835 63.4541 87.1364C63.5283 89.5839 63.4912 92.0685 63.4912 94.5159Z" fill="#0C0808"/>
<path d="M61.9708 82.9087C59.8941 82.9458 57.7804 82.9458 55.7038 82.9828C53.145 82.9828 52.9225 83.2053 52.9225 85.8753C52.8855 88.9532 52.8484 92.0311 52.8113 95.109C50.8459 96.0731 49.2513 97.7419 46.9151 97.8902C46.9151 89.1386 46.878 80.387 46.878 71.6355C46.878 56.4314 46.878 41.1903 46.878 25.9863C46.878 25.3188 46.9522 24.6513 47.0264 23.9838C47.6568 23.9838 48.3613 24.0209 49.0288 24.0209C56.0004 24.0209 62.9349 24.0209 69.9065 24.0209C70.6111 24.0209 71.6865 23.6501 71.6494 24.9851C71.5382 28.1742 72.0203 31.4004 71.0561 34.5154C71.019 34.33 70.9819 34.1446 70.9449 33.9592C70.1661 29.6575 66.7545 26.6909 62.3416 26.4313C58.3737 26.2088 54.4429 29.0271 53.2934 32.995C52.1067 37.0371 53.8867 41.3758 57.595 43.4524C61.3404 45.529 65.7532 44.7874 68.757 41.6724C69.647 40.7083 70.0178 39.4474 70.9078 38.4833C71.2415 41.8208 70.574 45.1582 70.4628 48.4957C68.8682 48.5328 67.2737 48.5699 65.642 48.6069C64.2699 48.6069 63.6024 49.3115 63.6024 50.6465C63.6024 52.5748 63.6024 54.466 63.6024 56.3944C63.6024 61.1039 63.6024 61.1039 68.312 61.3264C68.4232 62.8839 67.6445 64.3301 67.4961 65.8505C66.6803 65.8876 65.9016 65.9247 65.0858 65.9247C64.1587 65.9247 63.6024 66.4809 63.6024 67.2597C63.6395 70.8567 63.1574 74.4908 63.8991 78.0879C63.3058 79.6825 62.6383 81.3141 61.9708 82.9087ZM50.5122 54.9481C50.5122 56.4314 50.5492 57.9148 50.5122 59.3981C50.4751 60.6218 50.9571 61.2893 52.218 61.2893C54.3688 61.2893 56.5196 61.2893 58.7075 61.2893C59.9312 61.2893 60.5246 60.6218 60.5246 59.4352C60.5246 56.4685 60.5246 53.5019 60.5246 50.5352C60.5246 49.2373 59.8571 48.6069 58.5592 48.6069C56.5196 48.6069 54.48 48.6069 52.4405 48.6069C51.0313 48.6069 50.4751 49.3115 50.5122 50.6836C50.5492 52.0927 50.4751 53.539 50.5122 54.9481ZM50.5122 72.1546C50.5122 73.6379 50.5492 75.1213 50.5122 76.6046C50.4751 77.9396 51.1055 78.5329 52.4034 78.5329C54.4429 78.5329 56.4825 78.5329 58.5221 78.5329C59.82 78.5329 60.4875 77.9025 60.4875 76.6417C60.5246 73.675 60.4875 70.7084 60.4875 67.7417C60.4875 66.4438 59.8571 65.8505 58.5221 65.8876C56.4825 65.9247 54.4429 65.9618 52.4034 65.8876C50.9201 65.8505 50.438 66.518 50.4751 67.8901C50.5492 69.2992 50.5122 70.7455 50.5122 72.1546Z" fill="#F17B7D"/>
<path d="M71.0561 34.5153C72.0203 31.4003 71.5382 28.1741 71.6495 24.985C71.6865 23.65 70.6111 24.0208 69.9066 24.0208C62.935 23.9837 56.0004 24.0208 49.0289 24.0208C48.3614 24.0208 47.6939 23.9837 46.9893 23.9837C47.4714 23.6129 48.0647 23.7983 48.5839 23.7983C57.5209 23.7983 66.4949 23.8354 75.4319 23.7983C76.9523 23.7983 77.249 24.2804 77.249 25.6895C77.2119 50.9801 77.2119 76.3078 77.249 101.598C77.249 103.082 76.804 103.452 75.3948 103.415C71.1674 103.341 71.1674 103.415 71.1674 99.1509C71.1674 94.6638 71.1674 90.1397 71.1674 85.6527C71.1674 83.3906 70.8336 83.094 68.6087 83.0569C66.3837 83.0569 64.1587 83.0198 61.9337 82.9827C62.6012 81.3511 63.2316 79.7565 63.8991 78.1248C66.6803 79.0519 69.4986 78.4586 72.3169 78.4957C73.244 78.4957 73.5407 77.6428 73.5407 76.7528C73.5036 73.7491 73.5036 70.7082 73.5407 67.7045C73.5407 66.4437 72.9474 65.9616 71.7236 65.9616C70.3145 65.9987 68.9053 65.9245 67.4962 65.8875C67.6445 64.3671 68.3862 62.9579 68.312 61.3633C69.4245 61.3263 70.537 61.2892 71.6495 61.3263C73.0586 61.3633 73.6519 60.7329 73.6149 59.3238C73.5407 56.9134 73.6149 54.503 73.6149 52.0926C73.6149 48.8293 73.6149 48.8293 70.4628 48.5697C70.5741 45.2323 71.2415 41.9319 70.9078 38.5573C70.9449 37.1853 71.019 35.8503 71.0561 34.5153Z" fill="#E93F3E"/>
<path d="M62.045 110.35C48.2872 110.35 34.5294 110.313 20.7716 110.388C18.9175 110.388 18.695 109.72 18.695 108.163C18.695 106.679 18.8433 106.012 20.6604 106.012C48.2501 106.086 75.8398 106.086 103.43 106.012C105.469 106.012 105.284 106.939 105.395 108.311C105.506 109.98 104.987 110.35 103.355 110.35C89.5605 110.313 75.8027 110.35 62.045 110.35Z" fill="#CFD1D6"/>
<path d="M43.8743 103.008C43.5035 103.712 42.8731 103.342 42.391 103.342C36.4206 103.379 30.4132 103.342 24.4428 103.379C23.182 103.379 22.7741 103.082 22.7741 101.747C22.8112 83.2797 22.8112 64.8124 22.7741 46.3822C22.7741 45.0472 23.182 44.6393 24.4428 44.7876C25.4812 44.8989 26.5195 44.8618 27.5949 44.8618C27.7803 46.0855 27.1499 47.3834 28.0028 48.533C27.187 51.8705 27.5949 55.2079 27.7432 58.5825C27.7432 58.8421 28.1141 59.0646 28.3366 59.2871C28.3366 60.14 28.3366 60.9929 28.3366 61.8458C27.6691 62.3279 27.5578 62.9954 27.5578 63.8112C27.5949 65.9249 27.5578 68.0016 27.5578 70.1153C27.5578 72.7111 27.632 72.7853 30.1907 73.0078C30.0424 73.7865 30.4132 74.4911 30.5615 75.1957C27.5578 75.3811 27.5578 75.3811 27.5578 78.459C27.5578 80.3131 27.5578 82.1673 27.5578 83.9843C27.5578 86.2093 27.7061 86.3576 30.0053 86.3576C31.5257 86.3576 33.0832 86.3947 34.6036 86.3947C34.7148 87.1735 34.8632 87.9522 34.9744 88.768C33.1203 88.8051 31.3032 88.8793 29.449 88.8422C28.1882 88.8422 27.4836 89.2501 27.5207 90.6593C27.5578 93.1067 27.5578 95.5913 27.5207 98.0388C27.4836 99.4108 28.1511 99.93 29.412 99.93C32.119 99.93 34.8261 99.93 37.5331 99.93C38.7939 99.93 39.4244 99.2996 39.4244 97.9646C39.3873 96.815 39.4614 95.6284 39.4985 94.4788C42.4652 95.888 44.8756 97.6679 43.9856 101.525C43.8743 102.007 43.9114 102.489 43.8743 103.008Z" fill="#D9DBDF"/>
<path d="M96.495 44.8615C101.279 44.602 101.279 44.602 101.279 49.3486C101.279 66.6292 101.242 83.9099 101.316 101.228C101.316 103.082 100.797 103.453 99.0537 103.416C93.3059 103.304 87.558 103.378 81.8102 103.341C81.2539 103.341 80.5493 103.712 80.1414 102.971C80.1043 101.45 80.1043 99.8926 80.0673 98.3722C80.0673 97.8902 80.0673 97.4081 80.5493 97.0743C81.8843 96.2214 83.1822 95.3314 84.5172 94.4785C84.5543 95.6281 84.5914 96.8148 84.5914 97.9643C84.5543 99.2993 85.1847 99.9297 86.4455 99.9297C89.1526 99.9297 91.8596 99.9297 94.5667 99.9297C95.8275 99.9297 96.495 99.4106 96.4579 98.0385C96.4208 95.591 96.4208 93.1065 96.4579 90.659C96.495 89.2498 95.7904 88.8419 94.5296 88.8419C92.6755 88.8419 90.8584 88.8048 89.0043 88.7678C89.1155 87.989 89.2638 87.2103 89.3751 86.3944C90.9697 86.3944 92.5642 86.2832 94.1588 86.3574C95.7904 86.4315 96.5321 85.8753 96.4579 84.1324C96.3467 82.2412 96.4208 80.3128 96.4208 78.4216C96.4208 75.3437 96.4208 75.3437 93.4171 75.1583C93.5655 74.4166 93.9363 73.7492 93.788 72.9704C94.7521 72.7479 96.2354 73.1558 96.3096 71.7467C96.495 68.78 96.3838 65.8134 96.3467 62.8839C96.3467 62.5501 95.9017 62.1793 95.6421 61.8455C95.6421 60.9926 95.6421 60.1397 95.6421 59.2868C96.2354 58.7676 96.4579 58.1372 96.4208 57.3214C96.3467 55.8381 96.4579 54.3548 96.3838 52.8715C96.3096 51.4252 96.7917 49.9048 95.9759 48.5327C96.94 47.3832 96.3467 46.0853 96.495 44.8615Z" fill="#D9DBDF"/>
<path d="M93.8992 72.9705C94.0476 73.7492 93.6767 74.4538 93.5284 75.1584C91.4889 75.1955 89.4493 75.2325 87.4468 75.2325C84.9252 75.2325 84.6656 75.4921 84.6656 77.9396C84.6656 79.1262 84.6656 80.2758 84.6656 81.4625C84.6285 87.2103 84.406 86.2462 89.301 86.3574C89.3751 86.3574 89.4122 86.3574 89.4864 86.3945C89.3751 87.1732 89.2268 87.952 89.1155 88.7678C88.3739 88.8049 87.6322 88.9161 86.8906 88.8791C85.1848 88.7307 84.5543 89.5466 84.6656 91.1782C84.7398 92.2907 84.6285 93.4032 84.5914 94.5157C83.2564 95.3686 81.9585 96.2586 80.6235 97.1115C80.1044 97.4452 80.1044 97.9273 80.1415 98.4094C80.1785 99.9298 80.1786 101.487 80.2156 103.008C80.1415 100.597 80.0302 98.224 80.0302 95.8136C80.0302 79.46 80.0302 63.0693 79.9931 46.7157C79.9931 45.1583 80.364 44.7503 81.9214 44.7874C86.7793 44.8987 91.6743 44.8616 96.5692 44.8987C96.3838 46.1224 97.0142 47.4203 96.1613 48.5699C92.8238 47.8653 89.4122 48.3103 86.0377 48.3103C85.0364 48.3103 84.7027 49.2003 84.7027 50.2015C84.7398 52.5007 84.7768 54.7627 84.7027 57.0619C84.6285 58.6935 85.2218 59.4352 86.9647 59.361C89.9314 59.2869 92.898 59.3239 95.8646 59.3239C95.8646 60.1769 95.8646 61.0298 95.8646 61.8827C92.8609 61.8827 89.8201 61.9198 86.8164 61.8456C85.296 61.8085 84.7027 62.476 84.7398 63.9593C84.8139 65.9989 84.7398 68.0384 84.7398 70.0409C84.7398 72.6738 84.9623 72.8963 87.521 72.9334C89.5976 72.8963 91.7484 72.9334 93.8992 72.9705Z" fill="#F3F2F2"/>
<path d="M30.5244 75.1593C30.3761 74.4176 30.0053 73.7501 30.1536 72.9714C32.3786 72.9343 34.5665 72.8972 36.7915 72.8602C39.0535 72.8231 39.3873 72.5264 39.3873 70.3385C39.3873 68.1877 39.3502 66.0369 39.3873 63.8861C39.4243 62.4028 38.831 61.7353 37.3106 61.7724C34.3069 61.8465 31.2661 61.8094 28.2624 61.8094C28.2624 60.9565 28.2624 60.1036 28.2624 59.2507C31.3403 59.2507 34.4181 59.2507 37.496 59.2878C38.7198 59.2878 39.3502 58.8057 39.3502 57.5449C39.3502 55.0233 39.3502 52.5016 39.3502 49.9429C39.3502 49.0158 38.9052 48.2371 38.0152 48.2371C34.6406 48.2742 31.2661 47.7921 27.8915 48.4967C27.0757 47.3471 27.669 46.0492 27.4836 44.8254C32.6011 44.7884 37.7185 44.8254 42.8731 44.7513C44.208 44.7142 44.0226 45.4929 44.0226 46.2717C44.0226 53.9478 44.0226 61.5869 44.0226 69.2631C44.0226 79.943 43.9855 90.6229 43.9485 101.303C43.9485 101.859 43.8743 102.378 43.8001 102.934C43.8372 102.452 43.7631 101.933 43.8743 101.451C44.7643 97.5574 42.3539 95.8145 39.3873 94.4054C39.3502 94.1087 39.3131 93.7749 39.3131 93.4783C39.2389 89.0654 39.2389 89.0654 34.9002 88.6946C34.789 87.9158 34.6406 87.1371 34.5294 86.3213C35.4565 86.2842 36.3835 86.21 37.3106 86.2842C38.8681 86.3584 39.3873 85.6167 39.3502 84.1705C39.3131 81.9084 39.276 79.6093 39.3502 77.3472C39.3873 75.7155 38.6085 75.1593 37.0881 75.1964C34.9744 75.2705 32.7494 75.1964 30.5244 75.1593Z" fill="#F3F2F2"/>
<path d="M60.5988 94.4789C60.5988 96.9264 60.5617 99.411 60.6358 101.858C60.6729 102.897 60.5246 103.379 59.2638 103.342C55.778 103.305 55.778 103.379 55.778 99.9301C55.778 95.8139 55.8151 91.6606 55.7409 87.5444C55.7038 86.2836 55.8892 85.7273 57.4096 85.7644C60.6358 85.8757 60.6358 85.7644 60.6358 89.0648C60.5988 90.919 60.5988 92.6989 60.5988 94.4789Z" fill="#FCFCFC"/>
<path d="M63.4912 94.5156C63.4912 92.0681 63.5283 89.5835 63.4912 87.1361C63.4912 86.2831 63.6025 85.8382 64.6408 85.8382C68.3491 85.764 68.3491 85.6898 68.3491 89.3981C68.3491 93.5143 68.2749 97.6676 68.3862 101.784C68.4232 103.119 68.0153 103.415 66.7545 103.378C63.5283 103.304 63.5283 103.378 63.5283 100.078C63.4912 98.2239 63.4912 96.3697 63.4912 94.5156Z" fill="#FCFCFC"/>
<path d="M46.9152 97.8906C49.2514 97.7423 50.8459 96.0735 52.8113 95.1094C52.8484 97.4827 52.8484 99.8931 52.9226 102.303C52.9226 103.082 52.6259 103.453 51.8472 103.379C51.773 103.379 51.7359 103.379 51.6618 103.379C46.6556 103.601 46.6556 103.601 46.9152 97.8906Z" fill="#E93F3E"/>
<path d="M71.0561 34.5163C70.982 35.8513 70.9449 37.1863 70.8707 38.4842C69.9807 39.4113 69.647 40.7092 68.7199 41.6733C65.7533 44.7883 61.3033 45.53 57.558 43.4533C53.8867 41.3767 52.0697 37.038 53.2563 32.9959C54.4059 29.028 58.3367 26.2097 62.3046 26.4322C66.7174 26.6918 70.1291 29.6584 70.9078 33.9601C70.982 34.1455 71.0191 34.3309 71.0561 34.5163ZM68.312 35.5176C68.2749 32.143 65.4195 29.2876 62.0821 29.2876C58.6704 29.2505 55.7038 32.2172 55.7409 35.6288C55.778 39.0404 58.7446 41.9329 62.1562 41.8587C65.5308 41.7475 68.3491 38.855 68.312 35.5176Z" fill="#150B0B"/>
<path d="M50.5122 54.9486C50.5122 53.5395 50.5493 52.0932 50.5122 50.6841C50.438 49.2749 51.0313 48.6074 52.4405 48.6074C54.48 48.6074 56.5196 48.6074 58.5592 48.6074C59.8571 48.6074 60.5246 49.2749 60.5246 50.5357C60.5246 53.5024 60.5246 56.469 60.5246 59.4356C60.5246 60.6223 59.9312 61.2898 58.7075 61.2898C56.5567 61.2898 54.4059 61.2898 52.218 61.2898C50.9572 61.2898 50.4751 60.6223 50.5122 59.3986C50.5493 57.9152 50.5122 56.4319 50.5122 54.9486ZM57.595 55.134C57.595 51.2032 57.595 51.2032 54.2575 51.4628C54.1834 51.4628 54.1463 51.4628 54.0721 51.4628C53.4417 51.4257 53.2192 51.6853 53.2192 52.3157C53.2563 54.0957 53.2192 55.8757 53.2192 57.6557C53.2192 58.1377 53.4046 58.3973 53.9238 58.5086C56.8163 59.1019 57.595 58.5457 57.595 55.6903C57.595 55.5049 57.595 55.3194 57.595 55.134Z" fill="#190807"/>
<path d="M70.4257 48.4961C73.5778 48.7557 73.5778 48.7557 73.5778 52.019C73.5778 54.4294 73.5407 56.8398 73.5778 59.2502C73.6149 60.6593 73.0586 61.3268 71.6124 61.2526C70.4999 61.2155 69.3874 61.2897 68.2749 61.2897C63.5654 61.0672 63.5654 61.0672 63.5654 56.3577C63.5654 54.4294 63.5654 52.5381 63.5654 50.6098C63.5654 49.2378 64.2329 48.5703 65.6049 48.5703C67.2366 48.5703 68.8311 48.5332 70.4257 48.4961ZM70.8707 54.9856C70.8707 54.5406 70.7965 54.1327 70.8707 53.6877C71.2045 51.8336 70.4628 51.3515 68.6087 51.3886C66.9028 51.4256 66.1612 51.7594 66.4578 53.5765C66.6062 54.4294 66.5691 55.3194 66.4578 56.1352C66.1983 57.9893 66.7916 58.6568 68.757 58.5456C70.3516 58.4714 71.1674 58.2118 70.8707 56.4318C70.7965 55.9869 70.8707 55.5048 70.8707 54.9856Z" fill="#190807"/>
<path d="M50.5122 72.1551C50.5122 70.746 50.5493 69.2998 50.5122 67.8906C50.438 66.5185 50.9572 65.814 52.4405 65.8881C54.4801 65.9623 56.5196 65.9252 58.5592 65.8881C59.8942 65.851 60.5246 66.4444 60.5246 67.7423C60.5246 70.7089 60.5246 73.6755 60.5246 76.6422C60.5246 77.903 59.8571 78.5334 58.5592 78.5334C56.5196 78.4963 54.4801 78.5334 52.4405 78.5334C51.1426 78.5334 50.5122 77.9401 50.5493 76.6051C50.5122 75.1218 50.5122 73.6385 50.5122 72.1551ZM57.595 72.1922C57.595 68.4839 57.595 68.521 54.443 68.6323C53.4788 68.6693 53.1451 68.966 53.1821 69.9302C53.2563 71.4506 53.2563 73.0081 53.1821 74.5285C53.1451 75.4555 53.5159 75.6409 54.3688 75.678C57.595 75.7893 57.595 75.8264 57.595 72.6001C57.595 72.4147 57.595 72.3035 57.595 72.1922Z" fill="#190807"/>
<path d="M67.5332 65.8135C68.9424 65.8506 70.3515 65.8876 71.7607 65.8876C72.9844 65.8506 73.5778 66.3697 73.5778 67.6305C73.5407 70.6343 73.5778 73.6751 73.5778 76.6788C73.5778 77.6059 73.244 78.4588 72.354 78.4217C69.5357 78.3846 66.7174 78.9779 63.9362 78.0509C63.1945 74.4538 63.7137 70.8197 63.6395 67.2226C63.6395 66.4439 64.1958 65.8876 65.1228 65.8876C65.9387 65.8876 66.7174 65.8506 67.5332 65.8135ZM70.8707 72.1176C70.8707 71.3018 70.8707 70.523 70.8707 69.7072C70.8707 69.2251 70.8707 68.7801 70.2032 68.5947C67.5703 67.8901 66.4949 68.6689 66.4949 71.3759C66.4949 72.0063 66.5691 72.5997 66.4949 73.2301C66.1982 75.0842 66.7916 75.6775 68.7941 75.6775C70.6482 75.6405 71.2044 75.1213 70.9078 73.4155C70.7965 73.0076 70.8707 72.5626 70.8707 72.1176Z" fill="#190807"/>
<path d="M34.9744 88.7686C39.3502 89.1765 39.3502 89.1765 39.3873 93.5523C39.3873 93.8489 39.4244 94.1827 39.4614 94.4793C39.4244 95.6289 39.3873 96.8156 39.3873 97.9651C39.4244 99.3001 38.7939 99.9305 37.496 99.9305C34.789 99.9305 32.0819 99.9305 29.3749 99.9305C28.1141 99.9305 27.4466 99.4114 27.4836 98.0393C27.5207 95.5918 27.5207 93.1073 27.4836 90.6598C27.4466 89.2506 28.1511 88.8427 29.412 88.8427C31.3032 88.8427 33.1573 88.7686 34.9744 88.7686ZM33.454 97.0751C33.7136 97.0751 33.9361 97.0381 34.1957 97.0751C36.0498 97.4089 36.7173 96.7414 36.6061 94.776C36.4206 91.5498 36.569 91.5498 33.0461 91.5498C30.0424 91.5869 30.3019 91.0677 30.3019 94.0714C30.2649 97.0751 30.2649 97.0751 33.454 97.0751Z" fill="#0D1013"/>
<path d="M28.2995 61.8091C31.3032 61.8091 34.344 61.8461 37.3477 61.772C38.8681 61.7349 39.4615 62.4024 39.4244 63.8857C39.3502 66.0365 39.4244 68.1873 39.4244 70.3381C39.4244 72.526 39.0906 72.8227 36.8286 72.8598C34.6036 72.8969 32.4157 72.9339 30.1907 72.971C27.632 72.7485 27.5578 72.6744 27.5578 70.0786C27.5578 67.9648 27.5949 65.8882 27.5578 63.7745C27.5207 62.9957 27.632 62.3282 28.2995 61.8091ZM33.4911 70.0044C36.5319 70.0044 36.5319 70.0044 36.5319 67.4457C36.5319 64.479 36.5319 64.479 33.2686 64.5161C29.9311 64.5532 30.302 63.9969 30.2649 67.2232C30.2649 70.0044 30.2649 70.0044 33.4911 70.0044Z" fill="#0D1013"/>
<path d="M30.5244 75.1582C32.7494 75.1953 34.9373 75.2324 37.1623 75.2324C38.6827 75.1953 39.4614 75.7515 39.4243 77.3832C39.3502 79.6452 39.3873 81.9444 39.4243 84.2064C39.4614 85.6527 38.9052 86.3943 37.3848 86.3202C36.4577 86.2831 35.5306 86.3573 34.6036 86.3573C33.0832 86.3573 31.5257 86.3202 30.0053 86.3202C27.7061 86.3202 27.5578 86.1718 27.5578 83.9469C27.5578 82.0927 27.5578 80.2386 27.5578 78.4215C27.5578 75.3436 27.5578 75.3436 30.5244 75.1582ZM33.3427 83.6131C33.7136 83.6131 34.0844 83.576 34.4552 83.6131C36.161 83.9098 36.6431 83.2052 36.569 81.4994C36.4577 78.1248 36.5319 78.1248 33.009 78.1248C30.2649 78.1248 30.2278 78.1248 30.2649 80.7948C30.3019 84.0581 29.8569 83.539 33.3427 83.6131Z" fill="#090C10"/>
<path d="M27.9657 48.5328C31.3032 47.8282 34.7148 48.3103 38.0894 48.2732C38.9794 48.2732 39.4244 49.0149 39.4244 49.979C39.4244 52.5007 39.4244 55.0223 39.4244 57.581C39.4244 58.8048 38.7939 59.3239 37.5702 59.3239C34.4923 59.2868 31.4144 59.3239 28.3366 59.2868C28.1511 59.0643 27.7803 58.8418 27.7432 58.5823C27.5578 55.2077 27.1499 51.8702 27.9657 48.5328ZM33.6765 51.0915C33.3798 51.0915 33.0461 51.0915 32.7494 51.0915C30.3019 51.0915 30.3019 51.0915 30.3019 53.5019C30.3019 56.5427 30.3019 56.5427 33.6765 56.5427C36.569 56.5427 36.569 56.5427 36.569 53.984C36.5319 51.0915 36.5319 51.0915 33.6765 51.0915Z" fill="#090C10"/>
<path d="M84.5914 94.4793C84.6285 93.3668 84.7027 92.2543 84.6656 91.1418C84.5544 89.5102 85.1848 88.6944 86.8906 88.8427C87.6322 88.8798 88.3739 88.7685 89.1156 88.7314C90.9697 88.7685 92.7868 88.8427 94.6409 88.8056C95.9017 88.8056 96.6063 89.2135 96.5692 90.6227C96.5321 93.0701 96.5321 95.5547 96.5692 98.0022C96.6063 99.3743 95.9388 99.8934 94.678 99.8934C91.9709 99.8934 89.2639 99.8934 86.5568 99.8934C85.296 99.8934 84.6656 99.263 84.7027 97.928C84.6656 96.8155 84.5914 95.6289 84.5914 94.4793ZM90.5247 97.0751C90.8214 97.0751 91.1551 97.038 91.4518 97.0751C93.3801 97.4089 93.9363 96.6301 93.8251 94.7018C93.6768 91.5497 93.788 91.5497 90.5618 91.5497C87.521 91.5497 87.521 91.5497 87.521 94.1456C87.521 97.0751 87.521 97.0751 90.5247 97.0751Z" fill="#0D1013"/>
<path d="M93.8992 72.9701C91.7484 72.933 89.5976 72.8959 87.4468 72.8959C84.8881 72.8588 84.6656 72.6363 84.6656 70.0034C84.6656 67.9639 84.7027 65.9243 84.6656 63.9218C84.6285 62.4385 85.2218 61.771 86.7422 61.8081C89.7459 61.8823 92.7867 61.8452 95.7905 61.8452C96.05 62.1789 96.495 62.5127 96.495 62.8835C96.5692 65.8501 96.6434 68.8168 96.4579 71.7463C96.3467 73.1555 94.8634 72.7476 93.8992 72.9701ZM90.5618 70.0034C90.8584 70.0034 91.1922 69.9664 91.4888 70.0034C93.4913 70.3743 93.9363 69.4472 93.8621 67.593C93.7138 64.4781 93.8251 64.4781 90.4876 64.4781C87.558 64.4781 87.558 64.4781 87.558 67.1851C87.521 70.0034 87.521 70.0034 90.5618 70.0034Z" fill="#0D1013"/>
<path d="M89.4493 86.3943C89.3751 86.3943 89.338 86.3573 89.2639 86.3573C84.3689 86.2089 84.6285 87.1731 84.6285 81.4623C84.6285 80.2757 84.6285 79.1261 84.6285 77.9394C84.6285 75.4919 84.8881 75.2695 87.4097 75.2324C89.4493 75.2324 91.4888 75.1953 93.4913 75.1582C96.495 75.3436 96.495 75.3436 96.495 78.4215C96.495 80.3127 96.4209 82.241 96.5321 84.1323C96.6063 85.8381 95.8646 86.4314 94.233 86.3573C92.6755 86.2831 91.0438 86.3943 89.4493 86.3943ZM90.5988 83.6131C91.0438 83.6131 91.4518 83.576 91.8967 83.6131C93.4171 83.8356 93.8992 83.2423 93.8621 81.6848C93.7509 78.1248 93.8621 78.1248 90.2651 78.1248C87.558 78.1248 87.558 78.1248 87.558 80.7948C87.521 83.6131 87.521 83.6131 90.5988 83.6131Z" fill="#090C10"/>
<path d="M95.7534 59.287C92.7867 59.287 89.8201 59.2499 86.8535 59.3241C85.1477 59.3612 84.5543 58.6566 84.5914 57.025C84.6656 54.7629 84.6285 52.4638 84.5914 50.1646C84.5914 49.1634 84.9252 48.2734 85.9264 48.2734C89.3009 48.2734 92.6755 47.8284 96.05 48.533C96.8659 49.905 96.3838 51.4254 96.458 52.8717C96.5321 54.355 96.4209 55.8383 96.495 57.3216C96.5692 58.1004 96.3838 58.7679 95.7534 59.287ZM90.5247 56.58C90.8213 56.58 91.1551 56.58 91.4518 56.58C93.788 56.58 93.788 56.58 93.788 54.1696C93.788 51.1288 93.788 51.1288 90.4876 51.1288C87.558 51.1288 87.558 51.1288 87.558 53.7617C87.521 56.58 87.521 56.58 90.5247 56.58Z" fill="#090C10"/>
<path d="M68.312 35.5174C68.3491 38.8919 65.5308 41.7844 62.1562 41.8586C58.7446 41.9327 55.7409 39.0403 55.7409 35.6286C55.7038 32.217 58.6334 29.2504 62.0821 29.2875C65.4195 29.2875 68.312 32.1428 68.312 35.5174ZM60.5988 36.7411C60.5988 37.2603 60.5988 37.6682 60.5988 38.1132C60.5246 39.374 61.4887 39.0032 62.1562 39.0403C62.7867 39.0774 63.6766 39.2257 63.4912 38.1132C63.2316 36.2961 63.9733 34.7757 64.9375 33.3666C65.2712 32.8845 65.3083 32.4395 64.715 32.2541C64.0475 32.0687 63.38 30.7708 62.7496 31.7349C61.7112 33.2553 60.3021 34.7386 60.5988 36.7411Z" fill="#F3F2F2"/>
<path d="M57.595 55.1337C57.595 55.3191 57.595 55.5045 57.595 55.6899C57.595 58.5453 56.8163 59.1386 53.9238 58.5082C53.3676 58.397 53.2192 58.1745 53.2192 57.6553C53.2192 55.8753 53.2563 54.0954 53.2192 52.3154C53.2192 51.685 53.4417 51.4254 54.0721 51.4625C54.1463 51.4625 54.1834 51.4625 54.2576 51.4625C57.595 51.2029 57.595 51.2029 57.595 55.1337Z" fill="#F3F2F2"/>
<path d="M70.8707 54.9857C70.8707 55.4678 70.7966 55.987 70.8707 56.4691C71.1674 58.212 70.3516 58.5086 68.757 58.5828C66.7545 58.694 66.1983 58.0265 66.4579 56.1724C66.5691 55.3195 66.6062 54.4295 66.4579 53.6137C66.1612 51.7966 66.9029 51.4629 68.6087 51.4258C70.4628 51.3887 71.2045 51.8708 70.8707 53.7249C70.7966 54.1328 70.8707 54.5778 70.8707 54.9857Z" fill="#F3F2F2"/>
<path d="M57.595 72.1921C57.595 72.3034 57.595 72.4517 57.595 72.563C57.595 75.7892 57.595 75.7521 54.3688 75.6408C53.5159 75.6038 53.1451 75.4183 53.1822 74.4913C53.2563 72.9709 53.2563 71.4134 53.1822 69.893C53.1451 68.9288 53.4788 68.6322 54.443 68.5951C57.595 68.4838 57.595 68.4467 57.595 72.1921Z" fill="#F0EFEE"/>
<path d="M70.8707 72.1178C70.8707 72.5628 70.7965 72.9707 70.8707 73.4157C71.1674 75.1216 70.6111 75.6778 68.757 75.6778C66.7916 75.7149 66.1612 75.0845 66.4578 73.2303C66.5691 72.637 66.4578 72.0066 66.4578 71.3762C66.4578 68.6691 67.5332 67.8904 70.1661 68.595C70.8336 68.7804 70.8336 69.1883 70.8336 69.7074C70.8707 70.5233 70.8707 71.3391 70.8707 72.1178Z" fill="#F0EFEE"/>
<path d="M33.454 97.0753C30.302 97.0753 30.2649 97.0753 30.302 94.0716C30.302 91.0679 30.0424 91.5499 33.0461 91.5499C36.5319 91.5129 36.4207 91.5499 36.6061 94.7762C36.7173 96.7416 36.0498 97.4091 34.1957 97.0753C33.9361 97.0382 33.6765 97.0753 33.454 97.0753Z" fill="#5AA0D2"/>
<path d="M33.4911 70.004C30.302 70.004 30.2649 70.004 30.302 67.1857C30.339 63.9966 29.9311 64.5157 33.3057 64.4787C36.569 64.4416 36.569 64.4787 36.569 67.4082C36.5319 70.004 36.5319 70.004 33.4911 70.004Z" fill="#5AA0D2"/>
<path d="M33.3428 83.6143C29.8199 83.5772 30.302 84.0964 30.2649 80.8331C30.2278 78.1631 30.2649 78.1631 33.009 78.1631C36.5319 78.1631 36.4207 78.1631 36.569 81.5376C36.6432 83.2064 36.1611 83.948 34.4553 83.6514C34.1215 83.5401 33.7136 83.6143 33.3428 83.6143Z" fill="#599ECF"/>
<path d="M33.6765 51.0918C36.5319 51.0918 36.5319 51.0918 36.5319 53.9843C36.5319 56.543 36.5319 56.543 33.6394 56.543C30.2649 56.543 30.2649 56.543 30.2649 53.5022C30.2649 51.0918 30.2649 51.0918 32.7124 51.0918C33.0461 51.0918 33.3428 51.0918 33.6765 51.0918Z" fill="#599ECF"/>
<path d="M90.5247 97.0752C87.521 97.0752 87.521 97.0752 87.521 94.1456C87.521 91.5498 87.521 91.5498 90.5618 91.5498C93.788 91.5498 93.6768 91.5498 93.8251 94.7019C93.9363 96.6302 93.3801 97.4089 91.4518 97.0752C91.1551 97.0381 90.8585 97.0752 90.5247 97.0752Z" fill="#5AA0D2"/>
<path d="M90.5618 70.0039C87.558 70.0039 87.558 70.0039 87.558 67.2227C87.558 64.5156 87.558 64.5156 90.4876 64.5156C93.8251 64.5156 93.7138 64.5156 93.8621 67.6306C93.9363 69.4847 93.5284 70.4118 91.4888 70.041C91.1922 69.9668 90.8584 70.0039 90.5618 70.0039Z" fill="#5AA0D2"/>
<path d="M90.5989 83.6143C87.558 83.6143 87.558 83.6143 87.558 80.8331C87.558 78.1631 87.558 78.1631 90.2651 78.1631C93.8251 78.1631 93.7509 78.1631 93.8621 81.723C93.8992 83.2805 93.4172 83.8739 91.8968 83.6514C91.4518 83.5401 91.0068 83.6143 90.5989 83.6143Z" fill="#599ECF"/>
<path d="M90.5247 56.5801C87.521 56.5801 87.521 56.5801 87.521 53.7618C87.521 51.1289 87.521 51.1289 90.4505 51.1289C93.7509 51.1289 93.7509 51.1289 93.7509 54.1697C93.7509 56.5801 93.7509 56.5801 91.4147 56.5801C91.1551 56.5801 90.8585 56.5801 90.5247 56.5801Z" fill="#599ECF"/>
<path d="M60.5987 36.7408C60.3021 34.7012 61.7112 33.255 62.7125 31.7346C63.3429 30.7704 64.0104 32.0683 64.6779 32.2537C65.3083 32.4392 65.2341 32.8842 64.9004 33.3662C63.8991 34.8125 63.1575 36.2958 63.4541 38.1129C63.6025 39.2253 62.7496 39.0399 62.1191 39.0399C61.4887 39.0028 60.5246 39.4108 60.5617 38.1129C60.5987 37.7049 60.5987 37.2599 60.5987 36.7408Z" fill="#171818"/>
</svg>
