<svg width="178" height="178" viewBox="0 0 178 178" fill="none" xmlns="http://www.w3.org/2000/svg">
<rect x="178" width="178" height="178" rx="20" transform="rotate(90 178 0)" fill="white" fill-opacity="0.75"/>
<path d="M30.7002 92.0396C30.7002 70.2267 30.7002 48.6364 30.7002 26.8235C30.7002 19.7009 34.9292 15.4719 42.0518 15.4719C52.9583 15.4719 63.6421 15.4719 74.5486 15.4719C75.4389 15.4719 76.3292 15.2493 76.997 14.5815C84.1195 8.79444 94.5808 8.79444 101.703 14.5815C102.594 15.2493 103.261 15.4719 104.374 15.4719C115.281 15.4719 126.187 15.4719 137.094 15.4719C143.771 15.4719 148 19.7009 148 26.3783C148 70.2267 148 113.853 148 157.701C148 164.156 143.771 168.607 137.094 168.607C105.265 168.607 73.4357 168.607 41.6066 168.607C34.9292 168.607 30.7002 164.378 30.7002 157.701C30.7002 135.888 30.7002 114.075 30.7002 92.0396ZM135.313 85.8073C135.313 76.2364 135.313 66.6654 135.313 57.0944C135.313 47.9686 135.313 38.8428 135.313 29.717C135.313 29.0493 135.536 28.3815 134.423 28.3815C126.41 28.3815 118.397 28.3815 110.607 28.3815C109.716 28.3815 109.716 28.6041 109.716 29.2719C109.939 32.388 109.494 35.5041 108.381 38.3977C107.936 39.288 108.158 39.9557 108.603 40.6235C112.387 47.0783 115.949 53.5331 119.732 59.988C120.4 61.1009 120.623 61.9912 119.955 63.1041C119.287 64.217 118.174 64.4396 117.061 64.217C115.058 63.9944 113.278 63.9944 111.274 63.7719C110.384 63.7719 109.939 63.9944 109.716 64.6622C109.049 66.4428 107.936 68.0009 107.268 69.559C106.823 70.6719 105.932 71.7848 104.597 71.7848C103.261 71.7848 102.594 70.8944 101.926 69.7815C98.5873 63.9944 95.2486 58.2073 92.1325 52.4202C91.2421 50.8622 90.1292 51.3073 89.0163 51.0848C87.9034 50.8622 87.4583 51.5299 87.2357 52.4202C83.897 58.2073 80.5583 63.9944 77.2196 69.7815C76.5518 70.8944 75.8841 71.7848 74.5486 71.7848C73.2131 71.7848 72.5454 70.8944 71.8776 69.7815C70.9873 68.0009 70.097 66.4428 69.4292 64.6622C68.9841 63.9944 68.5389 63.7719 67.6486 63.9944C65.6454 64.217 63.6421 64.217 61.8615 64.4396C60.7486 64.4396 59.8583 64.217 59.1905 63.5493C58.3002 62.4364 58.5228 61.1009 59.1905 59.988C62.9744 53.5331 66.5357 47.0783 70.3195 40.6235C70.7647 39.9557 70.9873 39.288 70.5421 38.6202C69.2066 35.7267 68.7615 32.8331 68.9841 29.717C68.9841 28.6041 68.7615 28.3815 67.6486 28.3815C60.0808 28.3815 52.5131 28.3815 44.9454 28.3815C43.8325 28.3815 43.3873 28.6041 43.3873 29.9396C43.3873 67.1106 43.3873 104.282 43.3873 141.452C43.3873 142.788 43.6099 143.011 44.9454 143.011C74.5486 143.011 103.929 143.011 133.532 143.011C134.868 143.011 135.091 142.788 135.091 141.452C135.313 122.978 135.313 104.504 135.313 85.8073ZM107.268 20.8138C107.491 23.0396 108.826 23.4848 110.829 23.4848C119.51 23.2622 128.191 23.4848 136.871 23.4848C139.765 23.4848 140.432 24.1525 140.432 27.0461C140.432 66.2202 140.432 105.394 140.432 144.569C140.432 147.462 139.765 148.353 136.871 148.353C122.181 148.353 107.491 148.353 92.8002 148.353C92.1325 148.353 91.4647 148.353 90.797 148.353C94.1357 149.243 96.5841 151.914 97.0292 155.253C97.2518 157.256 96.5841 159.036 95.4712 160.594C94.3583 162.153 92.8002 163.043 90.797 163.488C106.378 163.488 122.181 163.488 137.761 163.488C140.878 163.488 142.881 161.262 142.881 157.923C142.881 114.075 142.881 70.2267 142.881 26.3783C142.881 22.817 140.878 20.8138 137.316 20.8138C132.42 20.8138 127.745 20.8138 122.849 20.8138C117.729 20.8138 112.387 20.8138 107.268 20.8138ZM87.2357 148.353C86.5679 148.353 86.1228 148.353 85.455 148.353C70.7647 148.353 56.297 148.353 41.6066 148.353C39.1583 148.353 38.2679 147.462 38.2679 145.014C38.2679 105.617 38.2679 66.2202 38.2679 26.8235C38.2679 24.1525 39.1583 23.4848 41.8292 23.4848C50.7325 23.4848 59.4131 23.4848 68.3163 23.4848C70.3195 23.4848 71.2099 22.817 71.4325 20.8138C70.9873 20.8138 70.5421 20.8138 70.097 20.8138C60.526 20.8138 51.1776 20.8138 41.6066 20.8138C37.8228 20.8138 35.8196 22.817 35.8196 26.6009C35.8196 70.2267 35.8196 114.075 35.8196 157.701C35.8196 161.485 37.8228 163.488 41.6066 163.488C56.5196 163.488 71.4325 163.488 86.1228 163.488C86.5679 163.488 87.0131 163.711 87.2357 163.265C83.6744 161.93 81.6712 159.704 81.6712 155.92C81.6712 152.136 83.897 149.911 87.2357 148.353ZM89.4615 15.6944C81.0034 15.6944 74.1034 22.5944 74.1034 31.0525C74.1034 39.5106 81.0034 46.188 89.4615 46.188C97.9195 46.188 104.597 39.288 104.597 30.8299C104.597 22.5944 97.697 15.6944 89.4615 15.6944ZM74.5486 63.9944C77.2196 59.5428 79.4454 55.3138 82.1163 51.0848C82.5615 50.417 82.3389 50.1944 81.6712 49.9719C79.6679 49.0815 77.6647 47.9686 76.1066 46.4106C74.1034 44.6299 74.1034 44.6299 72.7679 46.8557C70.5421 50.8622 68.3163 54.8686 65.8679 58.8751C67.426 58.8751 68.7615 58.6525 69.8744 58.6525C71.2099 58.4299 72.1002 59.0977 72.7679 60.4331C73.2131 61.546 73.8808 62.659 74.5486 63.9944ZM113.055 58.8751C110.384 54.2009 107.713 49.5267 105.265 45.0751C104.82 44.4073 104.597 44.6299 104.152 45.0751C102.149 47.3009 99.7002 48.859 97.0292 49.9719C96.5841 50.1944 96.3615 50.1944 96.5841 50.8622C99.0325 55.3138 101.481 59.5428 104.152 63.9944C105.487 62.4364 105.487 60.2106 107.268 59.0977C108.826 57.9848 110.829 59.0977 113.055 58.8751ZM89.4615 158.369C90.797 158.369 91.9099 157.256 91.9099 155.92C91.9099 154.585 90.5744 153.249 89.2389 153.472C87.9034 153.472 86.7905 154.807 86.7905 156.143C86.7905 157.478 88.126 158.591 89.4615 158.369Z" fill="#010101"/>
<path d="M135.313 85.8086C135.313 104.505 135.313 122.98 135.313 141.676C135.313 143.012 134.868 143.234 133.755 143.234C104.152 143.234 74.7711 143.234 45.1679 143.234C43.8324 143.234 43.6098 143.012 43.6098 141.676C43.6098 104.505 43.6098 67.3344 43.6098 30.1635C43.3873 28.6054 43.8324 28.3828 44.9453 28.3828C52.5131 28.3828 60.0808 28.3828 67.6486 28.3828C68.7615 28.3828 68.984 28.6054 68.984 29.7183C68.7615 32.8344 69.2066 35.728 70.5421 38.6215C70.9873 39.5118 70.7647 39.957 70.3195 40.6247C66.5356 47.0796 62.9744 53.5344 59.1905 59.9893C58.5227 61.1022 58.0776 62.4376 59.1905 63.5506C59.8582 64.4409 60.7486 64.4409 61.8615 64.4409C63.8647 64.2183 65.8679 64.2183 67.6486 63.9957C68.5389 63.9957 68.984 64.2183 69.2066 64.886C70.0969 66.6667 70.9873 68.2248 71.655 70.0054C72.1002 71.1183 72.9905 72.0086 74.326 72.0086C75.6615 72.0086 76.3292 71.1183 76.9969 70.0054C80.3356 64.2183 83.6744 58.4312 87.0131 52.6441C87.4582 51.9764 87.9034 51.3086 88.7937 51.3086C89.9066 51.5312 91.0195 51.086 91.9098 52.6441C95.026 58.4312 98.3647 64.2183 101.703 70.0054C102.371 71.1183 103.039 72.2312 104.374 72.0086C105.71 72.0086 106.378 70.8957 107.045 69.7828C107.936 68.0022 108.826 66.4441 109.494 64.886C109.939 64.2183 110.384 63.9957 111.052 63.9957C113.055 64.2183 114.836 64.2183 116.839 64.4409C117.952 64.4409 119.065 64.2183 119.732 63.328C120.4 62.2151 120.178 61.3247 119.51 60.2118C115.726 53.757 112.165 47.3022 108.381 40.8473C107.936 39.957 107.713 39.5118 108.158 38.6215C109.271 35.728 109.716 32.6118 109.494 29.4957C109.494 28.828 109.494 28.3828 110.384 28.6054C118.397 28.6054 126.187 28.6054 134.2 28.6054C135.536 28.3828 135.313 29.0506 135.313 29.7183C135.313 38.8441 135.313 47.9699 135.313 57.0957C135.313 66.6667 135.313 76.2376 135.313 85.8086ZM89.4615 132.996C99.4776 132.996 109.494 132.996 119.51 132.996C121.736 132.996 122.626 132.105 122.626 129.88C122.626 127.654 122.626 125.428 122.626 123.425C122.626 121.422 121.736 120.309 119.732 120.309C99.7002 120.309 79.4453 120.309 59.4131 120.309C57.4098 120.309 56.5195 121.199 56.5195 123.202C56.5195 125.428 56.5195 127.431 56.5195 129.657C56.5195 132.328 57.4098 133.218 60.0808 133.218C69.6518 132.996 79.4453 132.996 89.4615 132.996ZM89.4615 97.3828C77.8873 97.3828 66.5357 97.3828 54.9615 97.3828C54.5163 97.3828 54.0711 97.3828 53.626 97.3828C52.0679 97.3828 51.1776 98.4957 50.955 99.8312C50.955 101.389 52.0679 102.28 53.626 102.502C54.0711 102.502 54.2937 102.502 54.7389 102.502C77.6647 102.502 100.813 102.502 123.739 102.502C124.184 102.502 124.852 102.502 125.297 102.502C126.632 102.28 127.523 101.389 127.523 100.054C127.523 98.7183 126.632 97.828 125.297 97.6054C124.852 97.6054 124.407 97.6054 123.961 97.6054C112.387 97.3828 100.813 97.3828 89.4615 97.3828ZM89.2389 104.951C77.6647 104.951 66.0905 104.951 54.7389 104.951C54.2937 104.951 53.8486 104.951 53.4034 104.951C52.0679 105.173 51.1776 106.063 51.1776 107.399C51.1776 108.734 52.0679 109.625 53.4034 109.847C53.8486 109.847 54.2937 109.847 54.7389 109.847C77.8873 109.847 101.036 109.847 123.961 109.847C124.407 109.847 124.629 109.847 125.074 109.847C126.632 109.625 127.523 108.734 127.523 107.176C127.523 105.841 126.41 104.728 125.074 104.728C124.629 104.728 124.184 104.728 123.739 104.728C112.387 104.951 100.813 104.951 89.2389 104.951ZM85.0098 84.4731C89.0163 84.4731 92.5776 84.4731 96.1389 84.4731C98.8098 84.4731 99.7002 83.3602 99.4776 80.6893C98.5873 74.457 92.8002 70.4506 86.7905 72.0086C82.5615 73.1215 80.1131 76.0151 79.2227 80.2441C78.555 84.028 80.3357 88.257 83.8969 90.4828C87.2357 92.7086 91.6873 92.7086 95.026 90.4828C96.584 89.5925 97.0292 88.0344 96.1389 86.9215C95.4711 85.586 93.9131 85.3635 92.355 86.2538C89.4615 87.8118 87.0131 87.3667 85.0098 84.4731ZM89.4615 112.518C83.0066 112.518 76.5518 112.518 70.0969 112.518C69.6518 112.518 69.2066 112.518 68.7615 112.518C67.426 112.741 66.3131 113.631 66.3131 114.967C66.3131 116.302 67.2034 117.415 68.5389 117.638C68.984 117.638 69.4292 117.638 69.8744 117.638C82.5615 117.638 95.4711 117.638 108.158 117.638C108.603 117.638 109.049 117.638 109.494 117.638C111.052 117.415 111.942 116.525 111.942 114.967C111.942 113.631 110.829 112.518 109.494 112.518C109.049 112.518 108.603 112.518 108.158 112.518C102.149 112.518 95.6937 112.518 89.4615 112.518ZM68.984 84.4731C70.7647 84.4731 72.3227 84.4731 74.1034 84.4731C75.6615 84.4731 76.5518 83.3602 76.7744 82.0247C76.7744 80.6893 75.6615 79.3538 74.1034 79.3538C70.7647 79.3538 67.426 79.3538 64.0873 79.3538C62.5292 79.3538 61.4163 80.4667 61.4163 82.0247C61.4163 83.3602 62.5292 84.4731 64.0873 84.4731C65.6453 84.4731 67.2034 84.4731 68.984 84.4731ZM109.716 84.4731C111.497 84.4731 113.055 84.4731 114.836 84.4731C116.394 84.4731 117.284 83.3602 117.507 82.0247C117.507 80.6893 116.394 79.3538 114.836 79.3538C111.497 79.3538 108.158 79.3538 104.82 79.3538C103.261 79.3538 102.149 80.4667 102.149 81.8022C102.149 83.1377 103.261 84.2506 104.82 84.2506C106.378 84.4731 108.158 84.4731 109.716 84.4731Z" fill="#FEFEFE"/>
<path d="M142.881 26.379C142.881 22.8177 140.878 20.8145 137.316 20.8145C132.419 20.8145 127.745 20.8145 122.848 20.8145C117.729 20.8145 112.387 20.8145 107.268 20.8145C107.49 23.0403 108.826 23.4854 110.829 23.4854C119.51 23.2628 128.19 23.4854 136.871 23.4854C139.765 23.4854 140.432 24.1532 140.432 27.0467C140.432 66.2209 140.432 105.395 140.432 144.569C140.432 147.463 139.765 148.353 136.871 148.353C122.181 148.353 107.49 148.353 92.8001 148.353C92.1324 148.353 91.4646 148.353 90.7969 148.353C94.1356 149.243 96.584 151.914 97.0291 155.253C97.2517 157.256 96.584 159.037 95.4711 160.595C94.3582 162.153 92.8001 163.043 90.7969 163.489C106.378 163.489 122.181 163.489 137.761 163.489C140.878 163.489 142.881 161.263 142.881 157.924C142.881 114.076 142.881 70.2274 142.881 26.379ZM103.261 158.369C100.59 158.369 99.4775 157.479 99.4775 155.921C99.4775 154.14 100.59 153.25 103.261 153.25C105.932 153.25 107.268 154.14 107.045 155.921C107.268 157.702 105.932 158.592 103.261 158.369Z" fill="#00C0F9"/>
<path d="M81.671 155.922C81.671 152.138 83.6742 149.69 87.2355 148.131C86.5677 148.131 86.1226 148.131 85.4548 148.131C70.7645 148.131 56.2968 148.131 41.6064 148.131C39.158 148.131 38.2677 147.241 38.2677 144.793C38.2677 105.396 38.2677 65.9992 38.2677 26.6025C38.2677 23.9315 39.158 23.2637 41.829 23.2637C50.7322 23.2637 59.4129 23.2637 68.3161 23.2637C70.3193 23.2637 71.2097 22.596 71.4322 20.5928C70.9871 20.5928 70.5419 20.5928 70.0968 20.5928C60.5258 20.5928 51.1774 20.5928 41.6064 20.5928C37.8226 20.5928 35.8193 22.596 35.8193 26.3799C35.8193 70.0057 35.8193 113.854 35.8193 157.48C35.8193 161.264 37.8226 163.267 41.6064 163.267C56.5193 163.267 71.4322 163.267 86.1226 163.267C86.5677 163.267 87.0129 163.49 87.2355 163.044C83.8968 162.154 81.671 159.706 81.671 155.922ZM75.2161 158.37C74.771 158.37 74.5484 158.37 74.1032 158.37C72.5451 158.37 71.4322 157.257 71.4322 155.699C71.4322 154.364 72.5451 153.251 74.1032 153.251C74.5484 153.251 74.771 153.251 75.2161 153.251C77.8871 153.251 79 154.141 79 155.699C79.2226 157.702 77.8871 158.593 75.2161 158.37Z" fill="#00C0F9"/>
<path d="M89.4617 15.6924C97.9198 15.6924 104.82 22.5924 104.82 31.0504C104.82 39.5085 97.9198 46.4085 89.6843 46.4085C81.2262 46.4085 74.3262 39.5085 74.3262 31.273C74.1036 22.5924 80.781 15.6924 89.4617 15.6924ZM89.4617 43.7375C96.3617 43.7375 102.149 37.9504 102.149 30.8279C102.149 23.7053 96.3617 18.1408 89.4617 18.1408C82.5617 18.1408 76.7746 23.9279 76.7746 30.8279C76.552 37.9504 82.3391 43.7375 89.4617 43.7375Z" fill="#FCCD63"/>
<path d="M74.5488 63.9963C73.8811 62.6608 73.2133 61.5479 72.7682 60.435C72.1004 59.0995 71.2101 58.6544 69.8746 58.6544C68.5391 58.6544 67.2036 58.8769 65.8682 58.8769C68.3166 54.6479 70.5424 50.6414 72.7682 46.8576C74.1036 44.6318 74.1036 44.6318 76.1069 46.4124C77.8875 47.9705 79.6682 49.0834 81.6714 49.9737C82.3391 50.1963 82.5617 50.4189 82.1166 51.0866C79.4456 55.3156 76.9972 59.5447 74.5488 63.9963Z" fill="#F95C3C"/>
<path d="M113.055 58.8751C111.052 59.0977 109.048 57.9848 107.268 59.0977C105.487 60.2106 105.487 62.4364 104.152 63.9944C101.703 59.5428 99.2549 55.3138 96.5839 50.8622C96.3613 50.1944 96.5839 50.1944 97.0291 49.9719C99.7 48.859 102.148 47.3009 104.152 45.0751C104.597 44.6299 104.819 44.6299 105.265 45.0751C107.713 49.7493 110.384 54.2009 113.055 58.8751Z" fill="#F95C3C"/>
<path d="M89.4615 158.368C88.126 158.368 87.0131 157.255 86.7905 155.92C86.7905 154.585 87.9034 153.249 89.2389 153.249C90.5744 153.249 91.9099 154.362 91.9099 155.697C91.9099 157.255 90.797 158.368 89.4615 158.368Z" fill="#F3F3F3"/>
<path d="M89.4614 132.994C79.6678 132.994 69.6517 132.994 59.8582 132.994C57.1872 132.994 56.2969 132.103 56.2969 129.432C56.2969 127.207 56.2969 125.203 56.2969 122.978C56.2969 120.974 57.1872 120.084 59.1904 120.084C79.2227 120.084 99.4775 120.084 119.51 120.084C121.513 120.084 122.403 120.974 122.403 123.2C122.403 125.426 122.403 127.652 122.403 129.655C122.403 131.881 121.513 132.771 119.287 132.771C109.271 132.994 99.2549 132.994 89.4614 132.994ZM89.4614 127.874C98.3646 127.874 107.268 127.874 116.171 127.874C117.061 127.874 117.729 127.874 117.729 126.539C117.729 125.203 117.284 125.203 116.171 125.203C98.3646 125.203 80.7807 125.203 62.9743 125.203C62.084 125.203 61.4162 125.203 61.4162 126.539C61.4162 127.874 61.8614 127.874 62.9743 127.874C71.6549 127.874 80.5582 127.874 89.4614 127.874Z" fill="black"/>
<path d="M89.4615 97.3837C101.036 97.3837 112.61 97.3837 123.962 97.3837C124.407 97.3837 124.852 97.3837 125.297 97.3837C126.632 97.6063 127.523 98.4966 127.523 99.8321C127.523 101.168 126.632 102.058 125.297 102.28C124.852 102.28 124.184 102.28 123.739 102.28C100.813 102.28 77.6648 102.28 54.7389 102.28C54.2938 102.28 54.0712 102.28 53.626 102.28C52.068 102.28 50.9551 101.168 50.9551 99.6095C50.9551 98.274 52.068 97.1611 53.626 97.1611C54.0712 97.1611 54.5164 97.1611 54.9615 97.1611C66.5357 97.3837 77.8873 97.3837 89.4615 97.3837Z" fill="#010101"/>
<path d="M89.239 104.951C100.813 104.951 112.165 104.951 123.739 104.951C124.184 104.951 124.629 104.951 125.075 104.951C126.41 105.174 127.523 106.064 127.523 107.4C127.523 108.735 126.633 109.848 125.075 110.071C124.629 110.071 124.407 110.071 123.962 110.071C100.813 110.071 77.6648 110.071 54.739 110.071C54.2939 110.071 53.8487 110.071 53.4035 110.071C52.0681 109.848 51.1777 108.958 51.1777 107.622C51.1777 106.287 52.0681 105.396 53.4035 105.174C53.8487 105.174 54.2939 105.174 54.739 105.174C66.3132 104.951 77.8874 104.951 89.239 104.951Z" fill="#010101"/>
<path d="M85.0098 84.4704C87.013 87.1413 89.4614 87.5865 92.3549 86.0284C93.913 85.1381 95.4711 85.3607 96.1388 86.6962C96.8065 88.0317 96.3614 89.3671 95.0259 90.2575C91.6872 92.4833 87.2356 92.4833 83.8969 90.2575C80.5582 88.0317 78.5549 83.8026 79.2227 80.0188C80.113 75.7897 82.5614 72.8962 86.7904 71.7833C92.8001 70.2252 98.5872 74.2317 99.4775 80.4639C99.9227 83.1349 98.8098 84.2478 96.1388 84.2478C92.5775 84.4704 89.0162 84.4704 85.0098 84.4704ZM93.4678 79.351C91.6872 75.7897 86.1227 76.4575 85.2323 79.351C87.9033 79.351 90.7969 79.351 93.4678 79.351Z" fill="#030303"/>
<path d="M89.4614 112.516C95.9162 112.516 102.371 112.516 108.826 112.516C109.271 112.516 109.716 112.516 110.161 112.516C111.497 112.738 112.61 113.629 112.61 114.964C112.61 116.3 111.719 117.412 110.161 117.635C109.716 117.635 109.271 117.635 108.826 117.635C96.1388 117.635 83.2291 117.635 70.542 117.635C70.0969 117.635 69.6517 117.635 69.2065 117.635C67.4259 117.412 66.313 116.522 66.313 115.187C66.313 113.851 67.2033 112.738 68.7614 112.738C69.2065 112.738 69.6517 112.738 70.0969 112.738C76.5517 112.516 83.0065 112.516 89.4614 112.516Z" fill="#010101"/>
<path d="M68.9842 84.4738C67.4262 84.4738 65.6455 84.4738 64.0875 84.4738C62.5294 84.4738 61.4165 83.3609 61.4165 82.0255C61.4165 80.4674 62.5294 79.5771 64.0875 79.3545C67.4262 79.3545 70.7649 79.3545 74.1036 79.3545C75.6617 79.3545 76.7746 80.4674 76.7746 82.0255C76.7746 83.3609 75.6617 84.4738 74.1036 84.4738C72.323 84.4738 70.5423 84.4738 68.9842 84.4738Z" fill="#030303"/>
<path d="M109.717 84.4729C108.159 84.4729 106.378 84.4729 104.82 84.4729C103.262 84.4729 102.149 83.36 102.149 82.0246C102.149 80.4665 103.262 79.5762 104.82 79.5762C108.159 79.5762 111.497 79.5762 114.836 79.5762C116.394 79.5762 117.507 80.6891 117.507 82.2471C117.507 83.5826 116.394 84.6955 114.836 84.6955C113.055 84.4729 111.497 84.4729 109.717 84.4729Z" fill="#030303"/>
<path d="M103.261 153.471C105.932 153.471 107.268 154.361 107.045 156.142C107.045 157.922 105.71 158.59 103.261 158.59C100.59 158.59 99.4775 157.7 99.4775 156.142C99.4775 154.138 100.813 153.471 103.261 153.471Z" fill="#070707"/>
<path d="M75.4391 153.47C78.11 153.47 79.2229 154.36 79.2229 155.918C79.2229 157.699 78.11 158.589 75.2165 158.589C74.7713 158.589 74.5487 158.589 74.1036 158.589C72.5455 158.589 71.4326 157.476 71.4326 155.918C71.4326 154.583 72.5455 153.47 74.1036 153.47C74.5487 153.247 74.9939 153.47 75.4391 153.47Z" fill="#070707"/>
<path d="M89.4619 43.7413C82.3393 43.7413 76.5522 37.9542 76.5522 30.8316C76.5522 23.9316 82.3393 18.1445 89.2393 18.1445C96.3619 18.1445 101.926 23.709 101.926 30.8316C102.149 37.9542 96.3619 43.7413 89.4619 43.7413ZM97.0297 31.0542C97.0297 26.8252 93.4684 23.4865 89.2393 23.4865C85.0103 23.4865 81.6716 27.0478 81.6716 31.0542C81.6716 35.2832 85.2329 38.622 89.4619 38.622C93.691 38.622 97.0297 35.0607 97.0297 31.0542Z" fill="#040404"/>
<path d="M89.4616 127.876C80.5584 127.876 71.6551 127.876 62.7519 127.876C61.8616 127.876 61.1938 127.876 61.1938 126.541C61.1938 125.205 61.639 125.205 62.7519 125.205C80.5584 125.205 98.1422 125.205 115.949 125.205C116.839 125.205 117.507 125.205 117.507 126.541C117.507 127.876 117.062 127.876 115.949 127.876C107.045 127.876 98.1422 127.876 89.4616 127.876Z" fill="#FEFEFE"/>
<path d="M93.4679 79.3508C90.5744 79.3508 87.9034 79.3508 85.2324 79.3508C86.3453 76.4573 91.6873 75.7895 93.4679 79.3508Z" fill="#F7F7F7"/>
<path d="M97.029 31.0522C97.029 35.2813 93.6903 38.62 89.4612 38.62C85.2322 38.62 81.6709 35.2813 81.6709 31.0522C81.6709 26.8232 85.0096 23.4845 89.2386 23.4845C93.4677 23.2619 97.029 26.8232 97.029 31.0522Z" fill="#E6AD4C"/>
</svg>
