<svg width="178" height="178" viewBox="0 0 178 178" fill="none" xmlns="http://www.w3.org/2000/svg">
<rect x="178" width="178" height="178" rx="20" transform="rotate(90 178 0)" fill="white" fill-opacity="0.75"/>
<path d="M146.46 143.691C148.768 143.691 148.768 143.691 148.768 146.23C148.768 148.768 148.768 151.538 148.768 154.076C148.537 159.384 144.614 163.307 139.306 163.769C139.075 163.769 138.845 163.769 138.614 163.769C100.304 163.769 62.2254 163.769 23.9157 163.769C23.4542 163.769 23.2234 163.769 22.7618 163.769C22.0695 163.769 21.3771 163.538 20.6848 163.538C16.7615 162.615 14.6845 160.077 13.2998 156.384C13.2998 152.461 13.2998 148.768 13.2998 144.845C14.2229 143.922 15.3768 143.691 16.7615 143.691C19.9925 143.691 23.2234 143.691 26.4543 143.691C27.839 143.691 28.0698 143.46 28.0698 142.076C28.0698 126.844 28.0698 111.382 28.0698 96.1502C28.0698 93.3809 28.0698 93.3809 30.6084 93.3809C33.147 93.6116 33.147 93.6116 33.147 96.1502C33.147 110.689 33.147 125.229 33.147 139.768C33.147 140.691 33.147 141.845 33.147 142.768C33.147 143.691 33.3778 143.922 34.3009 143.922C35.6856 143.922 37.301 143.922 38.6857 143.922C69.1488 143.922 99.6119 143.922 130.075 143.922C132.844 143.922 133.537 144.614 133.767 147.614C133.767 149.691 133.767 151.768 133.767 153.845C133.767 156.846 135.845 158.923 138.614 158.923C141.614 158.923 143.691 156.846 143.691 153.845C143.691 151.538 143.691 148.999 143.691 146.691C143.691 143.922 143.691 143.922 146.46 143.691ZM130.075 158.923C128.921 156.615 128.69 154.307 128.69 152.23C128.69 148.999 128.69 148.999 125.459 148.999C90.8422 148.999 56.4558 148.999 21.8387 148.999C18.1462 148.999 18.1462 148.999 18.1462 152.692C17.9154 156.153 19.7617 159.153 24.3773 159.153C58.9944 159.153 93.6116 159.153 128.229 159.153C128.69 158.923 129.152 158.923 130.075 158.923Z" fill="#020203"/>
<path d="M30.6084 88.5357C25.762 88.5357 21.1464 88.5357 16.3 88.5357C15.1461 88.5357 13.9921 88.305 13.2998 87.3818C13.2998 76.5351 13.2998 65.6884 13.2998 54.6109C14.2229 53.6878 15.1461 53.457 16.3 53.457C21.1464 53.457 25.762 53.457 30.6084 53.457C31.0699 53.457 31.7623 53.457 32.2238 53.457C43.0706 53.457 54.148 53.457 64.9948 53.457C67.3026 53.457 68.2257 54.3802 68.2257 56.688C68.2257 58.0727 68.2257 59.4573 68.2257 60.842C68.2257 68.9194 68.2257 76.9967 68.2257 85.3048C68.2257 87.8434 67.3026 88.5357 64.764 88.5357C57.379 88.5357 49.994 88.5357 42.609 88.5357C38.6857 88.5357 34.7624 88.5357 30.6084 88.5357ZM40.7627 58.3034C33.6085 58.3034 26.4543 58.3034 19.3001 58.3034C18.377 58.3034 17.9154 58.5342 17.9154 59.6881C17.9154 67.3039 17.9154 74.6889 17.9154 82.3047C17.9154 83.2278 18.1462 83.6893 19.0693 83.6893C33.3778 83.6893 47.6862 83.6893 61.9946 83.6893C62.9177 83.6893 63.1485 83.4586 63.1485 82.5354C63.1485 74.9197 63.1485 67.5347 63.1485 59.9189C63.1485 58.765 62.6869 58.5342 61.7638 58.765C55.0712 58.3034 47.917 58.3034 40.7627 58.3034Z" fill="#020100"/>
<path d="M22.7622 163.768C23.2238 163.768 23.4546 163.768 23.9161 163.768C62.2258 163.768 100.305 163.768 138.614 163.768C138.845 163.768 139.076 163.768 139.307 163.768V163.998C100.535 163.998 61.5334 163.998 22.7622 163.998C22.7622 163.998 22.7622 163.998 22.7622 163.768Z" fill="#9F9F9F"/>
<path d="M68.4567 60.6105C68.4567 59.2258 68.4567 57.8411 68.4567 56.4564C68.4567 54.1486 67.5335 53.2255 65.2257 53.2255C54.379 53.2255 43.3015 53.2255 32.4548 53.2255C31.9933 53.2255 31.3009 53.2255 30.8394 53.2255C30.8394 51.61 30.8394 49.9946 30.8394 48.3791C33.3779 48.1483 33.3779 48.1483 33.3779 45.6097C33.3779 38.4555 33.3779 31.0705 33.3779 23.9163C33.3779 22.3009 33.6087 20.6854 34.9934 19.3007C36.1473 18.1468 37.532 17.916 39.1475 17.916C72.1492 17.916 105.151 17.916 138.153 17.916C138.845 17.916 139.537 17.916 139.999 18.1468C141.614 18.3776 143.23 19.5315 143.46 21.147C143.922 22.9932 144.845 23.224 146.23 22.9932H146.461C146.461 24.6087 146.461 26.2241 146.461 27.8396C145.999 27.8396 145.307 27.8396 144.845 27.8396C122.229 27.8396 99.8429 27.8396 77.2263 27.8396C74.2262 27.8396 73.5338 28.5319 73.5338 31.7629C73.5338 43.9943 73.5338 55.9949 73.5338 68.2263C73.5338 72.1496 73.5338 76.0728 73.5338 79.9961C73.5338 82.5347 74.457 83.227 76.9956 83.227C78.3802 83.227 79.7649 83.227 81.1496 83.227C81.3804 84.1502 80.2265 85.7656 82.5343 85.7656C103.766 85.7656 124.998 85.7656 146.461 85.7656C146.461 86.458 146.461 87.3811 146.461 88.0734C145.999 88.0734 145.768 88.0734 145.307 88.0734C144.153 87.8427 143.691 88.3042 143.922 89.4581C143.922 91.3044 143.922 93.3814 143.922 95.2277C143.922 97.997 143.922 97.997 146.461 97.997C146.461 99.6125 146.461 101.228 146.461 102.843C141.153 102.843 135.614 102.843 130.306 102.843C124.998 102.843 119.69 102.843 114.382 102.843C112.074 102.843 111.151 103.767 111.151 105.844C111.151 115.536 111.151 125.46 111.151 135.153C111.151 136.999 112.074 137.922 114.151 138.153C115.767 138.153 117.382 138.153 118.767 138.153C118.767 138.384 118.767 138.614 118.767 138.845C118.767 140.922 118.767 140.922 120.613 140.922C129.152 140.922 137.691 140.922 146.23 140.922C146.23 141.615 146.23 142.538 146.461 143.23C143.922 143.461 143.922 143.461 143.922 145.999C143.922 148.307 143.922 150.846 143.922 153.154C143.922 156.154 141.845 158.231 138.845 158.231C136.076 158.231 133.998 156.154 133.998 153.154C133.998 151.077 133.998 149 133.998 146.923C133.998 144.153 133.306 143.23 130.306 143.23C99.8429 143.23 69.3798 143.23 38.9167 143.23C37.532 143.23 35.9165 143.23 34.5319 143.23C33.6087 143.23 33.3779 142.999 33.3779 142.076C33.3779 141.153 33.3779 140.23 33.3779 139.076C33.3779 124.537 33.3779 109.998 33.3779 95.4584C33.3779 92.9198 33.3779 92.9198 30.8394 92.6891C30.8394 91.9967 30.8394 91.0736 30.8394 90.3813C43.5323 90.3813 56.2253 90.3813 69.149 90.3813C71.226 90.3813 71.226 90.3812 71.226 88.3042C71.226 79.7653 71.226 71.2264 71.226 62.6875C70.9953 60.6105 70.9953 60.6105 68.4567 60.6105ZM106.074 100.997C106.074 99.8433 106.074 98.4586 106.074 97.3047C106.074 94.0738 105.382 93.3814 102.151 93.3814C82.0727 93.3814 61.9948 93.3814 41.9168 93.3814C41.6861 93.3814 41.2245 93.3814 40.9937 93.3814C38.9167 93.3814 37.9936 94.3045 37.9936 96.3816C37.9936 106.074 37.9936 115.998 37.9936 125.691C37.9936 127.768 38.9167 128.46 40.9937 128.691C42.3784 128.691 43.9939 128.691 45.3786 128.691C45.3786 131.229 44.917 130.999 47.6864 130.999C67.3028 130.999 86.9191 130.999 106.305 130.999C108.151 130.999 108.151 130.999 108.151 129.152C108.151 120.614 108.151 112.075 108.151 103.536C108.613 100.997 108.613 100.997 106.074 100.997ZM53.2251 33.1476C49.3018 33.1476 45.6093 33.1476 41.6861 33.1476C37.9936 33.1476 37.9936 33.1476 37.9936 36.8401C37.9936 37.994 38.2243 38.2247 39.3783 38.2247C47.6864 38.2247 55.9945 38.2247 64.3026 38.2247C65.4565 38.2247 67.072 38.6863 67.7643 37.994C68.4567 37.3016 67.7643 35.6862 67.9951 34.5322C68.2259 33.3783 67.5335 33.1476 66.6104 33.1476C62.4564 33.1476 57.8407 33.1476 53.2251 33.1476ZM40.5322 28.0704C43.3015 28.0704 43.3015 28.0704 43.3015 25.5318C43.3015 22.9932 43.3015 22.9932 40.7629 22.9932C38.2243 22.9932 38.2243 22.9932 38.2243 25.5318C38.2243 28.0704 38.2243 28.0704 40.5322 28.0704ZM48.1479 25.7626C48.1479 28.3012 48.1479 28.3012 50.6865 28.3012C53.2251 28.3012 53.2251 28.3012 53.2251 25.7626C53.2251 23.224 53.2251 23.224 50.6865 23.224C48.1479 22.9932 48.1479 22.9932 48.1479 25.7626ZM58.3023 25.5318C58.3023 28.3012 58.3023 28.3012 60.8409 28.3012C63.1487 28.3012 63.1487 28.3012 63.1487 25.9934C63.1487 23.224 63.1487 23.224 60.6101 23.224C58.3023 22.9932 58.3023 22.9932 58.3023 25.5318Z" fill="#CDEBF5"/>
<path d="M80.9185 83.4597C79.5338 83.4597 78.1491 83.4597 76.7644 83.4597C74.2259 83.4597 73.3027 82.5366 73.3027 80.2288C73.3027 76.3055 73.3027 72.3822 73.3027 68.4589C73.3027 56.2275 73.3027 44.2269 73.3027 31.9955C73.3027 28.9954 73.9951 28.0723 76.9952 28.0723C99.6118 28.0723 121.998 28.0723 144.614 28.0723C145.076 28.0723 145.768 28.0723 146.23 28.0723C150.845 28.0723 155.461 28.0723 160.076 28.0723C163.077 28.0723 163.769 28.7646 163.769 31.7648C163.769 47.6887 163.769 63.8433 163.769 79.7672C163.769 82.7674 163.077 83.4597 160.076 83.4597C155.461 83.4597 150.845 83.4597 146.23 83.4597C145.999 83.4597 145.537 83.4597 145.306 83.4597C124.305 83.4597 103.073 83.4597 82.0724 83.4597C81.8416 83.4597 81.3801 83.4597 80.9185 83.4597ZM78.3799 66.1511C79.0723 66.1511 79.5338 65.6896 79.9954 65.4588C86.2265 61.7663 92.6883 57.843 98.9194 54.1505C100.535 53.2274 101.92 53.2274 103.304 54.1505C109.997 58.5354 116.69 62.9202 123.382 67.305C124.075 67.7666 124.767 67.9974 125.69 67.5358C130.998 64.7664 136.537 61.9971 142.075 58.9969C143.46 58.3046 144.614 58.3046 145.768 58.9969C149.691 61.3047 153.384 63.3818 157.307 65.6896C157.769 65.9204 158.23 66.3819 158.692 66.3819C158.692 66.1511 158.692 65.9203 158.692 65.9203C158.692 55.5352 158.692 44.9193 158.692 34.5341C158.692 33.3802 157.999 33.3802 157.307 33.3802C131.46 33.3802 105.612 33.3802 79.7646 33.3802C78.6107 33.3802 78.3799 33.611 78.3799 34.7649C78.3799 44.9193 78.3799 55.0736 78.3799 65.228C78.3799 65.4588 78.3799 65.6896 78.3799 66.1511ZM118.536 78.3825C125.921 78.3825 133.306 78.3825 140.691 78.3825C146.23 78.3825 151.768 78.3825 157.307 78.3825C158.692 78.3825 158.922 77.921 158.922 76.7671C158.922 75.8439 158.922 74.69 158.922 73.7669C158.922 72.8438 158.692 72.1514 157.769 71.6899C153.615 69.3821 149.46 67.0743 145.306 64.5357C144.152 63.8433 143.46 63.8433 142.306 64.5357C136.998 67.305 131.69 70.0744 126.382 72.8438C124.998 73.5361 123.844 73.5361 122.69 72.613C116.228 68.4589 109.535 64.0741 103.073 59.92C101.689 58.9969 100.766 58.9969 99.381 59.92C93.8422 63.3818 88.0727 67.0743 82.3032 70.0744C79.303 71.6899 77.9184 73.5361 78.3799 76.9978C78.6107 78.1517 78.6107 78.6133 79.9954 78.6133C92.9191 78.3825 105.612 78.3825 118.536 78.3825Z" fill="#010203"/>
<path d="M118.767 138.845C117.151 138.845 115.536 138.845 114.151 138.845C112.305 138.845 111.151 137.922 111.151 135.844C111.151 126.152 111.151 116.228 111.151 106.535C111.151 104.458 112.074 103.766 114.382 103.535C119.69 103.535 124.998 103.535 130.306 103.535C135.614 103.535 141.152 103.535 146.46 103.535C151.076 103.535 155.461 103.535 160.076 103.535C163.307 103.535 164 104.228 164 107.458C164 116.69 164 125.921 164 135.152C164 138.152 163.307 138.845 160.307 138.845C155.692 138.845 151.076 138.845 146.46 138.845H146.23C136.998 138.845 127.767 138.845 118.767 138.845ZM137.46 133.767C144.153 133.767 150.845 133.767 157.538 133.767C158.461 133.767 158.923 133.537 158.923 132.383C158.923 124.767 158.923 117.382 158.923 109.766C158.923 108.612 158.461 108.382 157.538 108.382C144.153 108.382 130.998 108.382 117.613 108.382C116.459 108.382 116.228 108.612 116.228 109.766C116.228 117.151 116.228 124.536 116.228 131.921C116.228 133.306 116.69 133.537 117.844 133.306C124.305 133.767 130.767 133.767 137.46 133.767Z" fill="#030203"/>
<path d="M146.461 23.2244H146.23C144.845 23.4551 143.922 23.2244 143.46 21.3781C142.999 19.7626 141.614 18.8395 139.999 18.378C139.306 18.1472 138.845 18.1472 138.153 18.1472C105.151 18.1472 72.1492 18.1472 39.1475 18.1472C37.532 18.1472 36.1473 18.378 34.9934 19.5319C33.6087 20.6858 33.378 22.3012 33.378 24.1475C33.378 31.3017 33.378 38.6867 33.378 45.8409C33.378 48.3795 33.378 48.3795 30.8394 48.6103C28.3008 48.3795 28.3008 48.3795 28.3008 45.8409C28.3008 38.6867 28.3008 31.5325 28.3008 24.3783C28.3008 19.9934 30.147 16.5317 34.0703 14.4547C34.7626 13.5316 35.9166 13.3008 37.0705 13.3008C71.226 13.3008 105.612 13.3008 139.999 13.3008C144.384 13.3008 148.999 17.9164 148.768 22.3012C148.768 22.9936 148.538 22.9936 148.076 22.9936C147.384 22.9936 146.922 23.2244 146.461 23.2244Z" fill="#010203"/>
<path d="M80.9185 83.459C81.38 83.459 81.6108 83.459 82.0724 83.459C103.073 83.459 124.305 83.459 145.306 83.459C145.537 83.459 145.999 83.459 146.229 83.459C146.229 84.3821 146.229 85.0745 145.999 85.9976C124.767 85.9976 103.535 85.9976 82.0724 85.9976C79.9953 85.9976 81.38 84.3821 80.9185 83.459Z" fill="#70BFCB"/>
<path d="M118.767 138.846C127.998 138.846 136.998 138.846 146.23 138.846L146.46 139.076C146.46 139.769 146.691 140.692 146.46 141.384C137.921 141.384 129.383 141.384 120.844 141.384C118.997 141.384 118.997 141.384 118.997 139.307C118.767 139.076 118.767 139.076 118.767 138.846Z" fill="#70BFCB"/>
<path d="M146.46 98.4578C143.922 98.2271 143.922 98.2271 143.922 95.6885C143.922 93.8422 143.922 91.7652 143.922 89.9189C143.922 88.765 144.383 88.3035 145.307 88.5343C145.768 88.5343 145.999 88.5343 146.46 88.5343C148.768 88.765 148.768 88.765 148.768 91.3036C148.768 93.1499 148.768 95.2269 148.768 97.0732C148.768 98.4578 148.307 98.9194 147.153 98.6886C146.922 98.4578 146.691 98.4578 146.46 98.4578Z" fill="#020203"/>
<path d="M146.23 139.076L145.999 138.846H146.23C146.461 138.846 146.461 138.846 146.23 139.076Z" fill="#84CAD7"/>
<path d="M130.075 158.922C129.383 158.922 128.691 158.922 128.229 158.922C93.6119 158.922 58.9948 158.922 24.3776 158.922C19.762 158.922 17.9158 156.153 18.1466 152.46C18.3773 148.768 18.1466 148.768 21.8391 148.768C56.4562 148.768 90.8426 148.768 125.46 148.768C128.691 148.768 128.691 148.768 128.691 151.999C128.691 154.306 128.691 156.614 130.075 158.922Z" fill="#00AEEF"/>
<path d="M68.4565 60.6113C70.9951 60.6113 70.9951 60.6113 70.9951 63.1499C70.9951 71.6888 70.9951 80.2277 70.9951 88.7666C70.9951 90.8436 70.9951 90.8436 68.918 90.8436C56.2251 90.8436 43.5321 90.8436 30.6084 90.8436C30.6084 89.9205 30.6084 89.2282 30.6084 88.305C34.7625 88.305 38.6857 88.305 42.8398 88.305C50.2248 88.305 57.6098 88.305 64.9948 88.305C67.5334 88.305 68.2257 87.3819 68.4565 85.0741C68.4565 76.9968 68.4565 68.9194 68.4565 60.6113Z" fill="#70BFCB"/>
<path d="M40.763 58.3053C47.9172 58.3053 54.8407 58.3053 61.9949 58.3053C62.918 58.3053 63.3796 58.5361 63.3796 59.4592C63.3796 67.075 63.3796 74.46 63.3796 82.0758C63.3796 82.9989 63.1488 83.2297 62.2257 83.2297C47.9172 83.2297 33.6088 83.2297 19.3004 83.2297C18.1465 83.2297 18.1465 82.7681 18.1465 81.845C18.1465 74.2292 18.1465 66.8442 18.1465 59.2284C18.1465 58.0745 18.3773 57.8438 19.5312 57.8438C26.4546 58.3053 33.6088 58.3053 40.763 58.3053ZM40.0707 79.0756C40.763 79.0756 40.763 78.3833 40.763 78.1525C41.9169 74.6908 43.0708 71.2291 44.2247 67.7673C45.6094 63.8441 45.6094 63.8441 41.4554 62.9209C40.763 62.6902 40.5322 62.9209 40.3015 63.6133C38.9168 67.9981 37.3013 72.6137 35.9166 76.9986C35.9166 77.4601 35.4551 77.6909 36.1474 77.9217C37.5321 78.1525 38.9168 78.614 40.0707 79.0756ZM23.2237 70.7675C23.2237 71.6906 23.6852 72.383 24.3776 72.8445C25.7623 74.2292 26.9162 75.3831 28.3008 76.7678C28.9932 77.6909 29.4548 77.4601 30.1471 76.7678C30.8394 75.8447 32.4549 75.1523 32.4549 73.9984C32.4549 73.3061 31.0702 72.383 30.1471 71.4598C29.6855 70.9983 29.4548 70.7675 30.1471 70.0751C31.0702 69.152 32.6857 68.4597 32.4549 67.5366C32.2241 66.6134 30.8394 65.6903 29.9163 64.7672C29.4548 64.3056 29.224 64.3056 28.5316 64.7672C27.1469 66.1519 25.7623 67.5366 24.3776 69.152C23.4544 69.3828 23.2237 70.0751 23.2237 70.7675ZM52.3021 70.7675C51.3789 71.6906 50.4558 72.6137 49.5327 73.3061C49.0711 73.7676 48.8404 74.2292 49.5327 74.6908C50.225 75.3831 51.1482 76.0755 51.8405 76.9986C52.3021 77.4601 52.5329 77.6909 52.9944 76.9986C54.3791 75.3831 55.9946 73.9984 57.3792 72.383C58.5332 71.2291 58.3024 70.0751 57.3792 68.9212C56.6869 67.9981 55.7638 67.3058 55.0714 66.6134C52.3021 63.6133 52.3021 63.8441 49.5327 66.8442C49.0711 67.5366 49.0711 67.7673 49.5327 68.2289C50.4558 69.152 51.3789 69.8444 52.3021 70.7675Z" fill="#FBA42E"/>
<path d="M45.6091 128.69C44.2244 128.69 42.609 128.69 41.2243 128.69C39.1472 128.69 38.2241 127.767 38.2241 125.69C38.2241 115.997 38.2241 106.074 38.2241 96.381C38.2241 94.5348 39.1472 93.6116 41.2243 93.3809C41.4551 93.3809 41.9166 93.3809 42.1474 93.3809C62.2253 93.3809 82.3033 93.3809 102.381 93.3809C105.612 93.3809 106.305 94.0732 106.305 97.3041C106.305 98.458 106.305 99.8427 106.305 100.997C106.305 109.074 106.305 116.921 106.305 124.998C106.305 127.998 105.612 128.69 102.612 128.69C84.3803 128.69 66.1486 128.69 47.6861 128.69C46.763 128.69 46.3015 128.69 45.6091 128.69ZM72.1489 123.613C81.3802 123.613 90.3806 123.613 99.6119 123.613C100.766 123.613 100.997 123.382 100.997 122.228C100.997 114.843 100.997 107.228 100.997 99.8427C100.997 98.6888 100.535 98.458 99.6119 98.458C81.3802 98.458 63.1485 98.458 44.686 98.458C43.5321 98.458 43.3013 98.6888 43.3013 99.8427C43.3013 107.228 43.3013 114.613 43.3013 121.998C43.3013 123.382 43.5321 123.844 44.9168 123.613C53.9172 123.613 62.9177 123.613 72.1489 123.613Z" fill="#020203"/>
<path d="M45.6094 128.692C46.3017 128.692 46.7633 128.692 47.4556 128.692C65.6873 128.692 83.919 128.692 102.381 128.692C105.382 128.692 106.074 127.999 106.074 124.999C106.074 116.922 106.074 109.075 106.074 100.998C108.613 100.998 108.613 100.998 108.613 103.537C108.613 112.076 108.613 120.614 108.613 129.153C108.613 131 108.613 131 106.766 131C87.15 131 67.5336 131 48.148 131C45.3786 131 45.8402 131.461 45.6094 128.692Z" fill="#70BFCB"/>
<path d="M53.2249 33.1465C57.8405 33.1465 62.4561 33.1465 66.841 33.1465C67.7641 33.1465 68.4564 33.3773 68.2256 34.5312C67.9949 35.6851 68.6872 37.3005 67.9949 37.9929C67.3025 38.6852 65.6871 38.2237 64.5332 38.2237C56.225 38.2237 47.9169 38.2237 39.6088 38.2237C38.4549 38.2237 38.2241 37.9929 38.2241 36.839C38.2241 33.1465 38.2241 33.1465 41.9166 33.1465C45.6091 33.1465 49.5324 33.1465 53.2249 33.1465Z" fill="#060A0B"/>
<path d="M40.5318 28.0694C37.9932 28.0694 37.9932 28.0694 37.9932 25.5308C37.9932 22.9922 37.9932 22.9922 40.5318 22.9922C43.0703 22.9922 43.0703 22.9922 43.0703 25.5308C43.3011 28.0694 43.3011 28.0694 40.5318 28.0694Z" fill="#060A0B"/>
<path d="M48.1479 25.7652C48.1479 23.2266 48.148 23.2266 50.6865 23.2266C53.2251 23.2266 53.2251 23.2266 53.2251 25.7652C53.2251 28.3037 53.2251 28.3037 50.6865 28.3037C48.148 28.073 48.1479 28.073 48.1479 25.7652Z" fill="#030203"/>
<path d="M58.3022 25.5344C58.3022 23.2266 58.3022 23.2266 60.6101 23.2266C63.1486 23.2266 63.1486 23.2266 63.1486 25.9959C63.1486 28.3037 63.1486 28.3037 60.8408 28.3037C58.3022 28.073 58.3022 28.073 58.3022 25.5344Z" fill="#020203"/>
<path d="M118.536 78.3802C105.612 78.3802 92.919 78.3802 79.9953 78.3802C78.6106 78.3802 78.6106 77.9187 78.3798 76.7648C77.9183 73.3031 79.0722 71.4568 82.3031 69.8413C88.0726 66.8412 93.8421 63.1487 99.3809 59.687C100.766 58.7639 101.689 58.9946 103.073 59.687C109.535 64.0718 116.228 68.2259 122.69 72.3799C123.844 73.3031 124.998 73.3031 126.382 72.6107C131.69 69.8413 136.998 67.072 142.306 64.3026C143.46 63.841 144.152 63.6103 145.306 64.3026C149.46 66.8412 153.614 69.149 157.768 71.4568C158.692 71.9184 159.153 72.6107 158.922 73.5338C158.922 74.457 158.922 75.6109 158.922 76.534C159.153 77.6879 158.692 78.1495 157.307 78.1495C151.768 78.1495 146.229 78.1495 140.691 78.1495C133.306 78.3802 125.921 78.3802 118.536 78.3802Z" fill="#65DEF5"/>
<path d="M137.46 133.77C130.768 133.77 124.306 133.77 117.613 133.77C116.459 133.77 115.998 133.539 115.998 132.385C115.998 125 115.998 117.615 115.998 110.23C115.998 109.076 116.228 108.846 117.382 108.846C130.768 108.846 143.922 108.846 157.307 108.846C158.461 108.846 158.692 109.076 158.692 110.23C158.692 117.846 158.692 125.231 158.692 132.847C158.692 134.001 158.461 134.232 157.307 134.232C150.845 133.77 144.153 133.77 137.46 133.77ZM142.537 128.693C145.076 128.693 147.615 128.693 150.153 128.693C153.846 128.693 153.615 128.693 153.846 125C153.846 123.846 153.615 123.616 152.461 123.616C146.691 123.616 140.691 123.616 134.922 123.616C130.998 123.616 131.229 123.616 131.229 127.539C131.229 128.462 131.691 128.693 132.614 128.693C135.845 128.693 139.076 128.693 142.537 128.693ZM142.537 118.769C145.076 118.769 147.615 118.769 150.153 118.769C153.846 118.769 153.846 118.769 153.846 115.077C153.846 113.923 153.615 113.692 152.461 113.692C146.691 113.692 140.691 113.692 134.922 113.692C131.229 113.692 131.229 113.692 131.229 117.385C131.229 118.538 131.691 118.769 132.614 118.769C135.845 118.539 139.076 118.769 142.537 118.769ZM123.383 118.769C126.152 118.769 126.152 118.769 126.152 116.231C126.152 113.692 126.152 113.692 123.613 113.692C121.075 113.692 121.075 113.692 121.075 116.231C121.075 118.769 121.075 118.769 123.383 118.769ZM126.152 126.154C126.152 123.616 126.152 123.616 123.613 123.616C121.075 123.616 121.075 123.616 121.075 126.154C121.075 128.693 121.075 128.693 123.613 128.693C126.152 128.693 126.152 128.693 126.152 126.154Z" fill="#DF4983"/>
<path d="M40.0702 79.0749C38.6855 78.6133 37.5316 78.1518 36.1469 77.6902C35.6853 77.4594 35.9161 76.9979 35.9161 76.7671C37.3008 72.3823 38.9162 67.7666 40.3009 63.3818C40.5317 62.6895 40.7625 62.6895 41.4548 62.6895C45.6089 63.6126 45.6089 63.6126 44.2242 67.5359C43.0703 70.9976 41.9164 74.4593 40.7625 77.921C40.7625 78.3826 40.9933 79.0749 40.0702 79.0749Z" fill="#030203"/>
<path d="M23.2236 70.7657C23.2236 70.0733 23.4544 69.381 24.1468 68.9194C25.5314 67.5347 26.9161 66.15 28.3008 64.5346C28.7624 64.073 28.9932 64.073 29.4547 64.7653C30.3778 65.6885 31.7625 66.6116 31.9933 67.5347C32.2241 68.4578 30.6086 69.381 29.6855 70.0733C29.2239 70.5349 29.2239 70.9964 29.6855 71.458C30.6086 72.1503 31.9933 73.3042 31.9933 73.9966C31.9933 74.9197 30.3778 75.8428 29.6855 76.766C28.9932 77.4583 28.5316 77.6891 27.8393 76.766C26.6853 75.3813 25.3007 74.2274 23.916 72.8427C23.6852 72.3811 23.2236 71.6888 23.2236 70.7657Z" fill="#020100"/>
<path d="M52.302 70.7676C51.3789 69.8444 50.4558 68.9213 49.5327 68.229C49.0711 67.7674 48.8403 67.5366 49.5327 66.8443C52.302 63.8441 52.302 63.8441 55.0714 66.6135C55.7637 67.3058 56.6869 67.9982 57.3792 68.9213C58.3023 70.0752 58.5331 71.2291 57.3792 72.383C55.9945 73.9985 54.3791 75.3832 52.9944 76.9986C52.5328 77.4602 52.302 77.4602 51.8405 76.9986C51.1481 76.3063 50.4558 75.3832 49.5327 74.6908C48.8403 74.2293 49.0711 73.7677 49.5327 73.3061C50.4558 72.6138 51.3789 71.9215 52.302 70.7676Z" fill="#030203"/>
<path d="M72.1489 123.614C63.1484 123.614 53.9172 123.614 44.9167 123.614C43.5321 123.614 43.3013 123.153 43.3013 121.999C43.3013 114.614 43.3013 107.229 43.3013 99.8437C43.3013 98.6898 43.5321 98.459 44.686 98.459C62.9177 98.459 81.1494 98.459 99.6118 98.459C100.766 98.459 101.227 98.6898 100.997 99.8437C100.997 107.229 100.997 114.844 100.997 122.229C100.997 123.383 100.766 123.614 99.6118 123.614C90.3806 123.614 81.1494 123.614 72.1489 123.614ZM63.3792 113.691C59.4559 113.691 55.5327 113.691 51.8402 113.691C48.3785 113.691 48.3785 113.691 48.3785 117.152C48.3785 118.306 48.6092 118.768 49.9939 118.768C58.302 118.768 66.6102 118.768 74.9183 118.768C78.8415 118.768 78.6108 118.768 78.6108 114.844C78.6108 113.921 78.38 113.691 77.4569 113.691C72.6105 113.691 67.9948 113.691 63.3792 113.691ZM74.6875 108.613C77.2261 108.613 79.7647 108.613 82.3033 108.613C85.9958 108.613 85.9958 108.613 85.9958 104.921C85.9958 103.767 85.765 103.536 84.6111 103.536C78.8415 103.536 73.072 103.536 67.3025 103.536C63.3792 103.536 63.3792 103.536 63.3792 107.459C63.3792 108.383 63.61 108.613 64.5331 108.613C67.9948 108.613 71.2258 108.613 74.6875 108.613ZM89.6882 113.691C88.7651 113.691 87.842 113.691 87.1497 113.691C83.4572 113.691 83.4572 113.691 83.4572 117.383C83.4572 118.306 83.6879 118.768 84.8419 118.768C87.3804 118.768 89.919 118.768 92.4576 118.768C96.3809 118.768 96.3809 118.768 96.3809 114.844C96.3809 113.921 95.9193 113.691 95.227 113.921C93.15 113.691 91.5345 113.691 89.6882 113.691ZM53.4556 103.536C52.9941 103.536 52.5325 103.536 52.0709 103.536C47.9169 103.536 48.1477 103.536 48.3785 107.69C48.3785 108.383 48.6092 108.613 49.5324 108.613C51.1478 108.613 52.9941 108.613 54.6095 108.613C58.7636 108.613 58.7636 108.613 58.5328 104.459C58.5328 103.767 58.302 103.536 57.6097 103.536C55.9942 103.536 54.6095 103.536 53.4556 103.536ZM95.9193 106.075C95.9193 103.536 95.9193 103.536 93.3807 103.536C90.8422 103.536 90.8422 103.536 90.8422 106.075C90.8422 108.613 90.8422 108.613 93.3807 108.613C95.9193 108.613 95.9193 108.613 95.9193 106.075Z" fill="#DE4882"/>
<path d="M132.383 38.2266C137.229 38.2266 141.153 42.1498 141.153 46.9962C141.153 51.8426 137.229 55.7659 132.614 55.7659C127.767 55.7659 123.844 52.0734 123.613 47.227C123.613 42.1498 127.537 38.2266 132.383 38.2266ZM136.075 46.9962C136.075 44.9192 134.46 43.3037 132.383 43.3037C130.306 43.3037 128.69 44.9192 128.69 46.9962C128.69 49.0733 130.537 50.6887 132.383 50.6887C134.46 50.6887 136.075 49.0733 136.075 46.9962Z" fill="#010203"/>
<path d="M142.537 128.692C139.075 128.692 135.844 128.692 132.383 128.692C131.46 128.692 131.229 128.462 130.998 127.539C130.998 123.615 130.998 123.615 134.691 123.615C140.46 123.615 146.46 123.615 152.23 123.615C153.384 123.615 153.615 123.846 153.615 125C153.615 128.692 153.615 128.692 149.922 128.692C147.614 128.692 145.076 128.692 142.537 128.692Z" fill="#020100"/>
<path d="M142.537 118.769C139.306 118.769 135.845 118.769 132.614 118.769C131.691 118.769 131.229 118.538 131.229 117.384C131.229 113.691 131.229 113.691 134.922 113.691C140.691 113.691 146.691 113.691 152.461 113.691C153.384 113.691 153.846 113.922 153.846 115.076C153.846 118.769 153.846 118.769 150.153 118.769C147.614 118.769 145.076 118.769 142.537 118.769Z" fill="#030203"/>
<path d="M123.382 118.769C121.074 118.769 121.074 118.769 121.074 116.23C121.074 113.691 121.074 113.691 123.613 113.691C126.151 113.691 126.151 113.691 126.151 116.23C126.151 118.769 126.151 118.769 123.382 118.769Z" fill="#030203"/>
<path d="M126.151 126.154C126.151 128.692 126.151 128.692 123.613 128.692C121.074 128.692 121.074 128.692 121.074 126.154C121.074 123.615 121.074 123.615 123.613 123.615C126.151 123.615 126.151 123.615 126.151 126.154Z" fill="#030203"/>
<path d="M63.3795 113.691C67.9951 113.691 72.6107 113.691 77.2264 113.691C78.1495 113.691 78.3803 113.922 78.3803 114.845C78.3803 118.769 78.3803 118.769 74.6878 118.769C66.3796 118.769 58.0715 118.769 49.7634 118.769C48.6095 118.769 48.1479 118.538 48.1479 117.153C48.1479 113.691 48.1479 113.691 51.6097 113.691C55.5329 113.691 59.4562 113.691 63.3795 113.691Z" fill="#030203"/>
<path d="M74.6877 108.612C71.2259 108.612 67.995 108.612 64.5333 108.612C63.6102 108.612 63.3794 108.382 63.3794 107.458C63.3794 103.535 63.3794 103.535 67.3027 103.535C73.0722 103.535 78.8417 103.535 84.6112 103.535C85.7651 103.535 85.9959 103.766 85.9959 104.92C85.9959 108.612 85.9959 108.612 82.3034 108.612C79.7648 108.612 77.2263 108.612 74.6877 108.612Z" fill="#0B0407"/>
<path d="M89.6882 113.692C91.3037 113.692 93.15 113.692 94.7654 113.692C95.4578 113.692 95.9193 113.922 95.9193 114.615C96.1501 118.538 96.1501 118.538 91.9961 118.538C89.4575 118.538 86.9189 118.538 84.3803 118.538C83.2264 118.538 82.9956 118.307 82.9956 117.153C82.9956 113.461 82.9956 113.461 86.6881 113.461C88.0728 113.692 88.7651 113.692 89.6882 113.692Z" fill="#030203"/>
<path d="M53.4557 103.535C54.8404 103.535 55.9943 103.535 57.3789 103.535C58.0713 103.535 58.3021 103.766 58.3021 104.458C58.5329 108.612 58.5328 108.612 54.3788 108.612C52.7633 108.612 50.9171 108.612 49.3016 108.612C48.6093 108.612 48.3785 108.382 48.1477 107.689C47.9169 103.535 47.9169 103.535 51.8402 103.535C52.5325 103.535 52.9941 103.535 53.4557 103.535Z" fill="#0B0407"/>
<path d="M95.9195 106.074C95.9195 108.612 95.9195 108.612 93.3809 108.612C90.8423 108.612 90.8423 108.612 90.8423 106.074C90.8423 103.535 90.8423 103.535 93.3809 103.535C95.9195 103.535 95.9195 103.535 95.9195 106.074Z" fill="#0B0407"/>
<path d="M78.3799 66.1482C78.3799 65.6866 78.3799 65.4558 78.3799 64.9943C78.3799 54.8399 78.3799 44.6855 78.3799 34.5312C78.3799 33.3773 78.6107 33.1465 79.7646 33.1465C105.612 33.1465 131.46 33.1465 157.307 33.1465C158.23 33.1465 158.692 33.1465 158.692 34.3004C158.692 44.6855 158.692 55.3015 158.692 65.6866C158.692 65.9174 158.692 66.1482 158.692 66.1482C157.999 66.1482 157.769 65.9174 157.307 65.4558C153.384 63.148 149.46 61.071 145.768 58.7632C144.383 58.0708 143.46 58.0708 142.075 58.7632C136.767 61.5325 131.229 64.3019 125.69 67.3021C124.767 67.7636 124.305 67.7636 123.382 67.0713C116.69 62.6864 109.997 58.3016 103.304 53.9168C101.689 52.9936 100.535 52.7629 98.9194 53.9168C92.6883 57.84 86.2264 61.5325 79.9953 65.225C79.5338 65.6866 79.0722 66.1482 78.3799 66.1482ZM132.383 38.2237C127.536 38.2237 123.613 42.1469 123.613 46.9933C123.613 51.8397 127.536 55.763 132.613 55.5322C137.46 55.5322 141.152 51.609 141.152 46.7626C141.152 42.1469 137.229 38.2237 132.383 38.2237Z" fill="#00AEEF"/>
<path d="M136.075 46.9952C136.075 49.0723 134.46 50.6877 132.383 50.6877C130.306 50.6877 128.69 49.0723 128.69 46.9952C128.69 44.9182 130.306 43.3027 132.383 43.3027C134.46 43.3027 136.075 44.9182 136.075 46.9952Z" fill="#FDD98E"/>
</svg>
