<svg width="125" height="125" viewBox="0 0 125 125" fill="none" xmlns="http://www.w3.org/2000/svg">
<rect width="125" height="125" rx="5" fill="white" fill-opacity="0.5"/>
<rect x="7.69238" y="7.69238" width="109.615" height="109.615" rx="5" fill="#7171FF" fill-opacity="0.5"/>
<path d="M30.0846 44.9654C30.2912 43.9329 30.9113 43.5715 31.9447 43.5973C34.9157 43.6231 37.8609 43.5973 40.8319 43.6231C41.452 43.6231 41.6328 43.4683 41.6328 42.823C41.607 39.4415 41.607 36.0601 41.607 32.6787C41.607 29.1682 43.7771 27 47.3165 27C56.7722 27 66.2537 27 75.7093 27C79.1712 27 81.3413 29.194 81.3672 32.6787C81.3672 35.9827 81.4188 39.3125 81.3413 42.6165C81.3155 43.5199 81.5997 43.6231 82.4006 43.6231C91.262 43.5973 100.123 43.5973 108.959 43.5973C110.535 43.5973 110.948 44.0103 110.948 45.5849C110.948 49.0695 110.948 52.5284 110.948 56.0131C110.948 57.4844 110.509 57.9232 109.088 57.949C107.435 57.9748 107.435 57.9748 107.435 59.601C107.435 64.6602 107.435 69.6936 107.435 74.7528C107.435 76.0176 107.125 76.4048 105.936 76.7404C104.722 76.379 104.49 76.0951 104.49 74.727C104.49 69.4613 104.464 64.1698 104.515 58.904C104.515 58.1039 104.309 57.8974 103.508 57.8974C96.4549 57.9232 89.4019 57.9232 82.3489 57.8974C81.548 57.8974 81.3413 58.078 81.3413 58.904C81.3672 73.4622 81.3672 87.9945 81.3413 102.553C81.3413 103.327 81.5739 103.482 82.2972 103.482C89.3502 103.456 96.4032 103.456 103.456 103.482C104.335 103.482 104.515 103.25 104.49 102.398C104.464 95.7382 104.464 89.0787 104.464 82.4191C104.464 80.9994 104.645 80.7413 105.91 80.2766C107.151 80.6638 107.409 81.0252 107.409 82.3675C107.409 89.0012 107.435 95.635 107.383 102.269C107.383 103.301 107.693 103.559 108.623 103.43C108.933 103.379 109.269 103.405 109.579 103.43C110.406 103.508 110.897 103.972 110.922 104.798C110.948 106.734 110.948 108.67 110.922 110.58C110.897 111.406 110.38 111.845 109.579 111.948C109.269 111.974 108.933 111.948 108.623 111.948C77.1819 111.948 45.7406 111.948 14.2993 111.974C13.3951 111.974 12.62 111.871 12 111.2C12 108.877 12 106.554 12 104.256C12.7234 103.301 13.7568 103.379 14.7902 103.456C15.3844 103.508 15.5394 103.301 15.5394 102.708C15.5136 88.0462 15.5136 73.3589 15.5394 58.6975C15.5394 58.1039 15.3844 57.8974 14.7902 57.949C13.7826 58.0264 12.7492 58.1039 12 57.1488C12 52.8898 12 48.6565 12 44.3975C12.5942 43.7522 13.3434 43.5973 14.2218 43.5973C17.6579 43.649 21.1198 43.649 24.5558 43.5973C25.6151 43.5715 26.2868 43.9587 26.5193 44.9912C26.1318 46.2818 25.8734 46.5141 24.5558 46.5141C21.6365 46.5141 18.6913 46.5399 15.7719 46.4883C15.1519 46.4883 14.8677 46.5657 14.8935 47.2885C14.9452 49.6116 14.9452 51.9089 14.9194 54.232C14.9194 54.7999 15.0227 55.0064 15.6427 55.0064C24.0391 54.9806 32.4614 54.9806 40.8578 55.0064C41.5295 55.0064 41.6328 54.7741 41.6328 54.1804C41.607 51.9089 41.607 49.6116 41.6587 47.3401C41.6845 46.669 41.4778 46.4883 40.8061 46.4883C37.8867 46.5399 34.9415 46.5141 32.0222 46.5141C30.7046 46.5141 30.3429 46.2044 30.0846 44.9654ZM43.1313 79.7346C43.8546 79.9411 44.423 80.2766 44.5522 81.0768C44.5522 88.2785 44.5522 95.4801 44.5264 102.708C44.5264 103.404 44.8105 103.482 45.3789 103.482C48.0916 103.456 50.7784 103.43 53.4911 103.482C54.292 103.508 54.4212 103.224 54.4212 102.501C54.3954 96.59 54.4212 90.6532 54.4212 84.7422C54.4212 84.3034 54.4729 83.8388 54.4987 83.3999C54.8087 82.703 55.3254 82.4191 56.1005 82.4191C59.7174 82.4449 63.3085 82.4191 66.9254 82.4191C68.0104 82.4191 68.5271 82.9095 68.6046 83.9678C68.6305 84.2776 68.6046 84.6131 68.6046 84.9229C68.6305 90.0079 68.6305 95.0929 68.6563 100.178C68.6305 100.927 68.6563 101.649 68.6046 102.398C68.5271 103.198 68.7338 103.508 69.6381 103.482C72.2474 103.404 74.8567 103.404 77.4661 103.482C78.3703 103.508 78.4995 103.224 78.4995 102.398C78.4736 79.27 78.4736 56.1163 78.4736 32.9885C78.4736 30.6395 77.5694 29.7877 75.2443 29.9426C75.1151 29.9426 74.9859 29.9168 74.8567 29.9168C65.6594 29.9168 56.4622 29.9168 47.2907 29.9168C47.0065 29.9168 46.7223 29.9684 46.4382 30.02C46.3865 30.0459 46.309 30.0717 46.2573 30.0975C45.0172 30.5105 44.578 31.1816 44.578 32.7561C44.578 37.2991 44.578 41.8163 44.578 46.3592C44.578 55.6259 44.578 64.8925 44.578 74.1591C44.578 75.1142 44.423 75.8886 43.3379 76.1467C42.0204 75.9918 41.6587 75.5788 41.6587 74.1849C41.6587 69.1257 41.6328 64.0923 41.6845 59.0331C41.6845 58.0522 41.4003 57.8974 40.5219 57.8974C33.5465 57.949 26.5451 57.9232 19.5697 57.8974C18.7171 57.8974 18.5104 58.078 18.5104 58.9557C18.5363 73.4622 18.5363 87.9687 18.5363 102.475C18.5363 103.275 18.7171 103.482 19.5438 103.482C26.5968 103.456 33.6498 103.456 40.7028 103.482C41.5037 103.482 41.7103 103.301 41.7103 102.501C41.6845 95.6092 41.6845 88.7431 41.7103 81.8512C41.6328 80.4832 41.8653 80.1476 43.1313 79.7346ZM61.3708 109.083C76.5102 109.083 91.6495 109.083 106.789 109.083C107.047 109.083 107.306 109.109 107.564 109.083C107.719 109.057 107.977 109.006 107.977 108.928C108.132 108.18 108.184 107.38 108.003 106.631C107.874 106.089 107.228 106.373 106.815 106.373C76.6135 106.347 46.3865 106.347 16.1853 106.347C15.9528 106.347 15.7203 106.373 15.5136 106.347C15.0485 106.295 14.8677 106.528 14.9194 106.967C14.9452 107.251 14.9194 107.534 14.9194 107.844C14.9452 109.212 14.7644 109.057 16.1853 109.057C31.2213 109.083 46.309 109.083 61.3708 109.083ZM94.7497 46.5141C90.5645 46.5141 86.3792 46.5141 82.1939 46.4883C81.6255 46.4883 81.3413 46.5399 81.3672 47.2369C81.4188 49.5858 81.4188 51.9347 81.393 54.2836C81.393 54.9289 81.6255 55.0064 82.1681 55.0064C90.5645 54.9806 98.9609 54.9806 107.383 55.0064C108.003 55.0064 108.106 54.7999 108.106 54.232C108.081 51.9605 108.055 49.6632 108.106 47.3917C108.132 46.6948 107.951 46.4883 107.228 46.4883C103.043 46.5399 98.8833 46.5141 94.7497 46.5141ZM65.6594 94.396C65.6853 91.6341 65.6594 88.8722 65.6853 86.1102C65.6853 85.4649 65.5044 85.3101 64.8844 85.3101C62.6367 85.3359 60.3891 85.3617 58.1156 85.3101C57.4181 85.2842 57.2631 85.5424 57.2889 86.1877C57.3406 88.0462 57.3406 89.9305 57.2889 91.7889C57.2631 92.6149 57.3922 92.9763 58.3481 92.9247C59.5365 92.8731 60.2082 93.7507 59.9241 94.7832C59.6915 95.6608 58.994 95.8673 58.1931 95.7899C57.4697 95.7124 57.2631 95.9706 57.2889 96.6933C57.3406 98.6808 57.3406 100.668 57.3147 102.682C57.3147 103.327 57.5472 103.482 58.1414 103.456C60.3633 103.43 62.5851 103.405 64.8069 103.456C65.5044 103.482 65.6594 103.25 65.6594 102.578C65.6336 99.8682 65.6594 97.1321 65.6594 94.396Z" fill="#090809"/>
<path d="M105.962 80.3021C104.696 80.7668 104.515 80.9991 104.515 82.4446C104.515 89.1041 104.49 95.7637 104.541 102.423C104.541 103.249 104.386 103.507 103.508 103.507C96.4549 103.456 89.4019 103.482 82.349 103.507C81.6256 103.507 81.3931 103.353 81.3931 102.578C81.4189 88.02 81.4189 73.4877 81.3931 58.9295C81.3931 58.1293 81.5997 57.9229 82.4006 57.9229C89.4536 57.9487 96.5066 57.9487 103.56 57.9229C104.36 57.9229 104.567 58.1293 104.567 58.9295C104.541 64.1952 104.541 69.4868 104.541 74.7525C104.541 76.0947 104.774 76.4045 105.988 76.7659C105.962 77.9274 105.962 79.1148 105.962 80.3021ZM99.9685 86.239C99.9685 84.4837 99.9685 82.7027 99.9685 80.9475C99.9685 79.7859 99.5035 79.2696 98.3409 79.2696C94.7498 79.2438 91.1329 79.2438 87.5418 79.2696C86.3534 79.2696 85.8625 79.8117 85.8625 80.9991C85.8625 84.5096 85.8625 87.9942 85.8625 91.5047C85.8625 92.7179 86.4051 93.2341 87.6451 93.2599C91.1846 93.2599 94.724 93.2599 98.2634 93.2599C99.4518 93.2599 99.9685 92.7437 99.9943 91.5563C99.9685 89.7753 99.9685 87.9942 99.9685 86.239ZM99.9685 68.6608C99.9685 66.8539 99.9685 65.0471 99.9685 63.266C99.9685 62.1561 99.4259 61.614 98.315 61.614C94.724 61.5882 91.107 61.5882 87.516 61.614C86.4051 61.614 85.8625 62.1819 85.8625 63.2918C85.8625 66.8281 85.8625 70.3644 85.8625 73.9007C85.8625 74.9848 86.3534 75.5785 87.3868 75.6043C91.0812 75.6301 94.7756 75.6301 98.4959 75.6043C99.5293 75.6043 99.9685 75.0364 99.9943 73.9781C99.9685 72.1971 99.9685 70.416 99.9685 68.6608Z" fill="#E7E2EC"/>
<path d="M30.0847 44.9658C30.343 46.2048 30.7306 46.4887 31.9965 46.4887C34.9158 46.4887 37.861 46.5146 40.7804 46.4629C41.4521 46.4629 41.633 46.6436 41.633 47.3147C41.5813 49.5862 41.5813 51.8835 41.6071 54.155C41.6071 54.7487 41.5038 54.981 40.8321 54.981C32.4357 54.9552 24.0134 54.9552 15.617 54.981C14.997 54.981 14.8937 54.7745 14.8937 54.2066C14.9195 51.8835 14.9453 49.5604 14.8678 47.2631C14.842 46.5404 15.1262 46.4371 15.7462 46.4629C18.6656 46.4887 21.6108 46.4887 24.5301 46.4887C25.8219 46.4887 26.1061 46.2822 26.4936 44.9658C27.7079 44.9916 28.8963 44.9916 30.0847 44.9658Z" fill="#F598A0"/>
<path d="M68.6306 100.204C68.6048 95.1189 68.6048 90.0339 68.579 84.9489C68.579 84.6391 68.6048 84.3036 68.579 83.9938C68.5015 82.9355 67.9589 82.4451 66.8997 82.4451C63.2828 82.4451 59.6917 82.4451 56.0748 82.4451C55.2997 82.4451 54.783 82.729 54.473 83.426C54.1888 83.7615 54.318 84.1745 54.318 84.5359C54.318 89.4144 54.2922 94.3188 54.318 99.1973C54.318 99.9717 54.1372 100.256 53.3104 100.23C50.7786 100.178 48.2209 100.178 45.6891 100.23C44.8882 100.256 44.6557 99.9975 44.6557 99.1973C44.6815 93.4928 44.6815 87.814 44.6557 82.1095C44.6557 81.774 44.759 81.3868 44.5265 81.077C44.3973 80.251 43.8031 79.9155 43.1056 79.7348C43.2089 78.5474 42.8989 77.3084 43.2864 76.1469C44.3457 75.8888 44.5265 75.1144 44.5265 74.1593C44.5007 64.8927 44.5265 55.6261 44.5265 46.3594C44.5265 41.8165 44.5265 37.2993 44.5265 32.7563C44.5265 31.1818 44.9657 30.5107 46.2058 30.0977C46.2575 30.0719 46.335 30.0461 46.3866 30.0202C46.6708 29.9944 46.955 29.917 47.2392 29.917C56.4365 29.917 65.6338 29.917 74.8052 29.917C74.9344 29.917 75.0636 29.9428 75.1927 29.9428C75.1927 51.4961 75.1927 73.0752 75.1927 94.6285C75.1927 95.6094 74.9602 96.5386 74.4435 97.3646C73.1001 99.4812 71.1625 100.436 68.6306 100.204ZM61.4485 33.5049C55.6098 33.5307 51.0111 38.1769 51.0369 44.0105C51.0628 49.8441 55.7648 54.4645 61.6293 54.4387C67.3389 54.4129 71.9634 49.6892 71.9375 43.9331C71.9375 38.0995 67.2614 33.4533 61.4485 33.5049ZM61.5002 61.5887C59.7692 61.5887 58.0124 61.5887 56.2815 61.5887C54.938 61.5887 54.3955 62.105 54.3955 63.4472C54.3697 66.8802 54.3697 70.3391 54.3955 73.7721C54.3955 75.0886 54.9122 75.6048 56.2298 75.6048C59.7434 75.6306 63.2569 75.6306 66.7447 75.6048C68.0881 75.6048 68.579 75.0628 68.579 73.6947C68.579 70.2875 68.579 66.8802 68.579 63.473C68.579 62.1308 68.0364 61.6145 66.693 61.5887C64.962 61.5887 63.2311 61.5887 61.5002 61.5887Z" fill="white"/>
<path d="M43.3123 76.1462C42.9248 77.3336 43.2348 78.5468 43.1314 79.7341C41.8655 80.1471 41.633 80.4827 41.633 81.8249C41.633 88.7168 41.6072 95.5829 41.633 102.475C41.633 103.301 41.4005 103.456 40.6254 103.456C33.5725 103.43 26.5195 103.43 19.4665 103.456C18.6656 103.456 18.4589 103.249 18.4589 102.449C18.4848 87.9425 18.4848 73.4359 18.4331 58.9294C18.4331 58.0776 18.6656 57.8711 19.4923 57.8711C26.4678 57.8969 33.4691 57.8969 40.4446 57.8711C41.3488 57.8711 41.633 58.026 41.6072 59.0068C41.5555 64.0661 41.5813 69.0995 41.5813 74.1587C41.633 75.5525 41.9947 75.9655 43.3123 76.1462ZM23.0059 68.5316C23.0059 70.3384 23.0059 72.1195 23.0059 73.9264C23.0059 75.0105 23.4709 75.5784 24.556 75.5784C28.2246 75.6042 31.8932 75.6042 35.5618 75.5784C36.621 75.5784 37.1119 74.9847 37.1119 73.9006C37.1119 70.3643 37.1119 66.828 37.1119 63.2917C37.1119 62.1301 36.5693 61.5881 35.4067 61.5881C31.8415 61.5881 28.2763 61.5623 24.6852 61.5881C23.5226 61.5881 23.0059 62.1301 23.0059 63.3175C23.0059 65.0469 23.0059 66.7763 23.0059 68.5316ZM23.0059 86.2905C23.0059 88.0199 23.0059 89.7493 23.0059 91.5046C23.0059 92.6919 23.5226 93.234 24.6852 93.234C28.2504 93.2598 31.8157 93.234 35.4067 93.234C36.5693 93.234 37.1119 92.6919 37.1377 91.5304C37.1377 87.9941 37.1377 84.4578 37.1377 80.9215C37.1377 79.8374 36.6468 79.2695 35.5876 79.2695C31.919 79.2437 28.2504 79.2437 24.5819 79.2695C23.4968 79.2695 23.0317 79.8116 23.0317 80.8957C23.0059 82.7026 23.0059 84.5094 23.0059 86.2905Z" fill="#E7E2EC"/>
<path d="M68.6305 100.203C71.1365 100.436 73.0742 99.4806 74.4434 97.3898C74.986 96.5638 75.1926 95.6346 75.1926 94.6537C75.1926 73.1004 75.1926 51.5213 75.1926 29.968C77.5436 29.8389 78.422 30.6649 78.422 33.0138C78.422 56.1417 78.422 79.2954 78.4479 102.423C78.4479 103.249 78.2928 103.533 77.4145 103.507C74.8051 103.43 72.1958 103.43 69.5864 103.507C68.6822 103.533 68.4755 103.249 68.553 102.423C68.6564 101.675 68.6305 100.926 68.6305 100.203Z" fill="#E7E2EC"/>
<path d="M61.3706 109.083C46.3088 109.083 31.2211 109.083 16.1593 109.083C14.7383 109.083 14.9192 109.238 14.8933 107.87C14.8933 107.586 14.9192 107.302 14.8933 106.992C14.8675 106.553 15.0225 106.321 15.4876 106.373C15.7201 106.399 15.9268 106.373 16.1593 106.373C46.3605 106.373 76.5875 106.373 106.789 106.399C107.202 106.399 107.848 106.115 107.977 106.657C108.158 107.379 108.106 108.18 107.951 108.954C107.925 109.031 107.667 109.083 107.538 109.109C107.28 109.135 107.021 109.109 106.763 109.109C91.6493 109.083 76.51 109.083 61.3706 109.083Z" fill="#736572"/>
<path d="M94.7499 46.5141C98.9093 46.5141 103.043 46.5399 107.202 46.4883C107.952 46.4883 108.107 46.6948 108.081 47.3917C108.029 49.6632 108.055 51.9605 108.081 54.232C108.081 54.7999 107.977 55.0064 107.357 55.0064C98.961 54.9805 90.5646 54.9805 82.1423 55.0064C81.5998 55.0064 81.3415 54.9289 81.3673 54.2836C81.3931 51.9347 81.3931 49.5858 81.3415 47.2368C81.3156 46.5399 81.5998 46.4883 82.1682 46.4883C86.3793 46.5141 90.5646 46.5141 94.7499 46.5141Z" fill="#F598A0"/>
<path d="M65.6597 94.3959C65.6597 97.132 65.6338 99.8681 65.6855 102.604C65.6855 103.275 65.5047 103.482 64.8329 103.482C62.6111 103.43 60.3893 103.456 58.1675 103.482C57.5474 103.482 57.3149 103.353 57.3408 102.707C57.3666 100.72 57.3666 98.7323 57.3149 96.719C57.2891 95.9962 57.4958 95.7381 58.2192 95.8155C59.02 95.893 59.7176 95.6865 59.9501 94.8089C60.2343 93.7764 59.5626 92.8987 58.3742 92.9504C57.4183 93.002 57.2891 92.6148 57.3149 91.8146C57.3666 89.9561 57.3666 88.0718 57.3149 86.2134C57.2891 85.568 57.4441 85.3099 58.1417 85.3357C60.3893 85.3874 62.637 85.3874 64.9104 85.3357C65.5305 85.3357 65.7372 85.4906 65.7113 86.1359C65.6597 88.872 65.6855 91.6339 65.6597 94.3959Z" fill="#97C7EA"/>
<path d="M44.5522 81.0771C44.7847 81.3869 44.6814 81.7741 44.6814 82.1096C44.6814 87.8142 44.7072 93.4929 44.6814 99.1974C44.6814 99.9976 44.8881 100.23 45.7148 100.23C48.2466 100.178 50.8043 100.178 53.3361 100.23C54.1628 100.256 54.3437 99.9718 54.3437 99.1974C54.3179 94.3189 54.3179 89.4145 54.3437 84.536C54.3437 84.1746 54.2145 83.7616 54.4987 83.4261C54.4729 83.8649 54.4212 84.3295 54.4212 84.7683C54.4212 90.6793 54.3954 96.6162 54.4212 102.527C54.4212 103.25 54.292 103.508 53.4911 103.508C50.7785 103.456 48.0916 103.482 45.3789 103.508C44.8106 103.508 44.5264 103.431 44.5264 102.734C44.5522 95.5062 44.5522 88.3046 44.5522 81.0771Z" fill="#E7E2EC"/>
<path d="M46.3864 29.9941C46.3347 30.02 46.2572 30.0458 46.2056 30.0716C46.2831 30.0716 46.3347 30.02 46.3864 29.9941Z" fill="#E7E2EC"/>
<path d="M99.9682 86.2391C99.9682 87.9944 99.9682 89.7754 99.9682 91.5306C99.9682 92.6922 99.4257 93.2343 98.2373 93.2343C94.6979 93.2343 91.1585 93.2343 87.6191 93.2343C86.379 93.2343 85.8364 92.6922 85.8364 91.479C85.8364 87.9685 85.8364 84.4839 85.8364 80.9734C85.8364 79.786 86.3531 79.244 87.5157 79.244C91.1068 79.2182 94.7237 79.2182 98.3148 79.244C99.4515 79.244 99.9165 79.7602 99.9424 80.9218C99.9682 82.7028 99.9682 84.4581 99.9682 86.2391ZM92.9669 82.1608C91.8043 82.1608 90.6418 82.1866 89.505 82.135C88.9366 82.1091 88.73 82.2382 88.73 82.8577C88.7816 85.1034 88.7816 87.349 88.73 89.5947C88.73 90.2142 88.9366 90.3175 89.505 90.3175C91.7785 90.2916 94.0778 90.2916 96.3513 90.3175C96.868 90.3175 97.0747 90.24 97.0747 89.6463C97.0488 87.3749 97.0488 85.0776 97.0747 82.8061C97.0747 82.2124 96.8422 82.135 96.3513 82.135C95.2146 82.1866 94.1037 82.1608 92.9669 82.1608Z" fill="#090809"/>
<path d="M99.9682 68.6608C99.9682 70.4419 99.9682 72.1971 99.9682 73.9782C99.9682 75.0107 99.5032 75.5786 98.4698 75.6044C94.7754 75.656 91.081 75.656 87.3607 75.6044C86.3273 75.6044 85.8364 74.9849 85.8364 73.9008C85.8364 70.3645 85.8364 66.8282 85.8364 63.2919C85.8364 62.182 86.379 61.6141 87.4899 61.6141C91.081 61.5883 94.6979 61.5883 98.2889 61.6141C99.4257 61.6141 99.9424 62.1561 99.9424 63.2661C99.9682 65.0471 99.9682 66.854 99.9682 68.6608ZM92.9927 64.4793C91.8043 64.4793 90.6159 64.4793 89.4275 64.4793C88.9883 64.4793 88.73 64.5051 88.73 65.0729C88.7558 67.4219 88.7558 69.7708 88.73 72.1197C88.73 72.5327 88.8333 72.6876 89.2725 72.6876C91.701 72.6618 94.1037 72.6618 96.5322 72.6876C96.9455 72.6876 97.0747 72.5327 97.0747 72.1197C97.0488 69.7708 97.0488 67.4219 97.0747 65.0729C97.0747 64.6083 96.9455 64.4534 96.4805 64.4793C95.3179 64.5051 94.1553 64.4793 92.9927 64.4793Z" fill="#090809"/>
<path d="M61.4483 33.5043C67.2612 33.4527 71.9373 38.0989 71.9373 43.9067C71.9631 49.6887 67.3387 54.3865 61.6291 54.4123C55.7387 54.4381 51.0367 49.8177 51.0367 43.9841C51.0109 38.1764 55.6095 33.5301 61.4483 33.5043ZM61.5516 36.4211C57.3922 36.3953 53.9819 39.6993 53.9561 43.7776C53.9303 48.0625 57.2113 51.4697 61.3966 51.5213C65.556 51.573 69.0179 48.1915 69.0438 44.0874C69.0696 39.8025 65.7886 36.4469 61.5516 36.4211Z" fill="#090809"/>
<path d="M61.5 61.5889C63.231 61.5889 64.9878 61.5889 66.7187 61.5889C68.0363 61.5889 68.5789 62.1309 68.6047 63.4732C68.6047 66.8804 68.6047 70.2876 68.6047 73.6948C68.6047 75.0629 68.1138 75.605 66.7704 75.605C63.2568 75.6308 59.7433 75.6308 56.2555 75.605C54.9379 75.605 54.4471 75.0887 54.4212 73.7723C54.3954 70.3392 54.3954 66.8804 54.4212 63.4474C54.4212 62.1051 54.9638 61.5889 56.3072 61.5889C58.0123 61.5889 59.7691 61.5889 61.5 61.5889ZM61.4742 64.4798C60.3375 64.4798 59.2266 64.5057 58.0898 64.454C57.5214 64.4282 57.2889 64.5573 57.2889 65.1768C57.3148 67.4225 57.3406 69.6681 57.2889 71.9396C57.2889 72.5591 57.5214 72.6882 58.0898 72.6882C60.3633 72.6624 62.6626 72.6624 64.9361 72.6882C65.4528 72.6882 65.6853 72.5849 65.6853 71.9912C65.6595 69.7198 65.6595 67.4225 65.6853 65.151C65.6853 64.5573 65.4528 64.454 64.9361 64.4798C63.7735 64.5057 62.611 64.4798 61.4742 64.4798Z" fill="#090809"/>
<path d="M23.0059 68.5321C23.0059 66.8027 23.0059 65.0475 23.0059 63.318C23.0059 62.1307 23.5226 61.5886 24.6851 61.5886C28.2504 61.5628 31.8156 61.5886 35.4067 61.5886C36.5693 61.5886 37.1118 62.1565 37.1118 63.2922C37.1118 66.8285 37.1118 70.3648 37.1118 73.9011C37.1118 74.9594 36.6209 75.5531 35.5617 75.5789C31.8931 75.6047 28.2245 75.6047 24.556 75.5789C23.4709 75.5789 23.0059 75.011 23.0059 73.9269C23.0059 72.1201 23.0059 70.3132 23.0059 68.5321ZM30.1105 64.4796C28.9221 64.4796 27.7337 64.5054 26.5453 64.4538C26.0286 64.428 25.8994 64.6087 25.8994 65.1249C25.9252 67.448 25.9252 69.7711 25.8994 72.0684C25.8994 72.533 26.0286 72.6879 26.4936 72.6879C28.8704 72.6621 31.2731 72.6621 33.6499 72.6879C34.1408 72.6879 34.2441 72.5072 34.2441 72.0684C34.2183 69.7453 34.2183 67.4222 34.2441 65.1249C34.2441 64.6087 34.1149 64.4538 33.5982 64.4796C32.4357 64.5054 31.2731 64.4796 30.1105 64.4796Z" fill="#090809"/>
<path d="M23.0058 86.2913C23.0058 84.4844 23.0058 82.7034 23.0058 80.8965C23.0058 79.8124 23.4708 79.2703 24.5559 79.2703C28.2245 79.2445 31.8931 79.2445 35.5617 79.2703C36.6209 79.2703 37.1118 79.8382 37.1118 80.9223C37.1118 84.4586 37.1118 87.9949 37.1118 91.5312C37.1118 92.6927 36.5692 93.2348 35.3808 93.2348C31.8156 93.2348 28.2503 93.2606 24.6593 93.2348C23.4967 93.2348 22.98 92.6927 22.98 91.5054C23.0058 89.776 23.0058 88.0465 23.0058 86.2913ZM30.1105 82.1613C28.922 82.1613 27.7336 82.1871 26.5452 82.1355C26.0285 82.1097 25.8993 82.2904 25.8993 82.7808C25.9252 85.1039 25.9252 87.4012 25.8993 89.7243C25.8993 90.189 26.0285 90.318 26.4936 90.318C28.8704 90.2922 31.2472 90.2922 33.624 90.318C34.0891 90.318 34.2182 90.1631 34.2182 89.7243C34.1924 87.4012 34.1924 85.1039 34.2182 82.7808C34.2182 82.2646 34.0374 82.1355 33.5465 82.1355C32.4356 82.1871 31.273 82.1613 30.1105 82.1613Z" fill="#090809"/>
<path d="M92.9669 82.1608C94.1037 82.1608 95.2146 82.1866 96.3513 82.1608C96.868 82.135 97.1005 82.2382 97.0747 82.8319C97.0489 85.1034 97.0489 87.4007 97.0747 89.6722C97.0747 90.2659 96.868 90.3433 96.3513 90.3433C94.0778 90.3175 91.7785 90.3175 89.505 90.3433C88.9367 90.3433 88.73 90.2401 88.73 89.6206C88.7817 87.3749 88.7558 85.1292 88.73 82.8835C88.73 82.264 88.9367 82.135 89.505 82.1608C90.6418 82.1866 91.8044 82.1608 92.9669 82.1608Z" fill="#97C7EA"/>
<path d="M92.9928 64.4798C94.1553 64.4798 95.3179 64.5056 96.4805 64.4798C96.9455 64.4798 97.0747 64.6347 97.0747 65.0735C97.0489 67.4224 97.0489 69.7713 97.0747 72.1203C97.0747 72.5333 96.9455 72.6881 96.5322 72.6881C94.1037 72.6623 91.701 72.6623 89.2725 72.6881C88.8333 72.6881 88.73 72.5333 88.73 72.1203C88.73 69.7713 88.7558 67.4224 88.73 65.0735C88.73 64.5056 88.9883 64.454 89.4275 64.4798C90.6159 64.5056 91.8044 64.4798 92.9928 64.4798Z" fill="#97C7EA"/>
<path d="M61.5517 36.421C65.7887 36.4469 69.0697 39.8025 69.0439 44.0873C69.0181 48.2173 65.5562 51.5729 61.3967 51.5213C57.2114 51.4696 53.9304 48.0624 53.9562 43.7776C53.982 39.6992 57.3664 36.3952 61.5517 36.421Z" fill="#97C7EA"/>
<path d="M61.4744 64.4795C62.637 64.4795 63.7995 64.5054 64.9621 64.4795C65.4788 64.4795 65.7113 64.557 65.7113 65.1507C65.6855 67.4221 65.6855 69.7194 65.7113 71.9909C65.7113 72.5846 65.4788 72.6879 64.9621 72.6879C62.6886 72.6621 60.3893 72.6621 58.1158 72.6879C57.5475 72.6879 57.3149 72.5846 57.3149 71.9393C57.3408 69.6936 57.3408 67.448 57.3149 65.1765C57.3149 64.5312 57.5475 64.4279 58.1158 64.4537C59.2009 64.5054 60.3376 64.4795 61.4744 64.4795Z" fill="#97C7EA"/>
<path d="M30.1105 64.4799C31.2731 64.4799 32.4357 64.5057 33.5983 64.4799C34.115 64.4541 34.2441 64.6348 34.2441 65.1252C34.2183 67.4483 34.2183 69.7714 34.2441 72.0687C34.2441 72.5075 34.1408 72.6882 33.6499 72.6882C31.2731 72.6624 28.8704 72.6624 26.4936 72.6882C26.0286 72.6882 25.8994 72.5334 25.8994 72.0687C25.9252 69.7456 25.9252 67.4225 25.8994 65.1252C25.8994 64.6348 26.0286 64.4541 26.5453 64.4541C27.7337 64.5057 28.9221 64.4799 30.1105 64.4799Z" fill="#97C7EA"/>
<path d="M30.1106 82.1613C31.2732 82.1613 32.4357 82.1871 33.5725 82.1613C34.0633 82.1355 34.2442 82.2645 34.2442 82.8066C34.2184 85.1297 34.2184 87.427 34.2442 89.7501C34.2442 90.2147 34.115 90.3696 33.65 90.3438C31.2732 90.318 28.8963 90.318 26.5195 90.3438C26.0545 90.3438 25.9253 90.2147 25.9253 89.7501C25.9511 87.427 25.9511 85.1297 25.9253 82.8066C25.9253 82.3162 26.0545 82.1355 26.5712 82.1613C27.7337 82.1871 28.9222 82.1613 30.1106 82.1613Z" fill="#97C7EA"/>
<path d="M49 18C49 16.8954 49.8954 16 51 16H73C74.1046 16 75 16.8954 75 18V27H49V18Z" fill="black"/>
<path d="M52 20C52 19.4477 52.4477 19 53 19H71C71.5523 19 72 19.4477 72 20V27H52V20Z" fill="#F598A0"/>
</svg>
