<svg width="178" height="178" viewBox="0 0 178 178" fill="none" xmlns="http://www.w3.org/2000/svg">
<rect x="178" width="178" height="178" rx="20" transform="rotate(90 178 0)" fill="white" fill-opacity="0.75"/>
<path d="M100.738 14C105.346 15.8848 110.162 17.9791 114.77 19.8639C116.236 20.4921 117.283 21.3298 117.911 22.5864C118.539 24.0524 118.539 25.5183 117.911 26.9843C116.864 29.288 116.026 31.5916 114.979 33.8953C114.56 34.733 114.77 35.1518 115.398 35.7801C118.12 38.5026 118.12 38.5026 121.681 37.0366C123.356 36.4084 124.822 35.7801 126.497 35.1518C129.22 34.1047 131.942 35.1518 133.199 37.8743C135.293 42.4817 137.178 47.2984 139.063 51.9058C140.11 54.6283 138.853 57.3508 136.34 58.3979C134.037 59.445 131.524 60.4921 129.22 61.3298C128.382 61.5393 128.173 61.9581 128.173 63.0052C128.173 66.7749 128.173 66.7749 131.524 68.2408C132.99 68.8691 134.665 69.4974 136.131 70.1257C139.063 71.3822 140.319 74.1047 139.063 77.0367C137.178 81.644 135.293 86.0419 133.408 90.6492C132.152 93.5812 129.429 94.6283 126.497 93.5812C124.194 92.7435 121.89 91.6963 119.377 90.6492C118.539 90.2304 118.12 90.4398 117.702 91.0681C114.979 93.7906 114.979 93.7906 116.445 97.1414C117.073 98.6073 117.702 100.073 118.33 101.539C119.586 104.681 118.539 107.403 115.398 108.66C112.047 110.126 108.487 111.592 105.136 113.058C104.508 113.267 103.67 113.267 103.67 114.314C103.67 115.361 104.508 115.361 105.136 115.571C114.56 119.34 124.194 122.691 133.408 126.67C142.204 130.23 147.021 137.141 147.44 146.775C147.859 153.686 147.649 160.597 147.44 167.298C147.44 171.068 144.508 174 140.738 174C117.702 174 94.6649 174 71.6283 174C69.9529 174 69.1152 173.162 68.9058 171.696C69.534 169.812 69.9529 169.393 72.0471 169.393C73.9319 169.393 75.6073 169.393 77.4921 169.393C78.1204 169.393 78.5393 169.393 78.7487 168.346C79.377 162.063 80.0052 155.99 80.8429 149.707C81.2618 146.565 81.2618 143.843 79.5864 140.911C79.377 140.492 79.377 139.864 78.5393 140.283C76.0262 141.33 73.9319 140.283 72.0471 138.398C68.9058 135.047 65.555 131.696 62.2042 128.346C59.6911 125.623 59.4817 125.623 56.1309 127.298C56.1309 127.298 56.1309 127.298 55.9215 127.508C52.9895 128.555 49.8482 129.812 46.9162 130.859C40.0052 133.581 35.3979 139.864 35.3979 147.403C35.3979 153.895 35.3979 160.178 35.3979 166.67C35.3979 168.555 36.0262 169.183 38.1204 169.183C41.2618 169.183 44.4031 169.183 47.5445 169.183C48.5916 169.183 49.0105 168.974 49.0105 167.717C49.0105 160.387 49.0105 152.848 49.0105 145.518C49.0105 143.843 49.6387 142.796 51.3141 142.377C53.199 143.005 53.8272 143.634 53.8272 145.518C53.8272 152.848 53.8272 160.387 53.8272 167.717C53.8272 168.764 54.0367 169.183 55.2932 169.183C56.7592 169.183 58.4346 169.183 59.9005 169.183C61.7853 169.183 62.4136 169.812 62.8325 171.487C62.4136 173.372 61.7853 173.791 59.9005 173.791C52.5707 173.791 45.2408 173.791 37.911 173.791C33.7225 173.791 31 170.859 31 166.88C31 160.387 31 153.895 31 147.403C31 137.77 36.6544 129.812 45.6597 126.461C54.8743 122.901 64.2984 119.131 73.5131 115.571C73.9319 115.361 74.7696 115.361 74.7696 114.524C74.7696 113.686 74.1414 113.686 73.5131 113.476C70.1623 112.01 66.6021 110.545 63.2513 109.288C59.9005 108.031 58.8534 105.309 60.3194 101.958C61.1571 99.6544 62.2042 97.5602 63.0419 95.2565C63.4607 94.4188 63.4607 94 62.623 93.1623C59.9005 90.6492 59.9005 90.6492 56.5497 91.9058C54.8743 92.534 53.4084 93.1623 51.733 93.7906C49.0105 94.8377 46.0785 93.7906 45.0314 91.0681C43.1466 86.4607 41.0524 81.8534 39.377 77.0367C38.3298 74.3141 39.377 71.5916 42.0995 70.3351C44.4031 69.288 46.7068 68.4503 49.2199 67.4031C50.0576 66.9843 50.267 66.5654 50.267 65.7278C50.267 61.9581 50.267 61.9581 46.7068 60.7016C45.2408 60.0733 43.5654 59.445 42.0995 58.8168C39.1675 57.5602 38.1204 54.8377 39.1675 52.1152C41.0524 47.5079 42.9372 42.9005 44.822 38.2932C46.0785 35.5707 48.801 34.3141 51.733 35.5707C54.0366 36.4084 56.5497 37.4555 58.8534 38.5026C59.6911 38.9215 60.1099 38.712 60.7382 38.0838C63.4607 35.3613 63.4607 35.3613 61.9948 31.801C61.3665 30.3351 60.7382 28.8691 60.1099 27.4031C58.8534 24.2618 60.1099 21.5393 63.0419 20.2827C67.8586 18.3979 72.466 16.3037 77.2827 14.4188C77.2827 14.4188 77.2827 14.2094 77.4921 14.2094C78.3298 14.2094 79.1675 14.2094 80.0052 14.2094C82.0995 15.0471 83.356 16.7225 84.1937 18.8168C84.6126 19.8639 85.0314 20.911 85.4503 21.9581C86.9162 25.5183 86.9162 25.5183 90.8953 25.5183C91.733 25.5183 92.1518 25.3089 92.3613 24.4712C93.199 22.5864 94.0367 20.7016 94.6649 18.8168C95.5026 16.7225 96.5497 15.0471 98.8534 14.2094C99.0628 14 99.9005 14 100.738 14ZM83.7749 29.288C82.7278 28.4503 82.0995 27.1937 81.4712 25.9372C80.6335 23.8429 79.5864 21.5393 78.7487 19.445C78.5393 18.6073 78.1204 18.6073 77.2827 18.8168C73.0942 20.7016 68.9058 22.377 64.7173 24.0524C63.8796 24.4712 63.6702 24.6806 64.089 25.7277C65.1361 28.0314 65.9738 30.3351 67.0209 32.8482C68.0681 35.1518 67.4398 37.0366 65.7644 38.9215C64.9267 39.7592 64.2984 40.3874 63.4607 41.2251C61.3665 43.3194 59.4817 43.7382 56.7592 42.6911C54.4555 41.8534 52.3613 41.0157 50.0576 39.9686C49.0105 39.5497 48.801 39.7592 48.3822 40.5969C46.7068 44.7853 45.0314 48.7644 43.356 52.9529C42.9372 54 43.1466 54.4188 44.1937 54.6283C46.4974 55.466 48.801 56.5131 51.1047 57.5602C53.4084 58.6073 54.4555 60.2827 54.4555 62.7958C54.4555 63.8429 54.4555 64.8901 54.4555 66.1466C54.4555 68.8691 53.4084 70.5445 50.8953 71.5916C48.5916 72.4293 46.4974 73.4764 44.1937 74.3141C43.356 74.733 42.9372 75.1518 43.356 75.9895C45.0314 80.178 46.7068 84.1571 48.3822 88.3456C48.801 89.3927 49.2199 89.3927 50.0576 88.9738C52.3613 87.9267 54.4555 87.089 56.7592 86.2513C59.0628 85.2042 61.1571 85.623 63.0419 87.5079C63.8796 88.3456 64.7173 89.1833 65.555 90.0209C67.4398 91.9058 67.8586 93.7906 66.8115 96.3037C65.7644 98.6073 64.9267 100.911 63.8796 103.215C63.4607 104.052 63.4607 104.471 64.5079 104.681C68.6963 106.356 73.0942 108.241 77.2827 109.916C78.1204 110.335 78.3298 110.126 78.7487 109.288C79.377 107.403 80.2147 105.728 80.8429 104.052C81.4712 102.377 82.0995 100.702 83.5654 99.6545C85.6597 98.3979 87.9634 99.0262 90.267 99.0262C92.7801 98.8168 94.6649 100.073 95.5026 102.586C96.3403 104.89 97.3874 106.984 98.2251 109.288C98.644 110.126 98.8534 110.545 99.9005 110.126C104.089 108.45 108.277 106.565 112.466 104.89C113.304 104.471 113.513 104.052 113.094 103.215C112.047 100.911 111.209 98.6073 110.162 96.3037C109.115 94 109.534 91.9058 111.419 90.0209C112.257 89.1833 112.885 88.555 113.723 87.7173C115.607 85.8325 117.492 85.4136 120.005 86.2513C122.309 87.089 124.613 88.1361 126.707 88.9738C127.545 89.3927 127.963 89.1833 128.382 88.3456C130.058 84.1571 131.733 80.178 133.408 75.9895C133.827 75.1518 133.618 74.5236 132.78 74.3141C130.476 73.4764 127.963 72.4293 125.66 71.3822C123.565 70.5445 122.309 68.6597 122.309 66.356C122.309 65.0995 122.309 63.8429 122.309 62.5864C122.309 60.0733 123.565 58.3979 125.869 57.3508C127.963 56.5131 130.267 55.466 132.571 54.6283C133.618 54.2094 134.037 53.7906 133.408 52.534C131.733 48.555 130.058 44.5759 128.382 40.3874C127.963 39.3403 127.545 39.1309 126.497 39.5497C124.194 40.5969 122.099 41.4346 119.796 42.2723C117.492 43.3194 115.398 42.9005 113.513 41.0157C112.675 40.178 111.838 39.3403 111 38.5026C109.115 36.8272 108.696 34.733 109.743 32.4293C110.791 30.1257 111.628 27.822 112.675 25.5183C113.094 24.6806 113.094 24.2618 112.047 23.8429C107.859 22.1675 103.67 20.4921 99.4817 18.6073C98.644 18.1885 98.2251 18.3979 97.8063 19.2356C96.9686 21.5393 95.9215 23.8429 94.8743 26.356C94.2461 28.0314 93.199 29.288 91.5236 29.4974C89.6387 30.1257 86.7068 30.5445 83.7749 29.288ZM128.801 156.199C128.801 159.969 128.801 163.948 128.801 167.717C128.801 168.555 129.01 168.974 129.848 168.974C133.199 168.974 136.55 168.974 139.901 168.974C141.576 168.974 142.204 168.346 142.204 166.67C142.204 159.969 142.414 153.267 142.204 146.565C141.785 139.026 138.016 133.581 130.895 130.649C126.916 128.974 123.147 127.717 119.168 126.042C118.33 125.623 117.702 125.832 117.073 126.461C113.094 130.44 109.325 134.419 105.346 138.607C103.67 140.283 101.785 140.911 99.4817 140.073C99.0628 139.864 98.644 139.654 98.4346 140.283C97.8063 142.377 96.3403 144.262 96.7592 146.565C97.5969 153.476 98.4346 160.597 99.2722 167.508C99.4817 168.555 99.6911 168.764 100.738 168.764C108.068 168.764 115.188 168.764 122.518 168.764C123.775 168.764 123.984 168.346 123.984 167.298C123.984 159.969 123.984 152.639 123.984 145.309C123.984 143.215 124.822 142.168 126.288 141.958C127.754 141.958 128.592 143.005 128.592 145.099C128.801 149.079 128.801 152.639 128.801 156.199ZM89.2199 103.424C86.4974 103.424 86.4974 103.424 85.4503 105.728C84.6126 107.613 83.9843 109.288 83.1466 111.173C82.5183 112.639 81.4712 113.895 80.0052 114.314C79.5864 114.524 79.1675 114.524 79.1675 114.942C78.1204 117.665 78.1204 117.665 80.2147 119.759C81.0524 120.387 81.6806 121.225 82.5183 121.853C83.5654 122.901 85.0314 123.738 85.4503 125.414C86.0785 127.508 87.3351 127.717 89.2199 127.508C89.4293 127.508 89.4293 127.508 89.6387 127.508C90.8953 127.717 91.5236 127.298 91.9424 126.042C92.1518 124.785 92.9895 123.948 94.0367 123.11C95.2932 121.853 96.5497 120.806 97.8063 119.55C99.0628 118.503 100.11 117.665 99.0628 115.78C98.644 114.942 98.4346 114.314 97.3874 113.895C96.1309 113.476 95.2932 112.22 94.6649 110.963C93.8272 109.079 92.9895 107.194 92.3613 105.309C91.733 103.843 90.8953 102.796 89.2199 103.424ZM88.801 168.974C90.267 168.974 91.9424 168.974 93.4084 168.974C94.6649 169.183 94.8743 168.555 94.6649 167.508C94.4555 166.042 94.2461 164.367 94.0367 162.901C93.4084 158.084 92.9895 153.058 92.3613 148.241C92.1518 147.194 91.9424 146.775 90.8953 146.984C89.4293 146.984 87.9634 146.984 86.4974 146.984C85.4503 146.984 85.2408 147.194 85.2408 148.241C84.4031 154.942 83.7749 161.435 82.9372 168.136C82.7277 168.974 83.1466 169.183 83.9843 169.183C85.6597 168.974 87.1257 168.974 88.801 168.974ZM64.2984 123.738C68.0681 127.717 71.8377 131.487 75.6073 135.257C76.2356 135.885 76.6545 135.675 77.0733 135.047C78.3298 133.791 79.5864 132.743 80.6335 131.487C82.0995 129.812 82.0995 128.136 80.4241 126.67C78.3298 124.785 76.2356 122.691 74.1414 120.806C73.7225 120.597 73.5131 120.178 72.8848 120.387C70.1623 121.435 67.2304 122.482 64.2984 123.738ZM113.513 123.738C110.581 122.482 107.649 121.435 104.927 120.387C104.508 120.178 104.089 120.387 103.67 120.806C101.576 122.901 99.2723 124.785 96.9686 126.88C95.712 128.136 95.712 130.021 96.9686 131.277C98.2251 132.534 99.6911 134 100.948 135.257C101.367 135.885 101.785 135.675 102.414 135.257C105.974 131.487 109.743 127.717 113.513 123.738ZM88.801 142.168C92.7801 142.168 92.7801 142.168 94.4555 138.398C94.6649 137.979 94.8743 137.351 95.0838 136.932C95.2932 136.513 95.2932 136.094 94.8743 135.885C93.8272 134.838 92.7801 133.791 92.1518 132.534C91.9424 132.325 91.733 132.115 91.5236 132.115C89.0105 132.325 85.8691 131.068 84.1937 134.419C84.1937 134.419 84.1937 134.419 83.9843 134.628C82.3089 135.675 82.5183 136.932 83.356 138.398C85.0314 142.168 84.822 142.168 88.801 142.168Z" fill="#040404"/>
<path d="M62.4138 171.279C61.995 169.394 61.3667 168.975 59.4819 168.975C58.0159 168.975 56.3405 168.975 54.8746 168.975C53.8274 168.975 53.4086 168.766 53.4086 167.509C53.4086 160.179 53.4086 152.64 53.4086 145.31C53.4086 143.216 52.9897 142.588 50.8955 142.169C51.1049 139.027 51.7332 136.095 52.7803 133.163C53.4086 131.069 54.8746 129.184 55.5028 127.09C55.5028 127.09 55.5028 127.09 55.7123 126.881C59.063 125.205 59.063 125.205 61.7856 127.928C65.1363 131.279 68.2777 134.629 71.6285 137.98C73.5133 139.865 75.3981 140.912 78.1206 139.865C78.9583 139.656 78.9583 140.074 79.1678 140.493C80.8431 143.216 80.8431 146.148 80.4243 149.289C79.5866 155.362 78.9583 161.645 78.3301 167.928C78.3301 168.766 77.9112 168.975 77.0735 168.975C75.1887 168.975 73.5133 168.975 71.6285 168.975C69.7437 168.975 69.1154 169.394 68.4871 171.279C66.6023 171.279 64.5081 171.279 62.4138 171.279Z" fill="#2DBFF0"/>
<path d="M83.775 29.2896C86.4976 30.5461 89.4295 30.1273 92.3614 29.9178C94.0368 29.7084 95.0839 28.4519 95.7122 26.7765C96.7593 24.4728 97.8065 22.1691 98.6442 19.6561C99.063 18.8184 99.4818 18.6089 100.32 19.0278C104.508 20.7032 108.697 22.588 112.885 24.2634C113.932 24.6822 113.932 25.1011 113.513 25.9388C112.466 28.2424 111.628 30.5461 110.581 32.8498C109.534 35.1534 110.162 37.2477 111.838 38.9231C112.676 39.7608 113.513 40.5985 114.351 41.4362C116.236 43.321 118.33 43.7398 120.634 42.6927C122.937 41.855 125.241 40.8079 127.335 39.9702C128.382 39.5513 128.801 39.7608 129.22 40.8079C130.895 44.7869 132.571 48.9754 134.246 52.9545C134.665 54.211 134.456 54.6299 133.409 55.0487C131.105 55.8864 129.011 56.9335 126.707 57.7712C124.403 58.8184 123.147 60.4938 123.147 63.0068C123.147 64.2634 123.147 65.5199 123.147 66.7765C123.147 69.0801 124.194 70.7555 126.498 71.8027C128.801 72.8498 131.105 73.6875 133.618 74.7346C134.665 75.1534 134.665 75.5723 134.246 76.41C132.571 80.5985 130.895 84.5775 129.22 88.766C128.801 89.8131 128.382 89.8131 127.545 89.3943C125.241 88.3472 123.147 87.5095 120.843 86.6718C118.33 85.6246 116.445 86.0435 114.56 88.1377C113.723 88.9754 113.094 89.6037 112.257 90.4414C110.372 92.3262 109.953 94.211 111 96.7241C112.047 99.0278 112.885 101.331 113.932 103.635C114.351 104.473 114.142 104.892 113.304 105.311C109.115 106.986 104.927 108.661 100.738 110.546C99.6913 110.965 99.4819 110.756 99.063 109.708C98.2253 107.405 97.1782 105.101 96.3405 103.007C95.2934 100.703 93.618 99.4466 91.1049 99.4466C88.8012 99.6561 86.4976 99.0278 84.4033 100.075C79.796 96.3053 76.0264 91.6979 73.0944 86.4623C72.0473 84.5775 70.7908 82.6927 70.5813 80.389C71.2096 81.0173 71.8379 81.6456 72.4661 82.2739C85.241 94.8393 107.44 88.9754 112.257 71.5932C112.676 69.7084 112.466 69.0801 110.581 68.033C110.791 65.9388 110.791 63.8445 110.581 61.7503C112.466 60.7032 112.885 60.0749 112.047 57.7712C107.44 42.2739 88.8012 35.7817 75.3981 44.9964C73.5133 46.2529 72.0473 47.9283 70.3719 49.3943C70.1625 48.766 70.3719 48.3472 70.5813 47.7189C73.5133 40.1796 77.9112 34.1063 83.775 29.2896Z" fill="#FBE87E"/>
<path d="M128.801 156.2C128.801 152.64 128.801 148.87 128.801 145.31C128.801 143.215 127.963 142.168 126.497 142.168C125.031 142.168 124.194 143.425 124.194 145.519C124.194 152.849 124.194 160.179 124.194 167.509C124.194 168.765 123.984 169.184 122.728 168.975C115.398 168.975 108.277 168.975 100.948 168.975C99.9005 168.975 99.6911 168.765 99.4817 167.718C98.644 160.598 98.0157 153.687 96.9686 146.776C96.7592 144.263 98.0157 142.587 98.644 140.493C98.8534 139.865 99.2722 140.284 99.6911 140.284C101.995 141.121 103.88 140.493 105.555 138.818C109.534 134.838 113.513 130.859 117.283 126.671C117.911 126.043 118.539 125.833 119.377 126.252C123.356 127.718 127.335 129.184 131.105 130.859C138.016 133.791 141.995 139.236 142.414 146.776C142.832 153.477 142.414 160.179 142.414 166.88C142.414 168.556 141.576 169.184 140.11 169.184C136.759 169.184 133.408 169.184 130.058 169.184C129.22 169.184 129.01 168.765 129.01 167.927C128.801 163.948 128.801 160.179 128.801 156.2Z" fill="#2FBEEF"/>
<path d="M70.162 79.7587C70.3714 82.0624 71.6279 83.9472 72.675 85.832C75.3976 91.0676 79.1672 95.6749 83.9839 99.4446C82.518 100.492 81.8897 102.167 81.2614 103.842C80.6332 105.518 79.7955 107.403 79.1672 109.078C78.9578 109.916 78.5389 109.916 77.7012 109.706C73.5127 107.822 69.1148 106.146 64.9263 104.471C64.0887 104.052 64.0887 103.633 64.2981 103.005C65.3452 100.701 66.1829 98.3975 67.23 96.0938C68.2771 93.7901 67.8583 91.6959 65.9735 89.8111C65.1358 88.9734 64.2981 88.1357 63.4604 87.298C61.5756 85.4132 59.4813 84.9943 57.1777 86.0415C54.874 86.8791 52.5703 87.9263 50.4761 88.764C49.6384 89.1828 49.0101 88.9734 48.8007 88.1357C47.1253 83.9472 45.4499 79.9681 43.7745 75.7797C43.3557 74.7325 43.5651 74.3137 44.6122 74.1043C46.9159 73.2666 49.2195 72.2195 51.3138 71.3818C53.8269 70.3346 54.874 68.4498 54.874 65.9367C54.874 64.8896 54.874 63.8425 54.874 62.5859C54.874 60.0729 53.8269 58.3975 51.5232 57.3503C49.2195 56.3032 46.9159 55.4655 44.6122 54.4184C43.7745 53.9996 43.3557 53.5807 43.7745 52.743C45.4499 48.5545 47.1253 44.5755 48.8007 40.387C49.2195 39.3399 49.6384 39.3399 50.4761 39.7587C52.5703 40.8058 54.874 41.6435 57.1777 42.4812C59.9002 43.5284 61.785 43.1095 63.8792 41.0153C64.7169 40.1776 65.3452 39.5493 66.1829 38.7116C67.8583 37.0362 68.2771 34.942 67.4394 32.6383C66.3923 30.3346 65.5546 27.8215 64.5075 25.5179C64.0887 24.6802 64.2981 24.2613 65.1358 23.8425C69.3243 22.1671 73.5127 20.2823 77.7012 18.6069C78.5389 18.188 78.7483 18.3975 79.1672 19.2352C80.0049 21.3294 81.052 23.6331 81.8897 25.7273C82.3085 26.9838 83.1462 28.031 84.1934 29.0781C78.1201 33.8948 73.7222 39.9681 70.7902 47.0886C70.5808 47.7168 70.3714 48.1357 70.5808 48.764C70.162 48.764 70.162 49.1828 70.162 49.3922C67.0206 53.7901 65.1358 58.6069 65.1358 64.0519C65.1358 69.7064 67.0206 74.5231 70.162 78.921C69.9525 79.3399 69.7431 79.7587 70.162 79.7587Z" fill="#FCD305"/>
<path d="M55.922 127.089C55.0843 129.183 53.8278 130.859 53.1995 133.162C52.1524 136.094 51.5241 139.026 51.3147 142.167C49.6393 142.586 49.011 143.633 49.011 145.309C49.011 152.639 49.011 160.178 49.011 167.508C49.011 168.764 48.5922 168.974 47.545 168.974C44.4037 168.974 41.2623 168.974 38.121 168.974C36.2361 168.974 35.3984 168.345 35.3984 166.461C35.3984 159.968 35.3984 153.686 35.3984 147.194C35.3984 139.654 40.0058 133.372 46.9168 130.649C49.8487 129.393 52.7806 128.345 55.922 127.089Z" fill="#4C9FD8"/>
<path d="M89.2197 103.423C90.895 102.794 91.7327 103.841 92.361 105.517C92.9893 107.402 93.827 109.286 94.6647 111.171C95.2929 112.428 96.1306 113.475 97.3872 114.103C98.4343 114.522 98.4343 115.15 99.0626 115.988C100.11 117.873 99.0626 118.711 97.806 119.758C96.5495 120.805 95.293 122.061 94.0364 123.318C93.1987 124.156 92.361 124.993 91.9422 126.25C91.5233 127.506 90.895 127.925 89.6385 127.716C89.4291 127.716 89.4291 127.716 89.2197 127.716C87.5443 127.925 86.0783 127.716 85.45 125.622C85.0312 124.156 83.5652 123.108 82.5181 122.061C81.6804 121.433 81.0521 120.595 80.2144 119.967C78.1202 117.873 78.1202 117.873 79.1673 115.15C79.3767 114.731 79.7956 114.522 80.005 114.522C81.6804 113.894 82.5181 112.847 83.1464 111.381C83.9841 109.496 84.6123 107.82 85.45 105.936C86.4971 103.423 86.4971 103.423 89.2197 103.423Z" fill="#F9AE9F"/>
<path d="M88.8004 168.974C87.125 168.974 85.659 168.974 83.9836 168.974C83.1459 168.974 82.9365 168.765 82.9365 167.927C83.7742 161.226 84.4025 154.734 85.2402 148.032C85.2402 147.194 85.659 146.775 86.4967 146.775C87.9627 146.775 89.4287 146.775 90.8946 146.775C91.9418 146.775 92.3606 146.985 92.3606 148.032C92.7795 152.849 93.4077 157.875 94.036 162.692C94.2454 164.158 94.4548 165.833 94.6643 167.299C94.8737 168.346 94.6643 168.974 93.4077 168.765C91.9418 168.765 90.2664 168.974 88.8004 168.974Z" fill="#E65AA1"/>
<path d="M64.2979 123.736C67.4392 122.48 70.1617 121.433 73.0937 120.176C73.7219 119.967 73.9314 120.386 74.3502 120.595C76.4445 122.48 78.5387 124.365 80.6329 126.459C82.3083 127.925 82.3083 129.81 80.8424 131.276C79.5858 132.532 78.3293 133.789 77.2821 134.836C76.8633 135.255 76.4444 135.674 75.8162 135.045C71.8371 131.485 68.0675 127.715 64.2979 123.736Z" fill="#6ECEED"/>
<path d="M113.512 123.739C109.743 127.719 105.973 131.488 102.413 135.258C101.994 135.677 101.575 135.886 100.947 135.258C99.6903 134.001 98.2243 132.745 96.9678 131.279C95.7113 129.813 95.7113 128.137 96.9678 126.881C99.062 124.787 101.366 122.692 103.669 120.808C104.088 120.389 104.298 120.389 104.926 120.389C107.648 121.436 110.371 122.692 113.512 123.739Z" fill="#6FCEED"/>
<path d="M88.8013 142.167C84.8222 142.167 84.8222 142.167 83.3562 138.607C82.728 137.141 82.3091 135.884 83.9845 134.837C83.9845 134.837 83.9845 134.837 84.1939 134.628C85.6599 131.277 88.8013 132.324 91.5238 132.324C91.7332 132.324 91.9426 132.324 92.152 132.743C92.7803 133.999 93.8274 135.046 94.8746 136.093C95.2934 136.512 95.2934 136.722 95.084 137.141C94.8746 137.559 94.6651 138.188 94.4557 138.607C92.9897 142.167 92.9897 142.167 88.8013 142.167Z" fill="#E674AD"/>
<path d="M110.372 61.3305C110.79 63.4247 110.581 65.5189 110.372 67.6132C108.487 67.4038 107.859 68.6603 107.23 70.3357C104.508 79.1315 96.1308 84.786 86.9161 83.7388C79.1674 82.9011 73.513 78.7127 70.7905 71.3828C67.8585 63.8435 69.3245 56.9326 74.7695 51.0687C84.8219 40.3881 102.832 44.5765 107.23 58.6079C107.859 60.0739 108.487 61.3305 110.372 61.3305ZM80.424 61.3305C79.3768 61.3305 78.7486 61.7493 78.3297 62.587C77.7015 63.6341 78.1203 64.6812 78.958 65.3095C81.2617 67.6132 83.3559 69.7074 85.6596 72.0111C87.1255 73.2676 88.1727 73.2676 89.6386 72.0111C92.78 69.0792 95.7119 65.9378 98.8533 62.7964C100.11 61.5399 100.319 60.0739 99.2721 59.0268C98.225 57.9797 96.9685 58.1891 95.5025 59.4456C93.1988 61.7493 90.8952 63.8435 88.8009 66.1472C87.9632 66.9849 87.5444 67.1943 86.7067 66.1472C85.4501 64.6812 83.9842 63.4247 82.5182 61.9587C81.8899 61.7493 81.2617 61.3305 80.424 61.3305Z" fill="#7CC576"/>
<path d="M110.371 61.3309C108.487 61.3309 107.858 60.2838 107.439 58.6084C103.042 44.577 85.031 40.3885 74.9787 51.0691C69.5336 56.933 68.0677 63.844 70.9996 71.3833C73.7221 78.7131 79.3766 82.9016 87.1253 83.7393C96.3399 84.7864 104.717 79.132 107.439 70.3361C107.858 68.6607 108.696 67.6136 110.581 67.6136C112.256 68.4513 112.675 69.289 112.256 71.1738C107.439 88.556 85.2405 94.4199 72.4656 81.8545C71.8373 81.2262 71.209 80.5979 70.5808 79.9697C70.5808 79.5508 70.3713 79.5508 70.1619 79.3414C67.0206 74.9435 65.1357 69.9173 65.1357 64.4723C65.1357 59.0272 67.0206 54.2105 70.1619 49.8126C70.3713 49.6032 70.5808 49.3937 70.5808 49.1843C72.2562 47.7183 73.7221 46.0429 75.6069 44.7864C89.0101 35.5717 107.439 42.2733 112.256 57.5613C112.466 59.4461 112.256 60.2838 110.371 61.3309Z" fill="#070807"/>
<path d="M70.162 48.9727C70.162 49.3915 69.9526 49.3915 69.7432 49.6009C69.9526 49.3915 69.7432 48.9727 70.162 48.9727Z" fill="#FBE87E"/>
<path d="M69.7432 79.1299C69.9526 79.3393 70.162 79.5487 70.162 79.7582C69.7432 79.7582 69.9526 79.3393 69.7432 79.1299Z" fill="#FBE87E"/>
<path d="M80.4236 61.3277C81.2612 61.3277 81.8895 61.7466 82.3084 62.3748C83.7743 63.8408 85.2403 65.0974 86.4968 66.5633C87.3345 67.401 87.7534 67.401 88.5911 66.5633C90.6853 64.2597 92.989 61.956 95.2927 59.8618C96.5492 58.6052 97.8057 58.3958 99.0623 59.4429C100.109 60.49 100.109 61.7466 98.6434 63.2125C95.7115 66.3539 92.5701 69.2858 89.4288 72.4272C87.9628 73.8932 86.9157 73.8932 85.4497 72.4272C83.1461 70.1235 81.0518 68.0293 78.7482 65.7256C77.9105 64.8879 77.4916 64.0502 78.1199 63.0031C78.7482 61.7466 79.3764 61.3277 80.4236 61.3277Z" fill="#070908"/>
</svg>
