<svg width="61" height="62" viewBox="0 0 61 62" fill="none" xmlns="http://www.w3.org/2000/svg">
<path d="M18.3259 31.7568C18.3259 31.4185 18.2463 31.0803 18.0275 30.8415C17.3907 30.1451 17.6693 29.6477 18.2463 29.0707C21.1115 26.2254 23.9767 23.3602 26.822 20.495C32.1146 15.2024 37.4072 9.90977 42.6998 4.61715C43.6549 3.66209 43.8141 3.66209 44.7691 4.63704C49.7036 9.57152 54.658 14.5259 59.5925 19.4604C60.5077 20.3756 60.5077 20.5547 59.5925 21.47C51.4347 29.6278 43.2768 37.7657 35.1389 45.9434C34.5221 46.5602 34.0446 46.7592 33.2885 46.1623C32.6319 45.6449 31.8957 45.8041 31.3187 46.401C30.7417 46.9979 30.6621 47.754 31.1794 48.3907C31.7365 49.0871 31.5575 49.5448 30.9805 50.082C30.2642 50.7585 20.813 60.2494 20.0967 60.9458C19.281 61.7616 19.0621 61.7616 18.2264 60.9259C13.4312 56.1307 8.61613 51.3156 3.82093 46.5204C2.28886 44.9883 2.28886 44.9883 3.82093 43.4563C4.17908 43.0981 13.3118 34.0051 13.6302 33.6271C14.3266 32.8113 14.9633 32.3139 16.1173 33.1297C17.0326 33.7465 18.306 32.8511 18.3259 31.7568ZM58.3389 20.5547C58.2196 20.3955 58.1599 20.3159 58.1002 20.2364C53.4642 15.6003 48.8082 10.9643 44.1921 6.3084C43.6549 5.77118 43.4559 6.12933 43.1376 6.44768C35.4971 14.0882 27.8566 21.7286 20.2161 29.3492C19.7386 29.8268 19.4998 30.2048 19.7585 30.941C20.1962 32.1149 19.7784 33.1695 18.9029 34.0051C18.0672 34.8209 17.0127 35.1791 15.8985 34.7413C15.1822 34.4628 14.8041 34.6617 14.3863 35.1592C14.2072 35.3979 5.21373 44.3715 4.99486 44.5506C4.59692 44.8491 4.67651 45.0679 4.99486 45.3863C9.59109 49.9626 14.1873 54.5588 18.7835 59.1551C18.9228 59.2943 19.082 59.4933 19.2412 59.4933C19.7187 59.4933 29.6274 48.9479 29.4683 48.4902C29.0504 47.2367 29.329 46.1225 30.2443 45.2072C31.1396 44.3317 32.2539 43.9736 33.4278 44.471C34.1043 44.7496 34.3829 44.4312 34.7609 44.0532C41.705 37.1091 48.6292 30.1849 55.5733 23.2408C56.4885 22.3256 57.4237 21.4302 58.3389 20.5547Z" fill="#070707"/>
<path d="M58.3381 20.5545C57.4229 21.4499 56.4877 22.3253 55.5724 23.2406C48.6284 30.1648 41.7042 37.1089 34.7601 44.053C34.382 44.431 34.1234 44.7693 33.427 44.4708C32.2531 43.9734 31.1189 44.3315 30.2434 45.207C29.3282 46.1223 29.0496 47.2365 29.4675 48.49C29.6266 48.9477 19.7179 59.513 19.2404 59.4931C19.0812 59.4931 18.922 59.2941 18.7827 59.1549C14.1865 54.5586 9.59027 49.9624 4.99404 45.3861C4.67569 45.0677 4.5961 44.8489 4.99404 44.5504C5.23281 44.3713 14.2064 35.3778 14.3855 35.159C14.7834 34.6416 15.1814 34.4626 15.8976 34.7411C17.0119 35.1789 18.0664 34.8207 18.9021 34.0049C19.7776 33.1693 20.1755 32.0948 19.7577 30.9408C19.4791 30.2046 19.7179 29.8266 20.2153 29.349C27.8757 21.7284 35.4963 14.088 43.1368 6.44747C43.4551 6.12912 43.6541 5.77097 44.1913 6.30819C48.8074 10.984 53.4633 15.6001 58.0994 20.2362C58.179 20.2958 58.2187 20.3953 58.3381 20.5545ZM40.1124 23.4993C39.615 23.6585 39.2966 23.4197 38.9584 23.3202C38.4808 23.1809 38.0033 22.9024 37.5656 23.36C37.1676 23.7579 37.4064 24.2355 37.5656 24.6533C38.3018 26.8818 39.0579 29.0904 39.7941 31.3188C39.8935 31.6173 40.2119 31.9953 39.7941 32.2938C38.9186 32.9305 39.7145 33.2489 40.0527 33.6269C40.5899 34.2437 40.7889 33.5274 41.0078 33.3085C45.4448 28.8914 49.8421 24.4543 54.2592 20.0173C54.3985 19.878 54.5378 19.7387 54.6771 19.5994C55.1148 19.2015 54.6771 19.0025 54.4582 18.8434C54.1995 18.6643 54.0404 17.9281 53.5827 18.4852C53.1052 19.0622 52.6476 18.8832 52.1103 18.6842C49.9018 17.9281 47.6733 17.1919 45.4448 16.4557C45.027 16.3164 44.6091 16.197 44.251 16.595C43.9127 16.9531 44.0918 17.3113 44.1913 17.7092C44.3306 18.147 44.629 18.5648 44.5495 19.1219C44.1913 18.9627 43.873 18.8434 43.5745 18.724C41.9429 17.9878 40.3114 17.2715 38.6997 16.5353C38.2819 16.3562 37.8839 16.2567 37.5258 16.6348C37.1875 16.9929 37.3467 17.371 37.5059 17.749C37.7447 18.2663 37.9834 18.7638 38.2023 19.2811C38.839 20.654 39.4558 22.0468 40.1124 23.4993ZM29.1889 24.8523C28.8308 24.5538 28.4925 24.2952 28.1543 24.0365C27.816 23.7778 27.6767 24.1559 27.5175 24.2952C25.9258 25.867 24.3539 27.4986 22.7223 29.0506C22.1851 29.5679 22.6229 29.747 22.9014 30.0255C23.18 30.3041 23.379 30.7418 23.8963 30.2046C25.4681 28.5531 27.1196 26.9614 28.7313 25.3497C28.8507 25.2502 28.9501 25.1109 29.1889 24.8523ZM33.5265 29.5082C33.3474 29.0705 32.9694 28.8317 32.6908 28.5332C32.3923 28.2149 32.2332 28.573 32.0541 28.7322C30.4623 30.324 28.8904 31.9356 27.2589 33.4876C26.7814 33.9452 27.0201 34.1641 27.3584 34.4825C27.6767 34.761 27.8757 35.2187 28.4129 34.6615C29.945 33.0698 31.5368 31.5178 33.1086 29.9459C33.2479 29.8067 33.3872 29.6674 33.5265 29.5082ZM35.8942 31.5775C35.5361 31.279 35.2177 30.9806 34.8795 30.7418C34.5412 30.5229 34.4218 30.8811 34.2627 31.0403C32.6709 32.6121 31.099 34.2238 29.4874 35.7957C28.9302 36.313 29.4476 36.4921 29.6863 36.7706C29.9649 37.089 30.1639 37.4471 30.6613 36.9298C32.2133 35.3181 33.8249 33.7463 35.4167 32.1545C35.5361 32.0152 35.6555 31.876 35.8942 31.5775ZM40.4904 36.0344C40.1323 35.7758 39.7742 35.537 39.4359 35.2784C39.0977 35.0197 38.9584 35.3579 38.7992 35.5171C37.2074 37.1089 35.6356 38.7205 34.0239 40.2725C33.5265 40.7501 33.8448 40.9689 34.1632 41.2674C34.4815 41.5857 34.7004 41.9837 35.2177 41.4067C36.7498 39.795 38.3416 38.2629 39.8935 36.691C40.0129 36.5518 40.1522 36.4125 40.4904 36.0344ZM31.4174 27.1006C31.0592 26.8022 30.7409 26.5236 30.3827 26.265C30.0445 26.0063 29.9251 26.4043 29.7659 26.5435C28.194 28.0955 26.6421 29.6873 25.0503 31.2392C24.5728 31.6969 24.7717 31.9157 25.1299 32.254C25.4681 32.5723 25.687 32.9305 26.2043 32.3734C27.7364 30.7617 29.3282 29.2296 30.9001 27.6578C31.0393 27.5185 31.1587 27.3792 31.4174 27.1006ZM38.1426 33.8657C37.7844 33.5473 37.4661 33.2488 37.1278 33.0101C36.7896 32.7514 36.6702 33.1693 36.511 33.3085C34.9392 34.8605 33.3872 36.4523 31.7954 38.0043C31.3179 38.4619 31.5567 38.7007 31.8949 39.019C32.1934 39.2976 32.3923 39.7353 32.8898 39.1981C34.4815 37.5466 36.1131 35.9549 37.7248 34.3432C37.8441 34.2238 37.9436 34.1044 38.1426 33.8657ZM26.841 42.8989C27.2589 42.6005 27.6369 42.2821 27.8558 41.8444C27.9354 41.7051 26.9206 40.7103 26.8013 40.8097C26.4232 41.1082 25.8462 41.3868 25.8661 41.8444C25.9059 42.2821 26.463 42.5806 26.841 42.8989ZM23.5182 39.5761C24.1151 39.6756 24.0356 41.1082 25.0304 40.2924C25.5477 39.8746 25.7865 39.5562 25.1299 38.9593C24.0356 37.9446 24.1151 39.4766 23.5182 39.5761ZM20.0959 36.2135C20.4939 35.7758 21.1306 35.5171 21.0709 35.0595C21.0112 34.6615 20.5138 34.0845 20.076 34.1243C19.6781 34.1641 19.1011 34.6615 19.1608 35.1192C19.2205 35.5171 19.7577 35.8355 20.0959 36.2135ZM22.3443 38.4221C22.7223 38.0639 23.2994 37.7854 23.2994 37.3477C23.2994 36.9099 22.7621 36.3926 22.3443 36.3727C21.9066 36.3528 21.3892 36.9099 21.3693 37.3278C21.3693 37.7655 21.9464 38.044 22.3443 38.4221ZM30.2633 44.053C29.746 43.7346 29.5272 43.078 29.0695 43.1178C28.6517 43.1576 28.0946 43.6749 28.1344 44.1127C28.1741 44.5106 28.6716 45.0876 29.1292 45.0279C29.5073 44.9881 29.8256 44.4509 30.2633 44.053Z" fill="#FED77F"/>
<path d="M40.1128 23.5C39.4761 22.0675 38.8394 20.6548 38.2027 19.262C37.9639 18.7446 37.7251 18.2472 37.5063 17.7299C37.3471 17.3518 37.1879 16.9738 37.5262 16.6156C37.8843 16.2376 38.2822 16.3371 38.7001 16.5162C40.3316 17.2524 41.9433 17.9687 43.5749 18.7048C43.8733 18.8441 44.1917 18.9635 44.5498 19.1028C44.6493 18.5656 44.331 18.1477 44.1917 17.6901C44.0723 17.312 43.9131 16.934 44.2514 16.5759C44.6095 16.1779 45.0274 16.2973 45.4452 16.4366C47.6737 17.1728 49.8823 17.909 52.1107 18.665C52.6479 18.8441 53.1056 19.0431 53.5831 18.4661C54.0208 17.9289 54.1999 18.6452 54.4586 18.8242C54.6774 18.9834 55.1152 19.1824 54.6774 19.5803C54.5382 19.7196 54.3989 19.8589 54.2596 19.9982C49.8425 24.4352 45.4452 28.8723 41.0081 33.2894C40.7893 33.5083 40.5903 34.2246 40.0531 33.6078C39.7148 33.2297 38.919 32.9114 39.7944 32.2747C40.2123 31.9563 39.8939 31.5982 39.7944 31.2997C39.0781 29.0712 38.322 26.8626 37.566 24.6342C37.4267 24.1964 37.1879 23.7388 37.566 23.3409C38.0037 22.8832 38.4812 23.1618 38.9587 23.3011C39.2771 23.4205 39.5955 23.6592 40.1128 23.5ZM49.1063 22.9827C47.4548 22.2266 45.9426 21.57 44.4702 20.8338C43.7937 20.4956 43.3759 20.4757 42.9581 21.192C42.7392 21.5899 42.3214 21.8685 41.8836 22.0277C41.4459 22.1868 41.3464 22.3659 41.5852 22.8235C42.3214 24.3755 43.0377 25.9474 43.7142 27.5193C43.933 27.9968 44.0723 28.0366 44.4503 27.6585C45.9426 26.1066 47.4747 24.5944 49.1063 22.9827ZM51.7128 20.217C49.8823 19.6201 48.0716 19.0033 46.2212 18.3865C46.2809 19.7196 46.9375 20.4359 48.0716 20.7542C48.2905 20.8139 48.4895 20.9333 48.7083 21.0328C50.4394 21.8088 50.4394 21.8088 51.673 20.3364C51.6929 20.3165 51.6929 20.2767 51.7128 20.217ZM39.4164 25.1913C40.0531 27.0616 40.65 28.8723 41.2867 30.7625C42.779 29.31 42.779 29.31 42.0229 27.6187C41.9234 27.38 41.7841 27.1412 41.7244 26.8825C41.4459 25.7484 40.6102 25.3306 39.4164 25.1913ZM39.7148 18.7048C40.0133 19.3614 40.2123 19.8191 40.4311 20.2369C40.5505 20.4558 40.5704 20.8736 41.028 20.6946C41.4459 20.5354 41.8637 20.3165 41.9632 19.8987C42.0428 19.5405 41.5653 19.5405 41.3265 19.4211C40.8689 19.1824 40.3913 19.0033 39.7148 18.7048Z" fill="#060606"/>
<path d="M29.1898 24.8528C28.951 25.1314 28.8515 25.2507 28.7321 25.3701C27.1205 26.9818 25.4889 28.5736 23.8971 30.225C23.3798 30.7622 23.1808 30.3444 22.9023 30.0459C22.6237 29.7674 22.186 29.5684 22.7232 29.071C24.3349 27.519 25.9067 25.9073 27.5184 24.3156C27.6776 24.1564 27.797 23.7983 28.1551 24.0569C28.4934 24.2758 28.8316 24.5543 29.1898 24.8528Z" fill="#111111"/>
<path d="M33.5269 29.5088C33.3876 29.668 33.2682 29.8073 33.1289 29.9466C31.5571 31.5185 29.9653 33.0505 28.4332 34.6622C27.896 35.2193 27.697 34.7816 27.3787 34.4831C27.0205 34.1648 26.7818 33.9459 27.2792 33.4883C28.9107 31.9363 30.4627 30.3246 32.0744 28.7329C32.2336 28.5737 32.3927 28.2155 32.7111 28.5339C32.9698 28.8522 33.3478 29.0711 33.5269 29.5088Z" fill="#111111"/>
<path d="M35.8956 31.5775C35.6568 31.856 35.5375 32.0152 35.3982 32.1545C33.8064 33.7463 32.1948 35.3181 30.6428 36.9298C30.1454 37.4471 29.9464 37.089 29.6678 36.7706C29.4291 36.4921 28.9316 36.3329 29.4689 35.7957C31.0805 34.2437 32.6524 32.632 34.2442 31.0403C34.4033 30.8811 34.5426 30.5229 34.861 30.7418C35.2191 31.0005 35.5375 31.2989 35.8956 31.5775Z" fill="#070707"/>
<path d="M40.4906 36.035C40.1524 36.3931 40.033 36.5523 39.8937 36.6916C38.3219 38.2635 36.7301 39.7956 35.2179 41.4072C34.6807 41.9643 34.4817 41.5664 34.1634 41.2679C33.845 40.9695 33.5267 40.7506 34.0241 40.2731C35.6358 38.7211 37.2076 37.1094 38.7994 35.5177C38.9586 35.3585 39.078 35.0203 39.4361 35.2789C39.7545 35.5376 40.1126 35.7763 40.4906 36.035Z" fill="#0F0F0F"/>
<path d="M31.418 27.1005C31.1593 27.379 31.04 27.5183 30.9007 27.6576C29.3288 29.2295 27.737 30.7615 26.205 32.3732C25.6876 32.9104 25.4688 32.5722 25.1305 32.2538C24.7724 31.9156 24.5933 31.6967 25.0509 31.2391C26.6427 29.707 28.1947 28.1152 29.7666 26.5434C29.9257 26.3842 30.0252 26.0061 30.3834 26.2648C30.7415 26.5235 31.0599 26.802 31.418 27.1005Z" fill="#050505"/>
<path d="M17.7679 40.8694C17.5291 41.148 17.4296 41.2673 17.3103 41.3867C15.6986 42.9984 14.067 44.5902 12.4753 46.2416C11.9579 46.7788 11.759 46.361 11.4804 46.0625C11.2019 45.784 10.7641 45.585 11.3013 45.0876C12.913 43.5356 14.4849 41.9239 16.0965 40.3322C16.2557 40.173 16.3751 39.8149 16.7332 40.0735C17.0715 40.3123 17.4097 40.5908 17.7679 40.8694Z" fill="#111111"/>
<path d="M22.107 45.545C21.9677 45.7042 21.8483 45.8434 21.709 45.9827C20.1371 47.5546 18.5454 49.0867 17.0133 50.6983C16.4761 51.2554 16.2771 50.8177 15.9588 50.5192C15.6006 50.2009 15.3618 49.982 15.8593 49.5244C17.4908 47.9724 19.0428 46.3608 20.6545 44.769C20.8136 44.6098 20.9728 44.2517 21.2912 44.57C21.5498 44.8685 21.9279 45.1072 22.107 45.545Z" fill="#111111"/>
<path d="M24.4737 47.6146C24.235 47.8931 24.1156 48.0523 23.9763 48.1916C22.3845 49.7834 20.7729 51.3552 19.2209 52.9669C18.7235 53.4842 18.5245 53.1261 18.2459 52.8077C18.0072 52.5292 17.5098 52.37 18.047 51.8328C19.6586 50.2808 21.2305 48.6691 22.8223 47.0774C22.9815 46.9182 23.1207 46.56 23.4391 46.7789C23.8171 47.0177 24.1156 47.3161 24.4737 47.6146Z" fill="#070707"/>
<path d="M19.9981 43.1181C19.7394 43.3966 19.62 43.5359 19.4808 43.6752C17.9089 45.2471 16.3171 46.7791 14.7851 48.3908C14.2677 48.928 14.0489 48.5898 13.7106 48.2714C13.3525 47.9332 13.1734 47.7143 13.631 47.2567C15.2228 45.7246 16.7748 44.1328 18.3466 42.5609C18.5058 42.4018 18.6053 42.0237 18.9634 42.2824C19.3216 42.541 19.6399 42.8196 19.9981 43.1181Z" fill="#050505"/>
<path d="M38.1439 33.8659C37.945 34.0848 37.8455 34.2042 37.7261 34.3236C36.1144 35.9352 34.4829 37.5469 32.8911 39.1785C32.3738 39.7157 32.1947 39.2779 31.8963 38.9994C31.5381 38.681 31.2993 38.4622 31.7968 37.9846C33.3885 36.4526 34.9405 34.8608 36.5124 33.2889C36.6716 33.1297 36.771 32.7318 37.1292 32.9905C37.4674 33.269 37.7858 33.5675 38.1439 33.8659Z" fill="#050505"/>
<path d="M26.8426 42.8989C26.4447 42.5806 25.9075 42.2821 25.8677 41.8444C25.8478 41.3867 26.4248 41.1082 26.8029 40.8097C26.9222 40.7102 27.937 41.7051 27.8574 41.8444C27.6385 42.2821 27.2605 42.6005 26.8426 42.8989Z" fill="#121212"/>
<path d="M23.5195 39.5764C24.1164 39.4968 24.0568 37.9647 25.1312 38.9397C25.7878 39.5366 25.549 39.855 25.0317 40.2728C24.0369 41.1085 24.0965 39.6759 23.5195 39.5764Z" fill="#060606"/>
<path d="M20.0977 36.2132C19.7395 35.8352 19.2222 35.5168 19.1625 35.1388C19.1028 34.6812 19.6798 34.1837 20.0778 34.1439C20.5155 34.0842 21.0328 34.6613 21.0726 35.0791C21.1323 35.5168 20.4956 35.7755 20.0977 36.2132Z" fill="#060606"/>
<path d="M22.3446 38.422C21.9466 38.044 21.3497 37.7853 21.3696 37.3277C21.3895 36.8899 21.9068 36.3527 22.3446 36.3726C22.7624 36.3925 23.2996 36.9098 23.2996 37.3476C23.2996 37.7853 22.7226 38.0639 22.3446 38.422Z" fill="#070707"/>
<path d="M30.2638 44.0536C29.8261 44.4515 29.5077 44.9887 29.1297 45.0484C28.6721 45.1081 28.1746 44.5311 28.1348 44.1331C28.095 43.6954 28.6522 43.198 29.07 43.1383C29.5475 43.0587 29.7465 43.7352 30.2638 44.0536Z" fill="#060606"/>
<path d="M49.107 22.9821C47.4754 24.6137 45.9433 26.106 44.4312 27.6579C44.0531 28.036 43.9138 28.0161 43.695 27.5186C43.0185 25.9468 42.3022 24.3749 41.566 22.8229C41.3471 22.3653 41.4466 22.1862 41.8644 22.027C42.3022 21.8679 42.72 21.5893 42.9389 21.1914C43.3368 20.4751 43.7746 20.495 44.4511 20.8332C45.9433 21.5694 47.4555 22.2061 49.107 22.9821Z" fill="#D68954"/>
<path d="M51.7123 20.2169C51.6924 20.2965 51.6924 20.3363 51.6725 20.3562C50.4389 21.8285 50.4389 21.8285 48.7078 21.0526C48.489 20.9531 48.29 20.8536 48.0711 20.774C46.937 20.4557 46.2804 19.7394 46.2207 18.4062C48.0711 19.0032 49.9017 19.6001 51.7123 20.2169Z" fill="#D68954"/>
<path d="M39.416 25.1904C40.5899 25.3297 41.4455 25.7277 41.7241 26.9016C41.7838 27.1602 41.923 27.3791 42.0225 27.6378C42.7786 29.329 42.7786 29.329 41.2863 30.7815C40.6695 28.8714 40.0527 27.0608 39.416 25.1904Z" fill="#D68954"/>
<path d="M39.7148 18.7041C40.3913 19.0026 40.8689 19.1816 41.3265 19.4204C41.5653 19.5398 42.0428 19.5199 41.9632 19.8979C41.8637 20.3158 41.4459 20.5346 41.0281 20.6938C40.5704 20.8729 40.5505 20.4749 40.4311 20.2362C40.2123 19.8183 40.0133 19.3607 39.7148 18.7041Z" fill="#E8EAEB"/>
<path d="M13.6099 31.7174C13.5502 31.3792 13.4109 31.0608 13.1523 30.8619C12.4161 30.2848 12.5951 29.7476 13.0727 29.091C15.4205 25.808 17.7485 22.5051 20.0963 19.2022C24.4339 13.0938 28.7516 6.98536 33.0891 0.876958C33.8651 -0.217382 34.0243 -0.237279 35.1385 0.538707C40.849 4.57782 46.5396 8.61692 52.25 12.6759C53.3046 13.4121 53.3245 13.5912 52.5883 14.6457C45.9228 24.0571 39.2572 33.4485 32.5917 42.8797C32.0943 43.596 31.6566 43.8746 30.801 43.397C30.0648 42.9991 29.3485 43.2776 28.8909 43.9541C28.4332 44.6505 28.473 45.3867 29.0898 45.9439C29.7663 46.5408 29.6469 47.0183 29.1893 47.6351C28.5924 48.431 20.8723 59.3744 20.2953 60.1703C19.6188 61.1054 19.4198 61.1452 18.4648 60.4687C12.9135 56.549 7.38211 52.6293 1.83082 48.6897C0.0599797 47.4361 0.0599796 47.4361 1.3135 45.6852C1.59206 45.2873 9.09326 34.7816 9.33202 34.3439C9.88914 33.4087 10.4264 32.8118 11.6998 33.4286C12.6747 33.9061 13.7691 32.7919 13.6099 31.7174ZM51.1756 13.9493C51.0363 13.8101 50.9567 13.7305 50.8771 13.6708C45.5248 9.87044 40.1526 6.08999 34.8401 2.26975C34.2233 1.81212 34.084 2.21006 33.8253 2.56821C27.5777 11.3826 21.33 20.197 15.0624 29.0114C14.6644 29.5686 14.4854 29.9864 14.8833 30.6629C15.5001 31.7373 15.2813 32.8715 14.565 33.8265C13.8686 34.7617 12.8936 35.2989 11.7197 35.0602C10.9835 34.901 10.6253 35.1596 10.307 35.7367C10.1876 35.9953 2.84557 46.3617 2.6267 46.5806C2.28845 46.9387 2.40784 47.1377 2.76598 47.3963C8.07851 51.137 13.3711 54.8975 18.6638 58.6581C18.8229 58.7775 19.0219 58.9367 19.1612 58.9168C19.6387 58.8372 27.6174 46.7795 27.3986 46.3418C26.7818 45.1679 26.8614 44.0337 27.6174 42.9792C28.3536 41.9644 29.3883 41.4272 30.6418 41.7058C31.3581 41.865 31.577 41.4869 31.8754 41.0691C37.5461 33.0704 43.2168 25.0519 48.8874 17.0533C49.6435 16.0186 50.4195 14.984 51.1756 13.9493Z" fill="#070707"/>
<path d="M51.1754 13.9489C50.4194 14.9835 49.6434 16.0182 48.9072 17.0727C43.2365 25.0713 37.5658 33.07 31.8952 41.0885C31.5967 41.5262 31.3778 41.9043 30.6615 41.7252C29.408 41.4268 28.3734 41.964 27.6372 42.9986C26.8811 44.0532 26.8015 45.2072 27.4183 46.3612C27.6571 46.799 19.6585 58.8566 19.1809 58.9362C19.0218 58.9561 18.8228 58.7969 18.6835 58.6775C13.3909 54.917 8.07835 51.1564 2.78573 47.4158C2.40769 47.1571 2.2883 46.9581 2.64645 46.6C2.84542 46.3811 10.1874 36.0147 10.3267 35.7561C10.6451 35.1791 10.9833 34.9204 11.7394 35.0796C12.9133 35.3183 13.8883 34.7811 14.5847 33.846C15.301 32.871 15.5199 31.7568 14.9031 30.6823C14.5051 30.0058 14.6842 29.588 15.0821 29.0309C21.3497 20.2364 27.5974 11.4021 33.8451 2.58764C34.1037 2.2096 34.243 1.83155 34.8598 2.28919C40.1922 6.10943 45.5446 9.88987 50.8969 13.6902C50.9765 13.73 51.0362 13.8096 51.1754 13.9489ZM33.7058 19.918C33.2283 20.1568 32.8701 19.9777 32.5319 19.9379C32.0344 19.8782 31.5171 19.6991 31.1789 20.2165C30.8605 20.6741 31.1789 21.0919 31.3977 21.5098C32.512 23.5791 33.6262 25.6285 34.7007 27.7177C34.8598 27.9962 35.2379 28.3146 34.8598 28.6926C34.1037 29.4686 34.9394 29.6477 35.3374 29.966C35.9741 30.4834 36.0537 29.7472 36.2327 29.4885C39.854 24.3949 43.4554 19.2614 47.0567 14.1478C47.1761 13.9887 47.2756 13.8096 47.395 13.6703C47.7531 13.2127 47.2756 13.0734 47.0567 12.9739C46.7782 12.8346 46.4797 12.1581 46.1415 12.7551C45.7634 13.4117 45.2859 13.2923 44.7288 13.2127C42.4207 12.8346 40.0928 12.4765 37.7847 12.1183C37.347 12.0587 36.9092 11.999 36.6307 12.4566C36.372 12.8744 36.5909 13.1928 36.77 13.5708C36.9689 13.9887 37.347 14.3468 37.347 14.9039C36.9689 14.8243 36.6506 14.7448 36.3322 14.6652C34.6012 14.2274 32.89 13.7698 31.159 13.3321C30.7212 13.2127 30.3034 13.1928 30.0049 13.6305C29.7463 14.0285 29.9452 14.3866 30.1641 14.7249C30.4825 15.1825 30.8008 15.6401 31.1192 16.1177C31.9748 17.3314 32.8104 18.6048 33.7058 19.918ZM23.1603 23.0816C22.7425 22.8628 22.3844 22.6439 22.0063 22.4449C21.6283 22.246 21.5686 22.6439 21.4293 22.823C20.1161 24.6535 18.8427 26.5039 17.5096 28.3146C17.0718 28.9115 17.5295 29.0309 17.8478 29.2497C18.1662 29.4885 18.4447 29.8665 18.8626 29.2497C20.136 27.3595 21.489 25.5091 22.8022 23.6587C22.8818 23.5393 22.9614 23.4 23.1603 23.0816ZM28.2142 26.9616C27.9754 26.5636 27.5576 26.3846 27.2194 26.1458C26.8612 25.8871 26.7617 26.2652 26.6224 26.4442C25.3092 28.2748 24.0358 30.1252 22.7027 31.9358C22.3048 32.4731 22.5833 32.6521 22.9813 32.8909C23.3394 33.1098 23.618 33.5276 24.0557 32.8909C25.2893 31.0604 26.6025 29.2696 27.876 27.459C28.0152 27.2998 28.1147 27.1208 28.2142 26.9616ZM30.9202 28.5931C30.5223 28.3544 30.1641 28.1355 29.7662 27.9564C29.408 27.7973 29.3284 28.1753 29.2091 28.3544C27.8959 30.1849 26.6423 32.0353 25.2893 33.8261C24.8317 34.4429 25.349 34.5225 25.6475 34.7413C25.9658 35 26.2444 35.3183 26.6423 34.7413C27.8959 32.8909 29.229 31.0604 30.5223 29.2298C30.6218 29.0906 30.7212 28.9115 30.9202 28.5931ZM36.173 32.2144C35.7751 32.0154 35.3772 31.8364 34.9991 31.6374C34.6211 31.4384 34.5415 31.7966 34.4221 31.9756C33.1089 33.8062 31.8355 35.6566 30.5024 37.4672C30.0845 38.0244 30.4427 38.1835 30.8008 38.4223C31.1789 38.681 31.4375 39.0391 31.8753 38.3825C33.1089 36.552 34.4221 34.7612 35.6955 32.9506C35.8149 32.8113 35.9144 32.6322 36.173 32.2144ZM25.747 24.9321C25.349 24.6933 24.971 24.4744 24.5929 24.2755C24.2149 24.0765 24.1552 24.4943 24.0358 24.6535C22.7425 26.4442 21.489 28.2748 20.1758 30.0655C19.7977 30.5828 20.0166 30.7818 20.4145 31.0405C20.8125 31.2991 21.0712 31.6175 21.5089 30.9808C22.7425 29.1503 24.0557 27.3595 25.349 25.5489C25.4286 25.4096 25.5281 25.2504 25.747 24.9321ZM33.5068 30.4635C33.089 30.2247 32.7507 29.9859 32.3528 29.787C31.9748 29.588 31.935 30.0058 31.7957 30.1849C30.5024 31.9756 29.2489 33.8062 27.9157 35.5969C27.5178 36.1341 27.7964 36.3331 28.1943 36.5719C28.5326 36.7907 28.7912 37.1887 29.2091 36.5719C30.5024 34.6816 31.8355 32.8312 33.1487 30.9609C33.2681 30.8614 33.3477 30.7221 33.5068 30.4635ZM23.8965 41.2676C24.2547 40.9094 24.573 40.5314 24.7322 40.0539C24.7919 39.8947 23.618 39.0988 23.5185 39.1983C23.2001 39.5564 22.6629 39.9345 22.7624 40.3722C22.8619 40.8298 23.4389 41.0288 23.8965 41.2676ZM20.0365 38.5417C20.6334 38.5417 20.7926 39.9743 21.6482 38.9794C22.0859 38.482 22.265 38.1238 21.5288 37.6463C20.2952 36.8703 20.6135 38.3626 20.0365 38.5417ZM16.1168 35.8158C16.4351 35.3184 17.0121 34.9602 16.8729 34.5225C16.7535 34.1245 16.1566 33.647 15.7387 33.7664C15.3607 33.8659 14.8633 34.4628 15.0025 34.9005C15.1219 35.2786 15.6989 35.4974 16.1168 35.8158ZM18.7034 37.6065C19.0218 37.1887 19.5391 36.8106 19.4595 36.3928C19.3799 35.9551 18.7631 35.5372 18.3453 35.5969C17.9075 35.6566 17.4897 36.2734 17.5494 36.7111C17.629 37.129 18.2458 37.3081 18.7034 37.6065ZM27.4581 41.8247C26.901 41.6058 26.5826 40.9691 26.125 41.1084C25.7271 41.2278 25.2495 41.8247 25.3689 42.2425C25.4684 42.6206 26.0653 43.118 26.5031 42.9787C26.8612 42.8792 27.1 42.3022 27.4581 41.8247Z" fill="#FED77F"/>
<path d="M33.7051 19.919C32.8296 18.6058 31.974 17.3324 31.1185 16.0589C30.8001 15.6013 30.4818 15.1437 30.1634 14.6662C29.9445 14.3279 29.7257 13.9897 30.0042 13.5718C30.3027 13.1341 30.7006 13.154 31.1583 13.2734C32.8893 13.731 34.6005 14.1687 36.3315 14.6065C36.6499 14.686 36.9682 14.7457 37.3463 14.8452C37.3463 14.2881 36.9682 13.93 36.7692 13.5121C36.5902 13.154 36.3713 12.8157 36.63 12.3979C36.9284 11.9601 37.3662 11.9999 37.784 12.0596C40.0921 12.4178 42.42 12.7759 44.7281 13.154C45.2852 13.2535 45.7627 13.3529 46.1408 12.6963C46.4989 12.0795 46.7775 12.7759 47.056 12.9152C47.2948 13.0346 47.7524 13.154 47.3943 13.6116C47.2749 13.7708 47.1754 13.93 47.056 14.0891C43.4547 19.2027 39.8533 24.3162 36.232 29.4298C36.0529 29.6885 35.9734 30.4246 35.3366 29.9073C34.9387 29.589 34.103 29.4099 34.8591 28.6339C35.2173 28.2559 34.8392 27.9574 34.6999 27.6589C33.6056 25.5897 32.4914 23.5204 31.397 21.4511C31.1782 21.0531 30.8797 20.6353 31.1782 20.1577C31.5164 19.6404 32.0337 19.8394 32.5312 19.8792C32.8694 19.9787 33.2276 20.1577 33.7051 19.919ZM42.4797 17.8895C40.7089 17.4119 39.1171 17.0339 37.5452 16.5564C36.8289 16.3375 36.3912 16.3773 36.1126 17.1533C35.9535 17.591 35.5953 17.9293 35.1775 18.168C34.7795 18.3869 34.7198 18.5859 34.9984 19.0037C35.9933 20.3965 36.9483 21.8291 37.8835 23.2617C38.1819 23.6994 38.3212 23.6994 38.6396 23.2617C39.8931 21.5107 41.1466 19.7598 42.4797 17.8895ZM44.5888 14.7258C42.6986 14.4274 40.7885 14.1488 38.8584 13.8504C39.137 15.1636 39.913 15.7406 41.0869 15.8799C41.3058 15.8998 41.5445 15.9794 41.7634 16.039C43.5939 16.5166 43.5939 16.5166 44.5689 14.8651C44.5888 14.8452 44.5888 14.8054 44.5888 14.7258ZM33.3071 21.7097C34.2423 23.4408 35.1576 25.132 36.0927 26.883C37.3065 25.2116 37.3065 25.2116 36.2917 23.6596C36.1524 23.4408 35.9734 23.2418 35.8739 23.003C35.3963 21.9087 34.501 21.65 33.3071 21.7097ZM32.5113 15.2631C32.9291 15.86 33.1878 16.2778 33.4862 16.6559C33.6454 16.8548 33.725 17.2528 34.1428 16.9941C34.5209 16.7553 34.8989 16.4768 34.9387 16.039C34.9586 15.661 34.4811 15.7605 34.2423 15.6809C33.725 15.5416 33.2276 15.4421 32.5113 15.2631Z" fill="#060606"/>
<path d="M23.161 23.0821C22.9621 23.4005 22.8825 23.5398 22.8029 23.6591C21.4897 25.5295 20.1367 27.36 18.8633 29.2502C18.4454 29.867 18.1868 29.489 17.8485 29.2502C17.5302 29.0115 17.0725 28.912 17.5103 28.315C18.8434 26.5044 20.1168 24.654 21.43 22.8235C21.5693 22.6444 21.629 22.2663 22.007 22.4454C22.3851 22.6444 22.7631 22.8632 23.161 23.0821Z" fill="#111111"/>
<path d="M28.2141 26.9621C28.0947 27.1412 27.9952 27.3004 27.8957 27.4596C26.6223 29.2702 25.3091 31.0609 24.0755 32.8915C23.6378 33.5282 23.3592 33.1302 23.0011 32.8915C22.6031 32.6527 22.3246 32.4736 22.7225 31.9364C24.0556 30.1258 25.329 28.2754 26.6422 26.4448C26.7815 26.2657 26.881 25.8877 27.2391 26.1464C27.5575 26.3851 27.9753 26.5443 28.2141 26.9621Z" fill="#111111"/>
<path d="M30.9201 28.5939C30.7212 28.9122 30.6416 29.0913 30.5222 29.2306C29.2289 31.0611 27.8958 32.8718 26.6423 34.7421C26.2443 35.339 25.9857 35.0206 25.6474 34.7421C25.3689 34.5033 24.8316 34.4237 25.2893 33.8268C26.6224 32.0162 27.8958 30.1658 29.209 28.3551C29.3483 28.176 29.408 27.798 29.7661 27.9572C30.1442 28.1362 30.5023 28.375 30.9201 28.5939Z" fill="#070707"/>
<path d="M36.1733 32.2152C35.8947 32.633 35.7952 32.8121 35.6958 32.9713C34.4223 34.7819 33.1091 36.5727 31.8755 38.4032C31.4378 39.0399 31.1791 38.6818 30.8011 38.443C30.4429 38.2042 30.0848 38.045 30.5026 37.4879C31.8357 35.6773 33.1091 33.8269 34.4223 31.9963C34.5616 31.8173 34.6213 31.4591 34.9994 31.6581C35.3774 31.8571 35.7754 32.0361 36.1733 32.2152Z" fill="#0F0F0F"/>
<path d="M25.7479 24.9323C25.5489 25.2506 25.4494 25.4098 25.3301 25.569C24.0567 27.3796 22.7434 29.1704 21.4899 31.0009C21.0721 31.6177 20.7935 31.3192 20.3956 31.0606C19.9778 30.782 19.7589 30.603 20.1568 30.0856C21.47 28.2949 22.7235 26.4644 24.0169 24.6736C24.1362 24.4945 24.1959 24.0966 24.574 24.2956C24.9719 24.4747 25.3301 24.6935 25.7479 24.9323Z" fill="#050505"/>
<path d="M14.6044 40.7901C14.4054 41.1085 14.3259 41.2478 14.2463 41.3671C12.9331 43.2375 11.5801 45.068 10.3066 46.9582C9.8888 47.575 9.63014 47.197 9.29189 46.9582C8.97353 46.7195 8.5159 46.62 8.95364 46.0231C10.2867 44.2124 11.5602 42.362 12.8734 40.5315C13.0126 40.3524 13.0723 39.9743 13.4504 40.1534C13.8284 40.3524 14.1866 40.5713 14.6044 40.7901Z" fill="#111111"/>
<path d="M19.6594 44.6702C19.54 44.8492 19.4405 45.0084 19.341 45.1676C18.0676 46.9782 16.7544 48.7689 15.5208 50.5995C15.0831 51.2362 14.8045 50.8382 14.4464 50.5995C14.0484 50.3607 13.7699 50.1816 14.1678 49.6444C15.5009 47.8338 16.7743 45.9834 18.0875 44.1528C18.2268 43.9738 18.3263 43.5957 18.6844 43.8544C19.0028 44.113 19.4206 44.2722 19.6594 44.6702Z" fill="#111111"/>
<path d="M22.344 46.3214C22.145 46.6398 22.0654 46.8188 21.946 46.9581C20.6527 48.7887 19.3196 50.5993 18.0661 52.4696C17.6682 53.0665 17.4095 52.7482 17.0712 52.4696C16.7927 52.2309 16.2555 52.1513 16.7131 51.5544C18.0462 49.7437 19.3196 47.8933 20.6328 46.0827C20.7721 45.9036 20.8318 45.5255 21.1899 45.6847C21.5879 45.8439 21.946 46.0827 22.344 46.3214Z" fill="#070707"/>
<path d="M17.1717 42.6413C16.9728 42.9596 16.8733 43.1188 16.7539 43.278C15.4805 45.0886 14.1673 46.8793 12.9138 48.7099C12.4959 49.3267 12.2174 49.0282 11.8194 48.7696C11.4016 48.491 11.1827 48.3119 11.5807 47.7946C12.8939 46.0039 14.1474 44.1733 15.4407 42.3826C15.5601 42.2035 15.6198 41.8056 15.9978 42.0046C16.4156 42.1836 16.7738 42.4224 17.1717 42.6413Z" fill="#050505"/>
<path d="M33.5066 30.464C33.3474 30.7227 33.2678 30.8619 33.1683 30.9813C31.8551 32.8517 30.5021 34.7021 29.2287 36.5923C28.8109 37.2091 28.5522 36.7913 28.2139 36.5923C27.816 36.3535 27.5374 36.1546 27.9354 35.6173C29.2486 33.8266 30.5021 31.9961 31.8153 30.2053C31.9347 30.0263 31.9745 29.6084 32.3724 29.8074C32.7505 29.9865 33.1086 30.2252 33.5066 30.464Z" fill="#050505"/>
<path d="M23.8966 41.2683C23.4589 41.0097 22.862 40.8107 22.7625 40.3928C22.663 39.9551 23.1803 39.5572 23.5186 39.2189C23.6181 39.0995 24.792 39.9153 24.7323 40.0745C24.5731 40.5321 24.2349 40.9102 23.8966 41.2683Z" fill="#121212"/>
<path d="M20.0371 38.5422C20.6141 38.3631 20.2958 36.851 21.5294 37.6468C22.2855 38.1244 22.0865 38.4825 21.6488 38.9799C20.8131 39.9748 20.634 38.5422 20.0371 38.5422Z" fill="#060606"/>
<path d="M16.1167 35.8161C15.6989 35.4977 15.1218 35.2789 15.0025 34.9008C14.8632 34.4631 15.3606 33.8861 15.7387 33.7667C16.1764 33.6473 16.7534 34.1248 16.8728 34.5228C17.0121 34.9605 16.4351 35.3187 16.1167 35.8161Z" fill="#060606"/>
<path d="M18.7043 37.6065C18.2467 37.3081 17.6299 37.129 17.5702 36.6912C17.5105 36.2734 17.9283 35.6367 18.366 35.577C18.7839 35.5173 19.4007 35.9351 19.4803 36.3729C19.54 36.8106 19.0227 37.1887 18.7043 37.6065Z" fill="#070707"/>
<path d="M27.4575 41.8252C27.0993 42.3028 26.8605 42.8798 26.5024 42.9793C26.0647 43.1185 25.4677 42.6211 25.3683 42.2431C25.2489 41.8053 25.7264 41.2283 26.1243 41.1089C26.5621 40.9896 26.8804 41.6064 27.4575 41.8252Z" fill="#060606"/>
<path d="M42.4799 17.8892C41.1468 19.7595 39.8933 21.5105 38.6596 23.2813C38.3612 23.719 38.202 23.719 37.9035 23.2813C36.9684 21.8487 36.0133 20.4161 35.0185 19.0233C34.72 18.6055 34.7996 18.4264 35.1975 18.1876C35.6154 17.9489 35.9735 17.6106 36.1327 17.1729C36.4113 16.3969 36.849 16.3571 37.5653 16.576C39.1173 17.0336 40.7289 17.4117 42.4799 17.8892Z" fill="#D68954"/>
<path d="M44.5897 14.7251C44.5698 14.8047 44.5698 14.8445 44.5698 14.8644C43.5949 16.5158 43.5949 16.5158 41.7643 16.0383C41.5455 15.9786 41.3266 15.899 41.0878 15.8791C39.9139 15.7398 39.1379 15.1628 38.8594 13.8496C40.7894 14.1481 42.6995 14.4465 44.5897 14.7251Z" fill="#D68954"/>
<path d="M33.3086 21.7092C34.5024 21.6495 35.3978 21.9082 35.8753 23.0025C35.9748 23.2413 36.1539 23.4402 36.2932 23.6591C37.3079 25.1912 37.3079 25.1912 36.0942 26.8824C35.159 25.1315 34.2438 23.4402 33.3086 21.7092Z" fill="#D68954"/>
<path d="M32.5117 15.2627C33.228 15.4418 33.7453 15.5413 34.2229 15.7004C34.4815 15.78 34.9392 15.6805 34.9193 16.0586C34.8994 16.4963 34.5014 16.7749 34.1234 17.0136C33.7055 17.2723 33.626 16.8744 33.4668 16.6754C33.1882 16.2774 32.9097 15.8596 32.5117 15.2627Z" fill="#E8EAEB"/>
</svg>
